,Date,Close,Adj Close,RoR
0,1981-04-01,0.5066964030265808,0.401475727558136,0.00442486189921461
1,1981-07-01,0.4464285671710968,0.353723019361496,-0.11894295201127718
2,1981-10-01,0.3571428656578064,0.2829784154891968,-0.20000000000000012
3,1982-01-01,0.3638392984867096,0.2882843315601349,0.018750250126906495
4,1982-04-01,0.2633928656578064,0.20869657397270205,-0.27607382321723983
5,1982-07-01,0.2410714328289032,0.1910104602575302,-0.08474558723462908
6,1982-10-01,0.453125,0.3590288758277893,0.8796293948704587
7,1983-01-01,0.7299107313156128,0.5783371925354004,0.6108375439216868
8,1983-04-01,0.9017857313156128,0.7145205736160278,0.23547401557144634
9,1983-07-01,0.6227678656578064,0.4934438169002533,-0.3094057258518881
10,1983-10-01,0.4040178656578064,0.3201193809509277,-0.35125465151863905
11,1984-01-01,0.4419642984867096,0.3501858413219452,0.09392264936194698
12,1984-04-01,0.5602678656578064,0.4439224600791931,0.267676781001179
13,1984-07-01,0.4553571343421936,0.36079761385917664,-0.18725082350009392
14,1984-10-01,0.4441964328289032,0.35195446014404297,-0.02451001163933764
15,1985-01-01,0.5178571343421936,0.4103188216686249,0.16582929933803187
16,1985-04-01,0.3794642984867096,0.3006646335124969,-0.2672414287753174
17,1985-07-01,0.2834821343421936,0.22461414337158206,-0.25294125635083664
18,1985-10-01,0.3325892984867096,0.26352381706237793,0.1732289565863495
19,1986-01-01,0.4129464328289032,0.3271938264369965,0.24161007564469003
20,1986-04-01,0.5401785969734192,0.4280048310756683,0.30810790575256664
21,1986-07-01,0.5580357313156128,0.4421537220478058,0.03305778333524483
22,1986-10-01,0.6183035969734192,0.4899065494537354,0.10800050983347048
23,1987-01-01,0.9910714030265808,0.7852651476860046,0.602887629409334
24,1987-04-01,1.4151785373687744,1.121302604675293,0.42792865311737477
25,1987-07-01,1.4732142686843872,1.1690598726272583,0.0425908829185275
26,1987-10-01,1.3794642686843872,1.0960773229599001,-0.06242841053413511
27,1988-01-01,1.4821428060531616,1.1802338361740112,0.07677972297323951
28,1988-04-01,1.4642857313156128,1.1683173179626465,-0.01009674341314834
29,1988-07-01,1.5848214626312256,1.2669949531555176,0.0844613305612457
30,1988-10-01,1.3794642686843872,1.1049034595489502,-0.12793381157744155
31,1989-01-01,1.3482142686843872,1.0827209949493408,-0.020076382608725674
32,1989-04-01,1.3928571939468384,1.1216545104980469,0.03595895501271563
33,1989-07-01,1.4196428060531616,1.145728588104248,0.021463006104715424
34,1989-10-01,1.6607142686843872,1.343464970588684,0.1725857105578693
35,1990-01-01,1.2142857313156128,0.9847397208213806,-0.26701496326332647
36,1990-04-01,1.40625,1.1440911293029783,0.16182083967190963
37,1990-07-01,1.5,1.223751664161682,0.06962778822281027
38,1990-10-01,1.0982142686843872,0.8986704349517822,-0.265643135556096
39,1991-01-01,1.9821428060531616,1.6274211406707764,0.8109209754497987
40,1991-04-01,1.9642857313156128,1.6161576509475708,-0.0069210663679612015
41,1991-07-01,1.6517857313156128,1.3625235557556152,-0.15693648143994315
42,1991-10-01,1.8392857313156128,1.5206190347671509,0.116031373067793
43,1992-01-01,2.3125,1.916450262069702,0.2603092676418876
44,1992-04-01,2.1473214626312256,1.7828940153121948,-0.06968938844949248
45,1992-07-01,1.6696428060531616,1.3890758752822876,-0.2208870166412822
46,1992-10-01,1.875,1.5641236305236816,0.12601741802320257
47,1993-01-01,2.125,1.776450514793396,0.13574814683838357
48,1993-04-01,1.8303571939468384,1.5334773063659668,-0.136774543621716
49,1993-07-01,0.9910714030265808,0.8320600390434265,-0.4574030958337155
50,1993-10-01,1.0982142686843872,0.926076114177704,0.1129919365462648
51,1994-01-01,1.1696428060531616,0.989858090877533,0.06887336334817715
52,1994-04-01,1.0714285373687744,0.9100029468536376,-0.08067332556033549
53,1994-07-01,1.203125,1.0258980989456177,0.1273568975712563
54,1994-10-01,1.5424107313156128,1.3197669982910156,0.2864503790848488
55,1995-01-01,1.4419642686843872,1.2375363111495972,-0.06230697331263784
56,1995-04-01,1.3660714626312256,1.1756309270858765,-0.05002308498424123
57,1995-07-01,1.6071428060531616,1.3869355916976929,0.17973724554490322
58,1995-10-01,1.296875,1.122239351272583,-0.19084969915661743
59,1996-01-01,0.9866071343421936,0.8564152121543884,-0.23686937979563685
60,1996-04-01,0.8705357313156128,0.7556606531143188,-0.1176468582180045
61,1996-07-01,0.7857142686843872,0.6820321679115295,-0.09743591240240286
62,1996-10-01,0.8214285969734192,0.7130334973335266,0.045454350807128556
63,1997-01-01,0.59375,0.5153992176055908,-0.2771739062288274
64,1997-04-01,0.6071428656578064,0.5270248055458069,0.022556471843759265
65,1997-07-01,0.625,0.5425255298614502,0.029411754726782115
66,1997-10-01,0.6082589030265808,0.5279937386512756,-0.026785451394122743
67,1998-01-01,0.6540178656578064,0.5677141547203064,0.07522895284798999
68,1998-04-01,0.9776785969734192,0.8486648201942444,0.49488050128387745
69,1998-07-01,1.2366071939468384,1.0734251737594604,0.2648399559130687
70,1998-10-01,1.3258928060531616,1.1509292125701904,0.07220255375536548
71,1999-01-01,1.4709821939468384,1.2768727540969849,0.1094277042856045
72,1999-04-01,1.6428571939468384,1.4260669946670532,0.11684346783292418
73,1999-07-01,1.9888392686843872,1.7263933420181274,0.21059764265927214
74,1999-10-01,2.861607074737549,2.4839913845062256,0.43883281060530366
75,2000-01-01,3.705357074737549,3.2164013385772705,0.29485205087240485
76,2000-04-01,4.4308037757873535,3.8461198806762695,0.1957835717036314
77,2000-07-01,3.6294643878936768,3.1505227088928223,-0.18085686181501429
78,2000-10-01,1.3973214626312256,1.212931752204895,-0.6150061865032068
79,2001-01-01,1.5446428060531616,1.340812921524048,0.10543146313606495
80,2001-04-01,1.820714235305786,1.5804541110992432,0.17872828172240807
81,2001-07-01,1.3421428203582764,1.1650347709655762,-0.2628480872783665
82,2001-10-01,1.25428569316864,1.0887713432312012,-0.06546021598236779
83,2002-01-01,1.7657142877578735,1.5327121019363403,0.4077447128500223
84,2002-04-01,1.7335714101791382,1.5048109292984009,-0.018203792220790008
85,2002-07-01,1.0900000333786009,0.9461644887924194,-0.37124028648997337
86,2002-10-01,1.1478571891784668,0.9963871240615844,0.05308023696097873
87,2003-01-01,1.0257142782211304,0.8903619050979614,-0.10640966387786216
88,2003-04-01,1.0157142877578735,0.8816815018653871,-0.009749297653990819
89,2003-07-01,1.5057142972946167,1.3070216178894043,0.4824192354315233
90,2003-10-01,1.6349999904632568,1.4192466735839844,0.08586319779148151
91,2004-01-01,1.6114286184310913,1.3987858295440674,-0.014416693321005142
92,2004-04-01,1.841428518295288,1.5984354019165041,0.14273062262684796
93,2004-07-01,2.309999942779541,2.0051734447479252,0.2544601066416242
94,2004-10-01,3.742857217788696,3.2489528656005864,0.6202852048088137
95,2005-01-01,5.492856979370117,4.768024921417236,0.4675574311650844
96,2005-04-01,5.151428699493408,4.471652030944824,-0.06215841891705527
97,2005-07-01,6.092857360839844,5.288849353790283,0.18275065170327928
98,2005-10-01,8.227143287658691,7.141496181488037,0.35029298506489775
99,2006-01-01,10.787142753601074,9.36368179321289,0.3111652733897882
100,2006-04-01,10.05571460723877,8.728772163391112,-0.06780555382413601
101,2006-07-01,9.708571434020996,8.427436828613281,-0.034522075858692367
102,2006-10-01,11.582857131958008,10.054391860961914,0.19305455091929122
103,2007-01-01,12.247142791748047,10.631019592285156,0.05735083128817655
104,2007-04-01,14.257143020629885,12.375781059265135,0.1641198618659435
105,2007-07-01,18.82285690307617,16.339012145996097,0.3202408856258723
106,2007-10-01,27.13571357727051,23.55490684509277,0.44163592233236326
107,2008-01-01,19.337142944335934,16.785425186157227,-0.28739156997964693
108,2008-04-01,24.85000038146973,21.57081413269043,0.28509191119446087
109,2008-07-01,22.707143783569336,19.71072769165039,-0.08623162897783677
110,2008-10-01,15.369999885559082,13.34178638458252,-0.32312055682073076
111,2009-01-01,12.875714302062988,11.176645278930664,-0.16228269912594656
112,2009-04-01,17.9757137298584,15.603650093078613,0.3960942396994017
113,2009-07-01,23.34142875671387,20.261314392089844,0.2984983815471005
114,2009-10-01,26.928571701049805,23.375104904174805,0.15368156536283778
115,2010-01-01,27.437143325805664,23.81657218933105,0.018886216210195497
116,2010-04-01,37.2985725402832,32.37667465209961,0.3594179042525343
117,2010-07-01,36.75,31.900508880615234,-0.014707062309547467
118,2010-10-01,42.99714279174805,37.323280334472656,0.16999012379870343
119,2011-01-01,48.47428512573242,42.07766723632813,0.12738395069375005
120,2011-04-01,50.01856994628906,43.41816329956055,0.03185766111280726
121,2011-07-01,55.78285598754883,48.42179870605469,0.11524290818042929
122,2011-10-01,57.82571411132813,50.19508361816406,0.036621624134083285
123,2012-01-01,65.21142578125,56.60617446899414,0.12772348183737461
124,2012-04-01,83.42571258544922,72.41693115234375,0.2793115209014858
125,2012-07-01,87.25142669677734,75.73780822753906,0.04585774379487543
126,2012-10-01,85.04571533203125,74.14010620117188,-0.021095171140511647
127,2013-01-01,65.06999969482422,56.98501205444336,-0.23138750435803068
128,2013-04-01,63.2542839050293,55.717735290527344,-0.022238773288408925
129,2013-07-01,64.64714050292969,57.321556091308594,0.028784744972466927
130,2013-10-01,74.67142486572266,66.64710235595703,0.16268829565257437
131,2014-01-01,71.5142822265625,64.20189666748047,-0.036688852208711306
132,2014-04-01,84.29856872558594,76.1319580078125,0.18582101089818492
133,2014-07-01,95.5999984741211,86.8207778930664,0.14039859429540802
134,2014-10-01,108.0,98.56988525390624,0.13532598585226596
135,2015-01-01,117.16000366210938,107.39376831054688,0.08951905578373347
136,2015-04-01,125.1500015258789,115.17047882080078,0.07241305182407101
137,2015-07-01,121.3000030517578,112.09375,-0.026714561338136048
138,2015-10-01,119.5,110.93023681640624,-0.01037982210064133
139,2016-01-01,97.33999633789062,90.74617767333984,-0.18195272742878732
140,2016-04-01,93.73999786376952,87.8642349243164,-0.03175828252951439
141,2016-07-01,104.20999908447266,98.2726821899414,0.11846056901981246
142,2016-10-01,113.54000091552734,107.651123046875,0.09543283695876893
143,2017-01-01,121.3499984741211,115.6467742919922,0.07427373741039023
144,2017-04-01,143.64999389648438,137.49226379394528,0.18889839025510755
145,2017-07-01,148.72999572753906,142.94207763671875,0.039637239888208595
146,2017-10-01,169.0399932861328,163.09967041015625,0.1410193073075877
147,2018-01-01,167.42999267578125,162.12701416015625,-0.005963569684438998
148,2018-04-01,165.25999450683594,160.6781768798828,-0.0089364334980117
149,2018-07-01,190.2899932861328,185.72764587402344,0.1558983894425607
150,2018-10-01,218.8600006103516,214.3618469238281,0.15417306839298903
151,2019-01-01,166.44000244140625,163.58799743652344,-0.23686047781323125
152,2019-04-01,200.6699981689453,198.07736206054688,0.21083065484316013
153,2019-07-01,213.0399932861328,211.0973663330078,0.065731914727747
154,2019-10-01,248.75999450683597,247.42816162109372,0.1721044460155594
155,2020-01-01,309.510009765625,308.7771911621094,0.2479468349078399
