,Date,Close,Adj Close,RoR
0,1984-10-01,1.7222222089767456,0.023443518206477162,-0.02388522460079125
1,1985-01-01,2.1111111640930176,0.02897612564265728,0.23599731863844248
2,1985-04-01,1.8703703880310056,0.028444958850741383,-0.01833118749091626
3,1985-07-01,1.8148148059844968,0.03093060664832592,0.08738447507087013
4,1985-10-01,1.796296238899231,0.034747067838907235,0.12338785443084337
5,1986-01-01,2.0648148059844966,0.04632825776934624,0.3332997760884799
6,1986-04-01,2.1018519401550293,0.053316041827201836,0.15083200608677255
7,1986-07-01,1.8981481790542605,0.05459042638540268,0.023902460020028198
8,1986-10-01,1.9259259700775144,0.0635245144367218,0.16365668200217742
9,1987-01-01,2.0833332538604736,0.07880910485982895,0.24060932316660952
10,1987-04-01,2.370370388031006,0.10043696314096452,0.2744334974950319
11,1987-07-01,2.685185194015503,0.12702929973602295,0.26476643422338203
12,1987-10-01,1.9814814329147337,0.10359560698270798,-0.18447470624503215
13,1988-01-01,2.2037036418914795,0.1242830902338028,0.19969459954559599
14,1988-04-01,2.370370388031006,0.14228343963623047,0.1448334553684271
15,1988-07-01,2.1481480598449707,0.13795597851276398,-0.030414369616944267
16,1988-10-01,2.018518447875977,0.13973698019981384,0.012909927545366101
17,1989-01-01,1.962962985038757,0.14658799767494202,0.04902794854541519
18,1989-04-01,1.9814814329147337,0.1599685400724411,0.09127993157509631
19,1989-07-01,2.0555555820465092,0.17796093225479126,0.11247456640038334
20,1989-10-01,1.8888888359069824,0.17646896839141846,-0.008383659517116485
21,1990-01-01,1.8703703880310056,0.19010891020298004,0.07729371308675301
22,1990-04-01,1.9074074029922483,0.2116495221853256,0.11330669330199493
23,1990-07-01,1.6851851940155032,0.2026434987783432,-0.04255158865464622
24,1990-10-01,1.3333333730697632,0.1800493150949478,-0.11149720479367328
25,1991-01-01,1.537037014961243,0.23382677137851715,0.2986818153415923
26,1991-04-01,1.7777777910232544,0.2966353595256805,0.26861162123086935
27,1991-07-01,1.8148148059844968,0.3294509351253509,0.11062597409878064
28,1991-10-01,1.8703703880310056,0.37505170702934265,0.13841445581765122
29,1992-01-01,2.2037036418914795,0.4856244623661041,0.2948200295169185
30,1992-04-01,2.5555555820465092,0.6049402356147766,0.24569555797772463
31,1992-07-01,2.2962963581085205,0.5811625123023987,-0.03930590480266795
32,1992-10-01,2.222222328186035,0.6086171269416809,0.04724085614282818
33,1993-01-01,2.407407522201538,0.7094632983207703,0.1656972288733384
34,1993-04-01,2.2592592239379883,0.7190698981285095,0.013540657889530202
35,1993-07-01,2.018518447875977,0.6966785192489624,-0.031139363416302284
36,1993-10-01,2.037037134170532,0.7677701115608215,0.1020436117199332
37,1994-01-01,1.8148148059844968,0.7084317207336426,-0.07728666424191516
38,1994-04-01,2.0740740299224854,0.8361977934837341,0.1803505814473958
39,1994-07-01,2.3888888359069824,0.99104243516922,0.1851770512815852
40,1994-10-01,2.685185194015503,1.1477711200714111,0.1581452815140351
41,1995-01-01,2.3888888359069824,1.0447926521301272,-0.08972038600768847
42,1995-04-01,2.3888888359069824,1.0729925632476809,0.026990916389064975
43,1995-07-01,2.685185194015503,1.2397931814193726,0.15545365726191782
44,1995-10-01,2.6111111640930176,1.234363675117493,-0.004379364545031382
45,1996-01-01,2.5,1.2139407396316528,-0.016545314721689384
46,1996-04-01,2.8518519401550293,1.4223680496215818,0.17169479792989917
47,1996-07-01,2.7592592239379883,1.402146816253662,-0.014216597014604988
48,1996-10-01,2.944444417953491,1.5317432880401611,0.09242717687207853
49,1997-01-01,3.0740740299224854,1.6302496194839478,0.0643099481570595
50,1997-04-01,3.314814805984497,1.7910804748535156,0.09865412845210696
51,1997-07-01,4.0,2.1987988948822017,0.2276382472775443
52,1997-10-01,3.490740776062012,1.9528772830963133,-0.1118436126006255
53,1998-01-01,3.8611111640930176,2.196481227874756,0.12474104076432559
54,1998-04-01,4.509259223937988,2.6026737689971924,0.18492875603378375
55,1998-07-01,3.712962865829468,2.1728944778442383,-0.16512991227423313
56,1998-10-01,3.1388888359069824,1.8746622800827024,-0.13725111863573633
57,1999-01-01,2.6944444179534908,1.6415549516677856,-0.12434630540741079
58,1999-04-01,3.3796296119689937,2.1058895587921143,0.2828626642395214
59,1999-07-01,3.462962865829468,2.1965999603271484,0.04307462428707012
60,1999-10-01,2.925925970077514,1.8919024467468264,-0.13871324732926893
61,2000-01-01,3.2592592239379883,2.1509933471679688,0.13694728333728604
62,2000-04-01,3.0462963581085205,2.0626571178436284,-0.04106764413783298
63,2000-07-01,3.0833332538604736,2.131021499633789,0.033143842085412205
64,2000-10-01,3.222222328186035,2.269395351409912,0.06493310921541724
65,2001-01-01,3.946666717529297,2.82985782623291,0.2469655516280133
66,2001-04-01,4.090370178222656,2.977475881576538,0.05216447765509697
67,2001-07-01,4.632592678070068,3.4185070991516118,0.14812251555218406
68,2001-10-01,4.0,2.9985663890838623,-0.1228433049537818
69,2002-01-01,4.472592830657959,3.3988025188446045,0.13347582738797537
70,2002-04-01,5.7377777099609375,4.408838748931885,0.29717414427203437
71,2002-07-01,4.869629859924316,3.7832317352294917,-0.14189836583475793
72,2002-10-01,5.228147983551025,4.111277580261231,0.08671048140587673
73,2003-01-01,5.1111111640930185,4.06269121170044,-0.011817827332812645
74,2003-04-01,5.585185050964356,4.500894546508789,0.10786035954352992
75,2003-07-01,5.860740661621094,4.773550987243652,0.06057827792174221
76,2003-10-01,6.970370292663574,5.733816146850586,0.20116369599341197
77,2004-01-01,7.629629611968994,6.329357624053955,0.10386476684127417
78,2004-04-01,7.851851940155028,6.568424701690674,0.03777114390379418
79,2004-07-01,9.137777328491213,7.699942111968994,0.17226617669638117
80,2004-10-01,9.754074096679688,8.274788856506348,0.07465598262664813
81,2005-01-01,11.31851863861084,9.661418914794922,0.16757286286504905
82,2005-04-01,11.22074031829834,9.62554168701172,-0.003713453282546428
83,2005-07-01,12.207406997680664,10.52579116821289,0.09352715000091132
84,2005-10-01,12.068148612976074,10.458650588989258,-0.0063786729330515685
85,2006-01-01,12.189629554748535,10.614337921142578,0.014885986564770227
86,2006-04-01,14.598518371582033,12.771374702453613,0.2032191548202416
87,2006-07-01,12.568888664245605,11.046567916870117,-0.1350525550904187
88,2006-10-01,13.831110954284668,12.213278770446776,0.10561749697794179
89,2007-01-01,15.404444694519045,13.659541130065918,0.11841720694354023
90,2007-04-01,16.124444961547848,14.354840278625488,0.0509020868226058
91,2007-07-01,17.342222213745114,15.493910789489744,0.07935097073565801
92,2007-10-01,20.88888931274414,18.725963592529297,0.20860148525135483
93,2008-01-01,19.57333374023437,17.59903335571289,-0.060180093336611735
94,2008-04-01,21.56444358825684,19.45120429992676,0.10524276571205148
95,2008-07-01,21.27111053466797,19.237302780151367,-0.010996826544883886
96,2008-10-01,14.777777671813965,13.405713081359865,-0.30313967427951544
97,2009-01-01,14.204444885253904,12.939828872680664,-0.03475266148482584
98,2009-04-01,14.315555572509766,13.100616455078125,0.012425788932721145
99,2009-07-01,14.382222175598145,13.2120943069458,0.008509359254194805
100,2009-10-01,15.506667137145994,14.300403594970705,0.08237220101076353
101,2010-01-01,16.195554733276367,14.99031925201416,0.04824448851821854
102,2010-04-01,19.22222137451172,17.851791381835938,0.19088800456583327
103,2010-07-01,19.675556182861328,18.332592010498047,0.0269329065289952
104,2010-10-01,24.0222225189209,22.44891357421875,0.2245357100274482
105,2011-01-01,27.18666648864746,25.49230766296387,0.135569771725625
106,2011-04-01,30.69333267211914,28.84381484985352,0.13147131406070534
107,2011-07-01,28.33333396911621,26.68437385559082,-0.07486669171549148
108,2011-10-01,26.34666633605957,24.87347412109375,-0.06786367723287075
109,2012-01-01,31.33333396911621,29.64330863952637,0.19176390460018614
110,2012-04-01,33.553333282470696,31.802061080932614,0.07282427436348193
111,2012-07-01,31.0,29.458505630493164,-0.07369193601871805
112,2012-10-01,35.54999923706055,33.83989715576172,0.1487309499071561
113,2013-01-01,40.9900016784668,39.08110046386719,0.1548823651555655
114,2013-04-01,40.709999084472656,38.869083404541016,-0.005425053460871561
115,2013-07-01,46.27999877929688,44.249610900878906,0.13842691993373046
116,2013-10-01,47.83000183105469,45.79338455200195,0.03488784691420606
117,2014-01-01,49.41999816894531,47.37401962280274,0.03451666842851186
118,2014-04-01,52.72000122070313,50.59442520141602,0.06797830549855198
119,2014-07-01,48.68999862670898,46.80520248413086,-0.07489407582357734
120,2014-10-01,52.1500015258789,50.217063903808594,0.07289491848335693
121,2015-01-01,47.9000015258789,46.20600128173828,-0.07987449504721249
122,2015-04-01,52.41999816894531,50.6535530090332,0.09625485010434566
123,2015-07-01,53.04999923706055,51.34661865234375,0.013682468497065751
124,2015-10-01,54.81999969482422,53.1496696472168,0.03511528202238777
125,2016-01-01,47.04999923706055,45.6889762878418,-0.14037139664076317
126,2016-04-01,48.09000015258789,46.78567123413086,0.024003491331910227
127,2016-07-01,47.02999877929688,45.84172439575195,-0.020175981523383225
128,2016-10-01,44.099998474121094,43.066650390625,-0.06053598641206684
129,2017-01-01,51.099998474121094,49.99635314941406,0.1609064716186416
130,2017-04-01,57.20000076293945,56.05892181396485,0.12126021764893144
131,2017-07-01,61.58000183105469,60.43920135498047,0.078137063633722
132,2017-10-01,67.48999786376953,66.3314208984375,0.09749002983758794
133,2018-01-01,76.30000305175781,75.08430480957031,0.13195682819058976
134,2018-04-01,69.80000305175781,68.81105804443361,-0.08354937534611243
135,2018-07-01,77.80000305175781,76.84052276611328,0.11668858101985263
136,2018-10-01,67.08000183105469,66.36925506591797,-0.1362727285454277
137,2019-01-01,72.9000015258789,72.26795959472656,0.08887706398015163
138,2019-04-01,88.16999816894531,87.55671691894531,0.21155651010429774
139,2019-07-01,89.61000061035156,89.13262176513672,0.01799867447805613
140,2019-10-01,91.6500015258789,91.30406188964844,0.0243619011929598
141,2020-01-01,97.1500015258789,96.9236297607422,0.06154784086041719
