,Date,Close,Adj Close,RoR
0,1980-10-01,2.722222328186035,0.3926265239715576,-0.06369407014867626
1,1981-01-01,2.6111111640930176,0.3766008317470551,-0.04081663169975605
2,1981-04-01,3.092592477798462,0.4460448622703552,0.18439691224564891
3,1981-07-01,3.1296296119689937,0.4513867199420929,0.011976054705680887
4,1981-10-01,3.1481480598449707,0.454057902097702,0.005917724287395538
5,1982-01-01,3.3518519401550293,0.4834382236003876,0.06470611207722937
6,1982-04-01,3.0740740299224854,0.4433743059635161,-0.08287287947257659
7,1982-07-01,3.092592477798462,0.4460448622703552,0.00602325455246126
8,1982-10-01,3.8703703880310063,0.5582242012023926,0.2514978837802274
9,1983-01-01,4.296296119689941,0.6196555495262146,0.11004780550807607
10,1983-04-01,5.148148059844972,0.7556594014167786,0.21948298856445617
11,1983-07-01,4.44444465637207,0.6621407270431519,-0.12375770644590597
12,1983-10-01,5.296296119689941,0.8018798232078552,0.21104138509757692
13,1984-01-01,5.129629611968994,0.7874696850776672,-0.017970446085725664
14,1984-04-01,5.0,0.7789406776428223,-0.010830902568654138
15,1984-07-01,4.148148059844972,0.6564996242523193,-0.15718918899065046
16,1984-10-01,5.629629611968994,0.9079790115356444,0.3830609767213993
17,1985-01-01,5.9814815521240225,0.964728057384491,0.06250039387239598
18,1985-04-01,6.5740742683410645,1.1258994340896606,0.16706405030048282
19,1985-07-01,7.0,1.269655466079712,0.12768105892715398
20,1985-10-01,6.611111164093018,1.2634985446929932,-0.004849285141684417
21,1986-01-01,7.888888835906982,1.5963549613952637,0.2634402849930852
22,1986-04-01,8.851851463317871,1.8757270574569704,0.17500625037524667
23,1986-07-01,8.092592239379883,1.7880797386169434,-0.04672711762171598
24,1986-10-01,8.296296119689941,1.9196127653121948,0.07356105203506784
25,1987-01-01,8.685185432434082,2.1042311191558842,0.09617478961370844
26,1987-04-01,7.44444465637207,1.882835030555725,-0.1052147202770067
27,1987-07-01,8.148148536682129,2.177988290786743,0.1567600216912804
28,1987-10-01,6.851851940155028,1.877210021018982,-0.13809912157935095
29,1988-01-01,6.777777671813965,1.913447856903076,0.019304092498091126
30,1988-04-01,7.44444465637207,2.1674935817718506,0.13276856432343487
31,1988-07-01,8.111110687255861,2.4331684112548833,0.1225723719402448
32,1988-10-01,8.518518447875978,2.624797344207764,0.07875695412881432
33,1989-01-01,8.44444465637207,2.6694767475128174,0.0170220392075788
34,1989-04-01,9.481481552124023,3.076488971710205,0.1524689153320424
35,1989-07-01,10.777777671813963,3.5869462490081787,0.16592202409690843
36,1989-10-01,10.592592239379883,3.603753089904785,0.004685556941717117
37,1990-01-01,11.0,3.826820373535156,0.06189860350179105
38,1990-04-01,10.333333015441896,3.672951221466065,-0.04020809367829017
39,1990-07-01,10.851851463317873,3.952628374099731,0.07614507674350014
40,1990-10-01,9.333333015441896,3.480942487716675,-0.11933474178191356
41,1991-01-01,9.70370388031006,3.722345590591431,0.06934992569587231
42,1991-04-01,10.925926208496094,4.303756713867188,0.15619482638724547
43,1991-07-01,11.29629611968994,4.5611348152160645,0.05980312514403402
44,1991-10-01,11.148148536682127,4.6081647872924805,0.010311024335330498
45,1992-01-01,12.407407760620115,5.254567623138428,0.140273376861104
46,1992-04-01,13.11111068725586,5.6729021072387695,0.07961349326978127
47,1992-07-01,13.777777671813965,6.094686985015869,0.074350811948419
48,1992-10-01,14.518518447875975,6.559521198272705,0.07626875906829292
49,1993-01-01,15.074073791503904,6.940235614776611,0.058039970448477
50,1993-04-01,15.185185432434082,7.12388277053833,0.026461227824990764
51,1993-07-01,16.037036895751953,7.671651840209961,0.07689192639960267
52,1993-10-01,15.407407760620115,7.508543014526367,-0.021261239310767486
53,1994-01-01,14.518518447875975,7.214677333831787,-0.039137510449904094
54,1994-04-01,13.666666984558105,6.933735370635986,-0.038940336510737576
55,1994-07-01,14.777777671813965,7.862004280090332,0.13387717584168513
56,1994-10-01,13.833333015441895,7.521288871765138,-0.0433369655099297
57,1995-01-01,14.61111068725586,8.125688552856445,0.08035852516717176
58,1995-04-01,16.38888931274414,9.316064834594727,0.14649543530927298
59,1995-07-01,16.88888931274414,9.800877571105957,0.052040506922075444
60,1995-10-01,18.27777862548828,10.819768905639648,0.10395919417843692
61,1996-01-01,24.16666603088379,14.698439598083494,0.3584799940063549
62,1996-04-01,23.83333396911621,14.699224472045898,5.339845479287873e-05
63,1996-07-01,21.61111068725586,13.531158447265625,-0.07946446610170702
64,1996-10-01,25.66666603088379,16.345539093017578,0.20799258664513554
65,1997-01-01,28.72222137451172,18.563589096069336,0.13569757414726416
66,1997-04-01,29.55555534362793,19.346567153930664,0.042178161443312503
67,1997-07-01,37.33333206176758,24.76699447631836,0.28017514834854934
68,1997-10-01,35.95833206176758,24.02207374572754,-0.030077154953262363
69,1998-01-01,37.20833206176758,25.03920555114746,0.04234154870167379
70,1998-04-01,43.0,29.13982582092285,0.1637679862246058
71,1998-07-01,45.33333206176758,30.922426223754886,0.0611740239556305
72,1998-10-01,41.33333206176758,28.36924171447754,-0.08256740563636523
73,1999-01-01,33.83333206176758,23.38294982910156,-0.17576401708443795
74,1999-04-01,45.66666793823242,31.82697105407715,0.36111873338010037
75,1999-07-01,37.4375,26.26845359802246,-0.17464801933587148
76,1999-10-01,35.5,25.048097610473636,-0.04645709283932478
77,2000-01-01,25.875,18.36382484436035,-0.2668575023165958
78,2000-04-01,27.0625,19.35542106628418,0.05399725984798606
79,2000-07-01,36.0,25.96576690673828,0.34152425916317947
80,2000-10-01,41.4375,30.070497512817386,0.1580823944396536
81,2001-01-01,35.150001525878906,25.642274856567386,-0.14726136986468197
82,2001-04-01,33.240001678466804,24.400650024414066,-0.04842100941115686
83,2001-07-01,35.45000076293945,26.20030212402344,0.07375426875139529
84,2001-10-01,38.040000915527344,28.29673194885254,0.08001548283318652
85,2002-01-01,33.299999237060554,24.90774726867676,-0.11976593927176825
86,2002-04-01,35.72999954223633,26.913753509521484,0.08053744159221563
87,2002-07-01,23.75,18.00356674194336,-0.3310644412503035
88,2002-10-01,18.32999992370605,14.028538703918455,-0.22079114072236486
89,2003-01-01,18.93000030517578,14.608272552490234,0.04132531982178926
90,2003-04-01,22.15999984741211,17.245613098144528,0.18053746849107855
91,2003-07-01,24.04999923706055,18.8418083190918,0.09255659464603255
92,2003-10-01,21.899999618530273,17.265090942382812,-0.08368184995870862
93,2004-01-01,24.56999969482422,19.502683639526367,0.1296021378984255
94,2004-04-01,26.059999465942386,20.81280899047852,0.06717667040944572
95,2004-07-01,26.440000534057614,21.23788833618164,0.020423929604965266
96,2004-10-01,20.40999984741211,16.486581802368164,-0.22371840639725832
97,2005-01-01,22.739999771118164,18.497604370117188,0.1219793521699056
98,2005-04-01,20.850000381469727,17.072826385498047,-0.07702500043307577
99,2005-07-01,25.440000534057614,20.980735778808594,0.2288964524719816
100,2005-10-01,33.84999847412109,28.08131217956543,0.3384331453203233
101,2006-01-01,34.220001220703125,28.515155792236328,0.015449549148440553
102,2006-04-01,41.90999984741211,35.06976318359375,0.22986398668535454
103,2006-07-01,34.22999954223633,28.746379852294922,-0.18030869778604658
104,2006-10-01,34.790000915527344,29.345539093017575,0.020842945922278273
105,2007-01-01,35.86000061035156,30.37879943847656,0.0352101333761095
106,2007-04-01,38.75,32.965892791748054,0.0851611453082898
107,2007-07-01,40.040000915527344,34.193252563476555,0.03723120072864313
108,2007-10-01,45.31999969482422,38.84698867797852,0.13610100723418295
109,2008-01-01,43.33000183105469,37.26409912109375,-0.04074677628184027
110,2008-04-01,45.38999938964844,39.17062377929688,0.05116250501609263
111,2008-07-01,45.79999923706055,39.65209197998047,0.012291563274467442
112,2008-10-01,42.29999923706055,36.7443733215332,-0.07333077558468576
113,2009-01-01,37.04999923706055,32.31008529663086,-0.12067937548151707
114,2009-04-01,42.20000076293945,36.94358825683594,0.14340732677323625
115,2009-07-01,39.45000076293945,34.664413452148445,-0.06169337934481123
116,2009-10-01,38.5099983215332,33.96615219116211,-0.02014346101514832
117,2010-01-01,38.900001525878906,34.437911987304695,0.013889115066302261
118,2010-04-01,42.459999084472656,37.73401260375977,0.09571139555935225
119,2010-07-01,37.66999816894531,33.593093872070305,-0.10973968698141769
120,2010-10-01,39.75,35.59364318847656,0.05955239859790162
121,2011-01-01,45.7400016784668,41.10818481445313,0.15493051938448105
122,2011-04-01,52.16999816894531,47.04077529907226,0.14431652750897678
123,2011-07-01,48.11999893188477,43.51277542114258,-0.07499876129803626
124,2011-10-01,46.61999893188477,42.283424377441406,-0.028252646074693688
125,2012-01-01,48.43000030517578,44.054786682128906,0.0418925933925195
126,2012-04-01,51.79999923706055,47.267616271972656,0.07292804781976289
127,2012-07-01,49.20000076293945,45.03157424926758,-0.047306003540333805
128,2012-10-01,53.95000076293945,49.5373420715332,0.10005796815639662
129,2013-01-01,57.7400016784668,53.17289733886719,0.07339019647207047
130,2013-04-01,60.349998474121094,55.72876739501953,0.048067157970797816
131,2013-07-01,67.5,62.51671600341797,0.12180331497884654
132,2013-10-01,79.08999633789062,73.4442367553711,0.17479358242930876
133,2014-01-01,80.45999908447266,74.88084411621094,0.019560518623468196
134,2014-04-01,84.87999725341797,79.16851806640625,0.057259957480461615
135,2014-07-01,84.36000061035156,78.9177017211914,-0.0031681323756049084
136,2014-10-01,86.0,80.68607330322266,0.02240779373275131
137,2015-01-01,90.05000305175781,84.74153900146484,0.05026227615516158
138,2015-04-01,96.2300033569336,90.8064193725586,0.07156915537005898
139,2015-07-01,100.7699966430664,95.3823471069336,0.05039211727533253
140,2015-10-01,93.30999755859376,88.58204650878906,-0.0712951694355003
141,2016-01-01,87.83000183105469,83.64446258544922,-0.05574023312782618
142,2016-04-01,105.12000274658205,100.4613037109375,0.20105145763006835
143,2016-07-01,107.06999969482422,102.64962005615234,0.021782679144911353
144,2016-10-01,110.83000183105469,106.5727310180664,0.03821846549230291
145,2017-01-01,112.6999969482422,108.70175170898438,0.019977161799082106
146,2017-04-01,119.83999633789062,115.9258270263672,0.06645776359449178
147,2017-07-01,138.16999816894528,134.05906677246094,0.15642105138460086
148,2017-10-01,143.42999267578125,139.53216552734378,0.04082602457745254
149,2018-01-01,142.1699981689453,138.65437316894528,-0.006290967785678604
150,2018-04-01,142.47000122070312,139.30076599121094,0.004661899999923172
151,2018-07-01,143.5500030517578,140.74705505371094,0.01038249181337059
152,2018-10-01,156.17999267578125,153.98838806152344,0.09407893474403022
153,2019-01-01,156.22999572753906,154.42694091796875,0.002847960563559482
154,2019-04-01,180.13999938964844,178.523193359375,0.15603658466695994
155,2019-07-01,189.25,188.0146789550781,0.05316668057016166
156,2019-10-01,193.16000366210938,192.33726501464844,0.022990683938051062
157,2020-01-01,220.25,219.8087615966797,0.1428298181319102
