,Date,Close,Adj Close,RoR
0,1973-07-01,5.5,1.6729332208633425,0.15789348184031515
1,1973-10-01,5.734375,1.7442243099212646,0.04261442606844241
2,1974-01-01,4.90625,1.4923336505889893,-0.14441414323805973
3,1974-04-01,5.0,1.5208487510681152,0.019107724648487107
4,1974-07-01,4.578125,1.3925267457962036,-0.08437525768541357
5,1974-10-01,4.0,1.2166792154312134,-0.12627946349744693
6,1975-01-01,3.53125,1.0740996599197388,-0.11718746708510329
7,1975-04-01,4.5,1.3687642812728882,0.2743363882781305
8,1975-07-01,3.21875,0.9790465831756592,-0.28472228814650935
9,1975-10-01,3.328125,1.0123153924942017,0.033980823681168434
10,1976-01-01,3.03125,0.9220150113105774,-0.08920182568906408
11,1976-04-01,3.40625,1.0360782146453855,0.12371078771556611
12,1976-07-01,3.25,0.9885521531105042,-0.04587111365057312
13,1976-10-01,2.59375,0.7889405488967896,-0.20192318997599842
14,1977-01-01,2.828125,0.8602304458618164,0.09036155774312103
15,1977-04-01,2.75,0.8364666104316711,-0.027624964385371896
16,1977-07-01,2.40625,0.7319087386131287,-0.12499945666042046
17,1977-10-01,2.078125,0.6321029663085938,-0.13636368448565567
18,1978-01-01,1.765625,0.5370498299598694,-0.15037603272742633
19,1978-04-01,2.078125,0.6321029663085938,0.1769912791068701
20,1978-07-01,2.109375,0.6416082382202148,0.015037537265693835
21,1978-10-01,1.78125,0.5418022871017456,-0.15555590650663298
22,1979-01-01,2.0625,0.6273501515388489,0.15789498581617864
23,1979-04-01,2.140625,0.6511134505271912,0.037878844740935294
24,1979-07-01,2.171875,0.6606189012527466,0.014598762654740248
25,1979-10-01,2.21875,0.6748767495155334,0.021582561800380498
26,1980-01-01,2.5,0.7604243755340576,0.12676036932659976
27,1980-04-01,2.09375,0.6368556618690491,-0.16249967470890758
28,1980-07-01,2.421875,0.7366613149642944,0.1567162845068142
29,1980-10-01,2.75,0.8364666104316711,0.1354832857922154
30,1981-01-01,2.6875,0.8174562454223633,-0.02272698607718158
31,1981-04-01,2.8125,0.8554771542549133,0.04651124637613528
32,1981-07-01,3.171875,0.964788258075714,0.12777793454461833
33,1981-10-01,2.84375,0.8649825453758241,-0.1034483078172552
34,1982-01-01,2.953125,0.8982514739036559,0.03846196516413736
35,1982-04-01,3.203125,0.9742939472198486,0.08465610747703471
36,1982-07-01,3.203125,0.9742939472198486,0.0
37,1982-10-01,3.984375,1.211927056312561,0.24390288964721515
38,1983-01-01,4.71875,1.4353010654449463,0.1843130805347547
39,1983-04-01,5.078125,1.5446124076843262,0.07615917306205938
40,1983-07-01,5.90625,1.7965029478073118,0.16307685919771836
41,1983-10-01,6.140625,1.8677921295166016,0.039682195788379004
42,1984-01-01,6.21875,1.8915555477142332,0.012722731733419266
43,1984-04-01,6.5625,1.9961146116256716,0.05527676099059751
44,1984-07-01,6.53125,1.9866092205047607,-0.0047619465663695055
45,1984-10-01,7.40625,2.252757787704468,0.13397127349086
46,1985-01-01,9.3125,2.832580089569092,0.25738333034704775
47,1985-04-01,8.5625,2.6044538021087646,-0.08053657098713528
48,1985-07-01,8.8125,2.6804978847503658,0.02919770839476209
49,1985-10-01,8.625,2.623463630676269,-0.021277485201003345
50,1986-01-01,9.03125,2.747034072875977,0.04710202221017803
51,1986-04-01,10.53125,3.257276058197021,0.18574286731975326
52,1986-07-01,9.40625,2.9533159732818604,-0.09331726248692895
53,1986-10-01,9.75,3.1173431873321533,0.05554001520129199
54,1987-01-01,11.78125,3.8440871238708496,0.23312926837569317
55,1987-04-01,11.4375,3.7879421710968018,-0.014605535973781994
56,1987-07-01,13.6875,4.573632717132568,0.2074188333789344
57,1987-10-01,9.625,3.240079402923584,-0.2915742029773334
58,1988-01-01,10.8125,3.681138277053833,0.13612594609017092
59,1988-04-01,11.125,3.8230814933776855,0.03855959913504134
60,1988-07-01,12.25,4.25806188583374,0.11377743142790041
61,1988-10-01,11.375,3.998029947280884,-0.061068144504419636
62,1989-01-01,12.0625,4.286428928375243,0.07213527284619357
63,1989-04-01,11.8125,4.243624210357666,-0.009986102355324067
64,1989-07-01,13.8125,5.016671180725098,0.18216668867158642
65,1989-10-01,14.5,5.320295333862305,0.06052303254472459
66,1990-01-01,14.5,5.367820739746094,0.008932851073379731
67,1990-04-01,12.75,4.768983840942383,-0.1115605248084415
68,1990-07-01,11.9375,4.523564338684082,-0.05146159233154463
69,1990-10-01,8.625,3.325083017349243,-0.2649418095119833
70,1991-01-01,10.75,4.2238121032714835,0.2702877134895439
71,1991-04-01,12.125,4.835858345031738,0.14490375679500622
72,1991-07-01,11.875,4.808272361755371,-0.005704464710945981
73,1991-10-01,11.25,4.634512901306152,-0.03613760772606979
74,1992-01-01,12.0,5.033980846405028,0.08619415968963931
75,1992-04-01,13.4375,5.7221736907958975,0.13670946819003807
76,1992-07-01,14.1875,6.129112720489503,0.07111616173905481
77,1992-10-01,13.3125,5.837996006011963,-0.047497366707638204
78,1993-01-01,13.4375,5.990435600280763,0.026111630448499377
79,1993-04-01,15.125,6.857114315032959,0.14467707735837715
80,1993-07-01,14.125,6.496713638305664,-0.052558650792386946
81,1993-10-01,14.1875,6.636167049407959,0.021465223629383214
82,1994-01-01,14.25,6.778574466705322,0.021459287603386664
83,1994-04-01,14.4375,6.976667881011963,0.029223462142317146
84,1994-07-01,16.3125,8.017166137695312,0.14913971460720096
85,1994-10-01,16.8125,8.380352973937987,0.045301148810554526
86,1995-01-01,17.625,8.934958457946777,0.06617925112862852
87,1995-04-01,20.3125,10.446822166442873,0.16920769308685926
88,1995-07-01,20.0625,10.455107688903807,0.0007931141479127097
89,1995-10-01,22.375,11.815836906433105,0.13014970845048923
90,1996-01-01,26.6875,14.269266128540039,0.20763905608507255
91,1996-04-01,28.5,15.412439346313475,0.08011436660270625
92,1996-07-01,25.875,14.141741752624512,-0.08244623483257393
93,1996-10-01,32.9375,18.214927673339844,0.28802576033177846
94,1997-01-01,36.625,20.451435089111328,0.12278431492456231
95,1997-04-01,36.75,20.607994079589844,0.007655159151245584
96,1997-07-01,44.125,24.85591697692871,0.20612985819643698
97,1997-10-01,39.8125,22.51989936828613,-0.09398235481760242
98,1998-01-01,44.875,25.51144218444824,0.1328399726499213
99,1998-04-01,52.375,29.89952278137207,0.1720044114008891
100,1998-07-01,57.4375,32.92300033569336,0.10112126459105122
101,1998-10-01,41.4375,23.841651916503906,-0.2758359908450974
102,1999-01-01,49.4375,28.58732414245605,0.19904963978888762
103,1999-04-01,68.25,39.64290618896485,0.38673021621109904
104,1999-07-01,61.375,35.79111099243164,-0.0971622811449028
105,1999-10-01,62.5,36.605812072753906,0.02276266530241382
106,2000-01-01,67.75,39.86120223999024,0.08893096431698497
107,2000-04-01,65.625,38.7833251953125,-0.027040756026078288
108,2000-07-01,54.25,32.19738006591797,-0.16981383355418256
109,2000-10-01,50.5,30.122180938720703,-0.06445242199671815
110,2001-01-01,54.22000122070313,32.513927459716804,0.07940150568319636
111,2001-04-01,56.06999969482422,33.811325073242195,0.03990282672349577
112,2001-07-01,51.2599983215332,31.07095146179199,-0.08104898596887286
113,2001-10-01,46.29999923706055,28.230396270751953,-0.0914215708692755
114,2002-01-01,59.5,36.50197219848633,0.2930024732349976
115,2002-04-01,64.05000305175781,39.49957656860352,0.08212170985767996
116,2002-07-01,62.209999084472656,38.55950546264648,-0.02379952363095119
117,2002-10-01,62.2400016784668,38.78215408325195,0.0057741565389411165
118,2003-01-01,59.59000015258789,37.33951950073242,-0.03719841294587946
119,2003-04-01,53.0099983215332,33.426074981689446,-0.10480704013789499
120,2003-07-01,53.959999084472656,34.247344970703125,0.024569740523335885
121,2003-10-01,52.58000183105469,33.59227752685547,-0.019127539504391753
122,2004-01-01,62.15999984741211,39.9813117980957,0.19019354273113806
123,2004-04-01,64.23000335693361,41.55537033081055,0.03936985711383826
124,2004-07-01,60.56999969482422,39.43224334716797,-0.051091518779425256
125,2004-10-01,60.84000015258789,39.84475708007813,0.010461330573518845
126,2005-01-01,60.09000015258789,39.61084365844727,-0.005870619844933453
127,2005-04-01,52.349998474121094,34.72686004638672,-0.12329915651819277
128,2005-07-01,56.66999816894531,37.861488342285156,0.09026523825394318
129,2005-10-01,56.6500015258789,38.11974716186523,0.006821148108212051
130,2006-01-01,59.7400016784668,40.46567153930664,0.061540921755857354
131,2006-04-01,62.5,42.60873794555664,0.05296010976040064
132,2006-07-01,58.63000106811523,40.23982238769531,-0.05559694260102734
133,2006-10-01,63.13999938964844,43.609779357910156,0.08374681522563883
134,2007-01-01,68.36000061035156,47.4988899230957,0.08917978083005643
135,2007-04-01,62.20000076293945,43.48659896850586,-0.08447125735119382
136,2007-07-01,61.34000015258789,43.14916229248047,-0.007759555449939214
137,2007-10-01,57.9000015258789,41.00245666503906,-0.04975080658322558
138,2008-01-01,51.75,36.937889099121094,-0.09912985456268139
139,2008-04-01,48.18999862670898,34.673873901367195,-0.061292489987138155
140,2008-07-01,44.0099983215332,31.91999244689941,-0.0794223761181527
141,2008-10-01,35.02000045776367,25.612119674682614,-0.19761510854710493
142,2009-01-01,24.229999542236328,17.957517623901367,-0.2988664018444269
143,2009-04-01,28.739999771118164,21.742401123046875,0.21076874757499034
144,2009-07-01,26.729999542236328,20.52716827392578,-0.05589230196994898
145,2009-10-01,35.650001525878906,27.55229187011719,0.3422353976176505
146,2010-01-01,32.509998321533196,25.25955390930176,-0.08321405608010779
147,2010-04-01,39.02999877929688,30.51860618591309,0.20820052070178074
148,2010-07-01,35.849998474121094,28.19487190246582,-0.07614155998119825
149,2010-10-01,36.349998474121094,28.762470245361328,0.02013126163009337
150,2011-01-01,42.09000015258789,33.479766845703125,0.16400874334159735
151,2011-04-01,41.7400016784668,33.413589477539055,-0.0019766376650428488
152,2011-07-01,31.54999923706055,25.40882873535156,-0.23956602290718798
153,2011-10-01,26.60000038146973,21.612796783447266,-0.14939814784232205
154,2012-01-01,27.149999618530273,22.266077041625977,0.030226548869373676
155,2012-04-01,31.979999542236328,26.465654373168945,0.1886087667662312
156,2012-07-01,30.790000915527344,25.72787857055664,-0.02787672627359128
157,2012-10-01,32.380001068115234,27.294193267822266,0.06088005635482664
158,2013-01-01,38.5099983215332,32.725536346435554,0.198992621812216
159,2013-04-01,41.45000076293945,35.458106994628906,0.08349964441426129
160,2013-07-01,44.72999954223633,38.52077102661133,0.08637415506829921
161,2013-10-01,47.11999893188477,40.85064697265625,0.06048362698751207
162,2014-01-01,49.27000045776367,42.96942901611328,0.051866548034728975
163,2014-04-01,48.65999984741211,42.68589401245117,-0.006598528538877848
164,2014-07-01,47.209999084472656,41.7017936706543,-0.02305446247675684
165,2014-10-01,46.849998474121094,41.68706512451172,-0.0003531873534960837
166,2015-01-01,52.27000045776367,46.84092330932617,0.12363207074954333
167,2015-04-01,55.59000015258789,50.14381790161133,0.07051301210425841
168,2015-07-01,60.849998474121094,55.21849822998047,0.1012025119093708
169,2015-10-01,64.97000122070311,59.32569885253906,0.0743808823893117
170,2016-01-01,60.88999938964844,55.91278076171875,-0.0575284936685452
171,2016-04-01,72.61000061035156,67.04811096191406,0.19915536391670988
172,2016-07-01,77.88999938964844,72.32237243652344,0.07866383405798504
173,2016-10-01,69.79000091552734,65.14673614501953,-0.09921737976449659
174,2017-01-01,73.0199966430664,68.55373382568361,0.05229728889379735
175,2017-04-01,83.20999908447266,78.52161407470703,0.1454024411619862
176,2017-07-01,92.93000030517578,88.16210174560547,0.12277495546291604
177,2017-10-01,106.16999816894531,101.20594787597656,0.1479529851501218
178,2018-01-01,122.68000030517578,117.41568756103516,0.1601658798247996
179,2018-04-01,104.80999755859376,100.70729064941406,-0.14230123128083474
180,2018-07-01,114.68000030517578,110.73221588134766,0.09954517857930201
181,2018-10-01,90.72000122070312,88.0322494506836,-0.2049987553304961
182,2019-01-01,104.4499969482422,101.90636444091795,0.1576026408141116
183,2019-04-01,110.6500015258789,108.47100830078124,0.06441838933101426
184,2019-07-01,114.87000274658205,113.228759765625,0.04386196403421372
185,2019-10-01,127.86000061035156,126.66886138916016,0.11869865616611146
186,2020-01-01,131.24000549316406,130.60572814941406,0.031079988539241803
