,Date,Close,Adj Close,RoR
0,1985-07-01,0.1805555522441864,0.12768340110778809,0.21873489460062562
1,1985-10-01,0.2469135820865631,0.1746097058057785,0.3675207919812228
2,1986-01-01,0.34259259700775146,0.2422710508108139,0.3875004811032459
3,1986-04-01,0.5432098507881165,0.3841415047645569,0.5855856631609182
4,1986-07-01,0.6481481194496155,0.4583504796028137,0.193181350928846
5,1986-10-01,0.654321014881134,0.462715744972229,0.009523859063479172
6,1987-01-01,0.6666666865348816,0.4714464247226715,0.01886834378407957
7,1987-04-01,0.4537037014961242,0.3208453953266144,-0.31944463145446106
8,1987-07-01,0.5879629850387573,0.41578951478004456,0.29591859766844686
9,1987-10-01,0.375,0.2651885747909546,-0.3622047565792006
10,1988-01-01,0.2546296417713165,0.1800663024187088,-0.32098770634951673
11,1988-04-01,0.3194444477558136,0.22590132057666776,0.25454522885341774
12,1988-07-01,0.30092594027519226,0.21280568838119507,-0.05797058716630306
13,1988-10-01,0.3472222089767456,0.24554495513439176,0.15384582527959223
14,1989-01-01,0.3935185074806213,0.2782841920852661,0.13333296517110485
15,1989-04-01,0.2962962985038757,0.20953167974948886,-0.24705863391159325
16,1989-07-01,0.2592592537403107,0.18334023654460907,-0.1249999199939296
17,1989-10-01,0.2731481492519379,0.1931620091199875,0.053571287789784504
18,1990-01-01,0.2546296417713165,0.1800663024187088,-0.06779649249322084
19,1990-04-01,0.30092594027519226,0.21280568838119507,0.18181850531010105
20,1990-07-01,0.4305555522441864,0.3044757843017578,0.4307690110066782
21,1990-10-01,0.18981482088565824,0.13423123955726626,-0.5591398512525605
22,1991-01-01,0.28703704476356506,0.2029837816953659,0.5121947943330148
23,1991-04-01,0.3888888955116272,0.2750103175640106,0.35483887070712244
24,1991-07-01,0.7222222089767456,0.5107336044311523,0.8571434299452254
25,1991-10-01,1.1574074029922483,0.8184829950332642,0.6025634262794958
26,1992-01-01,0.7870370149612427,0.5565683841705322,-0.320000064084517
27,1992-04-01,0.7083333134651184,0.5009117722511292,-0.09999959304614385
28,1992-07-01,0.6666666865348816,0.4714464247226715,-0.058823427918330826
29,1992-10-01,1.0833333730697632,0.7661004066467285,0.6249999288835149
30,1993-01-01,1.5,1.0607542991638184,0.3846152409797159
31,1993-04-01,1.453703761100769,1.0280150175094604,-0.030864151745758604
32,1993-07-01,1.4351851940155032,1.0149191617965698,-0.012738973156848955
33,1993-10-01,3.347222328186035,2.3670530319213867,1.3322577019152175
34,1994-01-01,2.5625,1.8121212720870967,-0.2344399353756093
35,1994-04-01,4.0138888359069815,2.8385002613067627,0.566396413435146
36,1994-07-01,2.722222328186035,1.9250731468200684,-0.32179920042219023
37,1994-10-01,4.180555343627931,2.9563608169555664,0.5357134983878562
38,1995-01-01,3.444444417953491,2.4358062744140625,-0.17607950273051118
39,1995-04-01,3.0416667461395264,2.150972843170166,-0.11693599537689575
40,1995-07-01,2.8888888359069824,2.0429344177246094,-0.05022770314771919
41,1995-10-01,2.3055555820465092,1.6304183006286619,-0.20192332828549725
42,1996-01-01,1.6944444179534912,1.198259711265564,-0.26505994761986224
43,1996-04-01,2.1388888359069824,1.512556791305542,0.26229462368222944
44,1996-07-01,2.0694444179534908,1.4634480476379397,-0.03246737177069219
45,1996-10-01,1.8194444179534912,1.2866551876068115,-0.1208056960521957
46,1997-01-01,1.1111111640930176,0.7857437729835509,-0.3893128628773958
47,1997-04-01,1.5,1.0607542991638184,0.3500002617087551
48,1997-07-01,1.4444444179534912,1.021467208862305,-0.03703693714226099
49,1997-10-01,3.1041667461395264,2.195172071456909,1.1490382191532702
50,1998-01-01,5.638888835906982,3.987650871276856,0.8165550314378317
51,1998-04-01,7.80555534362793,5.51984977722168,0.3842359713537835
52,1998-07-01,10.38888931274414,7.346701622009277,0.33096042800409536
53,1998-10-01,10.666666984558104,7.543142795562744,0.026738689504548212
54,1999-01-01,20.16666603088379,14.26124668121338,0.8906239836268992
55,1999-04-01,21.16666603088379,14.968419075012207,0.04958699681777459
56,1999-07-01,33.16666793823242,23.45445251464844,0.5669291724870626
57,1999-10-01,24.77777862548828,17.522090911865234,-0.25293114810836703
58,2000-01-01,21.22222137451172,15.007708549499512,-0.1434978493727074
59,2000-04-01,35.88888931274414,25.379528045654297,0.6910994747762924
60,2000-07-01,32.33333206176758,22.865144729614254,-0.09907131888020183
61,2000-10-01,22.30555534362793,15.77380657196045,-0.3101374708758924
62,2001-01-01,22.13333320617676,15.652010917663574,-0.007721386321129308
63,2001-04-01,24.46666717529297,17.30208396911621,0.1054224316691793
64,2001-07-01,29.76000022888184,21.04536247253418,0.21634841849684858
65,2001-10-01,24.399999618530273,17.254936218261722,-0.18010743503321722
66,2002-01-01,32.88888931274414,23.258018493652344,0.3479052138736551
67,2002-04-01,33.044445037841804,23.36803436279297,0.004730233969443738
68,2002-07-01,21.933332443237305,15.510577201843262,-0.3362481002450296
69,2002-10-01,13.739999771118164,9.716507911682127,-0.37355600728208704
70,2003-01-01,17.393333435058597,12.300033569335938,0.26589034673122075
71,2003-04-01,23.053333282470703,16.302614212036133,0.3254121722625745
72,2003-07-01,29.10000038146973,20.578632354736328,0.26229033497849896
73,2003-10-01,38.87333297729492,27.49003982543945,0.33585358597032366
74,2004-01-01,33.593334197998054,23.94110107421875,-0.12909907638389415
75,2004-04-01,36.16666793823242,25.85138320922852,0.07979090556811852
76,2004-07-01,32.10666656494141,23.0145263671875,-0.10973713936623353
77,2004-10-01,39.47999954223633,28.38549613952637,0.23337303086959996
78,2005-01-01,35.86000061035156,25.860685348510746,-0.08894721369692266
79,2005-04-01,33.560001373291016,24.269392013549805,-0.061533300974661906
80,2005-07-01,51.06666564941406,37.14365005493164,0.5304730350968013
81,2005-10-01,44.2599983215332,32.252620697021484,-0.13167874860647316
82,2006-01-01,50.65999984741211,36.98405838012695,0.14669932491849927
83,2006-04-01,56.65999984741211,41.36433410644531,0.11843685950571775
84,2006-07-01,45.34000015258789,33.19734573364258,-0.1974403444229547
85,2006-10-01,55.25,40.52795791625977,0.22081922577286853
86,2007-01-01,50.4000015258789,37.04492950439453,-0.08594137457066038
87,2007-04-01,46.6500015258789,34.288612365722656,-0.07440470735259197
88,2007-07-01,44.59000015258789,32.84186553955078,-0.04219321594997371
89,2007-10-01,48.52000045776367,35.811363220214844,0.09041805731431296
90,2008-01-01,48.72999954223633,36.06295776367188,0.007025550574824751
91,2008-04-01,43.02000045776367,31.92440986633301,-0.11475897025584098
92,2008-07-01,39.72000122070313,29.56320571899414,-0.07396234283500289
93,2008-10-01,26.8799991607666,20.07233428955078,-0.32103661286453605
94,2009-01-01,28.020000457763672,21.00911903381348,0.04667044354429512
95,2009-04-01,38.38000106811523,28.92098999023437,0.3765922285311915
96,2009-07-01,37.36999893188477,28.256277084350586,-0.02298375353361819
97,2009-10-01,38.18000030517578,28.98809051513672,0.025899145474880668
98,2010-01-01,36.650001525878906,28.02938270568848,-0.03307247191558305
99,2010-04-01,45.52000045776367,34.813034057617195,0.24201929179667567
100,2010-07-01,34.65999984741211,26.58976554870605,-0.23621234780344771
101,2010-10-01,42.97999954223633,33.10942840576172,0.24519444690526565
102,2011-01-01,34.0,26.403772354125977,-0.20253010621194598
103,2011-04-01,31.21999931335449,24.24487113952637,-0.0817648775956912
104,2011-07-01,27.60000038146973,21.642059326171875,-0.10735515146175127
105,2011-10-01,26.229999542236328,20.703664779663086,-0.04335976222807886
106,2012-01-01,23.95000076293945,19.03646278381348,-0.0805269025359836
107,2012-04-01,22.06999969482422,17.542160034179688,-0.07849687027489076
108,2012-07-01,18.09000015258789,14.603363037109375,-0.16752765858618718
109,2012-10-01,15.210000038146973,12.393964767456055,-0.15129379883516572
110,2013-01-01,16.260000228881836,13.434337615966795,0.08394189172156925
111,2013-04-01,25.989999771118164,21.639698028564453,0.6107752125304291
112,2013-07-01,30.09000015258789,25.20824432373047,0.16490739798935855
113,2013-10-01,42.79999923706055,36.01952362060547,0.4288787096012675
114,2014-01-01,23.540000915527344,19.89202690124512,-0.4477431986394842
115,2014-04-01,25.93000030517578,22.055803298950195,0.10877606432201413
116,2014-07-01,29.729999542236328,25.437318801879886,0.15331636109987629
117,2014-10-01,34.139999389648445,29.384265899658203,0.15516364474256725
118,2015-01-01,35.20000076293945,30.45475578308105,0.03643071727836835
119,2015-04-01,34.650001525878906,30.14557266235352,-0.010152211461807115
120,2015-07-01,32.290000915527344,28.28207015991211,-0.06181678892995768
121,2015-10-01,35.029998779296875,30.87223052978516,0.09158312511169797
122,2016-01-01,27.93000030517578,24.79947853088379,-0.19670596826628553
123,2016-04-01,32.080001831054695,28.72477722167969,0.15828150119800177
124,2016-07-01,33.59999847412109,30.36829376220703,0.05721598910389165
125,2016-10-01,38.90999984741211,35.429176330566406,0.16665021117049325
126,2017-01-01,44.52000045776367,40.78119659423828,0.15106250886940426
127,2017-04-01,51.81000137329102,47.81439971923828,0.17246191167410907
128,2017-07-01,58.34000015258789,54.16320037841797,0.13278009755344114
129,2017-10-01,55.97999954223633,52.27542114257813,-0.03485353935237636
130,2018-01-01,73.05999755859375,68.6014404296875,0.3123077524823973
131,2018-04-01,76.52999877929688,72.3243637084961,0.05426887912979574
132,2018-07-01,75.02999877929688,71.34033203125,-0.013605811745710492
133,2018-10-01,70.16000366210939,67.09497833251953,-0.05950846565825947
134,2019-01-01,59.2400016784668,57.07599639892578,-0.14932536208507513
135,2019-04-01,74.41000366210938,72.20584869384766,0.26508257848314376
136,2019-07-01,76.52999877929688,74.83411407470703,0.03639961898381949
137,2019-10-01,71.83000183105469,70.75534057617188,-0.054504199708482005
138,2020-01-01,84.69000244140625,83.91780090332031,0.1860277997387116
