,Date,Close,Adj Close,RoR
0,1973-07-01,0.17578125,6.37892444501631e-05,-0.3382352930076101
1,1973-10-01,0.19140625,6.945934728719294e-05,0.08888807017395779
2,1974-01-01,0.185546875,6.733310146955773e-05,-0.030611370545188667
3,1974-04-01,0.158203125,5.74103214603383e-05,-0.14736852740558315
4,1974-07-01,0.158203125,5.74103214603383e-05,0.0
5,1974-10-01,0.1640625,5.95366072957404e-05,0.03703664744101871
6,1975-01-01,0.1953125,7.087693666107953e-05,0.19047658038368734
7,1975-04-01,0.271484375,9.851891081780197e-05,0.3899995606314262
8,1975-07-01,0.314453125,0.00011411184095777571,0.15827347268191852
9,1975-10-01,0.28125,0.00010206279694102705,-0.10558977855073882
10,1976-01-01,0.359375,0.00013041356578469274,0.27777769856774615
11,1976-04-01,0.35546875,0.00012899606372229755,-0.010869283834592972
12,1976-07-01,0.33203125,0.00012049073848174882,-0.06593476572168104
13,1976-10-01,0.31640625,0.0001148206429206766,-0.04705835180793657
14,1977-01-01,0.3046875,0.00011056802759412676,-0.037037027649181056
15,1977-04-01,0.26171875,9.497506835032253e-05,-0.14102593293101764
16,1977-07-01,0.306640625,0.00011127675679745151,0.17164176588953856
17,1977-10-01,0.30078125,0.00010915047460002823,-0.01910805327741162
18,1978-01-01,0.296875,0.00010773292888188736,-0.012987077915467958
19,1978-04-01,0.408203125,0.00014813276357017455,0.3749998733681455
20,1978-07-01,0.412109375,0.00014955036749597642,0.009569820285775672
21,1978-10-01,0.33984375,0.00012332588084973395,-0.17535554800256858
22,1979-01-01,0.373046875,0.00013537482300307602,0.09770002914492106
23,1979-04-01,0.341796875,0.0001240346027771011,-0.0837690493284504
24,1979-07-01,0.380859375,0.00013820998719893396,0.11428572434183566
25,1979-10-01,0.35546875,0.00012899606372229755,-0.06666611916673036
26,1980-01-01,0.390625,0.00014175387332215902,0.09890076667243476
27,1980-04-01,0.341796875,0.0001240346027771011,-0.12500025664052203
28,1980-07-01,0.41796875,0.00015167659148573878,0.22285707447551775
29,1980-10-01,0.43359375,0.00015734681801404804,0.03738366265200781
30,1981-01-01,0.3984375,0.00014458897931035608,-0.0810810085943583
31,1981-04-01,0.4140625,0.00015025908942334354,0.039215368557355475
32,1981-07-01,0.470703125,0.00017081336409319192,0.1367922216801027
33,1981-10-01,0.515625,0.00018711503071244806,0.09543554572441017
34,1982-01-01,0.509765625,0.00018498876306693998,-0.011363425147687109
35,1982-04-01,0.568359375,0.00020625180331990126,0.11494233433663771
36,1982-07-01,0.560546875,0.0002034167846431956,-0.013745424917853832
37,1982-10-01,0.734375,0.0002664971980266273,0.3101042693899536
38,1983-01-01,0.8671875,0.00031469363602809613,0.18085157501976154
39,1983-04-01,1.0234375,0.0003713950864039362,0.1801798444083493
40,1983-07-01,1.1015625,0.0003997457097284496,0.07633548305396458
41,1983-10-01,1.078125,0.0003912404354196042,-0.021276711924245795
42,1984-01-01,1.0,0.00036288992851041263,-0.07246313096136324
43,1984-04-01,1.00390625,0.0003643074014689773,0.003906068609793279
44,1984-07-01,0.9375,0.0003402095753699541,-0.06614695721759918
45,1984-10-01,1.3046875,0.00047345817438326776,0.3916662218234602
46,1985-01-01,1.5390625,0.0005585103062912822,0.1796402227478791
47,1985-04-01,1.59765625,0.0005797732155770062,0.03807075544750059
48,1985-07-01,1.8359375,0.0006662431987933816,0.1491444945940078
49,1985-10-01,1.7265625,0.000630256487056613,-0.05401437763558913
50,1986-01-01,1.734375,0.0006369785987772048,0.010665676369290536
51,1986-04-01,2.3515625,0.0009494356927461922,0.49052997160156586
52,1986-07-01,2.5,0.00109213893301785,0.1503032183874362
53,1986-10-01,2.2734375,0.001082888338714838,-0.00847016256205629
54,1987-01-01,2.46875,0.00128752994351089,0.18897756812019859
55,1987-04-01,2.5546875,0.0014438926009461286,0.12144389978912833
56,1987-07-01,2.7421875,0.0016847802326083185,0.1668320978335545
57,1987-10-01,2.03125,0.0013596679782494905,-0.19297012635024838
58,1988-01-01,1.9765625,0.0014972906792536378,0.10121787319087279
59,1988-04-01,1.9609375,0.0016871212283149364,0.12678269603329423
60,1988-07-01,1.84375,0.0018345707794651391,0.08739712871580217
61,1988-10-01,1.890625,0.002213869942352176,0.20675090170008048
62,1989-01-01,1.671875,0.0022870553657412533,0.03305768870565164
63,1989-04-01,1.75,0.002852440113201737,0.24721078288248516
64,1989-07-01,2.03125,0.00393463671207428,0.37939327590573857
65,1989-10-01,1.84375,0.0041180746629834175,0.046621318391662156
66,1990-01-01,1.9453125,0.005100263748317957,0.23850686685291272
67,1990-04-01,1.9921875,0.006207583472132683,0.21711028653761577
68,1990-07-01,2.109375,0.007688317913562059,0.2385363721771516
69,1990-10-01,1.65625,0.007135855965316296,-0.07185732359886296
70,1991-01-01,1.6875,0.008770826272666454,0.22912041881126854
71,1991-04-01,1.734375,0.010854237712919712,0.23753878773611503
72,1991-07-01,2.1171875,0.01585396751761436,0.460624682905508
73,1991-10-01,2.2421875,0.0194585919380188,0.2273641860562388
74,1992-01-01,2.203125,0.02234539017081261,0.14835596748156765
75,1992-04-01,2.1796875,0.0253653023391962,0.13514698760231
76,1992-07-01,2.0703125,0.027874790132045742,0.09893388059371594
77,1992-10-01,1.9921875,0.03156764060258865,0.1324799380748516
78,1993-01-01,2.265625,0.04192839935421944,0.32820820795777733
79,1993-04-01,1.9296875,0.041559189558029175,-0.008805721226586882
80,1993-07-01,1.84375,0.05341660976409912,0.2853140384153403
81,1993-10-01,1.6171875,0.05536825209856033,0.03653624486990366
82,1994-01-01,1.6484375,0.06845764815807343,0.23640616352152172
83,1994-04-01,1.6796875,0.07659555971622467,0.11887512611242862
84,1994-07-01,1.6484375,0.08195284754037857,0.06994253771369864
85,1994-10-01,1.765625,0.09613046795129776,0.17299728851927698
86,1995-01-01,1.90625,0.1135646030306816,0.18135909926306018
87,1995-04-01,2.140625,0.13729041814804074,0.20891910405348024
88,1995-07-01,2.3125,0.15975914895534515,0.16365840464610062
89,1995-10-01,1.7265625,0.13789597153663635,-0.13685086307526498
90,1996-01-01,1.7734375,0.15430019795894626,0.11896088217451378
91,1996-04-01,1.9453125,0.18403908610343933,0.19273395976073554
92,1996-07-01,1.5546875,0.17640383541584015,-0.041487114771412106
93,1996-10-01,1.515625,0.19086092710494995,0.08195452017825929
94,1997-01-01,1.6015625,0.2480039000511169,0.29939586804346474
95,1997-04-01,1.6796875,0.2875712513923645,0.15954326255793663
96,1997-07-01,1.859375,0.347467303276062,0.20828247466912073
97,1997-10-01,2.1875,0.4401420056819916,0.26671488664445564
98,1998-01-01,2.03125,0.4358277916908264,-0.009801868341287647
99,1998-04-01,2.4140625,0.5590084195137024,0.28263600938569694
100,1998-07-01,2.70703125,0.6682368516921997,0.19539675676713114
101,1998-10-01,2.63671875,0.6918132305145264,0.0352814705783187
102,1999-01-01,2.8125,0.7809600234031677,0.1288596241825842
103,1999-04-01,3.43359375,1.0140767097473145,0.2985001528353534
104,1999-07-01,3.02734375,0.9377984404563904,-0.0752194272462198
105,1999-10-01,2.51953125,0.8240775465965271,-0.12126368412867024
106,2000-01-01,2.2734375,0.7940702438354492,-0.03641320271982804
107,2000-04-01,1.96875,0.7514920234680176,-0.05362021898941083
108,2000-07-01,2.16796875,0.8991709351539612,0.1965142770304183
109,2000-10-01,2.1953125,0.978323757648468,0.08802867107904665
110,2001-01-01,2.497499942779541,1.1873713731765747,0.21367938158895433
111,2001-04-01,2.875,1.4541586637496948,0.22468731906461925
112,2001-07-01,3.0893750190734863,1.6469955444335938,0.13261061910991856
113,2001-10-01,3.846250057220459,2.1477162837982178,0.3040207006369427
114,2002-01-01,4.918749809265137,2.8460166454315186,0.3251362234858892
115,2002-04-01,5.9437499046325675,3.49807071685791,0.2291111236025557
116,2002-07-01,5.377500057220459,3.21856951713562,-0.07990152925591734
117,2002-10-01,6.053750038146973,3.6797301769256587,0.14328124880784013
118,2003-01-01,6.5625,4.050496578216554,0.10075912729032291
119,2003-04-01,7.019999980926514,4.393589973449707,0.08470403285323068
120,2003-07-01,6.2125000953674325,3.946188926696777,-0.10183040508025493
121,2003-10-01,7.0250000953674325,4.5744290351867685,0.15920173112843597
122,2004-01-01,7.821249961853027,5.204833507537842,0.1378105261885071
123,2004-04-01,8.25,5.594893455505371,0.07494186843875589
124,2004-07-01,9.022500038146973,6.2315025329589835,0.11378395004594583
125,2004-10-01,9.962499618530273,6.95569372177124,0.11621453814420257
126,2005-01-01,10.68000030517578,7.525290489196777,0.08188928239360307
127,2005-04-01,9.875,7.021517276763916,-0.06694402204885945
128,2005-07-01,9.487500190734863,6.8179473876953125,-0.028992293409612603
129,2005-10-01,9.842499732971193,7.148951053619385,0.04854887359815228
130,2006-01-01,10.125,7.426863193511963,0.03887453387331226
131,2006-04-01,9.994999885559082,7.398972034454347,-0.0037554426856794333
132,2006-07-01,9.574999809265137,7.165205478668213,-0.03159446402791727
133,2006-10-01,10.397500038146973,7.8591551780700675,0.09684993702802198
134,2007-01-01,11.579999923706055,8.838640213012695,0.12462981233348734
135,2007-04-01,12.672499656677244,9.755199432373047,0.10369912082301376
136,2007-07-01,12.817500114440918,9.93994426727295,0.01893808898327785
137,2007-10-01,12.395000457763672,9.687280654907227,-0.025419017005720256
138,2008-01-01,11.454999923706055,9.030319213867188,-0.06781691007447442
139,2008-04-01,13.44499969482422,10.69180679321289,0.18398990556106595
140,2008-07-01,11.145000457763672,8.929361343383789,-0.16484074992338
141,2008-10-01,8.550000190734862,6.911592483520508,-0.2259701206243991
142,2009-01-01,9.585000038146973,7.84105110168457,0.13447821473563368
143,2009-04-01,9.43000030517578,7.792314052581787,-0.006215627021269194
144,2009-07-01,12.09000015258789,10.094179153442383,0.29540199295457437
145,2009-10-01,12.332500457763672,10.380428314208984,0.028357844299700487
146,2010-01-01,12.697500228881836,10.772558212280273,0.03777588806567182
147,2010-04-01,13.302499771118164,11.37163257598877,0.055611151214349064
148,2010-07-01,14.5600004196167,12.550655364990234,0.10368104853220235
149,2010-10-01,16.09000015258789,13.968419075012207,0.11296332094153362
150,2011-01-01,17.782499313354492,15.533528327941895,0.11204626984090679
151,2011-04-01,18.655000686645508,16.35930061340332,0.05316063858949655
152,2011-07-01,19.399999618530273,17.074234008789062,0.043701953541949765
153,2011-10-01,17.28499984741211,15.272767066955565,-0.10550792152117525
154,2012-01-01,19.6299991607666,17.416553497314453,0.1403666029188138
155,2012-04-01,20.8799991607666,18.618927001953125,0.06903624789049521
156,2012-07-01,20.780000686645508,18.62204360961914,0.00016738921988837988
157,2012-10-01,21.415000915527344,19.283184051513672,0.03550310888290595
158,2013-01-01,22.26000022888184,20.13407325744629,0.04412597025779179
159,2013-04-01,22.059999465942386,20.07229232788086,-0.003068476446641562
160,2013-07-01,22.395000457763672,20.498403549194336,0.021228826999574863
161,2013-10-01,24.44499969482422,22.5062313079834,0.0979504454564208
162,2014-01-01,25.59499931335449,23.68753242492676,0.052487735542126615
163,2014-04-01,28.09499931335449,26.124834060668945,0.1028938596059661
164,2014-07-01,30.6299991607666,28.605817794799805,0.094966487762921
165,2014-10-01,32.21500015258789,30.20939636230469,0.05605777744261511
166,2015-01-01,31.665000915527344,29.81178092956543,-0.013161978742329529
167,2015-04-01,36.70500183105469,34.68176651000977,0.16335775416941298
168,2015-07-01,33.919998168945305,32.16593170166016,-0.07254056126649416
169,2015-10-01,34.25,32.60756301879883,0.013729784706216705
170,2016-01-01,33.415000915527344,31.93327522277832,-0.020678877339952363
171,2016-04-01,35.689998626708984,34.240612030029304,0.07225493755821005
172,2016-07-01,35.334999084472656,34.023193359375,-0.006349730853631529
173,2016-10-01,38.53499984741211,37.22700500488281,0.09416551855280247
174,2017-01-01,38.13000106811523,36.96001052856445,-0.007172064373251072
175,2017-04-01,38.44499969482422,37.398414611816406,0.011861578960134051
176,2017-07-01,41.900001525878906,40.859779357910156,0.09255378288148335
177,2017-10-01,42.93000030517578,41.971656799316406,0.02721202754588538
178,2018-01-01,38.27999877929688,37.520301818847656,-0.10605621316672087
179,2018-04-01,40.09000015258789,39.39284133911133,0.049907368264373475
180,2018-07-01,38.97000122070313,38.39424133300781,-0.02534978367026427
181,2018-10-01,44.79999923706055,44.24385452270508,0.15235652500491811
182,2019-01-01,52.27999877929688,51.73536682128906,0.16932322871506342
183,2019-04-01,59.93999862670898,59.42263412475586,0.1485882438994033
184,2019-07-01,71.4800033569336,71.03759765625,0.19546362598313813
185,2019-10-01,69.97000122070311,69.6668701171875,-0.019295803691102176
186,2020-01-01,72.18000030517578,72.02964782714844,0.03391537047647583
