,Date,Close,Adj Close,RoR
0,1973-07-01,2.875,0.2564851641654968,-0.33261204080317514
1,1973-10-01,2.046875,0.18260613083839414,-0.28804408070726584
2,1974-01-01,1.5625,0.13939402997493744,-0.23664101892449205
3,1974-04-01,1.4375,0.1282425820827484,-0.07999946550217407
4,1974-07-01,1.0625,0.09478791058063507,-0.2608702270243338
5,1974-10-01,0.953125,0.08503037691116333,-0.10294069791918359
6,1975-01-01,0.96875,0.08642428368330002,0.016393044730273178
7,1975-04-01,1.34375,0.1198788285255432,0.38709658230823946
8,1975-07-01,1.375,0.12266681343317032,0.023256691293351013
9,1975-10-01,1.421875,0.12684863805770874,0.03409092082445516
10,1976-01-01,1.8125,0.16169704496860504,0.27472432849489725
11,1976-04-01,1.515625,0.13521212339401245,-0.1637934792174766
12,1976-07-01,1.5625,0.13939402997493744,0.030928488333392845
13,1976-10-01,1.546875,0.13800011575222015,-0.009999812925760925
14,1977-01-01,1.5,0.13381825387477875,-0.030303321520033785
15,1977-04-01,1.40625,0.12545464932918549,-0.06249972857529255
16,1977-07-01,1.453125,0.1296365112066269,0.033333654031971756
17,1977-10-01,1.546875,0.13800011575222015,0.06451581015060302
18,1978-01-01,1.671875,0.14915162324905396,0.08080795755893701
19,1978-04-01,1.640625,0.146363765001297,-0.018691437525301228
20,1978-07-01,1.5625,0.13939402997493744,-0.047619265781375576
21,1978-10-01,1.25,0.11151526123285294,-0.19999973275108704
22,1979-01-01,1.375,0.12266681343317032,0.10000023384272072
23,1979-04-01,1.375,0.12266681343317032,0.0
24,1979-07-01,1.34375,0.1198788285255432,-0.02272811064050369
25,1979-10-01,1.265625,0.11290916055440905,-0.058139273271669324
26,1980-01-01,1.21875,0.1087273359298706,-0.03703707125271999
27,1980-04-01,1.109375,0.09896980226039886,-0.0897431504784167
28,1980-07-01,1.234375,0.11012130230665207,0.11267578384073718
29,1980-10-01,1.28125,0.11430317908525467,0.03797518455564057
30,1981-01-01,1.296875,0.11569706350564955,0.012194625132475405
31,1981-04-01,1.59375,0.1421818882226944,0.2289152716114664
32,1981-07-01,1.484375,0.13242436945438385,-0.06862701635406399
33,1981-10-01,1.34375,0.1198788285255432,-0.09473740354989726
34,1982-01-01,1.453125,0.1296365112066269,0.08139621316873791
35,1982-04-01,1.75,0.15612129867076874,0.20430037199881054
36,1982-07-01,1.71875,0.1533334106206894,-0.017857192284561323
37,1982-10-01,2.625,0.23418207466602325,0.5272736301766243
38,1983-01-01,3.0,0.2676365077495575,0.14285650655049065
39,1983-04-01,4.140625,0.3693942725658417,0.38020883500506825
40,1983-07-01,4.109375,0.3684560656547545,-0.0025398523495513024
41,1983-10-01,3.15625,0.2852443754673004,-0.22583883926455414
42,1984-01-01,3.515625,0.3210281133651733,0.12544940750978983
43,1984-04-01,3.34375,0.3080486059188843,-0.04043106166071089
44,1984-07-01,3.0625,0.2853227257728577,-0.07377368281942741
45,1984-10-01,3.59375,0.3388231694698334,0.1875085258352914
46,1985-01-01,3.828125,0.3648652136325836,0.07686028143677129
47,1985-04-01,4.296875,0.41384202241897583,0.13423260688181546
48,1985-07-01,4.546875,0.4421699047088623,0.068450956537244
49,1985-10-01,5.609375,0.5504862070083618,0.2449653428376546
50,1986-01-01,5.53125,0.5471456050872803,-0.006068457081306671
51,1986-04-01,6.4375,0.6776366829872131,0.238494244834731
52,1986-07-01,6.953125,0.7775917053222656,0.14750532969145447
53,1986-10-01,6.078125,0.7169970870018005,-0.07792600911985322
54,1987-01-01,7.453125,0.9346365928649902,0.303543082403964
55,1987-04-01,7.359375,0.9720279574394226,0.040006313533920895
56,1987-07-01,8.65625,1.2153708934783936,0.25034561421463664
57,1987-10-01,6.65625,0.9607802033424376,-0.20947571766122927
58,1988-01-01,7.5,1.1183570623397827,0.16400926918472541
59,1988-04-01,6.9375,1.068046808242798,-0.044985859875313436
60,1988-07-01,7.3125,1.1670997142791748,0.0927421020051952
61,1988-10-01,8.09375,1.3416213989257812,0.14953451064324413
62,1989-01-01,8.65625,1.4817359447479248,0.10443672554293741
63,1989-04-01,8.8125,1.559359431266785,0.05238685529226701
64,1989-07-01,10.6875,1.9581207036972048,0.2557212047683427
65,1989-10-01,10.53125,1.990240812301636,0.016403538629556343
66,1990-01-01,9.6875,1.8863112926483157,-0.052219570119823776
67,1990-04-01,9.53125,1.9154520034790041,0.015448516342059284
68,1990-07-01,10.96875,2.287196159362793,0.19407646613363114
69,1990-10-01,8.1875,1.7638520002365112,-0.2288147245193364
70,1991-01-01,9.46875,2.13369369506836,0.20967841677320845
71,1991-04-01,9.625,2.2523319721221924,0.05560230005274098
72,1991-07-01,9.9375,2.4210774898529053,0.07492035801974496
73,1991-10-01,9.9375,2.5226337909698486,0.04194673716251581
74,1992-01-01,11.90625,3.1419494152069087,0.24550357901887884
75,1992-04-01,12.25,3.35148549079895,0.06668983102588963
76,1992-07-01,11.78125,3.3407797813415527,-0.0031943177098001877
77,1992-10-01,10.9375,3.217130422592163,-0.037012124965547996
78,1993-01-01,11.1875,3.421684741973877,0.06358284946896768
79,1993-04-01,12.28125,3.899394035339356,0.13961230486999848
80,1993-07-01,13.0625,4.309476852416991,0.10516578046771997
81,1993-10-01,13.25,4.5238986015319815,0.0497558651451465
82,1994-01-01,12.90625,4.5606956481933585,0.008133923834834833
83,1994-04-01,12.625,4.620092868804932,0.013023719448392122
84,1994-07-01,12.4375,4.719273567199707,0.021467252111845584
85,1994-10-01,13.5,5.334711074829102,0.13040937315159268
86,1995-01-01,14.65625,6.0041141510009775,0.125480661798225
87,1995-04-01,14.6875,6.229551315307617,0.03754711496766861
88,1995-07-01,16.40625,7.197846412658691,0.15543576870002226
89,1995-10-01,17.9375,8.136563301086426,0.13041635436633295
90,1996-01-01,20.59375,9.618412017822266,0.1821221886810587
91,1996-04-01,20.65625,9.91278076171875,0.030604713475679668
92,1996-07-01,22.71875,11.196505546569824,0.12950198493328655
93,1996-10-01,27.21875,13.77020263671875,0.22986610236953858
94,1997-01-01,29.65625,15.349946022033693,0.11472186916861336
95,1997-04-01,31.84375,16.820035934448242,0.09577166657813295
96,1997-07-01,34.953125,18.81662368774414,0.1187029421980479
97,1997-10-01,35.0625,19.245241165161133,0.02277866021714428
98,1998-01-01,38.3125,21.221773147583008,0.10270237537994117
99,1998-04-01,41.96875,23.44330596923828,0.10468177216889572
100,1998-07-01,51.375,28.914262771606445,0.23336967958132768
101,1998-10-01,54.625,30.975112915039066,0.07127451803669564
102,1999-01-01,62.5625,35.72642135620117,0.15339115806274417
103,1999-04-01,57.6875,33.151229858398445,-0.07208086900525068
104,1999-07-01,56.0,32.376766204833984,-0.02336153611411975
105,1999-10-01,40.9375,23.83563804626465,-0.263804238648581
106,2000-01-01,47.75,27.94457244873047,0.17238617210457866
107,2000-04-01,36.75,21.59742546081543,-0.2271334442335829
108,2000-07-01,41.3125,24.40979766845703,0.13021793790857783
109,2000-10-01,44.625,26.49392509460449,0.08538077432901546
110,2001-01-01,33.75,20.136926651000977,-0.23994173837602192
111,2001-04-01,31.82999992370605,19.113679885864254,-0.050814445663477564
112,2001-07-01,37.38000106811523,22.598133087158203,0.1823015359732438
113,2001-10-01,35.70000076293945,21.709835052490234,-0.039308469918373924
114,2002-01-01,40.77999877929688,24.941007614135746,0.14883450536741313
115,2002-04-01,44.25,27.20345687866211,0.0907120233283631
116,2002-07-01,38.5,23.77953720092773,-0.12586340379483307
117,2002-10-01,44.93000030517578,27.91510772705078,0.17391299465498875
118,2003-01-01,38.22000122070313,23.880874633789066,-0.14451791240455766
119,2003-04-01,45.22000122070313,28.415372848510746,0.18987990533252141
120,2003-07-01,43.38999938964844,27.39726638793945,-0.035829424656824635
121,2003-10-01,45.29999923706055,28.77788352966309,0.05039251442732993
122,2004-01-01,48.88000106811523,31.23707771301269,0.08545431010639692
123,2004-04-01,51.77999877929688,33.269744873046875,0.06507225735739736
124,2004-07-01,49.77000045776367,32.145156860351555,-0.03380212312978668
125,2004-10-01,54.599998474121094,35.4570426940918,0.10302907676351034
126,2005-01-01,59.41999816894531,38.775970458984375,0.09360419010482256
127,2005-04-01,63.29999923706055,41.50776290893555,0.0704506532683882
128,2005-07-01,55.849998474121094,36.782222747802734,-0.1138471415937361
129,2005-10-01,54.11999893188477,35.82527542114258,-0.02601657146229211
130,2006-01-01,59.849998474121094,39.826072692871094,0.11167526905787338
131,2006-04-01,64.18000030517578,42.92148971557617,0.07772338102670015
132,2006-07-01,59.93999862670898,40.271484375,-0.061740758723350816
133,2006-10-01,64.55999755859375,43.58787536621094,0.08235085055046316
134,2007-01-01,65.41999816894531,44.36565017700195,0.01784383396199995
135,2007-04-01,67.08000183105469,45.70959091186523,0.030292371001021404
136,2007-07-01,60.459999084472656,41.38984298706055,-0.09450419132242478
137,2007-10-01,62.56999969482422,43.097904205322266,0.04126764188971916
138,2008-01-01,61.34000015258789,42.52561569213867,-0.01327880145765697
139,2008-04-01,53.0,36.98538208007813,-0.13027991533782105
140,2008-07-01,54.5,38.30804061889648,0.035761656752784615
141,2008-10-01,60.81000137329102,43.10543823242188,0.12523213236750508
142,2009-01-01,50.1500015258789,35.84017944335937,-0.1685462226341067
143,2009-04-01,56.04999923706055,40.431861877441406,0.12811549789639254
144,2009-07-01,61.0099983215332,44.374549865722656,0.0975143811143913
145,2009-10-01,59.22999954223633,43.44621276855469,-0.020920484826936068
146,2010-01-01,59.16999816894531,43.77228546142578,0.007505204069411943
147,2010-04-01,64.69999694824219,48.26427459716797,0.10262176371166962
148,2010-07-01,64.87999725341797,48.77187728881836,0.010517151576130299
149,2010-10-01,66.55000305175781,50.45135879516602,0.03443544927340142
150,2011-01-01,62.88999938964844,48.06439208984375,-0.047312238209746275
151,2011-04-01,69.66000366210939,53.70153427124024,0.11728312657859763
152,2011-07-01,71.58999633789062,55.62948608398438,0.03590124265363218
153,2011-10-01,66.94000244140625,52.439308166503906,-0.05734688817121612
154,2012-01-01,68.66000366210939,54.25470733642578,0.03461905264191639
155,2012-04-01,70.09999847412111,55.87697982788086,0.02990104584650315
156,2012-07-01,72.70999908447266,58.45676803588867,0.046169070267476756
157,2012-10-01,72.30000305175781,58.64312744140625,0.0031879868110937216
158,2013-01-01,78.41000366210938,64.14642333984375,0.09384383368598753
159,2013-04-01,86.25,71.1524429321289,0.10921917743048122
160,2013-07-01,85.94000244140625,71.40715026855469,0.003579741270004492
161,2013-10-01,90.19000244140624,75.55186462402344,0.058043407976385006
162,2014-01-01,88.2699966430664,74.54054260253906,-0.013385798305801206
163,2014-04-01,90.6999969482422,77.20970916748047,0.03580825241873792
164,2014-07-01,86.87000274658203,74.53189849853516,-0.03468230482693185
165,2014-10-01,99.5,86.05839538574219,0.15465186208068446
166,2015-01-01,106.70999908447266,92.98613739013672,0.08050047846397904
167,2015-04-01,106.0999984741211,93.09009552001952,0.0011179960024215974
168,2015-07-01,111.94000244140624,98.88370513916016,0.06223658474917659
169,2015-10-01,121.94000244140624,108.4736328125,0.09698188048115541
170,2016-01-01,129.05000305175778,115.5201644897461,0.06496077889662126
171,2016-04-01,125.2300033569336,112.78128814697266,-0.023709075855900017
172,2016-07-01,131.07000732421878,118.76417541503906,0.053048580720852515
173,2016-10-01,120.0199966430664,109.3990478515625,-0.07885481906264016
174,2017-01-01,120.0,110.1146240234375,0.006540972576342032
175,2017-04-01,133.69000244140622,123.49050903320312,0.12147237597540737
176,2017-07-01,133.49000549316406,124.04712677001952,0.004507372600324557
177,2017-10-01,126.52999877929688,118.33304595947266,-0.046063790104067734
178,2018-01-01,141.69000244140625,133.38241577148438,0.12717808191268826
179,2018-04-01,117.1999969482422,110.9734878540039,-0.16800511362661374
180,2018-07-01,135.16999816894528,129.06813049316406,0.16305374363798825
181,2018-10-01,148.4499969482422,142.76670837402344,0.10613447199178967
182,2019-01-01,148.3800048828125,143.62002563476562,0.00597700451639361
183,2019-04-01,159.72999572753906,155.57339477539062,0.08322912551918865
184,2019-07-01,162.60000610351562,159.35885620117188,0.024332318718419156
185,2019-10-01,147.69000244140625,145.67984008789062,-0.08583781560287491
186,2020-01-01,157.30999755859375,156.26756286621094,0.07267802306710795
