,Date,Close,Adj Close,RoR
0,1980-07-01,0.1430676281452179,0.0970953404903412,0.43478285282514323
1,1980-10-01,0.1820860654115677,0.123575821518898,0.2727265890909668
2,1981-01-01,0.17558299005031586,0.11916249990463255,-0.03571347177805756
3,1981-04-01,0.24630391597747806,0.16715839505195618,0.40277683990966473
4,1981-07-01,0.2560585141181946,0.1737784892320633,0.039603719442564994
5,1981-10-01,0.2121627777814865,0.14398802816867828,-0.17142778254679678
6,1982-01-01,0.19265355169773105,0.1307476907968521,-0.09195443218595546
7,1982-04-01,0.1975308656692505,0.13405777513980865,0.025316579763535196
8,1982-07-01,0.15607376396656036,0.105922169983387,-0.20987671268659414
9,1982-10-01,0.20972412824630735,0.14233297109603882,0.343750520956685
10,1983-01-01,0.2706904411315918,0.1837087869644165,0.29069733842947365
11,1983-04-01,0.2962962985038757,0.2010866105556488,0.09459440606179768
12,1983-07-01,0.3219021558761597,0.2184644490480423,0.08641966983467725
13,1983-10-01,0.2962962985038757,0.2010866105556488,-0.07954538401152834
14,1984-01-01,0.2889803349971771,0.19612158834934235,-0.024690963722482334
15,1984-04-01,0.2962962985038757,0.2010866105556488,0.025316041176774953
16,1984-07-01,0.3438500165939331,0.2333597391843796,0.160493672550115
17,1984-10-01,0.3923182487487793,0.2662536203861237,0.14095782467323706
18,1985-01-01,0.5157750248908997,0.3500398397445679,0.31468574675881056
19,1985-04-01,0.5898491144180298,0.40031158924102783,0.14361722235144533
20,1985-07-01,0.654321014881134,0.4440664350986481,0.10930197134831257
21,1985-10-01,0.6378600597381592,0.4328950345516205,-0.02515704782899421
22,1986-01-01,0.7613168954849243,0.5166810154914856,0.19354802955096975
23,1986-04-01,0.8518518805503845,0.5823694467544556,0.12713536842549705
24,1986-07-01,0.8271604776382446,0.5694240927696228,-0.022228765703587665
25,1986-10-01,0.8765432238578796,0.6075785160064697,0.06700528432379382
26,1987-01-01,0.9567901492118835,0.6694168448448181,0.10177833351449496
27,1987-04-01,1.0,0.7005976438522339,0.046579047491169714
28,1987-07-01,1.308642029762268,0.9180211424827576,0.3103400368791155
29,1987-10-01,0.92592591047287,0.6503040790557861,-0.29162407164495097
30,1988-01-01,1.209876537322998,0.850902795791626,0.3084691042182922
31,1988-04-01,1.1574074029922483,0.8152468204498291,-0.041903699832863774
32,1988-07-01,2.4444398880004883,1.7254590988159182,1.1164867565676133
33,1988-10-01,1.1574074029922483,0.8187485933303833,-0.5254894225587597
34,1989-01-01,1.4444444179534912,1.023933172225952,0.2506075498230164
35,1989-04-01,1.6851851940155032,1.2062352895736694,0.17804103069676583
36,1989-07-01,1.9166666269302368,1.3736698627471924,0.13880755655283544
37,1989-10-01,1.9861111640930176,1.4355292320251465,0.04503219511145276
38,1990-01-01,1.6388888359069824,1.1957676410675049,-0.1670196507384265
39,1990-04-01,1.3055555820465088,0.9546416997909546,-0.20164949526589335
40,1990-07-01,1.4027777910232544,1.0278936624526978,0.07673241455698376
41,1990-10-01,1.0972222089767456,0.8062180280685425,-0.21566008477492338
42,1991-01-01,1.6666666269302368,1.2280982732772827,0.5232830704858328
43,1991-04-01,1.8611111640930176,1.3742929697036743,0.11904152917360503
44,1991-07-01,1.5694444179534912,1.1614017486572266,-0.1549096340734039
45,1991-10-01,1.8333333730697632,1.3602091073989868,0.1711788009374143
46,1992-01-01,1.75,1.3012971878051758,-0.04331092864571634
47,1992-04-01,1.6944444179534912,1.2627493143081665,-0.029622651811017735
48,1992-07-01,1.7916666269302368,1.3379781246185305,0.059575411728954496
49,1992-10-01,1.5277777910232544,1.1434532403945925,-0.1453871932916682
50,1993-01-01,2.277777671813965,1.7080832719802856,0.493793722068465
51,1993-04-01,2.0138888359069824,1.5125370025634766,-0.11448286662868626
52,1993-07-01,2.7638888359069824,2.079171895980835,0.3746254752492103
53,1993-10-01,4.6388888359069815,3.493596076965332,0.6802824642438966
54,1994-01-01,3.4861111640930176,2.630751848220825,-0.24697881773842773
55,1994-04-01,2.625,1.981337666511536,-0.24685497499450101
56,1994-07-01,2.7083332538604736,2.046759366989136,0.03301895561940511
57,1994-10-01,2.7708332538604736,2.096728801727295,0.02441392747192639
58,1995-01-01,2.4375,1.8470125198364256,-0.11909803579993365
59,1995-04-01,2.59375,1.9858537912368772,0.07517072564984437
60,1995-07-01,3.375,2.5876500606536865,0.30304157943167814
61,1995-10-01,2.9583332538604736,2.286456346511841,-0.11639661742583493
62,1996-01-01,3.25,2.514776945114136,0.09985784288014744
63,1996-04-01,2.9166667461395264,2.2593390941619877,-0.10157475455166266
64,1996-07-01,2.3125,1.808061957359314,-0.19973855981545663
65,1996-10-01,2.3958332538604736,1.9089492559432983,0.055798584873347434
66,1997-01-01,3.0208332538604736,2.4100584983825684,0.2625052713575926
67,1997-04-01,2.6458332538604736,2.1134817600250244,-0.12305790027776574
68,1997-07-01,3.75,2.9992067813873287,0.4190833524637643
69,1997-10-01,4.541666507720947,3.635779857635498,0.21224714487799098
70,1998-01-01,5.177083492279053,4.147674560546875,0.1407936461929474
71,1998-04-01,5.822916507720947,4.668030261993408,0.12545721556754053
72,1998-07-01,7.541666507720947,6.0498695373535165,0.29602191884034956
73,1998-10-01,8.1875,6.571809768676758,0.08627297301216867
74,1999-01-01,10.833333015441896,8.699553489685059,0.323768306737936
75,1999-04-01,10.479166984558104,8.417906761169434,-0.032374848760866826
76,1999-07-01,11.895833015441895,9.555915832519533,0.1351890800928763
77,1999-10-01,12.666666984558105,10.17512321472168,0.06479832943849664
78,2000-01-01,14.375,11.547426223754885,0.13486844140105497
79,2000-04-01,13.0,10.442893981933594,-0.09565181196387236
80,2000-07-01,11.25,9.037116050720217,-0.13461574288175288
81,2000-10-01,13.375,10.744128227233887,0.18888904014656635
82,2001-01-01,14.104166984558105,11.329866409301758,0.054517050586120136
83,2001-04-01,14.383333206176758,11.554118156433105,0.019792973635350035
84,2001-07-01,12.43333339691162,9.987688064575195,-0.13557331426334365
85,2001-10-01,11.890000343322756,9.551226615905762,-0.04369994796067928
86,2002-01-01,11.93333339691162,9.586036682128906,0.0036445649991358126
87,2002-04-01,9.396666526794434,7.548336505889893,-0.2125696201473822
88,2002-07-01,7.239999771118164,5.815885066986084,-0.22951433571515972
89,2002-10-01,7.813333511352539,6.276444911956787,0.07918998392610518
90,2003-01-01,8.876667022705078,7.130618572235107,0.13609195528046422
91,2003-04-01,10.633333206176758,8.541748046875,0.19789720349570894
92,2003-07-01,10.15999984741211,8.161520957946777,-0.0445139667948095
93,2003-10-01,11.289999961853027,9.06924819946289,0.11122035294564427
94,2004-01-01,11.366666793823242,9.130834579467773,0.006790681945227847
95,2004-04-01,10.053333282470703,8.075836181640625,-0.11554238428538513
96,2004-07-01,9.133333206176758,7.336799144744872,-0.0915121382199231
97,2004-10-01,9.833333015441896,7.899107933044434,0.07664224918877958
98,2005-01-01,10.729999542236328,8.619400978088379,0.09118663159807384
99,2005-04-01,10.699999809265137,8.595300674438478,-0.0027960531957112364
100,2005-07-01,10.243332862854004,8.228459358215332,-0.042679288383022346
101,2005-10-01,9.270000457763672,7.4465837478637695,-0.09502089957714067
102,2006-01-01,9.273333549499512,7.449260711669923,0.0003594888470731539
103,2006-04-01,10.31666660308838,8.287368774414062,0.11250889117508932
104,2006-07-01,11.460000038146973,9.205811500549316,0.11082440653187779
105,2006-10-01,13.556666374206545,10.890060424804688,0.18295496536670025
106,2007-01-01,14.783333778381348,11.875439643859865,0.09048427470712131
107,2007-04-01,13.329999923706055,10.707978248596193,-0.09830889889346554
108,2007-07-01,13.135000228881836,10.551336288452148,-0.014628528047727438
109,2007-10-01,10.524999618530273,8.454721450805664,-0.19870609563843708
110,2008-01-01,9.079999923706056,7.293958187103271,-0.1372917216086146
111,2008-04-01,10.274999618530273,8.281389236450195,0.13537657113154827
112,2008-07-01,10.3100004196167,8.30959415435791,0.0034058196158166377
113,2008-10-01,7.880000114440918,6.372981548309326,-0.23305742375311322
114,2009-01-01,7.324999809265138,5.944455623626709,-0.06724104274180738
115,2009-04-01,7.730000019073486,6.2951698303222665,0.05899854064039375
116,2009-07-01,7.429999828338622,6.0793657302856445,-0.03428090200158657
117,2009-10-01,7.25,5.961268424987793,-0.019425925423358706
118,2010-01-01,7.914999961853027,6.537231922149657,0.09661760821700355
119,2010-04-01,9.885000228881836,8.210577011108397,0.25597150428288434
120,2010-07-01,9.734999656677246,8.126917839050293,-0.010189195222810537
121,2010-10-01,10.3149995803833,8.657474517822267,0.06528387382269574
122,2011-01-01,11.375,9.598311424255373,0.10867336709987419
123,2011-04-01,13.104999542236328,11.106123924255373,0.15709143341501597
124,2011-07-01,12.010000228881836,10.22396755218506,-0.07942972526569012
125,2011-10-01,11.725000381469727,10.026063919067383,-0.019356833059919257
126,2012-01-01,13.289999961853027,11.48045253753662,0.14506077661277494
127,2012-04-01,15.175000190734865,13.10879611968994,0.14183618431671308
128,2012-07-01,16.274999618530273,14.210421562194824,0.08403711770680443
129,2012-10-01,18.76499938964844,16.38454818725586,0.15299522364945503
130,2013-01-01,19.040000915527344,16.774749755859375,0.023815216882637026
131,2013-04-01,20.649999618530273,18.19320678710937,0.08455905762496
132,2013-07-01,22.540000915527344,19.951021194458008,0.09661927267237569
133,2013-10-01,23.79999923706055,21.25779914855957,0.06549930158284625
134,2014-01-01,27.22500038146973,24.40886688232422,0.14823113680506125
135,2014-04-01,25.8799991607666,23.30881500244141,-0.045067715973305424
136,2014-07-01,26.864999771118164,24.29694366455078,0.04239291710049923
137,2014-10-01,27.67499923706055,25.13377571105957,0.0344418647078532
138,2015-01-01,26.57500076293945,24.13478279113769,-0.03974702931252361
139,2015-04-01,28.8799991607666,26.44964408874512,0.09591390639974798
140,2015-07-01,31.20499992370605,28.69607162475586,0.08493224061818816
141,2015-10-01,31.309999465942386,28.792633056640625,0.0033649704094501523
142,2016-01-01,27.854999542236328,25.724943161010746,-0.10654426393012217
143,2016-04-01,30.3799991607666,28.18170547485352,0.09550117558923485
144,2016-07-01,33.625,31.331159591674805,0.11175527044066007
145,2016-10-01,30.90999984741211,28.92338943481445,-0.0768490597935015
146,2017-01-01,37.709999084472656,35.57279968261719,0.22989733837345455
147,2017-04-01,39.18999862670898,36.96892547607422,0.03924700349461824
148,2017-07-01,40.45000076293945,38.47497177124024,0.04073816795515778
149,2017-10-01,36.02999877929688,34.270782470703125,-0.10927075724795507
150,2018-01-01,42.52999877929688,40.62244415283203,0.1853375156391225
151,2018-04-01,31.38999938964844,30.100849151611328,-0.259009402822631
152,2018-07-01,35.779998779296875,34.50614547729492,0.14635123094020003
153,2018-10-01,38.13999938964844,36.99636459350586,0.07216740907353747
154,2019-01-01,36.56999969482422,35.862579345703125,-0.030645855620142548
155,2019-04-01,43.52999877929688,42.68794250488281,0.19031991796756995
156,2019-07-01,43.16999816894531,42.55661392211914,-0.003076479564426184
157,2019-10-01,44.81999969482422,44.40148544311523,0.04335099414564089
158,2020-01-01,43.18999862670898,42.98695755004883,-0.03185767050245685
