,Date,Close,Adj Close,RoR
0,1973-07-01,1.578125,0.1278776079416275,-0.004925904457490159
1,1973-10-01,1.2890625,0.1044544279575348,-0.18316873736631603
2,1974-01-01,0.6640625,0.053809858858585365,-0.4848484653952499
3,1974-04-01,0.5390625,0.04368096217513085,-0.18823496099615672
4,1974-07-01,0.46875,0.03798343613743782,-0.13043499396487282
5,1974-10-01,0.4375,0.03545120358467102,-0.06666675820492558
6,1975-01-01,0.625,0.050644580274820335,0.42857153365362405
7,1975-04-01,0.9296875,0.0753338411450386,0.48750055260095365
8,1975-07-01,0.921875,0.07470077276229857,-0.008403505955858561
9,1975-10-01,1.1328125,0.09179329872131348,0.22881324150961785
10,1976-01-01,1.4296875,0.11584946513175964,0.26206887371464044
11,1976-04-01,1.484375,0.1202808991074562,0.03825165675695201
12,1976-07-01,1.4296875,0.11584946513175964,-0.03684237487897067
13,1976-10-01,1.515625,0.12281309068202972,0.06010925939407753
14,1977-01-01,1.6171875,0.13104292750358582,0.0670110716687655
15,1977-04-01,1.5234375,0.12344614416360855,-0.057971715717121695
16,1977-07-01,1.4921875,0.12091390788555145,-0.02051288272480196
17,1977-10-01,1.5703125,0.1272445023059845,0.05235621386437313
18,1978-01-01,1.546875,0.12534527480602264,-0.014925811846823732
19,1978-04-01,1.875,0.15193374454975128,0.21212183534541265
20,1978-07-01,1.8984375,0.1538328230381012,0.01249938579462875
21,1978-10-01,1.640625,0.1329420953989029,-0.13580149688876283
22,1979-01-01,1.75,0.14180481433868408,0.0666660090860455
23,1979-04-01,1.8359375,0.14876848459243774,0.049107431833179914
24,1979-07-01,1.7421875,0.14117176830768585,-0.05106401604858487
25,1979-10-01,1.7109375,0.13863949477672574,-0.017937534971163533
26,1980-01-01,1.78125,0.14433707296848294,0.041096357145075875
27,1980-04-01,1.7265625,0.1399056762456894,-0.030701722237094133
28,1980-07-01,2.515625,0.20384442806243894,0.45701327874979303
29,1980-10-01,2.3203125,0.18801800906658173,-0.07763969388954536
30,1981-01-01,2.4296875,0.19688080251216888,0.04713800284125245
31,1981-04-01,2.8515625,0.2310658544301987,0.17363324144270942
32,1981-07-01,2.734375,0.22157004475593567,-0.041095685460231256
33,1981-10-01,2.4140625,0.1956147104501724,-0.11714279488616636
34,1982-01-01,2.4453125,0.19814704358577728,0.012945514832586838
35,1982-04-01,2.890625,0.2342312484979629,0.18210821750951264
36,1982-07-01,2.921875,0.23676349222660065,0.010810870645467159
37,1982-10-01,3.9921875,0.3234922289848328,0.3663095857499271
38,1983-01-01,4.125,0.3342543840408325,0.03326866642136338
39,1983-04-01,5.296875,0.4292128384113312,0.2840903781800466
40,1983-07-01,5.125,0.4152856171131134,-0.03244828684474434
41,1983-10-01,4.625,0.3747700452804565,-0.09756073931551905
42,1984-01-01,4.234375,0.3431170880794525,-0.0844596776066153
43,1984-04-01,4.296875,0.3481816351413727,0.014760404648652808
44,1984-07-01,4.625,0.3747700452804565,0.07636362017855444
45,1984-10-01,4.859375,0.39376160502433777,0.05067523400828122
46,1985-01-01,5.125,0.4152856171131134,0.05466254661229672
47,1985-04-01,5.359375,0.4382587969303131,0.055318987392097396
48,1985-07-01,5.390625,0.4445915222167969,0.014449739128660826
49,1985-10-01,5.546875,0.4610768258571625,0.03707966260392803
50,1986-01-01,6.78125,0.5682411193847656,0.2324217733744912
51,1986-04-01,7.734375,0.6907221674919128,0.2155441483005619
52,1986-07-01,7.734375,0.7268257737159729,0.05226936085627043
53,1986-10-01,7.921875,0.7832764983177185,0.07766747774110343
54,1987-01-01,7.65625,0.7989500164985657,0.020010198460581868
55,1987-04-01,8.203125,0.910451352596283,0.13955983953336268
56,1987-07-01,9.953125,1.1639518737792969,0.2784339003507664
57,1987-10-01,6.703125,0.8199646472930908,-0.2955338912504138
58,1988-01-01,7.59375,0.9946615695953368,0.21305421261631752
59,1988-04-01,8.40625,1.1871507167816162,0.19352225226173234
60,1988-07-01,8.5625,1.2913299798965454,0.087755717654251
61,1988-10-01,9.3125,1.497555136680603,0.15969981336651015
62,1989-01-01,10.0625,1.7167086601257324,0.14634087124891632
63,1989-04-01,10.28125,1.880703330039978,0.09552853883910306
64,1989-07-01,11.78125,2.2257068157196045,0.18344386388271708
65,1989-10-01,12.625,2.453939199447632,0.10254377715702703
66,1990-01-01,11.3125,2.2571120262146,-0.08020865931696128
67,1990-04-01,11.625,2.3973143100738525,0.06211578434340522
68,1990-07-01,13.1875,2.8031606674194336,0.1692920930894032
69,1990-10-01,8.8125,1.9206618070602417,-0.3148227893664094
70,1991-01-01,11.4375,2.5994393825531006,0.35340817055751916
71,1991-04-01,12.125,2.8566367626190186,0.09894340364009778
72,1991-07-01,11.71875,2.838408946990967,-0.006380865732239668
73,1991-10-01,11.0,2.7456297874450684,-0.03268703040280887
74,1992-01-01,12.0625,3.108677387237549,0.1322274406595481
75,1992-04-01,12.46875,3.3214142322540283,0.06843323333899339
76,1992-07-01,12.46875,3.4237818717956543,0.03082049765053114
77,1992-10-01,13.25,3.75791072845459,0.09759057941494871
78,1993-01-01,12.875,3.762936353683472,0.0013373455603478445
79,1993-04-01,11.25,3.383461236953736,-0.10084547838771571
80,1993-07-01,11.5625,3.599013090133667,0.06370749894389247
81,1993-10-01,10.5,3.3822214603424072,-0.06023641047196306
82,1994-01-01,9.9375,3.3135831356048584,-0.02029385879734796
83,1994-04-01,9.9375,3.443629026412964,0.03924630392119829
84,1994-07-01,9.28125,3.343674659729004,-0.02902588110313289
85,1994-10-01,8.34375,3.1286544799804688,-0.06430654941948269
86,1995-01-01,7.6875,3.01493239402771,-0.036348560277409965
87,1995-04-01,8.9375,3.6785407066345215,0.22010719508051177
88,1995-07-01,9.0,4.041177272796632,0.09858163741618199
89,1995-10-01,8.0,3.927011251449585,-0.028250683808295304
90,1996-01-01,7.125,3.8216590881347656,-0.026827568491414558
91,1996-04-01,9.6875,5.4875030517578125,0.4358954907294188
92,1996-07-01,9.78125,5.60363245010376,0.021162520959099516
93,1996-10-01,9.3125,5.457335472106934,-0.026107525662950513
94,1997-01-01,10.8125,7.484725952148437,0.3714982321324624
95,1997-04-01,12.40625,8.67754077911377,0.1593665332025876
96,1997-07-01,14.1875,10.0131196975708,0.15391214544006243
97,1997-10-01,15.328125,10.911137580871582,0.08968412546977161
98,1998-01-01,16.390625,11.759034156799315,0.07770927363377655
99,1998-04-01,18.4375,13.314626693725586,0.13228914179374127
100,1998-07-01,20.5,14.892915725708008,0.11853798595240964
101,1998-10-01,22.84375,16.638748168945312,0.11722569813670976
102,1999-01-01,27.375,19.990068435668945,0.20141661095505747
103,1999-04-01,23.8125,17.430564880371097,-0.12803875902349793
104,1999-07-01,24.875,18.25953483581543,0.047558410248531406
105,1999-10-01,21.71875,15.97935962677002,-0.1248758651054422
106,2000-01-01,17.46875,12.88771152496338,-0.19347759697624176
107,2000-04-01,21.75,16.098018646240234,0.24909830694600185
108,2000-07-01,19.75,14.65655517578125,-0.08954291221396024
109,2000-10-01,26.46875,19.695955276489254,0.343832506361058
110,2001-01-01,29.60000038146973,22.08129119873047,0.12110790711880584
111,2001-04-01,29.47500038146973,22.03346443176269,-0.0021659406842352916
112,2001-07-01,18.0049991607666,13.48642635345459,-0.3879116742978913
113,2001-10-01,11.949999809265135,8.97685718536377,-0.33437836309658714
114,2002-01-01,13.600000381469727,10.252562522888184,0.14211046373828645
115,2002-04-01,16.739999771118164,12.671841621398926,0.23596823653694945
116,2002-07-01,14.300000190734865,10.861144065856934,-0.1428914288578441
117,2002-10-01,13.864999771118164,10.57725715637207,-0.026137845862600192
118,2003-01-01,11.3100004196167,8.663693428039549,-0.1809130382331426
119,2003-04-01,12.104999542236328,9.314988136291504,0.07517517946146118
120,2003-07-01,14.994999885559082,11.595258712768555,0.24479586480556434
121,2003-10-01,17.59000015258789,13.65760326385498,0.17786102079942362
122,2004-01-01,17.860000610351562,13.913865089416506,0.01876330865750987
123,2004-04-01,19.315000534057614,15.10232925415039,0.08541581775418268
124,2004-07-01,20.934999465942386,16.426399230957028,0.08767322937571097
125,2004-10-01,21.729999542236328,17.10306167602539,0.041193595477280964
126,2005-01-01,23.17499923706055,18.29603385925293,0.06975196639206506
127,2005-04-01,25.790000915527344,20.42325782775879,0.1162669453319824
128,2005-07-01,31.03000068664551,24.64081382751465,0.20650750410757002
129,2005-10-01,24.40999984741211,19.40677833557129,-0.21241325585191848
130,2006-01-01,27.76000022888184,22.101688385009766,0.13886437011025637
131,2006-04-01,29.71999931335449,23.69598960876465,0.07213481594628764
132,2006-07-01,32.720001220703125,26.12170791625977,0.10236830567303669
133,2006-10-01,31.3799991607666,25.08294677734375,-0.03976620296980773
134,2007-01-01,33.650001525878906,26.93099403381348,0.07367743801693127
135,2007-04-01,36.2400016784668,29.04743576049805,0.07858758291755777
136,2007-07-01,35.189998626708984,28.25439262390137,-0.027301657300681542
137,2007-10-01,41.65999984741211,33.504905700683594,0.1858299750652092
138,2008-01-01,38.90999984741211,31.34055137634277,-0.06459813209671755
139,2008-04-01,40.36999893188477,32.569210052490234,0.039203479906703566
140,2008-07-01,36.5,29.491079330444336,-0.09451045073199574
141,2008-10-01,30.649999618530273,24.80862808227539,-0.15877517386537768
142,2009-01-01,26.8799991607666,21.810640335083008,-0.12084456009618305
143,2009-04-01,31.78000068664551,25.861839294433594,0.1857441550138316
144,2009-07-01,33.47999954223633,27.31435203552246,0.05616432476252765
145,2009-10-01,35.29999923706055,28.86601448059082,0.056807587566068345
146,2010-01-01,32.36999893188477,26.523326873779297,-0.08115729341113993
147,2010-04-01,36.91999816894531,30.32967567443848,0.14350947823299282
148,2010-07-01,30.690000534057614,25.271188735961914,-0.1667834167689371
149,2010-10-01,30.1299991607666,24.882253646850586,-0.015390454844645195
150,2011-01-01,34.200000762939446,28.32450866699219,0.13834177036360615
151,2011-04-01,36.22000122070313,30.104570388793945,0.06284528154502957
152,2011-07-01,36.349998474121094,30.31916618347168,0.007128346025413304
153,2011-10-01,36.33000183105469,30.404863357543945,0.002826501677311395
154,2012-01-01,41.75,35.065608978271484,0.1532894776049415
155,2012-04-01,44.61999893188477,37.61793518066406,0.0727871631710185
156,2012-07-01,45.25,38.29179382324219,0.017913227808539954
157,2012-10-01,46.4000015258789,39.39665603637695,0.02885375958710352
158,2013-01-01,51.20000076293945,43.62412643432617,0.10730531022850717
159,2013-04-01,58.18000030517578,49.78628540039063,0.1412557561545964
160,2013-07-01,61.4900016784668,52.8277587890625,0.06109058677930617
161,2013-10-01,62.2599983215332,53.68747329711914,0.016273915982115004
162,2014-01-01,67.72000122070311,58.61862564086914,0.09184921623075536
163,2014-04-01,72.72000122070312,63.45851135253906,0.08256566336648354
164,2014-07-01,76.36000061035156,66.88378143310547,0.05397652745961171
165,2014-10-01,85.80999755859375,75.43031311035156,0.12778182534123014
166,2015-01-01,98.16000366210938,86.5776596069336,0.14778337828551638
167,2015-04-01,99.29000091552734,87.8858642578125,0.015110187279469245
168,2015-07-01,112.47000122070312,99.89681243896484,0.1366653020094144
169,2015-10-01,98.77999877929688,88.01483154296875,-0.11894254286898064
170,2016-01-01,96.58999633789062,86.35548400878906,-0.018853044482276784
171,2016-04-01,100.5,90.25469970703124,0.045153075603690904
172,2016-07-01,92.72000122070312,83.61131286621094,-0.07360710148485208
173,2016-10-01,84.0999984741211,76.17230987548828,-0.08897124965165941
174,2017-01-01,78.80999755859375,71.73381805419922,-0.05826909842361677
175,2017-04-01,82.44000244140625,75.49156188964844,0.05238455079318401
176,2017-07-01,79.93000030517578,73.66382598876953,-0.024211128437780133
177,2017-10-01,68.52999877929689,63.56823348999024,-0.13704952686435837
178,2018-01-01,78.69000244140625,73.472900390625,0.15581158004326792
179,2018-04-01,69.83000183105469,65.60553741455078,-0.10707843210553424
180,2018-07-01,64.86000061035156,61.40236282348633,-0.06406737535743778
181,2018-10-01,72.38999938964844,69.05136871337889,0.12457184932575312
182,2019-01-01,65.55000305175781,62.959022521972656,-0.08822918799328343
183,2019-04-01,54.38000106811523,52.62856674194336,-0.16408221357667957
184,2019-07-01,55.86999893188477,54.58918380737305,0.03725385635226003
185,2019-10-01,66.38999938964844,65.4495849609375,0.19894785736103276
186,2020-01-01,67.81999969482422,67.36537933349611,0.029271299026602204
