,Date,Close,Adj Close,RoR
0,1985-10-01,4.8125,3.5665807723999023,-0.10465183717166365
1,1986-01-01,3.75,2.7791545391082764,-0.22077902718064
2,1986-04-01,3.5625,2.6401987075805664,-0.049999317984056955
3,1986-07-01,2.375,1.7601311206817627,-0.3333338450518684
4,1986-10-01,3.0,2.2233245372772217,0.2631584722029387
5,1987-01-01,2.875,2.130686521530152,-0.04166643879193559
6,1987-04-01,3.0,2.2233245372772217,0.04347801274893404
7,1987-07-01,2.75,2.0380470752716064,-0.08333352099487641
8,1987-10-01,2.0625,1.5285356044769287,-0.24999985377019623
9,1988-01-01,1.25,0.92638498544693,-0.39393954400954706
10,1988-04-01,1.1875,0.8800655603408813,-0.05000018980629539
11,1988-07-01,0.9375,0.6947886347770691,-0.21052627657881282
12,1988-10-01,2.0,1.4822155237197876,1.1333330016190801
13,1989-01-01,2.4375,1.806450605392456,0.21875029405910135
14,1989-04-01,3.9375,2.9181132316589355,0.6153850113299765
15,1989-07-01,4.5,3.3349850177764893,0.14285661762362928
16,1989-10-01,5.25,3.890818119049072,0.16666734582309134
17,1990-01-01,6.125,4.539288520812988,0.16666685049837401
18,1990-04-01,6.125,4.539288520812988,0.0
19,1990-07-01,6.875,5.095118999481201,0.12244881023087367
20,1990-10-01,6.125,4.539288520812988,-0.10909077466587318
21,1991-01-01,4.8125,3.5665807723999023,-0.21428638958575685
22,1991-04-01,4.625,3.427626609802246,-0.038960049264258195
23,1991-07-01,5.0625,3.7518596649169917,0.09459404189111835
24,1991-10-01,5.875,4.354008674621582,0.16049347883002776
25,1992-01-01,3.9375,2.9181132316589355,-0.3297869963677654
26,1992-04-01,4.5,3.3349850177764893,0.14285661762362928
27,1992-07-01,6.875,5.095118999481201,0.527778677362165
28,1992-10-01,7.375,5.465672016143799,0.07272705832784836
29,1993-01-01,8.25,6.114142417907715,0.11864422157944121
30,1993-04-01,10.8125,8.013232231140138,0.31060608069419166
31,1993-07-01,11.125,8.265379905700684,0.031466412963881994
32,1993-10-01,10.0625,7.49444055557251,-0.09327331095772769
33,1994-01-01,10.25,7.659618377685548,0.02204004700393809
34,1994-04-01,10.8125,8.104435920715332,0.0580730685389827
35,1994-07-01,10.125,7.6096391677856445,-0.06105258376649792
36,1994-10-01,10.9375,8.243565559387207,0.0833057097221117
37,1995-01-01,8.5,6.428160190582275,-0.22022089297727154
38,1995-04-01,10.375,7.8708229064941415,0.22442855702716813
39,1995-07-01,9.8125,7.464115619659424,-0.05167277826809537
40,1995-10-01,10.875,8.29350471496582,0.11111686066623928
41,1996-01-01,12.3125,9.412583351135254,0.1349343461697237
42,1996-04-01,12.75,9.775835037231444,0.03859213486299463
43,1996-07-01,11.6875,8.983181953430176,-0.08108290297273166
44,1996-10-01,17.4375,13.437206268310547,0.49581811188624847
45,1997-01-01,17.6875,13.671120643615724,0.017407961940483593
46,1997-04-01,16.5,12.792332649230955,-0.06428061146509992
47,1997-07-01,19.03125,14.796995162963867,0.15670812890043376
48,1997-10-01,22.375,17.436708450317386,0.17839522540093739
49,1998-01-01,17.4375,13.626405715942385,-0.2185219042476819
50,1998-04-01,19.9375,15.62281322479248,0.1465102060269917
51,1998-07-01,16.125,12.671260833740234,-0.18892579387483857
52,1998-10-01,16.9375,13.354440689086914,0.05391569665487048
53,1999-01-01,13.09375,10.358931541442873,-0.22430809476670444
54,1999-04-01,16.625,13.203417778015135,0.2745926281289103
55,1999-07-01,18.40625,14.638427734375,0.10868473455026806
56,1999-10-01,19.4375,15.49435329437256,0.05847114017495301
57,2000-01-01,17.5625,14.045675277709961,-0.09349715919984534
58,2000-04-01,24.0625,19.287851333618164,0.37322349778564007
59,2000-07-01,22.875,18.367019653320312,-0.04774153763269985
60,2000-10-01,25.20000076293945,20.26803398132324,0.10350151324955265
61,2001-01-01,27.399999618530273,22.077844619750977,0.08929384271288758
62,2001-04-01,29.5049991607666,23.811208724975586,0.07851147315684662
63,2001-07-01,27.104999542236328,21.912294387817386,-0.07974875862418641
64,2001-10-01,19.149999618530273,15.5349702835083,-0.29103862842654654
65,2002-01-01,18.61000061035156,15.141180992126465,-0.02534857062455259
66,2002-04-01,24.65500068664551,20.10264587402344,0.3276801779515731
67,2002-07-01,20.84000015258789,17.028188705444336,-0.15293793602323297
68,2002-10-01,25.25,20.67402458190918,0.21410591223358824
69,2003-01-01,22.649999618530273,18.58343505859375,-0.10112155545876643
70,2003-04-01,23.625,19.423192977905273,0.04518851959628339
71,2003-07-01,23.684999465942386,19.51247978210449,0.004596916907574507
72,2003-10-01,24.25,20.017757415771484,0.025895100946134064
73,2004-01-01,28.229999542236328,23.34678840637207,0.16630389316126523
74,2004-04-01,30.60000038146973,25.39745903015137,0.0878352340409959
75,2004-07-01,34.74499893188477,28.933279037475586,0.13921943935913267
76,2004-10-01,36.98500061035156,30.88839912414551,0.06757340169213356
77,2005-01-01,40.66999816894531,34.01057815551758,0.10107934110872889
78,2005-04-01,45.16999816894531,37.83528518676758,0.11245639558848584
79,2005-07-01,56.09000015258789,47.05630111694336,0.24371471986157295
80,2005-10-01,60.38000106811523,50.71549606323242,0.07776206075346437
81,2006-01-01,68.20999908447266,57.35699081420898,0.13095592602891817
82,2006-04-01,60.11000061035156,50.64604568481445,-0.1170030894949257
83,2006-07-01,64.63999938964844,54.58113479614258,0.0776978549483876
84,2006-10-01,66.83999633789061,56.53633117675781,0.03582183455726564
85,2007-01-01,70.08999633789061,59.37939834594727,0.050287436591892797
86,2007-04-01,72.87000274658203,61.86920166015625,0.04193042340549262
87,2007-07-01,74.61000061035156,63.46013259887695,0.02571442488396068
88,2007-10-01,93.4000015258789,79.58396911621094,0.25407820401590725
89,2008-01-01,85.05000305175781,72.58600616455078,-0.08793181628628646
90,2008-04-01,113.4000015258789,97.08277130126952,0.3374860586927064
91,2008-07-01,94.88999938964844,81.3477783203125,-0.16207811921775306
92,2008-10-01,80.86000061035156,69.44026184082031,-0.14637789409079519
93,2009-01-01,61.599998474121094,53.0172348022461,-0.23650583398174874
94,2009-04-01,51.849998474121094,44.79515075683594,-0.15508323050190145
95,2009-07-01,58.09000015258789,50.31238174438477,0.12316580911845422
96,2009-10-01,64.70999908447266,56.18341827392578,0.11669168355752228
97,2010-01-01,66.91000366210939,58.23905563354492,0.03658797244405372
98,2010-04-01,67.33000183105469,58.73541259765625,0.008522750905071907
99,2010-07-01,62.4900016784668,54.64213562011719,-0.06969010340624386
100,2010-10-01,65.01999664306639,57.00024795532226,0.043155566824824146
101,2011-01-01,88.69000244140625,77.92082977294922,0.3670261545883951
102,2011-04-01,91.0,80.0992202758789,0.02795645925841939
103,2011-07-01,78.69999694824219,69.42099761962889,-0.1333124419872244
104,2011-10-01,64.94999694824219,57.4453125,-0.1725081103738381
105,2012-01-01,63.81000137329102,56.5867919921875,-0.01494500543995648
106,2012-04-01,69.84999847412111,62.1177749633789,0.09774335629337354
107,2012-07-01,59.11999893188477,52.75891494750977,-0.1506631559386436
108,2012-10-01,58.209999084472656,52.1187858581543,-0.012133098074369894
109,2013-01-01,57.18999862670898,51.40148162841797,-0.01376287298189433
110,2013-04-01,55.06000137329102,49.66489028930664,-0.033784849854429706
111,2013-07-01,55.0099983215332,49.8181266784668,0.0030854067786625036
112,2013-10-01,63.22000122070313,57.46864700317383,0.15356900860774164
113,2014-01-01,59.22000122070313,54.02797317504883,-0.05987045123813305
114,2014-04-01,70.0,64.08472442626953,0.18613970986172598
115,2014-07-01,75.5,69.34200286865234,0.08203637433802798
116,2014-10-01,60.0,55.29379272460938,-0.20259308302145654
117,2015-01-01,60.27000045776367,55.77664566040039,0.008732498025517196
118,2015-04-01,68.20999908447266,63.39165115356445,0.13652677393919493
119,2015-07-01,49.41999816894531,46.10236358642578,-0.2727376121700296
120,2015-10-01,41.93000030517578,39.35134506225586,-0.146435410226075
121,2016-01-01,27.899999618530273,26.36235046386719,-0.3300775253765636
122,2016-04-01,34.68000030517578,33.122299194335945,0.2564243556254244
123,2016-07-01,38.27999877929688,36.6231689453125,0.10569525172259839
124,2016-10-01,37.88999938964844,36.30048370361328,-0.00881095904565408
125,2017-01-01,45.540000915527344,43.68403625488281,0.2034009411983286
126,2017-04-01,39.4900016784668,37.93713760375977,-0.1315560361133222
127,2017-07-01,33.310001373291016,32.05894088745117,-0.1549457098662615
128,2017-10-01,36.900001525878906,35.644287109375,0.11183607825694702
129,2018-01-01,41.36999893188477,40.02516555786133,0.12290548651018157
130,2018-04-01,36.33000183105469,35.21344375610352,-0.12021741158826355
131,2018-07-01,45.0099983215332,43.70877456665039,0.2412524849710099
132,2018-10-01,32.400001525878906,31.52344512939453,-0.2787845131341937
133,2019-01-01,26.649999618530273,26.005266189575195,-0.17504999587351014
134,2019-04-01,32.139999389648445,31.448223114013672,0.20930210384158307
135,2019-07-01,27.0,26.51250648498535,-0.15694739289829418
136,2019-10-01,21.459999084472656,21.148757934570312,-0.20231012686230382
137,2020-01-01,21.71999931335449,21.48756217956543,0.016020054040209092
