,Date,Close,Adj Close,RoR
0,1972-10-01,2.1491649150848393,0.002878329949453473,0.03594659647246306
1,1973-01-01,2.408686637878418,0.003259302582591772,0.13235891639547326
2,1973-04-01,1.991018772125244,0.002719351556152105,-0.16566459012538268
3,1973-07-01,1.8247625827789309,0.0025195169728249307,-0.07348611578928804
4,1973-10-01,1.6990567445755005,0.0023883143439888954,-0.05207451676300017
5,1974-01-01,1.4760302305221558,0.0021046767942607407,-0.11876056032659053
6,1974-04-01,1.601736068725586,0.002324341330677271,0.10436972413794607
7,1974-07-01,1.419259786605835,0.00209211721085012,-0.0999096461273547
8,1974-10-01,1.0461971759796145,0.0015680526848882435,-0.2504948208656655
9,1975-01-01,1.1921782493591309,0.0018335996428504586,0.16934823716152173
10,1975-04-01,1.1678481101989746,0.0018372900085523727,0.0020126343917569265
11,1975-07-01,1.2651687860488892,0.0020228663925081487,0.1010054934669755
12,1975-10-01,1.305719017982483,0.002119894372299313,0.047965589892894296
13,1976-01-01,1.609846115112305,0.002651992253959179,0.25100207284513587
14,1976-04-01,1.9261382818222048,0.0032103420235216613,0.21053974374507237
15,1976-07-01,1.8328726291656492,0.0030856148805469275,-0.03885166815899306
16,1976-10-01,1.840982675552368,0.003143482375890017,0.018753959124293722
17,1977-01-01,1.962633490562439,0.003399765351787209,0.0815283641679812
18,1977-04-01,1.8004324436187744,0.00316066900268197,-0.07032730920078037
19,1977-07-01,1.8044874668121336,0.0032256462145596747,0.020558056481893055
20,1977-10-01,1.7385932207107544,0.003163168905302882,-0.019368927991788812
21,1978-01-01,1.6980429887771606,0.0031451508402824398,-0.005696207050542299
22,1978-04-01,2.0731329917907715,0.003914008382707834,0.24445808213012443
23,1978-07-01,1.834900140762329,0.003527580527588725,-0.0987294398311345
24,1978-10-01,1.6220111846923828,0.0031810605432838197,-0.09823162975155916
25,1979-01-01,1.6574926376342771,0.003319131676107645,0.04340411977236183
26,1979-04-01,1.809556245803833,0.0037025194615125656,0.11550845908425077
27,1979-07-01,1.70311176776886,0.0035636967513710256,-0.03749412031039742
28,1979-10-01,1.4952915906906128,0.003203336847946048,-0.10111968794380154
29,1980-01-01,1.3685719966888428,0.0030116457492113113,-0.059841068184149145
30,1980-04-01,0.9884130954742432,0.0022390508092939854,-0.25653579612398064
31,1980-07-01,1.155682921409607,0.002728194696828723,0.21846037861417436
32,1980-10-01,1.0441696643829346,0.002493734005838633,-0.08593986758446127
33,1981-01-01,0.800868034362793,0.0019352261442691086,-0.22396448869922694
34,1981-04-01,0.8667622208595276,0.0021280681248754267,0.09964829235972845
35,1981-07-01,0.8768997788429259,0.0021800785325467587,0.024440198630566172
36,1981-10-01,0.6589420437812805,0.0016603555995970964,-0.23839642709683675
37,1982-01-01,0.7400426268577576,0.001897482667118311,0.14281703725319803
38,1982-04-01,0.9174500703811646,0.002352359239012003,0.23972633836203036
39,1982-07-01,0.9174500703811646,0.002352359239012003,0.0
40,1982-10-01,1.292540192604065,0.00331409671343863,0.4088395422250895
41,1983-01-01,1.6068048477172852,0.004119875840842724,0.24313687773101708
42,1983-04-01,2.08327054977417,0.0053415438160300255,0.2965302893539162
43,1983-07-01,2.438085556030273,0.0062512909062206745,0.1703153847508447
44,1983-10-01,2.691524744033813,0.006934684701263905,0.10932042761970703
45,1984-01-01,2.486238956451416,0.006447752472013235,-0.07021692408912578
46,1984-04-01,2.2277309894561768,0.0058172387070953855,-0.0977881467464242
47,1984-07-01,2.39500093460083,0.006326327100396156,0.08751375333452056
48,1984-10-01,2.858794689178467,0.0076320269145071515,0.20639144852772978
49,1985-01-01,2.965239286422729,0.00806686095893383,0.05697490971895488
50,1985-04-01,2.486238956451416,0.006830714643001556,-0.15323758798188722
51,1985-07-01,2.71433424949646,0.007561090867966413,0.10692530183692667
52,1985-10-01,2.8283820152282715,0.007988350465893745,0.05650766607467661
53,1986-01-01,3.8091919422149663,0.010927093215286732,0.3678785453817964
54,1986-04-01,4.599922180175781,0.016543425619602203,0.5139822909589864
55,1986-07-01,4.881239891052246,0.021306024864315987,0.2878847074496233
56,1986-10-01,5.234787464141847,0.027533438056707386,0.29228414178851686
57,1987-01-01,6.78583574295044,0.04423214495182037,0.606488258412212
58,1987-04-01,8.302669525146483,0.06373193114995956,0.44085101953294914
59,1987-07-01,9.272074699401855,0.08440543711185455,0.3243822302081318
60,1987-10-01,6.888478755950928,0.07169631868600845,-0.15057227189054073
61,1988-01-01,7.75524091720581,0.10810176283121108,0.5077728509972598
62,1988-04-01,8.622003555297853,0.1339600533246994,0.2392032268138234
63,1988-07-01,9.671241760253906,0.16876071691513062,0.2597838887543553
64,1988-10-01,9.397527694702148,0.1823158264160156,0.08032147379239812
65,1989-01-01,9.967765808105467,0.21357539296150208,0.17145832679471906
66,1989-04-01,8.713241577148438,0.21302010118961331,-0.0025999801015880817
67,1989-07-01,9.101003646850586,0.25646963715553284,0.20396918282957838
68,1989-10-01,8.64481258392334,0.27932941913604736,0.08913250798047292
69,1990-01-01,7.869288921356201,0.2932063639163971,0.0496794960705194
70,1990-04-01,8.051764488220215,0.35160329937934875,0.19916667115589132
71,1990-07-01,7.572764873504639,0.3840100169181824,0.09216841137736209
72,1990-10-01,5.063716411590576,0.30359068512916565,-0.2094198803312752
73,1991-01-01,5.109335422515869,0.3845269978046417,0.2665968247380216
74,1991-04-01,5.930478572845459,0.5832802653312683,0.516877276917765
75,1991-07-01,6.112954616546631,0.6718766689300537,0.15189336733082842
76,1991-10-01,4.9496684074401855,0.6058372259140015,-0.0982910198700877
77,1992-01-01,5.565526008605957,0.7777332663536072,0.28373304426824103
78,1992-04-01,8.279860496520996,1.29535973072052,0.6655578290919689
79,1992-07-01,8.348288536071777,1.419055461883545,0.09549141310284628
80,1992-10-01,6.660383701324463,1.2282754182815552,-0.13444156956963685
81,1993-01-01,8.416717529296875,1.6993973255157468,0.38356373515422526
82,1993-04-01,9.990574836730957,2.1730782985687256,0.27873468196098417
83,1993-07-01,9.625622749328613,2.239558696746826,0.030592730239811045
84,1993-10-01,11.290719032287598,2.8104479312896733,0.2549114856297888
85,1994-01-01,12.225909233093262,3.231025218963623,0.1496477778476234
86,1994-04-01,10.65205192565918,2.9664335250854488,-0.08189094047462872
87,1994-07-01,11.632861137390135,3.471882104873657,0.17038931616498923
88,1994-10-01,10.766098976135254,3.314664602279663,-0.04528307639631528
89,1995-01-01,9.21505069732666,2.950007200241089,-0.11001336358067143
90,1995-04-01,9.899336814880373,3.2574734687805176,0.10422559935253754
91,1995-07-01,10.583622932434082,3.5936310291290283,0.10319579378626718
92,1995-10-01,10.492384910583496,3.669190406799317,0.021025914195927205
93,1996-01-01,10.766098976135254,3.8903272151947017,0.060268556242161715
94,1996-04-01,13.092671394348145,4.891417026519775,0.2573279202363885
95,1996-07-01,11.815338134765625,4.582373142242432,-0.0631808497623085
96,1996-10-01,11.404766082763672,4.572141170501709,-0.00223289798170289
97,1997-01-01,11.724100112915039,4.864395618438722,0.06392069646111627
98,1997-04-01,12.682100296020508,5.434983730316162,0.11729887053483054
99,1997-07-01,14.917434692382812,6.607882499694824,0.21580538738989613
100,1997-10-01,15.943862915039062,7.264585494995117,0.09938176039459265
101,1998-01-01,18.612579345703125,8.703080177307129,0.1980146951678182
102,1998-04-01,25.176008224487305,12.050084114074707,0.38457693926510444
103,1998-07-01,31.324037551879886,15.252829551696776,0.26578614782291904
104,1998-10-01,29.81278991699219,14.706415176391602,-0.035823803934424026
105,1999-01-01,33.76264190673828,16.93414306640625,0.1514800080981563
106,1999-04-01,35.13650131225586,17.865150451660156,0.05497812210532386
107,1999-07-01,26.652910232543945,13.730896949768065,-0.23141442402506648
108,1999-10-01,30.1562557220459,15.783543586730955,0.1494910816439827
109,2000-01-01,27.33983993530273,14.557046890258787,-0.07770730886461198
110,2000-04-01,30.08756256103516,16.317390441894528,0.12092724334176037
111,2000-07-01,26.634920120239254,14.687362670898438,-0.09989512580461586
112,2000-10-01,26.125,14.67699146270752,-0.0007061314153743542
113,2001-01-01,28.190000534057614,16.025184631347653,0.09185759711489448
114,2001-04-01,29.479999542236328,16.939599990844727,0.0570611434771454
115,2001-07-01,25.46999931335449,14.785200119018555,-0.12718127187126918
116,2001-10-01,16.049999237060547,9.427989959716797,-0.3623359924909404
117,2002-01-01,15.300000190734865,9.072214126586914,-0.037736127705907084
118,2002-04-01,16.0,9.552666664123537,0.052958685810624205
119,2002-07-01,13.470000267028807,8.092735290527344,-0.15282972021615523
120,2002-10-01,8.460000038146973,5.1215410232543945,-0.3671433897943965
121,2003-01-01,9.109999656677246,5.581888198852539,0.08988450419667339
122,2003-04-01,10.300000190734863,6.37766695022583,0.14256443752077982
123,2003-07-01,11.0600004196167,6.915263652801514,0.08429363069149409
124,2003-10-01,12.130000114440918,7.654960632324219,0.1069658391438248
125,2004-01-01,14.539999961853027,9.250457763671877,0.20842656258876527
126,2004-04-01,15.359999656677244,9.833843231201172,0.06306557820525911
127,2004-07-01,14.720000267028807,9.483259201049805,-0.035650764600255326
128,2004-10-01,13.029999732971193,8.451281547546388,-0.10882098987541913
129,2005-01-01,13.170000076293945,8.607592582702638,0.018495542276855143
130,2005-04-01,9.109999656677246,5.999422550201416,-0.3030080719366833
131,2005-07-01,10.739999771118164,7.148591041564941,0.19154651664349678
132,2005-10-01,8.319999694824219,5.58910608291626,-0.21815277298437893
133,2006-01-01,8.579999923706055,5.835452556610107,0.04407618499975045
134,2006-04-01,6.949999809265138,4.782331466674805,-0.1804694802534861
135,2006-07-01,6.670000076293945,4.6543049812316895,-0.026770726022496538
136,2006-10-01,8.279999732971191,5.81999397277832,0.2504539337768427
137,2007-01-01,8.130000114440918,5.714560031890869,-0.01811581616417373
138,2007-04-01,8.039999961853027,5.651299476623535,-0.011070065746846646
139,2007-07-01,8.510000228881836,5.981657981872559,0.05845708701433068
140,2007-10-01,8.869999885559082,6.234703540802003,0.042303581999555966
141,2008-01-01,6.639999866485597,4.667242050170898,-0.2514091456591493
142,2008-04-01,8.260000228881836,5.805935859680176,0.2439757349777011
143,2008-07-01,4.800000190734863,3.3739089965820312,-0.41888627809128337
144,2008-10-01,2.190000057220459,1.5393459796905518,-0.54375
145,2009-01-01,1.870000004768372,1.3144186735153198,-0.14611874727502658
146,2009-04-01,5.980000019073486,4.2033281326293945,2.197860938317234
147,2009-07-01,8.0,5.623182773590088,0.33779295742788046
148,2009-10-01,7.0,4.9202847480773935,-0.12500003179941693
149,2010-01-01,10.84000015258789,7.619412899017334,0.5485715337907278
150,2010-04-01,13.020000457763672,9.15173053741455,0.2011070483652143
151,2010-07-01,12.770000457763672,8.976005554199219,-0.019201284663804795
152,2010-10-01,14.130000114440918,9.931944847106934,0.10649940969126301
153,2011-01-01,15.949999809265135,11.211219787597656,0.1288040721312867
154,2011-04-01,15.470000267028807,10.873831748962402,-0.030093785067748593
155,2011-07-01,12.210000038146973,8.582381248474121,-0.2107307298282351
156,2011-10-01,11.68000030517578,8.209845542907715,-0.04340703294119451
157,2012-01-01,12.420000076293945,8.72999095916748,0.0633562974530144
158,2012-04-01,11.279999732971193,7.959805011749268,-0.08822299484851474
159,2012-07-01,9.239999771118164,6.548493385314941,-0.17730479884257525
160,2012-10-01,11.15999984741211,7.952248096466064,0.21436300360309676
161,2013-01-01,12.949999809265135,9.272496223449707,0.16602199918414953
162,2013-04-01,13.710000038146973,9.888960838317873,0.06648313463953275
163,2013-07-01,16.879999160766598,12.264928817749025,0.2402646767721762
164,2013-10-01,17.110000610351562,12.505258560180664,0.019594874622007503
165,2014-01-01,14.960000038146973,10.996322631835938,-0.12066411270771253
166,2014-04-01,16.149999618530273,11.966180801391602,0.08819840977999181
167,2014-07-01,17.020000457763672,12.7093505859375,0.06210584620779521
168,2014-10-01,14.09000015258789,10.596822738647461,-0.16621839432358448
169,2015-01-01,14.710000038146973,11.161642074584961,0.053300819487860134
170,2015-04-01,15.800000190734865,12.111047744750975,0.08505967704588994
171,2015-07-01,14.829999923706055,11.474695205688475,-0.052543145108011016
172,2015-10-01,14.8100004196167,11.576309204101562,0.008855485622198794
173,2016-01-01,11.9399995803833,9.427936553955078,-0.18558355796036458
174,2016-04-01,13.5600004196167,10.83972454071045,0.149745172623496
175,2016-07-01,12.65999984741211,10.231895446777344,-0.05607421956621673
176,2016-10-01,11.739999771118164,9.592384338378906,-0.06250172431148708
177,2017-01-01,12.359999656677244,10.224783897399902,0.06592725402909266
178,2017-04-01,11.470000267028807,9.602763175964355,-0.06083460811271745
179,2017-07-01,11.220000267028807,9.520055770874023,-0.008612875645767048
180,2017-10-01,12.270000457763672,10.544672012329102,0.10762712594497853
181,2018-01-01,10.970000267028807,9.544533729553224,-0.09484773747409969
182,2018-04-01,11.239999771118164,9.90700626373291,0.03797697660780889
183,2018-07-01,10.039999961853027,8.968049049377441,-0.0947770889973854
184,2018-10-01,9.550000190734863,8.650287628173826,-0.03543261410079754
185,2019-01-01,8.800000190734863,8.114134788513184,-0.06198092626589698
186,2019-04-01,10.449999809265137,9.803401947021484,0.2081882052168668
187,2019-07-01,9.529999732971193,9.083754539489746,-0.07340792629138143
188,2019-10-01,8.590000152587889,8.309976577758789,-0.0851826145639578
189,2020-01-01,8.819999694824219,8.672508239746094,0.043626075067118894
