,Date,Close,Adj Close,RoR
0,1973-10-01,3.3333332538604736,0.4799431264400482,0.0
1,1974-01-01,3.0833332538604736,0.44394704699516296,-0.07500071875574965
2,1974-04-01,2.9583332538604736,0.425949364900589,-0.040540154994588955
3,1974-07-01,2.625,0.3779551684856415,-0.11267582574315782
4,1974-10-01,2.2916667461395264,0.3299607634544373,-0.12698438606754356
5,1975-01-01,2.8333332538604736,0.4079515933990479,0.2363639516653621
6,1975-04-01,3.4166667461395264,0.4919418096542358,0.20588279985716534
7,1975-07-01,3.7083332538604736,0.5339366197586061,0.08536540151748148
8,1975-10-01,3.4166667461395264,0.4919418096542358,-0.07865130157837129
9,1976-01-01,4.166666507720946,0.5999289751052856,0.2195120710047989
10,1976-04-01,4.291666507720946,0.6179262399673462,0.029998992562248028
11,1976-07-01,4.166666507720946,0.5999289751052856,-0.02912526398460049
12,1976-10-01,4.625,0.6659205555915833,0.1099989885881346
13,1977-01-01,4.75,0.6839185357093811,0.027027218136867696
14,1977-04-01,4.583333492279053,0.6599215269088745,-0.03508752511820164
15,1977-07-01,4.708333492279053,0.6779194474220276,0.027272819235730623
16,1977-10-01,4.833333492279053,0.6959171891212463,0.02654849594248998
17,1978-01-01,5.0,0.7199144959449768,0.03448299194051023
18,1978-04-01,5.5,0.7919058203697205,0.09999982613247166
19,1978-07-01,5.666666507720947,0.8159031867980957,0.030303308564106134
20,1978-10-01,5.25,0.755910336971283,-0.07352937308928374
21,1979-01-01,5.166666507720947,0.7439122796058655,-0.015872328738736757
22,1979-04-01,5.416666507720947,0.7799070477485657,0.048385769571878415
23,1979-07-01,5.416666507720947,0.7799070477485657,0.0
24,1979-10-01,4.666666507720947,0.6719199419021606,-0.13846150789141093
25,1980-01-01,5.75,0.827901303768158,0.23214277793932483
26,1980-04-01,6.0,0.8638971447944641,0.043478420510358655
27,1980-07-01,6.625,0.9538866877555848,0.10416696420791015
28,1980-10-01,6.416666507720947,0.923890233039856,-0.03144655974422707
29,1981-01-01,7.25,1.0438764095306396,0.1298705973933676
30,1981-04-01,7.958333492279053,1.14586341381073,0.09770026733906839
31,1981-07-01,7.041666507720947,1.0138795375823977,-0.11518290455701116
32,1981-10-01,6.708333492279053,0.9658852815628052,-0.04733723705878819
33,1982-01-01,7.083333492279053,1.0198785066604614,0.055900246259364315
34,1982-04-01,6.833333492279053,0.9838836193084716,-0.035293309072522004
35,1982-07-01,7.333333492279053,1.055874943733215,0.07317056917295063
36,1982-10-01,8.5,1.2238539457321167,0.1590898647570752
37,1983-01-01,8.916666984558105,1.2838475704193115,0.04902024861414838
38,1983-04-01,10.0,1.4398289918899536,0.12149528111012253
39,1983-07-01,10.75,1.5478162765502932,0.07500007658450669
40,1983-10-01,11.5,1.655802607536316,0.06976689198972506
41,1984-01-01,11.75,1.6917982101440432,0.021739066265444203
42,1984-04-01,11.833333015441895,1.703797459602356,0.007092600870697886
43,1984-07-01,11.416666984558105,1.6438044309616089,-0.035211361715933455
44,1984-10-01,13.333333015441895,1.9197725057601929,0.16788376378639244
45,1985-01-01,14.333333015441895,2.120392084121704,0.10450174578475367
46,1985-04-01,14.166666984558105,2.149500131607056,0.013727672208986276
47,1985-07-01,14.833333015441895,2.3073842525482178,0.0734515521165011
48,1985-10-01,16.41666603088379,2.6189918518066406,0.13504798731043222
49,1986-01-01,17.375,2.817664384841919,0.07585840058961216
50,1986-04-01,18.75,3.082831382751465,0.09410879426806636
51,1986-07-01,20.75,3.4589998722076416,0.12202045546858348
52,1986-10-01,20.0,3.3810930252075195,-0.022522940120954526
53,1987-01-01,22.875,3.9200475215911865,0.15940244541203888
54,1987-04-01,23.25,4.0298824310302725,0.028018769883305632
55,1987-07-01,22.125,3.880439281463623,-0.03708374924685908
56,1987-10-01,22.25,3.955701589584351,0.019395306217068437
57,1988-01-01,19.5,3.5209615230560303,-0.10990213914846936
58,1988-04-01,21.0,3.846428394317627,0.09243692926786277
59,1988-07-01,20.5,3.809930086135864,-0.009488882786868595
60,1988-10-01,20.5,3.8711252212524414,0.01606200999311339
61,1989-01-01,22.125,4.246339797973634,0.09692648914100421
62,1989-04-01,23.625,4.599512100219727,0.08317099409110588
63,1989-07-01,25.25,4.986759662628174,0.08419318266168879
64,1989-10-01,23.5,4.706052780151367,-0.05629043737168307
65,1990-01-01,20.875,4.247957706451416,-0.09734167785623876
66,1990-04-01,20.0,4.140593528747559,-0.02527430476551176
67,1990-07-01,20.125,4.2370877265930185,0.023304436230099434
68,1990-10-01,13.0,2.7952685356140137,-0.3402854233887555
69,1991-01-01,17.25,3.801334381103516,0.3599174221264964
70,1991-04-01,19.0,4.2767601013183585,0.12506811360194725
71,1991-07-01,20.0,4.591866493225098,0.07367876253091778
72,1991-10-01,19.0,4.44785213470459,-0.03136292371152091
73,1992-01-01,20.75,4.960097789764403,0.11516697038172449
74,1992-04-01,21.25,5.168900489807129,0.042096488596174084
75,1992-07-01,22.25,5.508944511413574,0.0657865289295081
76,1992-10-01,24.375,6.136146068572997,0.11385149294206368
77,1993-01-01,24.625,6.29604434967041,0.026058421574471816
78,1993-04-01,27.25,7.06477165222168,0.12209686905898486
79,1993-07-01,27.125,7.13653564453125,0.010158005926065916
80,1993-10-01,27.25,7.263854503631593,0.01784042922813782
81,1994-01-01,24.125,6.531729221343994,-0.10079019092708556
82,1994-04-01,24.625,6.7617058753967285,0.035209153083264756
83,1994-07-01,24.875,6.935912132263184,0.025763654923282787
84,1994-10-01,21.375,6.065906524658202,-0.12543492348440394
85,1995-01-01,20.875,6.032951354980469,-0.005432851552157808
86,1995-04-01,20.25,5.96317195892334,-0.0115663780380929
87,1995-07-01,21.75,6.521986961364746,0.09371103270050612
88,1995-10-01,20.25,6.182402610778809,-0.052067621814882996
89,1996-01-01,21.375,6.641746520996094,0.07429860834628187
90,1996-04-01,21.75,6.8809242248535165,0.03601126647958136
91,1996-07-01,22.375,7.20857048034668,0.04761660567481954
92,1996-10-01,23.625,7.743350028991699,0.07418662966576149
93,1997-01-01,28.25,9.404186248779297,0.2144854892997603
94,1997-04-01,25.75,8.703692436218263,-0.07448744570025508
95,1997-07-01,26.5,9.09422492980957,0.044869748839722605
96,1997-10-01,25.3125,8.834587097167969,-0.02854974829031838
97,1998-01-01,24.75,8.788676261901855,-0.005196715450440297
98,1998-04-01,24.3125,8.78596019744873,-0.00030904135869686114
99,1998-07-01,23.375,8.599264144897461,-0.021249362432290825
100,1998-10-01,22.625,8.48173999786377,-0.013666767883089929
101,1999-01-01,23.0,8.784205436706543,0.03566077702440219
102,1999-04-01,23.875,9.31234645843506,0.060123937848900424
103,1999-07-01,22.625,8.990480422973633,-0.03456336562412618
104,1999-10-01,18.1875,7.227155685424805,-0.19613242614298496
105,2000-01-01,19.9375,8.299252510070799,0.14834284347964447
106,2000-04-01,21.25,9.052510261535645,0.09076211990788309
107,2000-07-01,21.375,9.302760124206543,0.027644250648819115
108,2000-10-01,19.25,8.58018970489502,-0.07767269172418367
109,2001-01-01,19.71999931335449,9.003260612487793,0.049307873385527876
110,2001-04-01,19.5,9.118510246276855,0.012800877232100534
111,2001-07-01,21.5,10.281134605407717,0.12750156853808087
112,2001-10-01,21.81999969482422,10.434151649475098,0.01488328379504889
113,2002-01-01,24.309999465942386,12.126608848571776,0.16220362286777948
114,2002-04-01,26.95000076293945,13.69908618927002,0.1296716468993262
115,2002-07-01,27.29999923706055,14.127974510192873,0.03130780513365815
116,2002-10-01,26.35000038146973,13.882528305053713,-0.017373063984655317
117,2003-01-01,28.040000915527344,15.026845932006836,0.08242861831850562
118,2003-04-01,30.81999969482422,16.783815383911133,0.1169220380547053
119,2003-07-01,34.86999893188477,19.2774658203125,0.14857470601063485
120,2003-10-01,37.95000076293945,21.264827728271484,0.10309248769954597
121,2004-01-01,41.290000915527344,23.427343368530273,0.10169448198180017
122,2004-04-01,37.08000183105469,21.26948356628418,-0.09210860012171616
123,2004-07-01,42.20000076293945,24.48803520202637,0.15132250981608944
124,2004-10-01,47.45000076293945,27.848234176635746,0.1372179902098197
125,2005-01-01,47.18000030517578,27.95897102355957,0.003976440524790298
126,2005-04-01,53.5,32.02933883666992,0.1455836056942319
127,2005-07-01,65.30999755859375,39.45982360839844,0.23198995176327095
128,2005-10-01,60.6500015258789,36.98642349243164,-0.06268147928163496
129,2006-01-01,66.81999969482422,41.24526977539063,0.11514620449393977
130,2006-04-01,68.23000335693361,42.442726135253906,0.02903257431420045
131,2006-07-01,72.55000305175781,45.50252151489258,0.07209233850549329
132,2006-10-01,80.1500015258789,50.65753173828125,0.11329064965556869
133,2007-01-01,93.41999816894531,59.45233535766602,0.17361295186710907
134,2007-04-01,90.16999816894531,57.751869201660156,-0.02860217594104319
135,2007-07-01,75.13999938964844,48.4741325378418,-0.16064824900163852
136,2007-10-01,88.22000122070312,57.31380844116211,0.18235861975290707
137,2008-01-01,73.8499984741211,48.33268737792969,-0.15670082494085816
138,2008-04-01,82.1500015258789,54.22074508666992,0.1218235117509505
139,2008-07-01,72.61000061035156,48.3213996887207,-0.10880236685274845
140,2008-10-01,61.27000045776367,41.08985900878906,-0.149655033308558
141,2009-01-01,50.63000106811523,34.723312377929695,-0.1549420412831685
142,2009-04-01,55.20000076293945,38.43584060668945,0.10691745615603941
143,2009-07-01,57.04999923706055,40.21903991699219,0.046394180071409254
144,2009-10-01,59.02999877929688,42.03906631469727,0.04525285540036326
145,2010-01-01,64.37999725341797,46.29045486450195,0.10112947128700508
146,2010-04-01,77.38999938964844,56.1571044921875,0.21314652570527737
147,2010-07-01,78.19000244140625,57.24371719360352,0.019349514388997582
148,2010-10-01,81.9800033569336,60.504966735839844,0.056971309728305636
149,2011-01-01,80.43000030517578,59.87326049804688,-0.010440568301622969
150,2011-04-01,87.55999755859375,65.72148132324219,0.09767667196587831
151,2011-07-01,87.33999633789062,66.07023620605469,0.005306558461413802
152,2011-10-01,88.76000213623047,67.69206237792969,0.02454700126721169
153,2012-01-01,94.45999908447266,72.58770751953125,0.07232229259420139
154,2012-04-01,100.66000366210938,77.90540313720703,0.07325890015530444
155,2012-07-01,108.66000366210938,84.67146301269531,0.08684968696679347
156,2012-10-01,107.83000183105469,84.5978775024414,-0.0008690709671908364
157,2013-01-01,105.8499984741211,84.21936798095703,-0.004474220070987615
158,2013-04-01,117.01000213623048,93.7431869506836,0.11308347709139788
159,2013-07-01,105.33000183105469,84.9773178100586,-0.09350939973095375
160,2013-10-01,103.5999984741211,84.84095001220703,-0.0016047552613554122
161,2014-01-01,109.0,90.6506576538086,0.06847763539618137
162,2014-04-01,117.54000091552734,98.43819427490234,0.08590711664590515
163,2014-07-01,122.0999984741211,102.92672729492188,0.04559747416215985
164,2014-10-01,131.80000305175778,111.90690612792969,0.0872482694147691
165,2015-01-01,143.77000427246094,122.8493423461914,0.09778159898150118
166,2015-04-01,133.66999816894528,114.9148178100586,-0.06458744006763338
167,2015-07-01,136.78999328613278,118.36517333984376,0.030025331767816264
168,2015-10-01,143.49000549316406,125.03582000732422,0.056356498108848706
169,2016-01-01,150.8300018310547,132.2608642578125,0.057783795476088855
170,2016-04-01,152.0800018310547,134.17623901367188,0.014481795250678138
171,2016-07-01,169.6999969482422,150.6219024658203,0.12256762876229306
172,2016-10-01,145.22999572753906,129.71705627441406,-0.1387902147640849
173,2017-01-01,140.42999267578122,126.32080078125,-0.02618202718059949
174,2017-04-01,130.88999938964844,118.65172576904295,-0.06071110193077068
175,2017-07-01,132.6300048828125,121.17761993408205,0.0212883053210349
176,2017-10-01,120.5199966430664,111.00395965576172,-0.08395659432702651
177,2018-01-01,120.8000030517578,112.10089111328124,0.009881912869786355
178,2018-04-01,115.8499984741211,108.43158721923828,-0.03273215634240602
179,2018-07-01,125.5,118.44702911376952,0.09236646028505487
180,2018-10-01,124.0500030517578,118.0203857421875,-0.0036019761303782635
181,2019-01-01,132.57000732421878,127.2045440673828,0.07781840626464191
182,2019-04-01,133.85000610351562,129.41786193847656,0.01739967614617073
183,2019-07-01,132.00999450683594,128.607666015625,-0.006260309904027918
184,2019-10-01,136.00999450683594,133.54115295410156,0.0383607532219516
185,2020-01-01,125.0199966430664,123.7622528076172,-0.07322761508465779
