,Date,Close,Adj Close,RoR
0,1977-04-01,1.2999999523162842,0.04189658910036087,-0.10151226590468442
1,1977-07-01,1.46875,0.047335103154182434,0.12980803856834064
2,1977-10-01,1.149999976158142,0.037062376737594604,-0.21702131678316947
3,1978-01-01,1.021875023841858,0.032933153212070465,-0.11141280967379566
4,1978-04-01,1.2468750476837158,0.040184468030929565,0.22018282829356867
5,1978-07-01,2.075000047683716,0.06687340885400772,0.6641606105756074
6,1978-10-01,1.625,0.052370741963386536,-0.21686746853719033
7,1979-01-01,2.0999999046325684,0.06767912954092026,0.2923080140479226
8,1979-04-01,1.9375,0.062442038208246224,-0.07738118631545897
9,1979-07-01,2.015625,0.06554466485977173,0.04968810661141688
10,1979-10-01,2.8359375,0.09310656040906906,0.4205055530951924
11,1980-01-01,5.0234375,0.16605640947818756,0.7835092258656008
12,1980-04-01,4.234375,0.1405831277370453,-0.15340137620215336
13,1980-07-01,4.5625,0.1521301120519638,0.08213634524134829
14,1980-10-01,4.125,0.13814082741737366,-0.09195605292009357
15,1981-01-01,4.296875,0.14467103779315948,0.04727212438112657
16,1981-04-01,4.25,0.14376714825630188,-0.006247895574993545
17,1981-07-01,3.59375,0.12228066474199295,-0.14945336104186857
18,1981-10-01,3.28125,0.11235413700342177,-0.08117822845922318
19,1982-01-01,3.25,0.11206361651420592,-0.002585756937521606
20,1982-04-01,3.59375,0.12489929050207138,0.1145391732582388
21,1982-07-01,3.6875,0.12909163534641266,0.03356580191519783
22,1982-10-01,4.09375,0.14415745437145233,0.11670639220435237
23,1983-01-01,4.75,0.1680985987186432,0.16607635346765634
24,1983-04-01,6.296875,0.2241218388080597,0.3332760684292556
25,1983-07-01,6.703125,0.23991428315639496,0.07046365687665128
26,1983-10-01,6.8125,0.244970977306366,0.021077086713818895
27,1984-01-01,6.609375,0.2387138307094574,-0.025542399616927985
28,1984-04-01,6.25,0.22673065960407254,-0.05019889744038238
29,1984-07-01,6.625,0.2417038679122925,0.06603962752266
30,1984-10-01,8.03125,0.29438167810440063,0.21794359621594228
31,1985-01-01,9.5625,0.3519306182861328,0.19549090334800934
32,1985-04-01,8.328125,0.307584673166275,-0.12600763564084916
33,1985-07-01,9.5,0.35219988226890564,0.14505016990398736
34,1985-10-01,7.796875,0.28999441862106323,-0.1766197741098288
35,1986-01-01,8.75,0.3266543745994568,0.12641607432554505
36,1986-04-01,9.921875,0.387095183134079,0.18502984571608644
37,1986-07-01,8.8125,0.3553049862384796,-0.08212501286689514
38,1986-10-01,9.09375,0.3810860514640808,0.07256038114899131
39,1987-01-01,9.25,0.4030916392803192,0.05774440636621552
40,1987-04-01,8.0,0.3625215590000153,-0.10064728792871472
41,1987-07-01,8.484375,0.4007544219493866,0.10546369450366859
42,1987-10-01,6.25,0.30839794874191284,-0.23045652935836586
43,1988-01-01,6.53125,0.3361336290836334,0.08993471083340951
44,1988-04-01,6.859375,0.3745274245738983,0.11422182182405835
45,1988-07-01,6.609375,0.380381852388382,0.015631506347350423
46,1988-10-01,6.6875,0.4066191613674164,0.06897623746846167
47,1989-01-01,6.40625,0.4119722843170166,0.013164954970637008
48,1989-04-01,6.984375,0.4748446345329285,0.15261305823071109
49,1989-07-01,7.296875,0.5228383541107178,0.10107246894554746
50,1989-10-01,6.5625,0.4934567213058472,-0.05619639908561224
51,1990-01-01,5.078125,0.4011789262294769,-0.1870028131994499
52,1990-04-01,4.34375,0.36591580510139465,-0.08789873750225727
53,1990-07-01,3.34375,0.3042815625667572,-0.16843831743632584
54,1990-10-01,2.984375,0.2972114980220795,-0.023235270928144248
55,1991-01-01,3.59375,0.4040694832801819,0.35953516593144724
56,1991-04-01,4.703125,0.6111862063407898,0.5125769988351065
57,1991-07-01,5.625,0.7980142831802368,0.3056811081486908
58,1991-10-01,6.515625,0.987903356552124,0.2379519732593552
59,1992-01-01,7.265625,1.1719683408737185,0.1863188166138018
60,1992-04-01,8.171875,1.3872349262237549,0.18367952259661913
61,1992-07-01,9.875,1.9234747886657717,0.38655302883826304
62,1992-10-01,12.75,2.4834730625152592,0.29113886865027916
63,1993-01-01,14.25,2.91761326789856,0.17481172312116966
64,1993-04-01,11.921875,2.607662916183472,-0.10623421380940344
65,1993-07-01,11.28125,3.1472256183624268,0.20691428283554716
66,1993-10-01,11.96875,3.933702945709229,0.24989543894092484
67,1994-01-01,11.515625,3.9820830821990967,0.012298878984403079
68,1994-04-01,10.125,3.6944854259490967,-0.07222291707966445
69,1994-07-01,10.0,3.7726025581359854,0.02114425236007551
70,1994-10-01,10.59375,4.1397037506103525,0.09730714720602558
71,1995-01-01,10.78125,4.3518314361572275,0.05124223817117328
72,1995-04-01,11.59375,4.834961891174316,0.11101773175380727
73,1995-07-01,12.1875,5.2466163635253915,0.08514120309872647
74,1995-10-01,13.84375,6.162326335906982,0.1745334343001767
75,1996-01-01,14.59375,6.68923807144165,0.0855053281525241
76,1996-04-01,15.78125,7.419914245605469,0.10923159952749964
77,1996-07-01,16.0,7.737854480743407,0.042849583514559135
78,1996-10-01,17.15625,8.521997451782228,0.10133855230674811
79,1997-01-01,17.65625,8.982325553894043,0.054016456202476915
80,1997-04-01,17.8125,9.273783683776855,0.03244795884251365
81,1997-07-01,22.125,11.820743560791016,0.2746408546783012
82,1997-10-01,20.34375,11.10289478302002,-0.060727886877782786
83,1998-01-01,21.65625,12.043661117553713,0.0847316265639511
84,1998-04-01,21.34375,12.09809112548828,0.004519390524467239
85,1998-07-01,23.78125,13.613189697265625,0.12523451477277545
86,1998-10-01,29.75,17.194381713867188,0.2630678111626468
87,1999-01-01,29.1875,17.010162353515625,-0.01071392757338814
88,1999-04-01,35.125,20.6302433013916,0.21281871816630754
89,1999-07-01,33.65625,19.911174774169922,-0.03485506771377608
90,1999-10-01,27.71875,16.51445198059082,-0.17059379128074112
91,2000-01-01,23.5625,14.149219512939453,-0.14322197735844872
92,2000-04-01,29.25,17.719192504882812,0.25230882796599635
93,2000-07-01,28.21875,17.26735496520996,-0.02549989450977184
94,2000-10-01,35.78125,22.110855102539066,0.2805004094192611
95,2001-01-01,35.4900016784668,22.11468315124512,0.00017312983547231059
96,2001-04-01,38.540000915527344,24.19857215881348,0.09423101354499987
97,2001-07-01,40.44499969482422,25.61296844482422,0.058449576145574125
98,2001-10-01,40.79999923706055,26.03304481506348,0.016400924834003336
99,2002-01-01,44.77999877929688,28.75776481628418,0.10466390007687833
100,2002-04-01,48.54499816894531,31.40328788757324,0.09199334816838835
101,2002-07-01,40.459999084472656,26.339519500732425,-0.16124962471985693
102,2002-10-01,39.56499862670898,25.90518951416016,-0.016489670077701614
103,2003-01-01,33.06999969482422,21.82323455810547,-0.15757286600136372
104,2003-04-01,31.03499984741211,20.637958526611328,-0.0543125735251703
105,2003-07-01,39.66999816894531,26.689191818237305,0.2932089084210194
106,2003-10-01,41.849998474121094,28.402231216430664,0.06418476100212231
107,2004-01-01,45.71500015258789,31.276241302490234,0.1011895883868785
108,2004-04-01,46.81000137329102,32.249366760253906,0.031113887642444778
109,2004-07-01,49.40999984741211,34.55654144287109,0.07154170498196212
110,2004-10-01,51.06000137329102,35.71051025390625,0.033393643080367456
111,2005-01-01,51.625,36.36208724975586,0.018246084730148476
112,2005-04-01,52.5250015258789,37.26029968261719,0.024701894219984824
113,2005-07-01,57.59500122070313,41.45976257324219,0.11270609539901658
114,2005-10-01,58.1500015258789,41.85927200317383,0.009636076164832669
115,2006-01-01,58.18000030517578,42.16029739379883,0.0071913670787723165
116,2006-04-01,65.62000274658203,47.88235855102539,0.13572155584624018
117,2006-07-01,67.01999664306639,49.07731628417969,0.024956116810346787
118,2006-10-01,71.0999984741211,52.24934387207031,0.0646332731301598
119,2007-01-01,78.1500015258789,57.60891723632813,0.10257685488607177
120,2007-04-01,78.5,58.03446578979492,0.007386852138204035
121,2007-07-01,78.55999755859375,58.29447937011719,0.004480330382708334
122,2007-10-01,90.95999908447266,67.74701690673828,0.16215150454652894
123,2008-01-01,84.52999877929688,63.17775344848633,-0.06744597278050014
124,2008-04-01,90.41999816894531,67.81044006347656,0.07332781496840687
125,2008-07-01,89.13999938964844,67.12757873535156,-0.01007015037044121
126,2008-10-01,60.31999969482422,45.614051818847656,-0.32048715776447606
127,2009-01-01,56.72999954223633,43.1313591003418,-0.05442824348000619
128,2009-04-01,51.66999816894531,39.535400390625,-0.08337225593450637
129,2009-07-01,55.38999938964844,43.02507019042969,0.08826696493080642
130,2009-10-01,62.70000076293945,48.70322799682617,0.13197323749304446
131,2010-01-01,66.84999847412111,52.22788619995117,0.07237011483827499
132,2010-04-01,76.36000061035156,59.98198318481445,0.1484666056592298
133,2010-07-01,61.25,48.71960830688477,-0.1877626293753648
134,2010-10-01,68.12000274658203,54.18417739868164,0.11216364994922684
135,2011-01-01,75.4000015258789,60.3747444152832,0.11425045675330647
136,2011-04-01,72.81999969482422,58.65462112426758,-0.028490775533290616
137,2011-07-01,68.13999938964844,55.58728408813477,-0.05229489130335095
138,2011-10-01,64.19000244140625,52.36495971679688,-0.057968731953675405
139,2012-01-01,69.16000366210939,56.88756942749024,0.08636709996823813
140,2012-04-01,67.5,55.88974380493164,-0.017540310345486716
141,2012-07-01,63.43999862670898,52.91651916503906,-0.05319803666071242
142,2012-10-01,68.08000183105469,57.22864532470703,0.08148922543863975
143,2013-01-01,66.30000305175781,56.582298278808594,-0.011294117521586579
144,2013-04-01,73.95999908447266,63.11956024169922,0.1155354618272723
145,2013-07-01,85.33999633789062,73.42463684082031,0.16326280727654946
146,2013-10-01,86.62999725341797,75.06656646728516,0.02236210755831775
147,2014-01-01,101.30999755859376,88.36949157714844,0.17721504706973434
148,2014-04-01,109.4499969482422,96.0301513671875,0.0866889653127759
149,2014-07-01,116.7699966430664,103.0532684326172,0.07313449958623545
150,2014-10-01,139.75999450683594,124.00231170654295,0.20328363760362994
151,2015-01-01,133.21000671386722,118.80110931396484,-0.04194439862449492
152,2015-04-01,137.32000732421878,123.02011108398438,0.03551315130290282
153,2015-07-01,149.11000061035156,134.92495727539062,0.0967715448027758
154,2015-10-01,148.5800018310547,135.10330200195312,0.001321806804048022
155,2016-01-01,133.77000427246094,122.84165954589844,-0.09075753349002104
156,2016-04-01,140.52000427246094,129.71577453613278,0.055959151118972865
157,2016-07-01,146.88999938964844,137.16654968261722,0.057439237233317314
158,2016-10-01,150.74000549316406,140.76170349121094,0.026210135174445717
159,2017-01-01,181.0800018310547,169.93441772460938,0.2072489427866292
160,2017-04-01,193.7899932861328,182.6509552001953,0.07483203017880684
161,2017-07-01,196.3300018310547,185.876708984375,0.01766075507595395
162,2017-10-01,202.97999572753903,192.9845428466797,0.038239507796009986
163,2018-01-01,222.47999572753903,212.3685607910156,0.10044337053323446
164,2018-04-01,201.30999755859372,192.9379425048828,-0.09149479665803155
165,2018-07-01,199.75999450683597,192.27903747558597,-0.003415113796396845
166,2018-10-01,172.5800018310547,166.9353485107422,-0.13180682250950895
167,2019-01-01,171.1699981689453,166.3233642578125,-0.003665995598830925
168,2019-04-01,178.72000122070312,174.6524200439453,0.050077485044267206
169,2019-07-01,185.94000244140625,182.8090362548828,0.04670199364477839
170,2019-10-01,176.8000030517578,174.794189453125,-0.04384272772262228
171,2020-01-01,175.44000244140625,174.45465087890625,-0.0019425049269718713
