,Date,Close,Adj Close,RoR
0,1980-07-01,2.4179415702819824,0.6007033586502075,0.38043517938474447
1,1980-10-01,2.1323578357696533,0.5297539234161377,-0.11811060186760837
2,1981-01-01,2.037163257598877,0.5061043500900269,-0.044642563803219605
3,1981-04-01,2.6464085578918457,0.6574627757072449,0.29906564839897953
4,1981-07-01,2.6273696422576904,0.6527328491210938,-0.007194211993314836
5,1981-10-01,3.1128618717193604,0.7733462452888489,0.18478217593945415
6,1982-01-01,2.884394884109497,0.7165871858596802,-0.07339411004441988
7,1982-04-01,2.598811149597168,0.6456372737884521,-0.09901085795458421
8,1982-07-01,2.3703444004058842,0.5888786315917969,-0.08791103689476991
9,1982-10-01,2.770161390304565,0.68820720911026,0.16867410734529154
10,1983-01-01,2.8558363914489746,0.709492027759552,0.03092792166012007
11,1983-04-01,3.598353862762451,0.893960177898407,0.2600003141985572
12,1983-07-01,3.369887113571167,0.8372006416320801,-0.06349224234994645
13,1983-10-01,3.0557451248168945,0.7591567635536194,-0.09322004092868123
14,1984-01-01,3.484120607376098,0.8655800819396973,0.14018622173358425
15,1984-04-01,3.141420125961304,0.7804418206214905,-0.09835977409209626
16,1984-07-01,2.9986283779144287,0.7449666261672974,-0.04545527099757814
17,1984-10-01,3.598353862762451,0.893960177898407,0.20000030403731145
18,1985-01-01,4.1124043464660645,1.0497164726257324,0.1742318042549611
19,1985-04-01,4.940597057342528,1.2926278114318848,0.23140661801613963
20,1985-07-01,5.3118557929992685,1.4230040311813354,0.10086137602519074
21,1985-10-01,5.197622299194336,1.408499240875244,-0.010193077453231166
22,1986-01-01,5.9401397705078125,1.6260188817977903,0.1544336231146133
23,1986-04-01,6.911124229431152,1.9099349975585935,0.17460812967122155
24,1986-07-01,6.796890735626222,1.893973469734192,-0.008357105265260192
25,1986-10-01,5.654556274414063,1.5919898748397827,-0.15944446937622142
26,1987-01-01,5.9401397705078125,1.6862813234329224,0.05922867355084724
27,1987-04-01,5.483206272125244,1.5680210590362549,-0.07013080365256841
28,1987-07-01,5.968698024749756,1.7210301160812378,0.09758099622655969
29,1987-10-01,5.151928901672363,1.4979799985885618,-0.12960268121313187
30,1988-01-01,5.528899669647217,1.6244363784790041,0.08441793616042473
31,1988-04-01,5.654556274414063,1.6763360500335691,0.03194934085578643
32,1988-07-01,6.2200117111206055,1.859750747680664,0.10941403881603692
33,1988-10-01,5.811627388000487,1.7558200359344482,-0.055884215600305626
34,1989-01-01,5.811627388000487,1.7740539312362669,0.010384831548020544
35,1989-04-01,6.36137580871582,1.961619853973389,0.10572729466370556
36,1989-07-01,7.496213912963867,2.331166982650757,0.1883887583666255
37,1989-10-01,7.315582275390625,2.294069528579712,-0.015913683724561686
38,1990-01-01,6.638213634490968,2.101592302322388,-0.08390208921718642
39,1990-04-01,6.141476154327393,1.9639694690704343,-0.06548502918471491
40,1990-07-01,5.662802696228027,1.831449270248413,-0.06747569191324769
41,1990-10-01,4.569981098175049,1.5013341903686523,-0.1802480064517347
42,1991-01-01,5.066718101501465,1.66958487033844,0.11206744044673603
43,1991-04-01,6.308560848236084,2.1059708595275883,0.26137394806452036
44,1991-07-01,7.302034854888916,2.4672272205352783,0.17153910718818163
45,1991-10-01,7.798771858215332,2.695230722427368,0.09241285115305402
46,1992-01-01,8.345182418823242,2.8901538848876958,0.0723215125289076
47,1992-04-01,9.487677574157717,3.3168659210205083,0.14764336195523842
48,1992-07-01,9.835393905639648,3.465878963470459,0.04492585651581102
49,1992-10-01,9.81055736541748,3.4893367290496826,0.006768201032541214
50,1993-01-01,11.611228942871096,4.1652746200561515,0.1937152941930485
51,1993-04-01,12.666794776916506,4.577054977416992,0.09886031412624831
52,1993-07-01,13.287715911865234,4.844481945037842,0.05842773769166498
53,1993-10-01,12.542611122131348,4.6389265060424805,-0.042430840145025184
54,1994-01-01,11.859597206115724,4.423965930938722,-0.04633843084682627
55,1994-04-01,11.983781814575195,4.5106072425842285,0.019584534103119212
56,1994-07-01,12.480518341064453,4.7321510314941415,0.04911617815409385
57,1994-10-01,10.86612319946289,4.160874366760254,-0.12072240740666117
58,1995-01-01,11.33181381225586,4.390851020812988,0.055271232385658196
59,1995-04-01,11.681082725524902,4.660170078277588,0.0613364143278844
60,1995-07-01,13.194578170776367,5.406433582305908,0.16013653825787866
61,1995-10-01,14.824496269226074,6.184697151184082,0.14395137885819273
62,1996-01-01,14.824496269226074,6.320804119110107,0.022007054605732348
63,1996-04-01,15.057342529296875,6.564596652984619,0.038569860619068634
64,1996-07-01,15.111672401428224,6.641682624816895,0.011742682133749809
65,1996-10-01,16.392322540283207,7.425446033477782,0.11800675415177558
66,1997-01-01,18.18523406982422,8.304203033447267,0.11834400196400194
67,1997-04-01,19.55125999450684,8.98945426940918,0.08251860331471791
68,1997-07-01,21.412471771240234,9.912997245788574,0.10273626726398523
69,1997-10-01,24.276859283447266,11.38197135925293,0.14818667624349766
70,1998-01-01,25.356874465942386,12.038503646850586,0.05768177294383463
71,1998-04-01,26.71863174438477,12.756250381469727,0.05962092596175037
72,1998-07-01,25.0,12.006614685058596,-0.05876614788779027
73,1998-10-01,23.76033020019531,11.503743171691895,-0.04188287261291811
74,1999-01-01,25.72314071655273,12.5399751663208,0.09007781025386923
75,1999-04-01,29.287189483642575,14.366103172302244,0.14562453128981956
76,1999-07-01,27.386363983154297,13.51103973388672,-0.059519511182690145
77,1999-10-01,26.93181800842285,13.37957000732422,-0.009730541035473671
78,2000-01-01,19.602272033691406,9.819915771484377,-0.2660514675651926
79,2000-04-01,16.590909957885742,8.401873588562013,-0.14440471954353762
80,2000-07-01,15.6875,8.029455184936522,-0.0443256375735631
81,2000-10-01,14.375,7.437264442443848,-0.07375229437778544
82,2001-01-01,15.4375,8.090535163879395,0.08783750080303523
83,2001-04-01,15.06999969482422,8.00477409362793,-0.010600172734474908
84,2001-07-01,18.309999465942386,9.854168891906738,0.23103647606382663
85,2001-10-01,15.43000030517578,8.459141731262207,-0.14156720632120195
86,2002-01-01,17.510000228881836,9.691421508789062,0.14567432686140658
87,2002-04-01,20.290000915527344,11.320751190185547,0.1681208148793095
88,2002-07-01,19.739999771118164,11.102879524230957,-0.019245336488224588
89,2002-10-01,18.90999984741211,10.725471496582033,-0.033991905147242894
90,2003-01-01,18.96999931335449,10.851359367370604,0.01173728081126208
91,2003-04-01,19.3799991607666,11.184215545654297,0.030674145700544397
92,2003-07-01,20.479999542236328,11.91046905517578,0.06493557876785318
93,2003-10-01,21.600000381469727,12.669984817504885,0.06376875325485624
94,2004-01-01,22.32999992370605,13.20188045501709,0.04198076360575719
95,2004-04-01,21.399999618530273,12.751175880432127,-0.03413942249520084
96,2004-07-01,24.43000030517578,14.672577857971193,0.15068429731940544
97,2004-10-01,23.95000076293945,14.50253200531006,-0.011589364480267641
98,2005-01-01,22.96999931335449,14.025361061096193,-0.032902595494300746
99,2005-04-01,23.489999771118164,14.466619491577148,0.0314614667357781
100,2005-07-01,24.940000534057614,15.497357368469238,0.07124939433792483
101,2005-10-01,23.26000022888184,14.587520599365234,-0.05870915585615573
102,2006-01-01,23.20000076293945,14.680693626403807,0.0063871736395441185
103,2006-04-01,24.149999618530273,15.44366455078125,0.05197104059206098
104,2006-07-01,24.35000038146973,15.73672103881836,0.018975838737852184
105,2006-10-01,24.40999984741211,15.94100284576416,0.012981218034042237
106,2007-01-01,23.28000068664551,15.357805252075195,-0.036584749361859126
107,2007-04-01,22.18000030517578,14.803750038146973,-0.03607645785541896
108,2007-07-01,19.200000762939453,12.969670295715332,-0.12389291481587442
109,2007-10-01,17.90999984741211,12.288369178771973,-0.05253033434230278
110,2008-01-01,13.449999809265135,9.38786506652832,-0.23603653748084347
111,2008-04-01,9.390000343322754,6.700806617736816,-0.2862267863618955
112,2008-07-01,7.019999980926514,5.09962272644043,-0.23895390251348325
113,2008-10-01,9.449999809265137,6.974259853363037,0.36760310075547814
114,2009-01-01,2.880000114440918,2.161792039871216,-0.6900327654369253
115,2009-04-01,2.789999961853028,2.1099815368652344,-0.02396646025631029
116,2009-07-01,4.0900001525878915,3.100635766983032,0.4695084828038811
117,2009-10-01,3.809999942779541,2.895463228225708,-0.0661711191434007
118,2010-01-01,4.789999961853027,3.6500127315521236,0.2605971631657678
119,2010-04-01,6.760000228881836,5.160706043243408,0.4138871348673024
120,2010-07-01,6.059999942779541,4.633935451507568,-0.10207335727356683
121,2010-10-01,5.6599998474121085,4.3352065086364755,-0.06446549504134907
122,2011-01-01,7.239999771118164,5.5542473793029785,0.2811955712462519
123,2011-04-01,6.789999961853027,5.216881275177002,-0.060740201342690966
124,2011-07-01,6.050000190734862,4.6557278633117685,-0.10756491901307344
125,2011-10-01,5.179999828338623,4.018179416656493,-0.1369385121667671
126,2012-01-01,5.71999979019165,4.472001075744629,0.11294210935602232
127,2012-04-01,6.690000057220459,5.264108180999756,0.17712587538303173
128,2012-07-01,6.21999979019165,4.926429748535156,-0.06414732008802827
129,2012-10-01,6.4000000953674325,5.098338603973389,0.03489522112628288
130,2013-01-01,6.960000038146973,5.5806241035461435,0.09459660038995561
131,2013-04-01,7.170000076293945,5.779953002929688,0.03571803004199542
132,2013-07-01,8.550000190734862,6.938117980957031,0.20037619292757278
133,2013-10-01,8.800000190734863,7.183191776275635,0.03532280598157232
134,2014-01-01,9.06999969482422,7.442715644836426,0.0361293247686824
135,2014-04-01,9.15999984741211,7.555881023406982,0.015204850483447935
136,2014-07-01,9.81999969482422,8.143248558044434,0.07773647213579395
137,2014-10-01,9.90999984741211,8.258645057678223,0.014170818784573738
138,2015-01-01,10.020000457763672,8.400421142578125,0.017166990942187346
139,2015-04-01,10.859999656677246,9.154037475585938,0.08971173233066318
140,2015-07-01,11.670000076293945,9.888300895690918,0.08021197444988407
141,2015-10-01,10.970000267028807,9.346810340881348,-0.0547607279068074
142,2016-01-01,8.579999923706055,7.35589599609375,-0.21300467990451025
143,2016-04-01,10.0600004196167,8.687699317932129,0.18105249483483932
144,2016-07-01,9.5,8.265118598937987,-0.04864126894008646
145,2016-10-01,10.600000381469727,9.288479804992676,0.12381688100473047
146,2017-01-01,13.529999732971193,11.927484512329102,0.28411589008547206
147,2017-04-01,12.859999656677244,11.402323722839355,-0.04402946731533395
148,2017-07-01,13.25,11.818624496459961,0.03651016965837733
149,2017-10-01,13.800000190734865,12.386626243591307,0.04805988609769942
150,2018-01-01,16.180000305175778,14.63435173034668,0.18146389844598074
151,2018-04-01,14.90999984741211,13.679579734802244,-0.0652418373657483
152,2018-07-01,15.4399995803833,14.267621994018555,0.042986865869882755
153,2018-10-01,14.329999923706055,13.360516548156738,-0.0635779001043134
154,2019-01-01,13.239999771118164,12.487915992736815,-0.06531188762610458
155,2019-04-01,13.920000076293945,13.261241912841795,0.0619259386878291
156,2019-07-01,14.25,13.718633651733398,0.0344908675897601
157,2019-10-01,14.130000114440918,13.74286651611328,0.0017664196737857438
158,2020-01-01,13.56999969482422,13.328540802001953,-0.030148420173152116
