,Date,Close,Adj Close,RoR
0,1982-01-01,0.059807956218719475,0.03317439183592796,0.49999953678675374
1,1982-04-01,0.08010973781347275,0.044435430318117135,0.33944973393584366
2,1982-07-01,0.10973937064409256,0.06087044626474381,0.3698628735890923
3,1982-10-01,0.17969821393489838,0.09967534989118576,0.6374999036095085
4,1983-01-01,0.31961590051651,0.17728514969348907,0.7786258075545146
5,1983-04-01,0.4197530746459961,0.2328293919563293,0.31330453993959156
6,1983-07-01,0.6008230447769165,0.3332657217979431,0.43137307106163036
7,1983-10-01,0.4691357910633087,0.26022109389305115,-0.21917834066708625
8,1984-01-01,0.4197530746459961,0.2328293919563293,-0.10526318803340222
9,1984-04-01,0.4307270348072052,0.2389164865016937,0.026144012550211596
10,1984-07-01,0.4993141293525696,0.2769606113433838,0.15923608035069775
11,1984-10-01,0.3045267462730408,0.1689155101776123,-0.3901099894375018
12,1985-01-01,0.3648833930492401,0.20239417254924771,0.1981976808194408
13,1985-04-01,0.3923182487487793,0.2176118642091751,0.07518838842172958
14,1985-07-01,0.2880658507347107,0.1597849428653717,-0.26573423077805364
15,1985-10-01,0.2414266169071197,0.13391493260860446,-0.16190518200807108
16,1986-01-01,0.2743484079837799,0.1521761119365692,0.13636402582030957
17,1986-04-01,0.3731138408184052,0.20695948600769046,0.35999982765991756
18,1986-07-01,0.3676268756389618,0.2039160430431366,-0.014705501174470295
19,1986-10-01,0.403292179107666,0.22369904816150665,0.09701544235136585
20,1987-01-01,0.4801097512245178,0.2663081884384155,0.1904752864488983
21,1987-04-01,0.6337448358535767,0.3515268564224243,0.3200001790546363
22,1987-07-01,0.8230452537536621,0.4578891098499298,0.3025721974985935
23,1987-10-01,0.5349794030189514,0.2984146773815155,-0.34828177617214134
24,1988-01-01,0.6255143880844116,0.3508339822292328,0.17565927154682326
25,1988-04-01,0.855967104434967,0.4819903671741486,0.3738417359445501
26,1988-07-01,0.9094650149345398,0.5149301886558533,0.06834124440043658
27,1988-10-01,0.9341563582420348,0.5319079160690308,0.03297093040416849
28,1989-01-01,1.0246913433074951,0.5860637426376343,0.10181428952746625
29,1989-04-01,1.3209877014160156,0.7585115432739258,0.2942475162516865
30,1989-07-01,1.5432099103927612,0.8861117362976074,0.16822445769635522
31,1989-10-01,1.6666666269302368,0.9654715657234192,0.0895596189227745
32,1990-01-01,1.7345678806304932,1.0085957050323486,0.04466640017162692
33,1990-04-01,2.3086419105529785,1.3473962545394895,0.33591313924569466
34,1990-07-01,2.537037134170532,1.4806947708129885,0.09893044887456473
35,1990-10-01,2.175925970077514,1.2799923419952393,-0.13554611846677342
36,1991-01-01,3.2037036418914795,1.8924171924591064,0.47845977696181013
37,1991-04-01,4.259259223937988,2.522693157196045,0.33305339184639554
38,1991-07-01,5.3888888359069815,3.191755771636963,0.26521759593805544
39,1991-10-01,6.333333492279053,3.771332263946533,0.18158547638885342
40,1992-01-01,6.847222328186035,4.086655616760254,0.08361059984774417
41,1992-04-01,6.93055534362793,4.145049095153809,0.014288818013945308
42,1992-07-01,8.375,5.024302005767822,0.21212122955117557
43,1992-10-01,9.645833015441896,5.802094459533691,0.1548060711463951
44,1993-01-01,10.854166984558104,6.543550968170166,0.12779118192709754
45,1993-04-01,9.38888931274414,5.6721129417419425,-0.13317509570371877
46,1993-07-01,9.80555534362793,5.942528247833253,0.047674527793916614
47,1993-10-01,8.80555534362793,5.353945732116699,-0.09904580864738184
48,1994-01-01,8.666666984558105,5.28667688369751,-0.012564350067215662
49,1994-04-01,9.333333015441896,5.712247371673584,0.08049867569709114
50,1994-07-01,9.083333015441896,5.581343650817871,-0.022916325631283103
51,1994-10-01,10.11111068725586,6.2383575439453125,0.1177160795377946
52,1995-01-01,10.38888931274414,6.434815883636475,0.03149199742195545
53,1995-04-01,9.277777671813963,5.76890230178833,-0.10348603501485426
54,1995-07-01,9.777777671813963,6.113415241241455,0.059718976233369
55,1995-10-01,8.277777671813965,5.203661918640137,-0.14881261728535458
56,1996-01-01,10.222222328186037,6.491361618041992,0.24746029229707675
57,1996-04-01,10.527777671813963,6.716446399688722,0.03467450973939461
58,1996-07-01,11.19444465637207,7.1769046783447275,0.0685568306891195
59,1996-10-01,12.19444465637207,7.896615505218506,0.10028150841203197
60,1997-01-01,11.0,7.1596126556396475,-0.09333148474708024
61,1997-04-01,12.88888931274414,8.429137229919434,0.177317494023895
62,1997-07-01,16.60416603088379,10.915332794189453,0.29495255522062286
63,1997-10-01,18.58333396911621,12.253053665161133,0.12255429094051874
64,1998-01-01,20.16666603088379,13.331297874450685,0.08799799941750873
65,1998-04-01,23.22916603088379,15.39157009124756,0.15454400885793487
66,1998-07-01,27.91666603088379,18.53895378112793,0.20448750005499008
67,1998-10-01,29.04166603088379,19.30882835388184,0.04152740126778987
68,1999-01-01,40.33333206176758,26.84057235717773,0.39006737567179794
69,1999-04-01,39.83333206176758,26.52782440185547,-0.011652059842853042
70,1999-07-01,42.54166793823242,28.359832763671875,0.06905987969704247
71,1999-10-01,50.5,33.69784927368164,0.1882245411844463
72,2000-01-01,56.625,37.827537536621094,0.12255049957045126
73,2000-04-01,56.5,37.7720832824707,-0.0014659757880540066
74,2000-07-01,51.75,34.62666702270508,-0.0832735710191911
75,2000-10-01,43.0,28.79495048522949,-0.16841691791045527
76,2001-01-01,48.20000076293945,32.310474395751946,0.1220882082199017
77,2001-04-01,47.099998474121094,31.60361099243164,-0.021877221444116
78,2001-07-01,50.36999893188477,33.824413299560554,0.07027052407589582
79,2001-10-01,38.22999954223633,25.693159103393555,-0.24039601586445375
80,2002-01-01,50.09000015258789,33.739791870117195,0.31318191485689434
81,2002-04-01,46.36999893188477,31.266416549682614,-0.07330736745371601
82,2002-07-01,30.8799991607666,20.847902297973636,-0.3332174070908915
83,2002-10-01,28.8799991607666,19.52729797363281,-0.06334470996006092
84,2003-01-01,20.899999618530273,14.163703918457033,-0.2746715937052886
85,2003-04-01,28.1299991607666,19.115718841552734,0.3496271138965721
86,2003-07-01,31.20000076293945,21.241086959838867,0.11118431568820318
87,2003-10-01,37.06999969482422,25.292465209960934,0.19073309467552785
88,2004-01-01,35.470001220703125,24.246959686279297,-0.04133663978590294
89,2004-04-01,35.189998626708984,24.10087776184082,-0.006024752229911134
90,2004-07-01,33.720001220703125,23.14901161193848,-0.0394950822666484
91,2004-10-01,41.08000183105469,28.26747703552246,0.2211094585543458
92,2005-01-01,41.2599983215332,28.4475212097168,0.006369304694864919
93,2005-04-01,35.36999893188477,24.447843551635746,-0.14059845947895408
94,2005-07-01,43.5099983215332,30.149717330932614,0.23322604168560174
95,2005-10-01,41.040000915527344,28.50848197937012,-0.054436177080792715
96,2006-01-01,40.54999923706055,28.23589515686035,-0.009561604251921372
97,2006-04-01,39.93000030517578,27.904319763183594,-0.011743045220799256
98,2006-07-01,34.709999084472656,24.35393714904785,-0.1272341574446852
99,2006-10-01,37.33000183105469,26.30614852905273,0.08015999089006451
100,2007-01-01,40.7400016784668,28.88201713562012,0.09791888020865461
101,2007-04-01,37.86999893188477,27.00450325012207,-0.06500632821737777
102,2007-07-01,37.16999816894531,26.65603446960449,-0.012904098893802332
103,2007-10-01,31.51000022888184,22.7421932220459,-0.14682758802782497
104,2008-01-01,30.63999938964844,22.29676818847656,-0.019585843336233377
105,2008-04-01,28.79999923706055,21.14813232421875,-0.05151580061057675
106,2008-07-01,23.82999992370605,17.64478302001953,-0.1656576216986877
107,2008-10-01,23.59000015258789,17.613204956054688,-0.0017896544224440566
108,2009-01-01,21.530000686645508,16.247489929199222,-0.07753926842178653
109,2009-04-01,26.31999969482422,20.11043930053711,0.23775668661259342
110,2009-07-01,25.940000534057614,20.00334930419922,-0.005325094829481446
111,2009-10-01,25.09000015258789,19.50872230529785,-0.02472720899782179
112,2010-01-01,28.01000022888184,21.959758758544922,0.12563797950937355
113,2010-04-01,35.22999954223633,27.825910568237305,0.2671318876583634
114,2010-07-01,28.51000022888184,22.676433563232425,-0.1850605029573731
115,2010-10-01,30.899999618530273,24.7866153717041,0.09305615905550181
116,2011-01-01,36.77000045776367,29.724084854125977,0.19919901964745015
117,2011-04-01,37.150001525878906,30.236284255981445,0.01723179718969113
118,2011-07-01,34.93000030517578,28.643125534057614,-0.05269029449637706
119,2011-10-01,35.79999923706055,29.57406234741211,0.03250123008564765
120,2012-01-01,44.38999938964844,36.9575080871582,0.24965950409556045
121,2012-04-01,51.790000915527344,43.38397979736328,0.17388812295053285
122,2012-07-01,52.18000030517578,43.96859359741211,0.013475338195790852
123,2012-10-01,61.38000106811523,51.98684692382813,0.1823631976913621
124,2013-01-01,66.91999816894531,56.934349060058594,0.09516834409056607
125,2013-04-01,73.3499984741211,62.748008728027344,0.1021116384739214
126,2013-07-01,79.02999877929688,67.94207763671875,0.08277663329850653
127,2013-10-01,77.88999938964844,67.31446838378906,-0.009237416263386405
128,2014-01-01,76.8499984741211,66.74198150634766,-0.008504663130924685
129,2014-04-01,79.51000213623047,69.44930267333984,0.04056399144719282
130,2014-07-01,80.8499984741211,71.03271484375,0.022799540232359965
131,2014-10-01,97.5199966430664,86.1114273071289,0.21227841983158618
132,2015-01-01,104.41999816894531,92.6445770263672,0.07586855686338666
133,2015-04-01,106.9800033569336,95.40428161621094,0.029788085589276394
134,2015-07-01,117.02999877929688,104.92115783691406,0.09975313538848589
135,2015-10-01,123.63999938964844,111.41165924072266,0.061860748943480134
136,2016-01-01,125.76000213623048,113.82362365722656,0.021649120324942584
137,2016-04-01,133.88999938964844,121.84830474853516,0.07050101581262665
138,2016-07-01,138.24000549316406,126.45856475830078,0.037836061972959446
139,2016-10-01,122.01000213623048,112.18409729003906,-0.11287861360394523
140,2017-01-01,137.58000183105472,127.171875,0.1335998423306983
141,2017-04-01,156.10000610351562,145.16896057128906,0.14151781257679075
142,2017-07-01,149.60000610351562,139.92813110351562,-0.03610158429976351
143,2017-10-01,165.77999877929688,155.97900390625,0.11470797670312846
144,2018-01-01,200.8999938964844,189.98028564453125,0.2179862730673512
145,2018-04-01,184.8000030517578,175.7520294189453,-0.07489332999639856
146,2018-07-01,197.5200042724609,188.9009704589844,0.07481530132830257
147,2018-10-01,175.8800048828125,169.0674591064453,-0.10499422689226201
148,2019-01-01,183.52999877929688,177.47642517089844,0.04973734217628963
149,2019-04-01,203.6999969482422,198.4479522705078,0.11816514266283613
150,2019-07-01,213.69000244140625,209.640625,0.05640104924960507
151,2019-10-01,234.5800018310547,231.54010009765625,0.10446198153462026
152,2020-01-01,228.1000061035156,226.5840606689453,-0.02140466997561389
