,Date,Close,Adj Close,RoR
0,1980-07-01,9.958333015441896,3.308211088180542,0.2513084472617545
1,1980-10-01,13.208333015441895,4.38787841796875,0.3263598667103211
2,1981-01-01,12.208333015441895,4.055675506591797,-0.07570923342282065
3,1981-04-01,10.666666984558104,3.5435268878936768,-0.12627948608455272
4,1981-07-01,10.666666984558104,3.5435268878936768,0.0
5,1981-10-01,8.291666984558105,2.7545359134674072,-0.22265697407908117
6,1982-01-01,7.208333492279053,2.3946475982666016,-0.1306529762205128
7,1982-04-01,6.541666507720947,2.1731770038604736,-0.0924856728674576
8,1982-07-01,5.583333492279053,1.854814529418945,-0.14649633871331386
9,1982-10-01,9.583333015441896,3.1836342811584477,0.7164165099330875
10,1983-01-01,8.041666984558105,2.671485185623169,-0.16086932427078907
11,1983-04-01,9.041669845581056,3.0036895275115967,0.12435193115657704
12,1983-07-01,10.0,3.3575682640075684,0.11781468532439907
13,1983-10-01,9.333333015441896,3.1617794036865234,-0.058312696846661516
14,1984-01-01,10.666666984558104,3.649631977081299,0.15429684083144968
15,1984-04-01,10.5,3.6264126300811768,-0.006362106411258254
16,1984-07-01,7.666666507720947,2.671850204467773,-0.26322498926219434
17,1984-10-01,8.666666984558105,3.049912929534912,0.14149847339306526
18,1985-01-01,8.541666984558105,3.0379009246826167,-0.003938474681022157
19,1985-04-01,10.458333015441896,3.756978034973145,0.23670196234778573
20,1985-07-01,9.333333015441896,3.3848023414611816,-0.09906251515112297
21,1985-10-01,10.0,3.661908626556397,0.08186778935386566
22,1986-01-01,8.166666984558105,3.0211915969848637,-0.17496805488946723
23,1986-04-01,6.875,2.543346881866455,-0.15816432019581136
24,1986-07-01,5.625,2.080921173095703,-0.1818177898059258
25,1986-10-01,8.541666984558105,3.159918546676636,0.5185190998733277
26,1987-01-01,9.166666984558104,3.3911306858062744,0.073170284522938
27,1987-04-01,11.333333015441895,4.192672729492188,0.23636424483456306
28,1987-07-01,13.541666984558105,5.070882320404053,0.2094629482368952
29,1987-10-01,8.833333015441895,3.3524761199951167,-0.33887716019251096
30,1988-01-01,8.791666984558105,3.4043750762939453,0.015480783290084753
31,1988-04-01,10.125,3.9827451705932617,0.1698902386892513
32,1988-07-01,9.458333015441896,3.782118082046509,-0.050374071137689165
33,1988-10-01,9.541666984558104,3.882638692855835,0.02657786156558453
34,1989-01-01,11.25,4.647790908813477,0.1970701567893874
35,1989-04-01,12.708333015441895,5.316743850708008,0.14392922466155145
36,1989-07-01,12.708333015441895,5.382426738739014,0.012353968871804715
37,1989-10-01,14.125,6.046457290649414,0.12337010499950965
38,1990-01-01,15.75,6.8070640563964835,0.12579378786373221
39,1990-04-01,15.333333015441895,6.689211368560791,-0.017313292024180128
40,1990-07-01,16.375,7.215598106384277,0.07869189786668984
41,1990-10-01,16.29166603088379,7.238922595977782,0.0032325095230661106
42,1991-01-01,14.916666984558105,6.690364360809326,-0.07577898891656276
43,1991-04-01,17.625,7.978184700012207,0.19248881970414758
44,1991-07-01,18.41666603088379,8.406428337097168,0.05367682664507701
45,1991-10-01,18.79166603088379,8.646777153015138,0.02859107414944854
46,1992-01-01,15.625,7.262699604034424,-0.16006860411547505
47,1992-04-01,14.25,6.6999101638793945,-0.07749039211843489
48,1992-07-01,16.45833396911621,7.81464958190918,0.16638124851876024
49,1992-10-01,15.708333015441895,7.529495716094972,-0.036489654823977764
50,1993-01-01,16.04166603088379,7.76760196685791,0.03162313383802917
51,1993-04-01,17.79166603088379,8.689818382263184,0.11872601342603568
52,1993-07-01,16.625,8.188227653503418,-0.05772165846222564
53,1993-10-01,17.66666603088379,8.77686882019043,0.07188871531132326
54,1994-01-01,16.16666603088379,8.112555503845215,-0.07568910165513917
55,1994-04-01,16.75,8.48697566986084,0.0461531715669811
56,1994-07-01,17.33333396911621,8.863944053649902,0.04441728107313445
57,1994-10-01,16.58333396911621,8.560663223266603,-0.034215111077829645
58,1995-01-01,15.125,7.888516902923584,-0.07851568305084425
59,1995-04-01,16.875,8.96568775177002,0.1365492223826284
60,1995-07-01,15.916666984558105,8.611415863037111,-0.039514189936289884
61,1995-10-01,15.041666984558105,8.212100982666017,-0.04637040954961635
62,1996-01-01,18.33333396911621,10.099199295043944,0.22979482550947505
63,1996-04-01,18.91666603088379,10.512176513671877,0.04089207535795404
64,1996-07-01,16.20833396911621,9.081262588500977,-0.1361196630697638
65,1996-10-01,18.45833396911621,10.428601264953613,0.14836468644334608
66,1997-01-01,19.66666603088379,11.201297760009766,0.07409397247288362
67,1997-04-01,16.20833396911621,9.310072898864746,-0.16883979889338918
68,1997-07-01,19.60416603088379,11.354387283325195,0.2195809212954422
69,1997-10-01,20.47916603088379,11.950899124145508,0.05253580188306037
70,1998-01-01,18.22916603088379,10.728755950927734,-0.10226370087490443
71,1998-04-01,19.16666603088379,11.367502212524414,0.0595359112014703
72,1998-07-01,16.89583396911621,10.107332229614258,-0.1108572454484974
73,1998-10-01,18.41666603088379,11.112942695617676,0.09949316428493384
74,1999-01-01,15.833333015441895,9.63573169708252,-0.13292707782230226
75,1999-04-01,19.0,11.666722297668455,0.2107769979939223
76,1999-07-01,19.72916603088379,12.204204559326172,0.04606968846469674
77,1999-10-01,19.125,11.91618537902832,-0.023599996124102487
78,2000-01-01,17.72916603088379,11.136373519897461,-0.06544140044206391
79,2000-04-01,21.20833396911621,13.42872714996338,0.20584381674789826
80,2000-07-01,20.16666603088379,12.855751037597654,-0.04266793911046801
81,2000-10-01,20.66666603088379,13.260576248168945,0.03148981412189359
82,2001-01-01,23.13333320617676,14.953727722167967,0.12768309930971639
83,2001-04-01,29.16666603088379,19.08145523071289,0.27603334668357143
84,2001-07-01,25.76000022888184,17.03335952758789,-0.10733435570618595
85,2001-10-01,19.58333396911621,13.153749465942385,-0.227765406780849
86,2002-01-01,20.453332901000977,13.954605102539062,0.0608842093784931
87,2002-04-01,25.626667022705078,17.69516372680664,0.26805191524817695
88,2002-07-01,22.79999923706055,15.927252769470215,-0.0999092737784728
89,2002-10-01,17.100000381469727,12.098928451538086,-0.24036312936970294
90,2003-01-01,15.733333587646484,11.307419776916506,-0.0654197334740796
91,2003-04-01,15.050000190734865,11.054847717285156,-0.022336842941566723
92,2003-07-01,15.65666675567627,11.706817626953125,0.05897592860085812
93,2003-10-01,17.206666946411133,13.106417655944824,0.11955426945144665
94,2004-01-01,18.796667098999023,14.5800199508667,0.11243364385335887
95,2004-04-01,23.709999084472656,18.64901351928711,0.2790801097757436
96,2004-07-01,27.78333282470703,22.133445739746094,0.1868427097688212
97,2004-10-01,26.90333366394043,21.67009162902832,-0.020934567358651533
98,2005-01-01,28.88333320617676,23.52295684814453,0.08550334031048547
99,2005-04-01,31.21666717529297,25.65862846374512,0.09079095070350603
100,2005-07-01,39.28666687011719,32.574478149414055,0.2695331005490346
101,2005-10-01,41.70000076293945,34.80942916870117,0.06861049343709344
102,2006-01-01,51.599998474121094,43.38586044311523,0.246382416466787
103,2006-04-01,47.75666809082031,40.4174690246582,-0.06841840609221038
104,2006-07-01,52.9000015258789,44.87368392944336,0.11025467483049159
105,2006-10-01,42.400001525878906,36.0537223815918,-0.1965508684715864
106,2007-01-01,53.9900016784668,45.99850845336914,0.27583243601096025
107,2007-04-01,56.75,48.44463348388672,0.05317835540248725
108,2007-07-01,61.20000076293945,52.33364486694336,0.0802774446492649
109,2007-10-01,71.61000061035156,61.33371353149414,0.17197481061051972
110,2008-01-01,90.62999725341795,77.7157211303711,0.2670962942829963
111,2008-04-01,106.1999969482422,91.15772247314452,0.17296373432891335
112,2008-07-01,101.4000015258789,87.10684204101562,-0.04443814876268217
113,2008-10-01,60.209999084472656,51.781455993652344,-0.4055408877149945
114,2009-01-01,55.61000061035156,47.92167663574219,-0.07453979969940029
115,2009-04-01,54.790000915527344,47.29778671264648,-0.013018950230768522
116,2009-07-01,55.20000076293945,47.730506896972656,0.009148846371081425
117,2009-10-01,54.7400016784668,47.419898986816406,-0.006507534286755093
118,2010-01-01,57.790000915527344,50.14971160888672,0.05756681647148278
119,2010-04-01,63.54999923706055,55.23835372924805,0.10146902060070075
120,2010-07-01,53.59000015258789,46.66832733154297,-0.15514630359389858
121,2010-10-01,63.02999877929688,54.98904418945313,0.17829473078813815
122,2011-01-01,84.12000274658203,73.48890686035156,0.33642815480045557
123,2011-04-01,85.95999908447266,75.18684387207031,0.023104670953199524
124,2011-07-01,68.55999755859375,60.05139923095703,-0.2013044285628759
125,2011-10-01,62.56000137329102,54.88689804077149,-0.08600134645194402
126,2012-01-01,56.29999923706055,49.48517608642578,-0.098415508020387
127,2012-04-01,52.13999938964844,45.90156936645508,-0.07241778252363779
128,2012-07-01,47.15999984741211,41.61389923095703,-0.09341009892858873
129,2012-10-01,52.2599983215332,46.19846725463867,0.11016915281688217
130,2013-01-01,67.16000366210939,59.4846076965332,0.28758833856247695
131,2013-04-01,72.18000030517578,64.02186584472656,0.07627617166680573
132,2013-07-01,74.45999908447266,66.14314270019531,0.03313363063509462
133,2013-10-01,81.19999694824219,72.36192321777344,0.09402003387963846
134,2014-01-01,75.48999786376953,67.48820495605469,-0.06735197248767531
135,2014-04-01,89.16000366210938,79.95780944824219,0.18476716783780442
136,2014-07-01,98.9800033569336,88.99774169921875,0.11305877829017111
137,2014-10-01,84.80999755859375,76.45018005371094,-0.14098741615168375
138,2015-01-01,67.48999786376953,61.066871643066406,-0.20122004159881396
139,2015-04-01,76.9000015258789,69.83313751220703,0.14355190684040806
140,2015-07-01,59.0099983215332,53.78252410888672,-0.22984236388512
141,2015-10-01,56.209999084472656,51.46581649780274,-0.043075471995208524
142,2016-01-01,42.5,39.1080322265625,-0.2401163551299694
143,2016-04-01,59.61999893188477,55.13624954223633,0.4098446381249356
144,2016-07-01,53.6500015258789,49.83192443847656,-0.09620395198800136
145,2016-10-01,47.97000122070313,44.79487609863281,-0.10108075087612932
146,2017-01-01,54.18000030517578,50.79486465454102,0.1339436354885093
147,2017-04-01,48.83000183105469,46.021751403808594,-0.09396842147714467
148,2017-07-01,44.540000915527344,42.20504379272461,-0.082932689318906
149,2017-10-01,44.15999984741211,42.09403610229492,-0.0026301996267285768
150,2018-01-01,50.5099983215332,48.43071746826172,0.15053632183351806
151,2018-04-01,56.9900016784668,54.92499542236328,0.134094192561931
152,2018-07-01,65.62999725341797,63.51235580444336,0.1563470386487032
153,2018-10-01,57.4000015258789,55.7615852355957,-0.12203563339254073
154,2019-01-01,54.0,52.71103286743164,-0.054707059623131486
155,2019-04-01,64.12000274658203,62.86060333251953,0.19255115889332092
156,2019-07-01,64.83999633789061,63.84016799926758,0.015583125436552896
157,2019-10-01,65.75,64.99209594726561,0.01804393666400202
158,2020-01-01,56.56999969482422,56.13935089111328,-0.13621264135465672
