,Date,Close,Adj Close,RoR
0,1962-04-01,0.09446313232183456,0.0052391430363059035,-0.21978052002917028
1,1962-07-01,0.07450613379478455,0.004132283385843039,-0.2112673089458741
2,1962-10-01,0.07184519618749619,0.0039846994914114475,-0.035714853181949155
3,1963-01-01,0.08648032695055008,0.0047963964752852925,0.20370343751727393
4,1963-04-01,0.08071497827768326,0.004476635716855526,-0.0666668737827281
5,1963-07-01,0.07672357559204103,0.004255268722772597,-0.049449409798843526
6,1963-10-01,0.0709582194685936,0.0039355065673589715,-0.07514499700157104
7,1964-01-01,0.06341890990734099,0.003517357399687171,-0.10625040525657435
8,1964-04-01,0.06874077767133713,0.003812521696090698,0.08391649265718017
9,1964-07-01,0.06430588662624359,0.0035665535833686595,-0.06451585914232313
10,1964-10-01,0.07539311051368712,0.004181473050266504,0.1724127936182708
11,1965-01-01,0.08869777619838715,0.004919383209198713,0.17647134157308
12,1965-04-01,0.09091521799564363,0.005062340293079615,0.029059960934449482
13,1965-07-01,0.10776779800653458,0.006000726949423552,0.18536617493429733
14,1965-10-01,0.12151595205068587,0.006784525234252214,0.1306172221190561
15,1966-01-01,0.13171619176864624,0.007354029919952155,0.08394171530599533
16,1966-04-01,0.1773955523967743,0.009925253689289093,0.3496346625352955
17,1966-07-01,0.17429113388061526,0.009751560166478157,-0.017500159517169676
18,1966-10-01,0.15167319774627686,0.008506430312991142,-0.127685194187414
19,1967-01-01,0.19602207839488986,0.010993689298629759,0.2923975033146441
20,1967-04-01,0.2638758718967438,0.014821573160588741,0.3481891981826415
21,1967-07-01,0.296250581741333,0.016640016809105873,0.12268897699418702
22,1967-10-01,0.2927026450634003,0.016460970044136047,-0.01076001106392191
23,1968-01-01,0.21730954945087436,0.01222103089094162,-0.25757529123897754
24,1968-04-01,0.2820589244365692,0.01588539220392704,0.29984060638464555
25,1968-07-01,0.2629888951778412,0.0148113826289773,-0.067609887194616
26,1968-10-01,0.2958070933818817,0.01668088138103485,0.12622040756681446
27,1969-01-01,0.2900417149066925,0.016355758532881737,-0.019490747564619652
28,1969-04-01,0.3029029071331024,0.017101563513278958,0.04559892339434146
29,1969-07-01,0.30733779072761536,0.017351945862174034,0.014640903955983935
30,1969-10-01,0.3831743896007538,0.02165568433701992,0.24802627376954417
31,1970-01-01,0.3556780815124512,0.020101690664887432,-0.07175915791661085
32,1970-04-01,0.2909286916255951,0.016517398878932,-0.1783079764637053
33,1970-07-01,0.15965598821640015,0.009064427576959131,-0.45121942968145906
34,1970-10-01,0.1880392879247665,0.010717936791479588,0.18241738934773016
35,1971-01-01,0.24037097394466397,0.013700762763619423,0.27830225445172296
36,1971-04-01,0.28028497099876404,0.016014404594898224,0.16886956377511864
37,1971-07-01,0.2731891572475433,0.01560897286981344,-0.025316690525849676
38,1971-10-01,0.284719854593277,0.016307355836033818,0.044742403747205964
39,1972-01-01,0.35656505823135376,0.020422287285327908,0.25233590844945347
40,1972-04-01,0.4026879072189331,0.02310480736196041,0.13135257765959057
41,1972-07-01,0.5100122094154358,0.029262706637382507,0.26652026043551513
42,1972-10-01,0.4904986917972565,0.028184549883008007,-0.036844054370458595
43,1973-01-01,0.6395109295845032,0.040826063603162766,0.44852636542462987
44,1973-04-01,0.580083429813385,0.03707367926836014,-0.09191148995593916
45,1973-07-01,0.6199974417686462,0.03962462022900581,0.06880733207461076
46,1973-10-01,0.6847468018531799,0.043816741555929184,0.10579587394643804
47,1974-01-01,0.5836313366889954,0.037346404045820236,-0.14766815788549653
48,1974-04-01,0.5854052901268005,0.03750219941139221,0.004171629626799695
49,1974-07-01,0.522429883480072,0.03346787765622139,-0.10757560405764623
50,1974-10-01,0.4656633138656616,0.029877912253141407,-0.1072660011476001
51,1975-01-01,0.4754200577735901,0.03050394915044308,0.020953167410010434
52,1975-04-01,0.7432873249053955,0.04774363711476326,0.565162493528146
53,1975-07-01,0.7583659887313843,0.04871215671300888,0.020285836119220496
54,1975-10-01,0.707808256149292,0.04553945735096932,-0.06513157240669391
55,1976-01-01,0.7752185463905334,0.049876533448696136,0.09523776412839709
56,1976-04-01,0.7548180818557739,0.048632364720106125,-0.02494497196501808
57,1976-07-01,0.7698966860771179,0.04960384964942932,0.01997609893975718
58,1976-10-01,0.5995969772338867,0.03869329020380974,-0.21995388508611663
59,1977-01-01,0.5463783144950867,0.0352589413523674,-0.0887582532618069
60,1977-04-01,0.4922726452350617,0.031851548701524734,-0.09663910827016033
61,1977-07-01,0.5632308721542358,0.03644275665283203,0.14414394710695858
62,1977-10-01,0.5002554655075073,0.032449871301651,-0.1095659526862586
63,1978-01-01,0.4718721508979797,0.03060872852802277,-0.05673806088514616
64,1978-04-01,0.5357345342636108,0.03486289456486702,0.1389853888556493
65,1978-07-01,0.6111276745796204,0.039841461926698685,0.14280418834897324
66,1978-10-01,0.5472652912139893,0.035738207399845116,-0.10298955732103501
67,1979-01-01,0.6173365116119385,0.04038262739777565,0.12995671399989306
68,1979-04-01,0.6758770346641539,0.04428393766283989,0.09660862891945289
69,1979-07-01,0.665233314037323,0.043632131069898605,-0.014718803867530428
70,1979-10-01,0.7486092448234558,0.0491870678961277,0.1273129844914083
71,1980-01-01,0.9543880820274352,0.06281174719333649,0.2769971840155449
72,1980-04-01,0.8160195350646973,0.05379311740398407,-0.1435818965772883
73,1980-07-01,1.0785648822784424,0.07121377438306807,0.32384546238983686
74,1980-10-01,1.0430858135223389,0.06896539777517319,-0.031572215170067745
75,1981-01-01,1.1672626733779907,0.07726030051708221,0.12027629810749971
76,1981-04-01,1.3978769779205322,0.0926305577158928,0.1989412039034489
77,1981-07-01,1.3553019762039185,0.08986174315214157,-0.02989094130517346
78,1981-10-01,1.2985354661941528,0.08621972799301147,-0.04052909537893046
79,1982-01-01,1.2701520919799805,0.08446123450994493,-0.02039548864279738
80,1982-04-01,1.255960464477539,0.08364808559417725,-0.009627480825797532
81,1982-07-01,1.181454300880432,0.07880394160747528,-0.05791099643575306
82,1982-10-01,1.7597638368606567,0.11750706285238265,0.4911317943674535
83,1983-01-01,2.252923488616944,0.15059776604175568,0.2816060786996521
84,1983-04-01,2.1358423233032227,0.1429043561220169,-0.051085817020722915
85,1983-07-01,2.419675350189209,0.16202397644519806,0.1337931245906607
86,1983-10-01,2.00811767578125,0.13460642099380493,-0.1692191245575723
87,1984-01-01,2.2848546504974365,0.15332846343517306,0.13908729095642314
88,1984-04-01,2.100363254547119,0.14111928641796112,-0.07962759649237569
89,1984-07-01,2.0719799995422363,0.13939249515533447,-0.012236394517417773
90,1984-10-01,2.057788372039795,0.13864026963710785,-0.005396456368675859
91,1985-01-01,2.128746509552002,0.14365655183792114,0.03618199974613045
92,1985-04-01,1.8023388385772705,0.12182840704917908,-0.15194674039906944
93,1985-07-01,2.150033950805664,0.145566925406456,0.19485207869207608
94,1985-10-01,1.7171889543533323,0.11645104736089705,-0.2000171258976638
95,1986-01-01,2.235183954238892,0.15560021996498108,0.33618566334363326
96,1986-04-01,2.568687438964844,0.18281155824661252,0.1748798188572969
97,1986-07-01,2.235183954238892,0.16277895867824554,-0.10958059632828593
98,1986-10-01,2.213896512985229,0.1647300124168396,0.011985908709801828
99,1987-01-01,2.8454246520996094,0.21653296053409574,0.3144718279154367
100,1987-04-01,3.178928136825561,0.2460101246833801,0.13613245797118645
101,1987-07-01,3.469856977462769,0.27274248003959656,0.10866363890763248
102,1987-10-01,2.8454246520996094,0.22778935730457306,-0.16481892636782228
103,1988-01-01,3.221503257751465,0.26320895552635193,0.1554927703422946
104,1988-04-01,3.469856977462769,0.2886318862438202,0.0965883955833827
105,1988-07-01,2.8667120933532715,0.2437378913164139,-0.15554066292413143
106,1988-10-01,2.8667120933532715,0.2516433596611023,0.03243430187235732
107,1989-01-01,3.2782697677612305,0.2965381741523743,0.17840651369356056
108,1989-04-01,3.221503257751465,0.2997346818447113,0.01077941381906019
109,1989-07-01,3.051203489303589,0.2920839786529541,-0.025524918053096483
110,1989-10-01,2.710603952407837,0.26932722330093384,-0.07791168641625221
111,1990-01-01,2.53320837020874,0.26246121525764465,-0.025493182453440375
112,1990-04-01,2.469346046447754,0.26713883876800537,0.017822151382515455
113,1990-07-01,2.448058605194092,0.27545589208602905,0.031133822982762013
114,1990-10-01,1.47593092918396,0.17583611607551575,-0.36165418447248365
115,1991-01-01,2.2068006992340092,0.27906882762908936,0.5870961771541781
116,1991-04-01,2.902191162109375,0.3842245936393738,0.3768094305038148
117,1991-07-01,3.051203489303589,0.4215074777603149,0.09703409083681443
118,1991-10-01,2.8596162796020512,0.4144481122493744,-0.016747901006289426
119,1992-01-01,3.363419532775879,0.5110207200050354,0.23301495386605367
120,1992-04-01,4.54132604598999,0.7218242287635803,0.4125146016710785
121,1992-07-01,4.172343254089356,0.7009519338607788,-0.028916035332526686
122,1992-10-01,3.228599071502685,0.5775634050369263,-0.1760299428011274
123,1993-01-01,4.087193489074707,0.7738403081893921,0.3398361139932627
124,1993-04-01,4.250397205352783,0.8439268469810486,0.09056977008039661
125,1993-07-01,4.087193489074707,0.8567124605178833,0.015150144331315287
126,1993-10-01,4.179439067840576,0.9361093044281006,0.09267618666620284
127,1994-01-01,4.839350700378418,1.1498963832855225,0.2283783291610709
128,1994-04-01,4.555517673492432,1.1379977464675903,-0.010347573043003183
129,1994-07-01,4.406505584716797,1.180638074874878,0.037469607070528564
130,1994-10-01,5.556028842926025,1.5810867547988892,0.33917987946174794
131,1995-01-01,5.70504093170166,1.7185956239700315,0.08697110943076188
132,1995-04-01,7.5073795318603525,2.365156650543213,0.3762147520657576
133,1995-07-01,8.841394424438477,2.85197377204895,0.20582870119572355
134,1995-10-01,10.516008377075195,3.468047618865967,0.21601665935883035
135,1996-01-01,9.62193489074707,3.248109579086304,-0.06341840249920824
136,1996-04-01,12.020322799682615,4.130600929260254,0.27169383565630667
137,1996-07-01,9.990917205810547,3.507940530776977,-0.15074329598690828
138,1996-10-01,10.01930046081543,3.5562620162963867,0.013774887315067126
139,1997-01-01,11.94936466217041,4.284762382507323,0.2048500259184001
140,1997-04-01,11.920980453491213,4.3146748542785645,0.006981127330038119
141,1997-07-01,15.894640922546387,5.820290565490723,0.3489522993184859
142,1997-10-01,13.992960929870605,5.170177459716797,-0.11169770623283533
143,1998-01-01,13.652361869812012,5.095574855804443,-0.014429408756975234
144,1998-04-01,17.115121841430664,6.4513282775878915,0.2660648621890207
145,1998-07-01,12.602179527282715,4.810423851013184,-0.2543514073334726
146,1998-10-01,13.680745124816895,5.295200824737549,0.10077635333989546
147,1999-01-01,17.796321868896484,6.962705612182617,0.31490869612631106
148,1999-04-01,17.909854888916016,7.077487468719482,0.016485237626021686
149,1999-07-01,23.77100372314453,9.466208457946776,0.33750974477662765
150,1999-10-01,16.845481872558597,6.755506038665772,-0.286355665134904
151,2000-01-01,24.57992744445801,9.923676490783693,0.46897603732194154
152,2000-04-01,30.65395164489746,12.439001083374025,0.25346700841430714
153,2000-07-01,24.80699348449707,12.97547435760498,0.04312832442373574
154,2000-10-01,21.11716651916504,11.12156867980957,-0.1428776803607822
155,2001-01-01,16.734786987304688,8.86291217803955,-0.20308794260925192
156,2001-04-01,12.910989761352539,6.880929946899414,-0.22362652267401179
157,2001-07-01,11.198909759521484,6.007670879364014,-0.12691003603791895
158,2001-10-01,7.643051624298097,4.140899181365967,-0.31073135254634116
159,2002-01-01,10.040871620178224,5.486025333404541,0.3248391455874216
160,2002-04-01,7.76566743850708,4.280233383178712,-0.21979336166818858
161,2002-07-01,6.425976276397705,3.5781590938568115,-0.1640271047090674
162,2002-10-01,7.175295352935791,4.0482263565063485,0.13137125832570593
163,2003-01-01,7.906448841094972,4.503433704376222,0.11244612029617845
164,2003-04-01,7.402361392974853,4.264279842376709,-0.05310478130656488
165,2003-07-01,9.61398696899414,5.585206508636475,0.3097654739102543
166,2003-10-01,10.131698608398438,5.938060760498048,0.06317658108360903
167,2004-01-01,10.803814888000488,6.382374286651611,0.07482468504015397
168,2004-04-01,8.946412086486816,5.3270792961120605,-0.16534520589722274
169,2004-07-01,9.150772094726562,5.49325704574585,0.031194908203276226
170,2004-10-01,8.474114418029785,5.136528491973877,-0.06493935215506334
171,2005-01-01,8.89645767211914,5.438567638397217,0.05880219430210375
172,2005-04-01,9.29609489440918,5.733525276184082,0.05423443402715338
173,2005-07-01,11.180745124816896,6.947998046875,0.2118195546700727
174,2005-10-01,12.733878135681152,7.963600635528564,0.1461719738263817
175,2006-01-01,14.159854888916016,8.907833099365234,0.11856853539642621
176,2006-04-01,14.745685577392578,9.326173782348633,0.04696323767148366
177,2006-07-01,14.491371154785154,9.21957302093506,-0.011430278257878112
178,2006-10-01,17.593097686767578,11.247710227966307,0.2199816848812756
179,2007-01-01,19.65485954284668,12.621933937072756,0.12217808613966415
180,2007-04-01,19.137147903442386,12.343683242797852,-0.02204501272642814
181,2007-07-01,20.90372467041016,13.535228729248047,0.09653078931245457
182,2007-10-01,23.46957397460937,15.251626014709473,0.12680962544448857
183,2008-01-01,19.854677200317386,12.946492195129395,-0.1511402008780497
184,2008-04-01,21.04904556274414,13.776589393615724,0.06411753747463897
185,2008-07-01,20.34514045715332,13.365318298339846,-0.029852896353757048
186,2008-10-01,17.38419532775879,11.465108871459961,-0.1421746481799776
187,2009-01-01,15.781107902526855,10.45907211303711,-0.08774768471036275
188,2009-04-01,16.339691162109375,10.90045166015625,0.04220064096976311
189,2009-07-01,19.663942337036133,13.180270195007324,0.20914899730112602
190,2009-10-01,21.553133010864254,14.501971244812012,0.10027875227515039
191,2010-01-01,21.376022338867188,14.43360424041748,-0.004714324917654841
192,2010-04-01,23.60127067565918,15.989935874938965,0.10782695774374847
193,2010-07-01,20.908266067504886,14.218491554260256,-0.11078495464482098
194,2010-10-01,19.09173393249512,13.043200492858887,-0.08265933533921319
195,2011-01-01,20.749319076538086,14.234477043151855,0.09133314717850033
196,2011-04-01,18.33333396911621,12.630375862121582,-0.11269126193870252
197,2011-07-01,15.971843719482422,11.086586952209473,-0.12222826357384364
198,2011-10-01,12.084468841552734,8.487242698669434,-0.2344584735360786
199,2012-01-01,12.70663070678711,9.00953197479248,0.061538157286927526
200,2012-04-01,11.24432373046875,8.060782432556152,-0.10530508631200912
201,2012-07-01,8.283378601074219,6.01654052734375,-0.253603409137561
202,2012-10-01,6.289736747741699,4.646001815795898,-0.22779514329190972
203,2013-01-01,7.497729301452638,5.656240463256836,0.21744258558535998
204,2013-04-01,9.355132102966307,7.156508445739746,0.26524119549526065
205,2013-07-01,11.66212558746338,9.037789344787598,0.26287692012265756
206,2013-10-01,11.067211151123047,8.70082950592041,-0.03728343580629302
207,2014-01-01,13.169845581054688,10.474787712097168,0.2038838026845236
208,2014-04-01,15.01362419128418,12.068439483642578,0.15214167726806785
209,2014-07-01,16.171661376953125,13.136069297790527,0.08846461181621719
210,2014-10-01,16.29427719116211,13.36093044281006,0.017117840955464085
211,2015-01-01,16.40781021118164,13.574956893920898,0.016018828331376612
212,2015-04-01,14.97275161743164,12.520612716674805,-0.07766832598328526
213,2015-07-01,13.860127449035645,11.728278160095215,-0.06328241073413028
214,2015-10-01,12.243414878845215,10.504961967468262,-0.10430484133546691
215,2016-01-01,9.710000038146973,8.415975570678711,-0.1988571118352183
216,2016-04-01,12.270000457763672,10.754088401794434,0.2778183956785374
217,2016-07-01,14.010000228881836,12.508355140686035,0.16312556428296457
218,2016-10-01,14.489999771118164,13.05193328857422,0.043457204546430254
219,2017-01-01,15.050000190734865,13.671324729919435,0.04745591535373811
220,2017-04-01,18.81999969482422,17.227733612060547,0.26013637686170804
221,2017-07-01,19.100000381469727,17.615365982055664,0.02250048548021134
222,2017-10-01,21.549999237060547,20.012380599975586,0.13607520958472855
223,2018-01-01,23.31999969482422,21.798656463623047,0.08925853946879464
224,2018-04-01,21.489999771118164,20.20615577697754,-0.07305499260025616
225,2018-07-01,23.07999992370605,21.82780647277832,0.08025528030663087
226,2018-10-01,24.13999938964844,22.96004676818848,0.051871464813571085
227,2019-01-01,22.030000686645508,21.103105545043945,-0.08087706623130042
228,2019-04-01,19.950000762939453,19.27277946472168,-0.08673254637406279
229,2019-07-01,21.040000915527344,20.49090003967285,0.06320419829329287
230,2019-10-01,17.370000839233402,17.060449600219727,-0.1674133607021341
231,2020-01-01,21.31999969482422,21.121868133544922,0.238060463147049
