,Date,Close,Adj Close,RoR
0,1982-04-01,10.78125,2.172833204269409,0.09647262392629932
1,1982-07-01,11.041666984558104,2.2389559745788574,0.03043159050566943
2,1982-10-01,15.833333015441895,3.225237846374512,0.4405097210458424
3,1983-01-01,16.61458396911621,3.399486541748047,0.0540266187095031
4,1983-04-01,22.01388931274414,4.522625923156738,0.3303850059753915
5,1983-07-01,17.08333396911621,3.523767709732056,-0.22085802151142564
6,1983-10-01,14.51388931274414,3.0077033042907715,-0.14645244748000874
7,1984-01-01,15.833333015441895,3.304006338119507,0.09851471500065556
8,1984-04-01,18.33333396911621,3.8496251106262207,0.16513853687619007
9,1984-07-01,18.41666603088379,3.888726949691773,0.010157310891810835
10,1984-10-01,16.66666603088379,3.538872480392456,-0.08996632415321598
11,1985-01-01,18.5,3.9561691284179688,0.11791796690544641
12,1985-04-01,18.5,3.9801197052001953,0.006053982022705928
13,1985-07-01,22.08333396911621,4.775186538696289,0.1997595279502034
14,1985-10-01,17.58333396911621,3.825352191925049,-0.19891041723169248
15,1986-01-01,20.5,4.487171173095703,0.17300864024172483
16,1986-04-01,19.41666603088379,4.2771334648132315,-0.04680849028934334
17,1986-07-01,15.166666984558105,3.3658955097198486,-0.2130487539352887
18,1986-10-01,14.416666984558105,3.224982500076294,-0.04186493883622763
19,1987-01-01,13.416666984558105,3.0298900604248047,-0.06049410799806632
20,1987-04-01,15.916666984558105,3.6209287643432617,0.19506935635664308
21,1987-07-01,19.16666603088379,4.393754482269287,0.21343300799959122
22,1987-10-01,12.333333015441895,2.849095582962036,-0.35155785457303595
23,1988-01-01,14.583333015441895,3.405430793762207,0.1952673031144087
24,1988-04-01,17.0,4.000833034515382,0.17483903705921272
25,1988-07-01,16.66666603088379,3.95640230178833,-0.011105370392552143
26,1988-10-01,17.0,4.0741705894470215,0.029766509741807366
27,1989-01-01,17.41666603088379,4.212785720825194,0.03402290805819863
28,1989-04-01,20.58333396911621,5.017701625823975,0.19106500029655304
29,1989-07-01,26.25,6.47068452835083,0.28957140357827793
30,1989-10-01,25.33333396911621,6.312168598175049,-0.024497551917614793
31,1990-01-01,25.66666603088379,6.457019329071045,0.02294785518528051
32,1990-04-01,26.0,6.60631275177002,0.02312110512459221
33,1990-07-01,31.91666603088379,8.190678596496582,0.23982604279551625
34,1990-10-01,27.83333396911621,7.218771934509277,-0.11866009031327643
35,1991-01-01,30.33333396911621,7.949880123138428,0.10127874869326374
36,1991-04-01,33.0,8.728521347045897,0.09794376919485918
37,1991-07-01,33.5,8.954974174499512,0.02594400797682145
38,1991-10-01,29.0,7.807839870452881,-0.12810023587932273
39,1992-01-01,28.125,7.641727924346924,-0.021275019578023437
40,1992-04-01,24.375,6.682675361633301,-0.12550205558327115
41,1992-07-01,23.0,6.375680446624756,-0.045938923918266296
42,1992-10-01,22.625,6.338449001312256,-0.005839603415539762
43,1993-01-01,19.875,5.630204677581787,-0.11173779635741175
44,1993-04-01,9.25,8.556233406066895,0.5197020172527471
45,1993-07-01,11.375,10.521854400634766,0.22972970713656843
46,1993-10-01,14.125,13.065601348876953,0.2417584250252244
47,1994-01-01,20.25,18.73121833801269,0.43362849040413465
48,1994-04-01,18.5,17.11246681213379,-0.08641998062634541
49,1994-07-01,18.75,17.343721389770508,0.013513807224610368
50,1994-10-01,24.375,22.546833038330078,0.2999997250664102
51,1995-01-01,22.875,21.15933990478516,-0.061538271525147306
52,1995-04-01,19.5,18.037464141845703,-0.14754126437722417
53,1995-07-01,19.5,18.037464141845703,0.0
54,1995-10-01,21.125,19.54059600830078,0.08333387967590818
55,1996-01-01,27.625,25.55307960510254,0.3076919247625648
56,1996-04-01,24.625,22.7780818939209,-0.10859738841918366
57,1996-07-01,16.75,15.493718147277832,-0.3197970654670069
58,1996-10-01,18.25,16.881217956542972,0.089552410601255
59,1997-01-01,19.0,17.574966430664062,0.041095878028883634
60,1997-04-01,21.75,20.118715286254886,0.14473705344623577
61,1997-07-01,24.375,22.546833038330078,0.12068950315799154
62,1997-10-01,20.9375,19.36715507507324,-0.14102548051211103
63,1998-01-01,20.0625,18.557785034179688,-0.041790858686068036
64,1998-04-01,27.0,24.97495460510254,0.3457939381830171
65,1998-07-01,27.1875,25.14838790893555,0.006944289051783816
66,1998-10-01,18.9375,17.517154693603516,-0.30344820681808227
67,1999-01-01,17.875,16.534337997436527,-0.05610595518265701
68,1999-04-01,13.625,12.603099822998047,-0.23776205464337166
69,1999-07-01,10.875,10.05935764312744,-0.20183464509491583
70,1999-10-01,6.875,6.3593621253967285,-0.36781628101855496
71,2000-01-01,8.0,7.399986267089844,0.16363655995265342
72,2000-04-01,7.6875,7.11092472076416,-0.03906244361712328
73,2000-07-01,7.3125,6.764049530029298,-0.048780602292409894
74,2000-10-01,12.125,11.21560764312744,0.6581202714934674
75,2001-01-01,11.949999809265135,11.053730964660645,-0.014433161681256555
76,2001-04-01,9.880000114440918,9.138982772827148,-0.17322189204306185
77,2001-07-01,11.149999618530273,10.313729286193848,0.12854237091457946
78,2001-10-01,11.550000190734865,10.683730125427246,0.03587459288161544
79,2002-01-01,12.449999809265135,11.516230583190918,0.07792226572462022
80,2002-04-01,16.350000381469727,15.123724937438965,0.3132530499618116
81,2002-07-01,12.3100004196167,11.386731147766113,-0.24709480006621107
82,2002-10-01,12.18000030517578,11.266481399536133,-0.010560515276025592
83,2003-01-01,9.9399995803833,9.194482803344727,-0.18390822500063908
84,2003-04-01,11.050000190734863,10.221234321594238,0.11167039410590934
85,2003-07-01,17.520000457763672,16.205968856811527,0.585519747118353
86,2003-10-01,20.290000915527344,18.768213272094727,0.15810498205457574
87,2004-01-01,23.32999992370605,21.58021354675293,0.14982780906689658
88,2004-04-01,16.290000915527347,15.068222045898438,-0.3017575098015803
89,2004-07-01,18.11000061035156,16.75172233581543,0.11172521116220478
90,2004-10-01,19.149999618530273,17.713722229003906,0.057426924462071975
91,2005-01-01,34.27000045776367,31.699695587158203,0.7895558695875954
92,2005-04-01,34.650001525878906,32.051193237304695,0.011088360428574145
93,2005-07-01,39.849998474121094,36.861183166503906,0.1500721016402228
94,2005-10-01,44.38999938964844,41.06068420410156,0.11392746181337395
95,2006-01-01,55.77000045776367,51.58716583251953,0.25636400933052345
96,2006-04-01,45.18000030517578,41.79142379760742,-0.18988719145212407
97,2006-07-01,55.93000030517578,51.73516464233398,0.23793735511102254
98,2006-10-01,60.0,55.49989700317383,0.07276931245637201
99,2007-01-01,55.5,51.33739852905274,-0.07500011169179376
100,2007-04-01,63.2400016784668,58.49690246582031,0.13945981179229175
101,2007-07-01,64.08999633789061,59.28314208984375,0.013440705249014452
102,2007-10-01,74.94999694824219,69.32861328125,0.1694490345363664
103,2008-01-01,79.5199966430664,73.55586242675781,0.060974090572947844
104,2008-04-01,47.790000915527344,44.20568084716797,-0.39901893079990547
105,2008-07-01,43.90999984741211,40.6166877746582,-0.08118850346221268
106,2008-10-01,29.59000015258789,27.370704650878906,-0.3261216965122352
107,2009-01-01,37.93000030517578,35.08518218994141,0.28185162338576425
108,2009-04-01,28.78000068664551,26.6214542388916,-0.24123368963084027
109,2009-07-01,32.84999847412109,30.386192321777344,0.14141744658658773
110,2009-10-01,37.58000183105469,34.76145172119141,0.14398840608529898
111,2010-01-01,48.61999893188477,44.97341918945313,0.2937727558149207
112,2010-04-01,45.72000122070313,42.290931701660156,-0.05964606507886007
113,2010-07-01,47.02000045776367,43.4934196472168,0.028433706640457777
114,2010-10-01,58.290000915527344,53.91815948486328,0.23968544948186382
115,2011-01-01,57.97000122070313,53.62215805053711,-0.005489828235128646
116,2011-04-01,76.12000274658203,70.41087341308594,0.31309287005431635
117,2011-07-01,74.58000183105469,69.20018768310547,-0.01719458474655793
118,2011-10-01,84.88999938964844,79.01520538330078,0.1418351312158587
119,2012-01-01,89.0199966430664,83.09062957763672,0.051577720700289986
120,2012-04-01,80.68000030517578,75.52045440673828,-0.0911074474869053
121,2012-07-01,61.599998474121094,57.85253143310547,-0.23394884356067117
122,2012-10-01,74.2699966430664,70.00895690917969,0.21012780555904662
123,2013-01-01,74.36000061035156,70.36122894287111,0.005031813774177658
124,2013-04-01,74.11000061035156,70.39911651611328,0.0005384723065729227
125,2013-07-01,91.26000213623048,86.96852111816406,0.23536381451972196
126,2013-10-01,92.1500015258789,88.06767272949219,0.012638499507594346
127,2014-01-01,97.3000030517578,93.23265838623048,0.05864791809138656
128,2014-04-01,109.75,105.41427612304688,0.13065826876192016
129,2014-07-01,117.6500015258789,113.24810028076172,0.07431464167690778
130,2014-10-01,138.85000610351562,133.9405517578125,0.18271786834172582
131,2015-01-01,146.44000244140625,141.53536987304688,0.05670290300854598
132,2015-04-01,165.60000610351562,160.30909729003906,0.1326433628133496
133,2015-07-01,182.08999633789062,176.5316162109375,0.10119524839908407
134,2015-10-01,178.6300048828125,173.45489501953125,-0.0174287261253524
135,2016-01-01,162.7899932861328,158.33131408691406,-0.08719028039487875
136,2016-04-01,177.07000732421875,172.49368286132812,0.08944768036624645
137,2016-07-01,172.5500030517578,168.366455078125,-0.023926834390341725
138,2016-10-01,171.52999877929688,167.3711700439453,-0.00591142121343505
139,2017-01-01,198.5,194.00245666503903,0.1591151368189716
140,2017-04-01,221.97999572753903,217.68218994140625,0.12205893514664196
141,2017-07-01,231.1999969482422,227.1068878173828,0.043295677420892444
142,2017-10-01,255.3500061035156,251.25010681152344,0.106307735648926
143,2018-01-01,281.8299865722656,277.75262451171875,0.10548261267039505
144,2018-04-01,294.17999267578125,290.46661376953125,0.04577450629013257
145,2018-07-01,314.17999267578125,310.7341003417969,0.06977561486066941
146,2018-10-01,320.4100036621094,317.3724670410156,0.021363495966219264
147,2019-01-01,308.989990234375,306.5997009277344,-0.03394360643101732
148,2019-04-01,255.41000366210938,253.96551513671875,-0.17167070167306364
149,2019-07-01,296.75,295.69256591796875,0.1643020343088188
150,2019-10-01,294.20001220703125,293.76385498046875,-0.0065226899821183345
151,2020-01-01,336.239990234375,336.239990234375,0.14459278952725593
