,Date,Close,Adj Close,RoR
0,1962-04-01,7.916134834289551,0.6986912488937378,-0.026241751946670177
1,1962-07-01,6.556493282318115,0.5835205316543579,-0.16483778410239672
2,1962-10-01,6.254350662231445,0.5621572732925415,-0.0366109797392197
3,1963-01-01,7.149901390075684,0.6487582325935364,0.15405112308478222
4,1963-04-01,7.920364856719972,0.7249699831008911,0.11747326920644004
5,1963-07-01,7.057445526123048,0.6514896154403687,-0.10135642767749806
6,1963-10-01,8.351824760437013,0.7775740027427673,0.193532459020353
7,1964-01-01,7.827909469604492,0.7344349026679993,-0.05547909256559739
8,1964-04-01,8.105276107788086,0.7667849063873291,0.04404747595983143
9,1964-07-01,7.951183319091798,0.7592148184776306,-0.009872505114067252
10,1964-10-01,9.183924674987793,0.8849366903305054,0.1655945969349899
11,1965-01-01,8.321005821228027,0.8082109093666077,-0.08670200004391526
12,1965-04-01,8.598372459411621,0.8429014086723328,0.0429225823404338
13,1965-07-01,7.303994178771973,0.7222030162811279,-0.14319396212816723
14,1965-10-01,7.7662720680236825,0.7756360173225403,0.07398612278934708
15,1966-01-01,8.290187835693361,0.8374537229537964,0.07969937477200707
16,1966-04-01,7.396449565887451,0.7537723183631897,-0.09992361643035351
17,1966-07-01,6.903353214263916,0.7113520503044128,-0.05627729624098178
18,1966-10-01,6.441074848175049,0.6711391806602478,-0.056530194334797404
19,1967-01-01,7.088264465332031,0.7385742068290709,0.10047845232710517
20,1967-04-01,7.396449565887451,0.7800186276435852,0.05611409176127078
21,1967-07-01,7.18071985244751,0.7658963799476624,-0.018105013387418416
22,1967-10-01,6.34861946105957,0.6771443486213684,-0.11587994623027051
23,1968-01-01,7.334812641143799,0.7927887439727783,0.17078248616688013
24,1968-04-01,7.735453605651855,0.8462167382240295,0.0673924732880488
25,1968-07-01,7.7662720680236825,0.8588028550148009,0.014873396167022275
26,1968-10-01,9.183924674987793,1.026324987411499,0.19506471295302222
27,1969-01-01,9.214743614196776,1.0403122901916504,0.013628531850743336
28,1969-04-01,11.156311988830566,1.2720212936401367,0.22273023748070878
29,1969-07-01,9.214743614196776,1.0593785047531128,-0.16716920538217184
30,1969-10-01,10.01602554321289,1.1626784801483154,0.09750997866364733
31,1970-01-01,8.105276107788086,0.9494818449020386,-0.18336680250509216
32,1970-04-01,8.38264274597168,0.991926908493042,0.044703396719905295
33,1970-07-01,8.505917549133299,1.0188899040222168,0.02718244186977204
34,1970-10-01,8.290187835693361,1.0039615631103516,-0.014651574083650674
35,1971-01-01,9.399654388427734,1.1516603231430054,0.14711595090859006
36,1971-04-01,9.707839965820312,1.2019401788711548,0.04365858119599906
37,1971-07-01,7.951183319091798,0.9940351843833924,-0.17297449419073732
38,1971-10-01,8.13609504699707,1.028625249862671,0.03479762690767826
39,1972-01-01,8.413461685180664,1.077389121055603,0.04740683859300797
40,1972-04-01,9.553747177124023,1.236853003501892,0.1480095532151371
41,1972-07-01,8.968194961547852,1.1723549365997314,-0.05214691375575576
42,1972-10-01,8.937376976013184,1.1800888776779177,0.006596927975257718
43,1973-01-01,9.80029582977295,1.3063138723373413,0.1069622780512929
44,1973-04-01,8.598372459411621,1.157233953475952,-0.11412258724210433
45,1973-07-01,9.368836402893066,1.2733721733093262,0.10035846207634425
46,1973-10-01,12.635601997375488,1.7332302331924438,0.36113405767930934
47,1974-01-01,12.69723892211914,1.755923628807068,0.01309312241387873
48,1974-04-01,11.58777141571045,1.6152111291885376,-0.08013588820723778
49,1974-07-01,11.372041702270508,1.5979593992233276,-0.010680789435791604
50,1974-10-01,10.17011833190918,1.444271683692932,-0.09617748461262166
51,1975-01-01,9.368836402893066,1.347759485244751,-0.06682412979350531
52,1975-04-01,12.450690269470215,1.8133499622344968,0.34545516621253486
53,1975-07-01,13.128698348999025,1.9307957887649536,0.0647673251034976
54,1975-10-01,13.59097671508789,2.0155436992645264,0.043892736348768564
55,1976-01-01,17.4124755859375,2.604723691940308,0.2923181436804243
56,1976-04-01,17.628204345703125,2.655371189117432,0.01944447978641287
57,1976-07-01,16.888559341430664,2.5610597133636475,-0.03551724750961503
58,1976-10-01,16.61119270324707,2.5382251739501958,-0.008916051154254912
59,1977-01-01,14.36143970489502,2.2114360332489014,-0.1287471041005862
60,1977-04-01,14.299802780151367,2.2230141162872314,0.00523554959956056
61,1977-07-01,11.43367862701416,1.7929430007934568,-0.19346306095980093
62,1977-10-01,10.077662467956543,1.5981093645095823,-0.10866694378887225
63,1978-01-01,9.769476890563963,1.5673035383224487,-0.019276419293486252
64,1978-04-01,10.17011833190918,1.6536258459091189,0.055076955724265485
65,1978-07-01,10.940582275390623,1.8000137805938718,0.08852542734917937
66,1978-10-01,9.861932754516602,1.6406762599945068,-0.0885201670771628
67,1979-01-01,10.200937271118164,1.7185561656951904,0.0474681737035339
68,1979-04-01,11.125493049621582,1.8991107940673828,0.10506181408342533
69,1979-07-01,10.509121894836426,1.817003965377808,-0.043234354175684546
70,1979-10-01,9.368836402893066,1.6393461227416992,-0.09777515405651226
71,1980-01-01,9.64620304107666,1.7132591009140017,0.04508686551726358
72,1980-04-01,8.444279670715332,1.5210727453231812,-0.11217588483160054
73,1980-07-01,10.416666984558104,1.9105794429779053,0.256073681454312
74,1980-10-01,9.677021980285645,1.799813151359558,-0.05797523469932368
75,1981-01-01,10.38584804534912,1.9593088626861568,0.08861792748103738
76,1981-04-01,11.372041702270508,2.1765422821044917,0.11087247322533626
77,1981-07-01,11.741864204406738,2.2768616676330566,0.04609117238538844
78,1981-10-01,9.461292266845703,1.8581078052520752,-0.18391712958842285
79,1982-01-01,9.43047332763672,1.8799049854278564,0.01173084797026844
80,1982-04-01,8.844921112060547,1.793384075164795,-0.04602408682020162
81,1982-07-01,8.598372459411621,1.7723301649093628,-0.011739766482256444
82,1982-10-01,11.464496612548828,2.401925802230835,0.3552360896332596
83,1983-01-01,12.234960556030273,2.5963144302368164,0.08093032175491818
84,1983-04-01,13.991617202758787,3.0030832290649414,0.15667162424199235
85,1983-07-01,13.00542449951172,2.8229982852935787,-0.05996668424918583
86,1983-10-01,12.142504692077635,2.66616153717041,-0.055556798932613664
87,1984-01-01,13.31360912322998,2.9577629566192627,0.10937124978493551
88,1984-04-01,13.59097671508789,3.0561490058898926,0.03326366943992213
89,1984-07-01,12.050049781799315,2.7414331436157227,-0.10297791817991893
90,1984-10-01,12.4815092086792,2.870344638824463,0.047023395594727756
91,1985-01-01,13.406064987182615,3.1208882331848145,0.0872869379416963
92,1985-04-01,12.389053344726562,2.9169998168945312,-0.06533025249744957
93,1985-07-01,12.635601997375488,3.0106430053710938,0.032102569199423545
94,1985-10-01,10.940582275390623,2.6389248371124268,-0.12346803244207587
95,1986-01-01,12.789693832397461,3.123183488845825,0.18350604190124853
96,1986-04-01,14.114891052246096,3.608672380447388,0.15544680398556274
97,1986-07-01,15.809910774230955,4.223545551300049,0.17038764011501406
98,1986-10-01,18.028846740722656,4.997857570648193,0.18333222879762803
99,1987-01-01,22.744083404541016,6.522429943084718,0.3050451820376298
100,1987-04-01,24.25419044494629,7.140094757080077,0.09469857390346169
101,1987-07-01,24.038461685180664,7.182199001312256,0.005896874714502675
102,1987-10-01,18.367849349975586,5.552125453948975,-0.22696023140899485
103,1988-01-01,19.107494354248047,5.8716020584106445,0.057541315863898705
104,1988-04-01,21.32642936706543,6.6527910232543945,0.13304528424652917
105,1988-07-01,22.250986099243164,7.051206111907959,0.05988690870657603
106,1988-10-01,22.559171676635746,7.258849143981934,0.029447874417301536
107,1989-01-01,24.9630184173584,8.153092384338379,0.12319352870114847
108,1989-04-01,24.223373413085934,8.0355224609375,-0.014420285930614984
109,1989-07-01,25.39447784423828,8.555699348449707,0.06473466909474836
110,1989-10-01,24.53155899047852,8.377215385437013,-0.020861411293634908
111,1990-01-01,24.90138053894043,8.65239143371582,0.03284815247285799
112,1990-04-01,24.46992111206055,8.650576591491701,-0.0002097503606976693
113,1990-07-01,27.798322677612305,9.994144439697266,0.15531540978748568
114,1990-10-01,22.928993225097656,8.388580322265625,-0.1606504816014321
115,1991-01-01,29.031064987182614,10.806034088134766,0.2881838967974767
116,1991-04-01,31.00345230102539,11.699646949768065,0.08269572854804365
117,1991-07-01,34.270217895507805,13.110018730163574,0.12054823418611525
118,1991-10-01,37.475345611572266,14.523567199707033,0.10782200228983364
119,1992-01-01,35.6262321472168,13.974580764770508,-0.03779969668523304
120,1992-04-01,36.73569869995117,14.577574729919435,0.043149342030285226
121,1992-07-01,32.914199829101555,13.216933250427244,-0.09333798692175943
122,1992-10-01,31.92800712585449,12.996988296508787,-0.01664114887705491
123,1993-01-01,31.80473327636719,13.124246597290039,0.0097913684215162
124,1993-04-01,32.421104431152344,13.547669410705565,0.03226263772755962
125,1993-07-01,31.434911727905273,13.307640075683596,-0.017717389445028417
126,1993-10-01,29.339250564575195,12.58347225189209,-0.05441744889950416
127,1994-01-01,37.04388427734375,16.096084594726562,0.27914491902712346
128,1994-04-01,32.17455673217773,14.137701034545898,-0.12166831931426816
129,1994-07-01,35.93441772460937,16.00362777709961,0.13198233135601486
130,1994-10-01,36.73569869995117,16.552976608276367,0.034326518888601526
131,1995-01-01,35.07149887084961,15.990300178527832,-0.03399246208486763
132,1995-04-01,37.96844100952149,17.504432678222653,0.09469068640300042
133,1995-07-01,41.66666793823242,19.411670684814453,0.10895743047785857
134,1995-10-01,36.48915100097656,17.21507453918457,-0.11315853134414942
135,1996-01-01,40.1873779296875,19.093372344970703,0.10910773586897884
136,1996-04-01,39.32445907592773,18.81011199951172,-0.01483553247384277
137,1996-07-01,37.35206985473633,17.973237991333008,-0.044490644617131196
138,1996-10-01,42.0364875793457,20.352378845214844,0.1323712986513113
139,1997-01-01,40.31064987182617,19.63119888305664,-0.03543467658709407
140,1997-04-01,41.66666793823242,20.411914825439453,0.03976914232460022
141,1997-07-01,55.35009765625,27.26150321960449,0.335568145014419
142,1997-10-01,44.37869644165039,21.95956420898437,-0.19448447020365878
143,1998-01-01,45.05670547485352,22.41499900817871,0.020739701155271847
144,1998-04-01,51.46696090698242,25.738525390625,0.148272430493243
145,1998-07-01,44.00887680053711,22.115915298461914,-0.14074660599952574
146,1998-10-01,45.79635238647461,23.151277542114254,0.04681525632919864
147,1999-01-01,39.016273498535156,19.834880828857425,-0.1432489722100219
148,1999-04-01,52.57643127441406,26.891075134277344,0.35574674565999825
149,1999-07-01,50.29585647583008,25.84914970397949,-0.038746142543395014
150,1999-10-01,51.89842224121094,26.79771614074707,0.036696233633617334
151,2000-01-01,46.96745681762695,24.363529205322266,-0.09083561161107755
152,2000-04-01,36.24260330200195,18.91024780273437,-0.2238296987530285
153,2000-07-01,33.22238540649414,17.447437286376953,-0.07735543878731721
154,2000-10-01,35.93441772460937,19.011409759521484,0.08963909412448147
155,2001-01-01,38.116371154785156,20.321006774902344,0.0688847924454931
156,2001-04-01,38.63905334472656,20.74193382263184,0.020713887475760587
157,2001-07-01,40.1873779296875,21.719139099121094,0.04711254431942169
158,2001-10-01,35.305721282958984,19.19945526123047,-0.11601214147537683
159,2002-01-01,41.20315551757813,22.54736137390137,0.1743750573710985
160,2002-04-01,40.85798645019531,22.49106979370117,-0.0024965928059928143
161,2002-07-01,39.27021789550781,21.74295425415039,-0.033262781468949704
162,2002-10-01,34.44773101806641,19.2012882232666,-0.11689607590461745
163,2003-01-01,35.20709991455078,19.765830993652344,0.029401296612050952
164,2003-04-01,35.25640869140625,19.933448791503906,0.008480179654748225
165,2003-07-01,38.57987976074219,21.966907501220703,0.10201238787055773
166,2003-10-01,38.80670547485352,22.232892990112305,0.01210846309963388
167,2004-01-01,41.6863899230957,24.048097610473636,0.08164500324670355
168,2004-04-01,39.76331329345703,23.07314109802246,-0.04054193925204935
169,2004-07-01,42.63313674926758,24.894554138183594,0.07894083568523062
170,2004-10-01,37.97830200195313,22.311275482177734,-0.10376882597160447
171,2005-01-01,38.609466552734375,22.824655532836914,0.023009892512387654
172,2005-04-01,33.81656646728516,20.129154205322266,-0.11809603538755443
173,2005-07-01,31.163707733154297,18.69634246826172,-0.0711809210881649
174,2005-10-01,28.77712059020996,17.40577507019043,-0.06902780050494436
175,2006-01-01,32.17948532104492,19.62643241882324,0.12758164113219886
176,2006-04-01,35.84812545776367,22.03011703491211,0.12247180561371687
177,2006-07-01,33.856014251708984,20.960750579833984,-0.0485411154822034
178,2006-10-01,32.88954544067383,20.51308250427246,-0.021357444899526547
179,2007-01-01,33.23471450805664,20.88819122314453,0.01828631649065628
180,2007-04-01,37.19921112060547,23.540142059326172,0.1269593335225324
181,2007-07-01,36.55818557739258,23.28573608398437,-0.010807325406135748
182,2007-10-01,36.449703216552734,23.39244270324707,0.004582488562003857
183,2008-01-01,31.75542449951172,20.53050422668457,-0.12234457567636742
184,2008-04-01,25.808677673339844,16.813657760620114,-0.1810401939000347
185,2008-07-01,27.33727836608887,17.97333526611328,0.06897235104959082
186,2008-10-01,17.021696090698242,11.289363861083984,-0.37188264203979876
187,2009-01-01,8.9940824508667,6.096485137939452,-0.45997974616135023
188,2009-04-01,12.485207557678224,8.749442100524902,0.43516172065698194
189,2009-07-01,18.550296783447266,13.027148246765135,0.48891187541930264
190,2009-10-01,22.001972198486328,15.470586776733398,0.18756511276940532
191,2010-01-01,22.59368896484375,15.90279483795166,0.02793740583054485
192,2010-04-01,26.37080955505371,18.582387924194336,0.16849824911580244
193,2010-07-01,23.865877151489254,16.903205871582028,-0.09036416952774982
194,2010-10-01,24.930967330932614,17.7604923248291,0.05071738815465528
195,2011-01-01,28.48126220703125,20.38771629333496,0.1479251768732227
196,2011-04-01,30.453649520874023,21.941539764404297,0.07621370872113338
197,2011-07-01,29.28993988037109,21.27834701538086,-0.03022544252337903
198,2011-10-01,27.317554473876953,20.06644630432129,-0.05695464549871092
199,2012-01-01,30.710060119628906,22.76822662353516,0.13464169381262317
200,2012-04-01,32.85009765625,24.56008338928223,0.07869988275217078
201,2012-07-01,32.35700225830078,24.40864372253418,-0.006166089273708947
202,2012-10-01,35.335304260253906,26.87281608581543,0.10095490725714981
203,2013-01-01,40.84812545776367,31.340435028076172,0.16625049373291897
204,2013-04-01,46.33135986328125,35.806678771972656,0.1425073946770497
205,2013-07-01,47.64299774169922,37.05644989013672,0.034903296285113974
206,2013-10-01,43.994083404541016,34.43558120727539,-0.07072638341318611
207,2014-01-01,47.08086776733398,37.14844131469727,0.07878072657152427
208,2014-04-01,46.00591659545898,36.56819534301758,-0.01561965862212712
209,2014-07-01,47.5,38.0457763671875,0.04040617838287869
210,2014-10-01,50.61999893188477,40.84384536743164,0.07354479964449692
211,2015-01-01,52.65999984741211,42.80665969848633,0.04805655083151917
212,2015-04-01,53.72000122070313,43.98504257202149,0.027528026756472937
213,2015-07-01,47.86999893188477,39.49187088012695,-0.10215226425067976
214,2015-10-01,42.68999862670898,35.51902770996094,-0.10059901143263447
215,2016-01-01,34.209999084472656,28.76252365112305,-0.19022210050369978
216,2016-04-01,43.27000045776367,36.84598159790039,0.28104133158919514
217,2016-07-01,45.81000137329102,39.42771911621094,0.07006836041131995
218,2016-10-01,45.02999877929688,39.12429428100586,-0.007695723770141277
219,2017-01-01,56.599998474121094,49.68076705932617,0.26981886759412527
220,2017-04-01,53.97000122070313,47.79018783569336,-0.038054549789361784
221,2017-07-01,54.97999954223633,49.1216926574707,0.027861468683805304
222,2017-10-01,57.27000045776367,51.62500762939453,0.05096149657096782
223,2018-01-01,62.86000061035156,57.16322708129883,0.10727784277848543
224,2018-04-01,51.56000137329102,47.26823806762695,-0.1731006018886757
225,2018-07-01,53.72999954223633,49.68476486206055,0.051123690943932674
226,2018-10-01,45.36000061035156,42.33463668823242,-0.14793525126332455
227,2019-01-01,47.43000030517578,44.75408935546875,0.057150665660698895
228,2019-04-01,46.81000137329102,44.63965225219727,-0.002557020038158671
229,2019-07-01,43.90999984741211,42.36249923706055,-0.05101188965970582
230,2019-10-01,43.68000030517578,42.67335510253906,0.007337996366526115
231,2020-01-01,40.72000122070313,40.23126602172852,-0.05722749183752921
