,Date,Close,Adj Close,RoR
0,1962-04-01,0.19907407462596893,5.611272513306176e-07,-0.0730683507105053
1,1962-07-01,0.1727430522441864,4.88306909574021e-07,-0.12977509394511771
2,1962-10-01,0.15740740299224856,4.46493828576422e-07,-0.08562869002626859
3,1963-01-01,0.18692129850387573,5.321305138750175e-07,0.19179813878197408
4,1963-04-01,0.1927083283662796,5.509699008143798e-07,0.03540369598836256
5,1963-07-01,0.2013888955116272,5.77398679979524e-07,0.04796773676035702
6,1963-10-01,0.2471064776182175,7.104418386916224e-07,0.23041818993562027
7,1964-01-01,0.2436342537403107,7.023107855275157e-07,-0.011445065199258442
8,1964-04-01,0.2303240746259689,6.665346745649003e-07,-0.050940568904610226
9,1964-07-01,0.234375,6.799598395446083e-07,0.02014173529452399
10,1964-10-01,0.2430555522441864,7.069603498166543e-07,0.0397089779451228
11,1965-01-01,0.28009259700775146,8.165311555785594e-07,0.15498861540158726
12,1965-04-01,0.2986111044883728,8.743934927224474e-07,0.07086359993561936
13,1965-07-01,0.3203125,9.400458793606958e-07,0.07508334312260034
14,1965-10-01,0.3483796417713165,1.0244838222206456e-06,0.08982321471093954
15,1966-01-01,0.43287035822868347,1.2754304634654543e-06,0.2449493450280777
16,1966-04-01,0.4340277910232544,1.2827712225771393e-06,0.005755514959035465
17,1966-07-01,0.40162035822868347,1.1894346698682057e-06,-0.07276165154486136
18,1966-10-01,0.37384259700775146,1.1094327874161536e-06,-0.06726042588023487
19,1967-01-01,0.43634259700775146,1.297593030358257e-06,0.16960039857874115
20,1967-04-01,0.5416666865348816,1.6158331845872453e-06,0.24525421051400398
21,1967-07-01,0.5060763955116272,1.511860205027915e-06,-0.06434635737840075
22,1967-10-01,0.6024305820465088,1.8033897504210472e-06,0.19282837422640497
23,1968-01-01,0.5894097089767456,1.7675724848231766e-06,-0.01986107861016074
24,1968-04-01,0.6111111044883728,1.8372492149865138e-06,0.039419447157952044
25,1968-07-01,0.6258680820465088,1.8848504623747433e-06,0.02590897685515074
26,1968-10-01,0.5963541865348816,1.7990068954532037e-06,-0.04554396682131715
27,1969-01-01,0.7586805820465088,2.2924548375158338e-06,0.27428907766266303
28,1969-04-01,0.8559027910232544,2.592089458630653e-06,0.1307046997006543
29,1969-07-01,0.8159722089767456,2.475154815329006e-06,-0.04511211714252381
30,1969-10-01,1.0659722089767456,3.238430736018927e-06,0.30837502202401174
31,1970-01-01,1.0972222089767456,3.3378967145836214e-06,0.030714252263727652
32,1970-04-01,0.9930555820465088,3.0266046451288275e-06,-0.09325994662888341
33,1970-07-01,1.0286458730697632,3.141000888717826e-06,0.03779689024567965
34,1970-10-01,1.1822916269302368,3.616846697696019e-06,0.1514949615860936
35,1971-01-01,1.34375,4.116580385016277e-06,0.1381683353177769
36,1971-04-01,1.7604166269302368,5.4034521781431985e-06,0.3126069875401774
37,1971-07-01,1.9583333730697632,6.0177080740686515e-06,0.11367841810650227
38,1971-10-01,1.875,5.7677561926539064e-06,-0.041536059632375825
39,1972-01-01,2.0546875,6.327529263217003e-06,0.09705213810459787
40,1972-04-01,2.4270832538604736,7.825745342415757e-06,0.2367774239951979
41,1972-07-01,2.5364582538604736,8.52201810630504e-06,0.08897207018933585
42,1972-10-01,2.6953125,9.416614375368226e-06,0.10497469706164039
43,1973-01-01,2.6354167461395264,9.572030648996588e-06,0.016504474690489185
44,1973-04-01,2.46875,9.331533874501474e-06,-0.02512494822823455
45,1973-07-01,2.4609375,9.821515050134622e-06,0.05250810662243071
46,1973-10-01,2.5182292461395264,1.060626618709648e-05,0.07990123040651476
47,1974-01-01,2.2109375,9.803464308788533e-06,-0.07569128137521493
48,1974-04-01,2.2708332538604736,1.0708949048421346e-05,0.09236375133442076
49,1974-07-01,2.046875,1.030873227136908e-05,-0.03737218052328525
50,1974-10-01,1.8125,1.0263394869980402e-05,-0.004397960893270521
51,1975-01-01,1.6197916269302368,1.0340823791921139e-05,0.007544182302408513
52,1975-04-01,1.8854166269302368,1.3460083209793085e-05,0.3016451571594224
53,1975-07-01,1.8541666269302368,1.4738257959834302e-05,0.09496038992621245
54,1975-10-01,1.8645833730697632,1.6744257663958703e-05,0.13610833177104698
55,1976-01-01,2.0026042461395264,2.0104085706407204e-05,0.2006555387451059
56,1976-04-01,1.8177083730697632,2.0373534425743852e-05,0.013402684572259566
57,1976-07-01,1.7942708730697632,2.3371496354229748e-05,0.14714982024413462
58,1976-10-01,1.7864583730697632,2.7036170649807897e-05,0.15680101265381408
59,1977-01-01,1.4114583730697632,2.5089180780923925e-05,-0.07201426171268104
60,1977-04-01,1.3151041269302368,2.854906415450387e-05,0.13790340162125184
61,1977-07-01,1.4322916269302368,4.194718349026516e-05,0.4693015246752884
62,1977-10-01,1.5286458730697632,5.8731082390295335e-05,0.4001198055150777
63,1978-01-01,1.453125,7.228723552543671e-05,0.23081735570705886
64,1978-04-01,1.59375,0.00011180125147802757,0.5466250806988809
65,1978-07-01,1.7682291269302368,0.00016926377429626882,0.5139703004982411
66,1978-10-01,1.53125,0.00019169630832038817,0.13253003554590975
67,1979-01-01,1.5807291269302368,0.0002706844534259289,0.4120483372769251
68,1979-04-01,1.4505208730697632,0.0003749176685232669,0.3850727804205452
69,1979-07-01,1.5104166269302368,0.0005930395564064384,0.5817860991782922
70,1979-10-01,1.4192708730697632,0.0008132306393235923,0.37129240459340707
71,1980-01-01,1.5703125,0.0013680828269571064,0.6822814596545631
72,1980-04-01,1.5807291269302368,0.0020416094921529293,0.4923142458369153
73,1980-07-01,1.6875,0.0033472771756350994,0.6395286113728391
74,1980-10-01,1.765625,0.005259532481431961,0.5712868117753164
75,1981-01-01,1.9947916269302368,0.008782006800174713,0.6697314506904086
76,1981-04-01,2.2213542461395264,0.013713586144149305,0.5615549448078861
77,1981-07-01,2.1015625,0.018282759934663773,0.3331859181461325
78,1981-10-01,2.2734375,0.022254202514886856,0.21722336203153345
79,1982-01-01,2.3671875,0.02577341161668301,0.15813683278212254
80,1982-04-01,2.5,0.02997933886945248,0.16318861140009083
81,1982-07-01,2.4765625,0.032925020903348916,0.09825707120239217
82,1982-10-01,2.7421875,0.04067569598555565,0.23540380141166092
83,1983-01-01,3.0234375,0.048988062888383865,0.20435709092181292
84,1983-04-01,3.1328125,0.055543389171361916,0.13381476826127905
85,1983-07-01,2.75,0.053570155054330826,-0.03552599411863918
86,1983-10-01,2.7421875,0.05937689915299416,0.10839513331208656
87,1984-01-01,2.3984375,0.05765455588698388,-0.02900695877655027
88,1984-04-01,2.3359375,0.06391582638025284,0.1085997523863072
89,1984-07-01,1.828125,0.058164652436971664,-0.08998043628609068
90,1984-10-01,2.03125,0.07546980679035188,0.29752011966601905
91,1985-01-01,2.4375,0.10556141287088394,0.39872377259589054
92,1985-04-01,2.7421875,0.13517478108406067,0.28053213203387045
93,1985-07-01,2.8828125,0.15982599556446075,0.1823654847650193
94,1985-10-01,2.9375,0.1835998296737671,0.14874823100800216
95,1986-01-01,3.359375,0.2344591319561005,0.2770117073240413
96,1986-04-01,4.1171875,0.32162776589393616,0.37178604736179305
97,1986-07-01,4.2578125,0.3618558347225189,0.12507648000094884
98,1986-10-01,4.359375,0.4014222323894501,0.1093429865439969
99,1987-01-01,4.7265625,0.47364941239357,0.17992820072318982
100,1987-04-01,5.4453125,0.5844525098800659,0.23393483573970147
101,1987-07-01,5.953125,0.6956416964530945,0.19024503221971864
102,1987-10-01,5.0,0.6262184977531433,-0.09979735121388345
103,1988-01-01,4.8984375,0.6720739603042603,0.07322597897641993
104,1988-04-01,4.734375,0.7076685428619385,0.05296229977659587
105,1988-07-01,5.0,0.8416996002197266,0.1893980716109585
106,1988-10-01,5.4375,1.0175900459289549,0.2089705705732923
107,1989-01-01,5.7265625,1.1860105991363523,0.1655092381074216
108,1989-04-01,6.0078125,1.367365837097168,0.1529119875428413
109,1989-07-01,6.671875,1.5917308330535889,0.16408556501070243
110,1989-10-01,6.921875,1.728798270225525,0.0861121958095043
111,1990-01-01,6.546875,1.7067437171936035,-0.01275715820160112
112,1990-04-01,7.078125,1.92547619342804,0.12815777438108752
113,1990-07-01,8.828125,2.5136148929595947,0.30545103675598106
114,1990-10-01,8.046875,2.3871872425079346,-0.05029714408749424
115,1991-01-01,9.5625,2.9582679271698,0.23922743658008933
116,1991-04-01,11.8125,3.78316068649292,0.27884315404531396
117,1991-07-01,11.453125,3.799691915512085,0.004369687250712547
118,1991-10-01,11.890625,4.086594581604004,0.07550682330866107
119,1992-01-01,13.4375,4.7716898918151855,0.16764455013354398
120,1992-04-01,11.859375,4.341746330261231,-0.09010299732416192
121,1992-07-01,12.3125,4.689287662506104,0.08004643887704108
122,1992-10-01,12.5,4.851554870605469,0.03460380760958554
123,1993-01-01,11.0,4.350640773773193,-0.10324815655846882
124,1993-04-01,10.90625,4.403844833374023,0.012229016912073766
125,1993-07-01,9.125,3.7720105648040767,-0.14347332671252733
126,1993-10-01,10.53125,4.480989456176758,0.18795782227866226
127,1994-01-01,10.59375,4.618974685668945,0.03079347337048153
128,1994-04-01,10.34375,4.622765064239502,0.0008206103796837971
129,1994-07-01,11.75,5.40177059173584,0.16851505898980684
130,1994-10-01,13.65625,6.434019088745117,0.19109447161427268
131,1995-01-01,14.53125,6.999093055725098,0.08782596992421914
132,1995-04-01,16.25,7.987025737762451,0.14115152837255782
133,1995-07-01,17.9375,8.994998931884766,0.12620132039347803
134,1995-10-01,20.375,10.41297721862793,0.15764073986899832
135,1996-01-01,24.0,12.467832565307615,0.1973360071319204
136,1996-04-01,23.125,12.177933692932127,-0.023251745710970387
137,1996-07-01,23.875,12.778986930847168,0.04935592959123125
138,1996-10-01,24.625,13.275376319885256,0.038844189427868846
139,1997-01-01,28.875,15.68369960784912,0.18141280743630775
140,1997-04-01,30.5625,16.65226173400879,0.06175597278558815
141,1997-07-01,31.0625,17.04615592956543,0.023654095872886353
142,1997-10-01,28.6875,15.861104965209961,-0.06952012930376146
143,1998-01-01,33.46875,18.6414737701416,0.17529477366363522
144,1998-04-01,35.75,20.03953742980957,0.07499748554791165
145,1998-07-01,38.625,21.80211639404297,0.08795507233672448
146,1998-10-01,40.75,23.1544189453125,0.062026205476043754
147,1999-01-01,42.5625,24.328353881835934,0.050700254638050044
148,1999-04-01,48.75,28.03230857849121,0.15224847166584207
149,1999-07-01,45.53125,26.336299896240234,-0.06050192682140706
150,1999-10-01,52.375,30.474992752075195,0.15714784810852644
151,2000-01-01,43.03125,25.17401123046875,-0.1739452922838013
152,2000-04-01,41.25,24.30646896362305,-0.03446182091933331
153,2000-07-01,46.53125,27.61815452575684,0.13624708578979705
154,2000-10-01,46.0625,27.52152442932129,-0.0034987890427447886
155,2001-01-01,46.56499862670898,28.012096405029297,0.01782502916827365
156,2001-04-01,48.2400016784668,29.2152042388916,0.042949582082913954
157,2001-07-01,54.099998474121094,33.00014877319336,0.12955393032177395
158,2001-10-01,57.90999984741211,35.44039535522461,0.07394653275058893
159,2002-01-01,57.5099983215332,35.30149459838867,-0.003919277859169277
160,2002-04-01,63.86000061035156,39.321197509765625,0.11386778257146177
161,2002-07-01,52.599998474121094,32.497974395751946,-0.17352531321862963
162,2002-10-01,58.75,36.43109130859375,0.12102652506723408
163,2003-01-01,53.61000061035156,33.35684967041016,-0.08438510974439029
164,2003-04-01,56.36000061035156,35.21229934692383,0.055624247938484944
165,2003-07-01,51.790000915527344,32.49777603149414,-0.07709020330326229
166,2003-10-01,50.33000183105469,31.730958938598636,-0.02359598675775133
167,2004-01-01,53.41999816894531,33.84040069580078,0.06647897913466923
168,2004-04-01,54.02999877929688,34.377796173095696,0.015880292970691674
169,2004-07-01,55.27000045776367,35.35020065307617,0.028285829466331132
170,2004-10-01,58.38000106811523,37.5293083190918,0.06164343131744004
171,2005-01-01,64.69999694824219,41.78862380981445,0.11349304534226841
172,2005-04-01,68.62999725341797,44.518802642822266,0.06533306398012093
173,2005-07-01,63.959999084472656,41.6928596496582,-0.06347751568785032
174,2005-10-01,62.61999893188477,41.03009414672852,-0.01589637910421224
175,2006-01-01,57.540000915527344,37.899017333984375,-0.07631171406887449
176,2006-04-01,58.61000061035156,38.822452545166016,0.024365676899849018
177,2006-07-01,62.54999923706055,41.68942260742188,0.07384824693701243
178,2006-10-01,67.40000152587889,45.18259048461914,0.08379026761995445
179,2007-01-01,66.80000305175781,45.03330612182617,-0.0033040239878186595
180,2007-04-01,64.22000122070311,43.546058654785156,-0.033025500348956065
181,2007-07-01,60.5,41.29216766357422,-0.05175878278856044
182,2007-10-01,65.16999816894531,44.778717041015625,0.08443609465717289
183,2008-01-01,63.13999938964844,43.65372085571289,-0.02512345729495287
184,2008-04-01,67.08999633789061,46.69234848022461,0.06960752863553574
185,2008-07-01,68.47000122070311,47.988624572753906,0.02776206669232546
186,2008-10-01,61.34000015258789,43.27064514160156,-0.09831453752127396
187,2009-01-01,57.68999862670898,41.034080505371094,-0.05168780425878548
188,2009-04-01,52.36000061035156,37.55176162719727,-0.08486406507191037
189,2009-07-01,60.88999938964844,44.05573272705078,0.173200159407247
190,2009-10-01,59.04999923706055,43.0706787109375,-0.0223592698415942
191,2010-01-01,62.86000061035156,46.2123908996582,0.07294317811441609
192,2010-04-01,64.30000305175781,47.632728576660156,0.030734996596171748
193,2010-07-01,58.09000015258789,43.425479888916016,-0.08832684613002992
194,2010-10-01,63.7400016784668,48.098533630371094,0.1076108716221196
195,2011-01-01,59.77000045776367,45.49089050292969,-0.054214607611132025
196,2011-04-01,65.72000122070311,50.47179794311523,0.10949241452780005
197,2011-07-01,64.79000091552734,50.1891098022461,-0.005600912834286844
198,2011-10-01,64.38999938964844,50.323631286621094,0.002680292296576511
199,2012-01-01,65.91000366210939,51.98962783813477,0.03310565054466959
200,2012-04-01,65.09999847412111,51.80429077148438,-0.0035648854272898743
201,2012-07-01,69.22000122070311,55.61907196044922,0.07363832478263903
202,2012-10-01,70.81999969482422,57.42178344726562,0.03241175056100017
203,2013-01-01,73.91999816894531,60.46531295776367,0.05300304741132147
204,2013-04-01,85.2300033569336,70.27437591552734,0.16222628277166967
205,2013-07-01,93.5,77.6727066040039,0.10527778570911332
206,2013-10-01,92.61000061035156,77.51301574707031,-0.0020559455684702756
207,2014-01-01,88.47000122070312,74.56483459472656,-0.03803465939144781
208,2014-04-01,101.29000091552734,85.98416137695312,0.15314627658322694
209,2014-07-01,100.08999633789062,85.55766296386719,-0.004960197392821867
210,2014-10-01,107.77999877929688,92.75428009033205,0.08411423216999442
211,2015-01-01,100.13999938964844,86.74066162109375,-0.06483386495352797
212,2015-04-01,99.1999969482422,86.52792358398438,-0.002452575679427847
213,2015-07-01,100.20999908447266,88.04631042480469,0.017547940340282866
214,2015-10-01,101.02999877929688,89.44583129882812,0.01589528132719074
215,2016-01-01,104.44000244140624,93.14647674560548,0.0413730343051308
216,2016-04-01,112.08000183105469,100.68474578857422,0.08092919138054656
217,2016-07-01,125.2300033569336,113.30095672607422,0.12530409486251787
218,2016-10-01,115.98999786376952,105.64122009277344,-0.0676052246568367
219,2017-01-01,113.25,103.85845947265624,-0.01687561558406456
220,2017-04-01,123.47000122070312,113.98018646240234,0.09745693361079506
221,2017-07-01,132.72000122070312,123.33171081542969,0.0820451750718275
222,2017-10-01,139.41000366210938,130.37257385253906,0.0570888297142515
223,2018-01-01,138.19000244140622,130.02304077148438,-0.002681032296332778
224,2018-04-01,126.48999786376952,119.776611328125,-0.07880472093686446
225,2018-07-01,132.52000427246094,126.41724395751952,0.05544181418860375
226,2018-10-01,139.99000549316406,134.43319702148438,0.06340869973924199
227,2019-01-01,133.08000183105472,128.611328125,-0.043306780062323115
228,2019-04-01,141.1999969482422,137.36367797851562,0.06805271340491123
229,2019-07-01,130.22000122070312,127.54882049560548,-0.07145162118071151
230,2019-10-01,132.03999328613278,130.30059814453122,0.021574308866466916
231,2020-01-01,148.8699951171875,147.9267120361328,0.1352727012968157
