,Date,Close,Adj Close,RoR
0,1980-07-01,2.6630613803863525,0.3624829649925232,0.7218541546320846
1,1980-10-01,2.6630613803863525,0.3624829649925232,0.0
2,1981-01-01,3.6258604526519775,0.4935345947742462,0.3615387271631542
3,1981-04-01,3.2366437911987305,0.4405561685562134,-0.10734490910868438
4,1981-07-01,2.6630613803863525,0.3624829649925232,-0.17721509568133156
5,1981-10-01,1.92559814453125,0.2621030211448669,-0.27692320341102594
6,1982-01-01,1.987053394317627,0.2704681158065796,0.03191529279278789
7,1982-04-01,2.0689938068389893,0.2816214859485626,0.041237282659813274
8,1982-07-01,1.9665683507919312,0.2676798105239868,-0.04950501336081372
9,1982-10-01,3.093248128890991,0.4210379421710968,0.5729163187425655
10,1983-01-01,4.097017288208009,0.5576664805412292,0.3245040997151056
11,1983-04-01,4.117502689361571,0.5604545474052429,0.004999523839603527
12,1983-07-01,3.2571287155151367,0.4433446824550629,-0.20895515165746778
13,1983-10-01,2.826941967010498,0.3847896158695221,-0.1320757164860682
14,1984-01-01,2.724516630172729,0.37084814906120295,-0.03623140083137416
15,1984-04-01,2.109963893890381,0.2925648093223572,-0.21109270718222264
16,1984-07-01,1.8846279382705688,0.26754555106163025,-0.08551697765249654
17,1984-10-01,1.9665683507919312,0.2874818742275238,0.07451562205682552
18,1985-01-01,2.3557848930358887,0.3536369204521179,0.23011901672881319
19,1985-04-01,2.0689938068389893,0.3172287940979004,-0.1029534085628572
20,1985-07-01,2.0689938068389893,0.3250841796398163,0.02476252373071668
21,1985-10-01,1.864142894744873,0.3003711998462677,-0.07602024749690939
22,1986-01-01,2.314814805984497,0.38346314430236816,0.2766308637400242
23,1986-04-01,2.949852466583252,0.5001929402351379,0.304409426739395
24,1986-07-01,2.3352999687194824,0.4024697244167328,-0.19537104176733483
25,1986-10-01,2.6630613803863525,0.4681478440761566,0.16318772736161927
26,1987-01-01,3.6258604526519775,0.6497718691825867,0.3879629638471305
27,1987-04-01,4.609144687652588,0.8380153775215149,0.28970707607846835
28,1987-07-01,3.748770952224731,0.690584659576416,-0.1759284159929557
29,1987-10-01,2.4172401428222656,0.4677779972553253,-0.3226348272169174
30,1988-01-01,2.9293673038482666,0.5813274979591371,0.24274228666175057
31,1988-04-01,3.0522780418396,0.6183978915214539,0.06376851893719046
32,1988-07-01,3.011307716369629,0.622776985168457,0.007081352810290511
33,1988-10-01,2.9293673038482666,0.6181600093841553,-0.0074135298738647135
34,1989-01-01,3.4210095405578613,0.7370178699493408,0.19227685188434987
35,1989-04-01,3.584890127182007,0.7864704728126526,0.06709824127698683
36,1989-07-01,3.728285789489746,0.8318661451339722,0.05772075861789336
37,1989-10-01,3.38003921508789,0.7665123939514159,-0.07856282115199079
38,1990-01-01,2.949852466583252,0.6808381080627441,-0.11177155981394618
39,1990-04-01,2.826941967010498,0.6654771566390991,-0.022561826727579996
40,1990-07-01,2.6425762176513667,0.6353824734687805,-0.045222714063256
41,1990-10-01,1.5568666458129885,0.3832517862319946,-0.3968171892754835
42,1991-01-01,3.113733291625977,0.7949260473251343,1.0741613630573925
43,1991-04-01,3.5439200401306152,0.9235556125640868,0.16181324749865883
44,1991-07-01,4.035562038421632,1.069916605949402,0.15847556053389159
45,1991-10-01,4.732055187225342,1.2733322381973269,0.1901228853882698
46,1992-01-01,7.702392578125,2.099609375,0.648909304277448
47,1992-04-01,7.2107505798339835,1.9810385704040527,-0.05647279251453488
48,1992-07-01,9.996722221374512,2.757859706878662,0.39212822409417747
49,1992-10-01,8.521796226501465,2.3580482006073,-0.14497166236344483
50,1993-01-01,9.996722221374512,2.7759058475494385,0.17720487937206805
51,1993-04-01,10.03769302368164,2.79568099975586,0.007123855524090916
52,1993-07-01,9.668960571289062,2.701061964035034,-0.03384471823827128
53,1993-10-01,10.775156021118164,3.019381046295166,0.11784960378495155
54,1994-01-01,11.5535888671875,3.246558666229248,0.07523979797542711
55,1994-04-01,10.078662872314453,2.839486122131348,-0.12538585805710972
56,1994-07-01,9.894296646118164,2.79449725151062,-0.015844018489852264
57,1994-10-01,7.436086654663086,2.1055495738983154,-0.24653725361149686
58,1995-01-01,7.55899715423584,2.1475355625152592,0.019940631717926705
59,1995-04-01,8.112093925476074,2.312161922454834,0.0766582695127802
60,1995-07-01,9.464110374450684,2.705888032913208,0.17028483456744803
61,1995-10-01,11.246313095092773,3.2242705821990967,0.19157575737817525
62,1996-01-01,12.844149589538574,3.6988582611083984,0.14719226157055706
63,1996-04-01,12.291051864624025,3.5465023517608643,-0.04118998312248907
64,1996-07-01,11.000492095947266,3.1806421279907227,-0.10316085751035504
65,1996-10-01,10.93903636932373,3.1701016426086426,-0.003313948868789813
66,1997-01-01,13.089970588684082,3.8021533489227295,0.1993790034422929
67,1997-04-01,13.212881088256836,3.8451523780822754,0.011309125438543632
68,1997-07-01,18.31366729736328,5.339695453643799,0.3886824054309414
69,1997-10-01,20.003686904907227,5.8404502868652335,0.09377966169956761
70,1998-01-01,12.075958251953125,9.158151626586914,0.5680557451508422
71,1998-04-01,13.489429473876953,10.240492820739746,0.1181833669373524
72,1998-07-01,13.581612586975098,10.320066452026367,0.0077704884598388795
73,1998-10-01,9.9557523727417,7.572587013244629,-0.2662269135139401
74,1999-01-01,13.458702087402346,10.24946403503418,0.35349570986871875
75,1999-04-01,11.891592979431152,9.064422607421877,-0.11561984349246522
76,1999-07-01,9.617748260498047,7.339203357696532,-0.19032864247886552
77,1999-10-01,8.081366539001465,6.174755096435548,-0.15866139749893182
78,2000-01-01,7.835545539855957,5.995892524719237,-0.028966747494092674
79,2000-04-01,9.15683364868164,7.018154621124268,0.1704937325328223
80,2000-07-01,11.799409866333008,9.05614185333252,0.29038790711079804
81,2000-10-01,15.794001579284668,12.134954452514648,0.33996956419683
82,2001-01-01,18.09242820739746,13.911981582641602,0.14643871446577297
83,2001-04-01,21.519174575805664,16.558422088623047,0.1902274302377951
84,2001-07-01,22.56145477294922,17.370733261108402,0.04905728143284121
85,2001-10-01,17.826942443847656,13.733112335205078,-0.20941090230472012
86,2002-01-01,27.261552810668945,21.015914916992188,0.530309692662858
87,2002-04-01,27.30580139160156,21.059709548950195,0.0020838793900235172
88,2002-07-01,24.950836181640625,19.252099990844727,-0.08583259678410789
89,2002-10-01,27.12389373779297,20.939373016357425,0.08764098598672748
90,2003-01-01,26.47984313964844,20.451629638671875,-0.023293122353975685
91,2003-04-01,26.66666603088379,20.60570335388184,0.007533566661046284
92,2003-07-01,32.050148010253906,27.233049392700195,0.3216267809450849
93,2003-10-01,45.1573257446289,38.38533401489258,0.409512884928037
94,2004-01-01,43.362831115722656,37.06521987915039,-0.03439110716686783
95,2004-04-01,46.06686401367188,39.488868713378906,0.06538876181311543
96,2004-07-01,41.96656799316406,36.07130813598633,-0.08654490971109288
97,2004-10-01,44.22812271118164,38.12992858886719,0.057070856568883034
98,2005-01-01,55.52605819702149,48.01767349243164,0.25931716290838747
99,2005-04-01,50.60963439941406,43.87212753295898,-0.08633375292799365
100,2005-07-01,66.14552307128906,57.49860382080078,0.31059529259448154
101,2005-10-01,54.65093231201172,47.60578536987305,-0.1720531942264117
102,2006-01-01,61.5142593383789,53.73342895507813,0.1287163637275674
103,2006-04-01,54.01179885864258,47.30743408203125,-0.11959026248667473
104,2006-07-01,43.9822998046875,38.64095687866211,-0.1831948270189721
105,2006-10-01,46.68633270263672,41.164886474609375,0.06531747140405321
106,2007-01-01,53.47099304199219,47.30926132202149,0.14926252380659388
107,2007-04-01,41.99606704711914,37.268165588378906,-0.2122437648158472
108,2007-07-01,30.14749336242676,26.85409164428711,-0.2794361831251268
109,2007-10-01,22.468042373657227,20.120357513427734,-0.25075263092326183
110,2008-01-01,20.196657180786133,18.216033935546875,-0.09464660737812287
111,2008-04-01,18.11209487915039,16.476259231567386,-0.09550787565148756
112,2008-07-01,11.897738456726074,10.919629096984863,-0.3372507106428867
113,2008-10-01,7.61061954498291,7.07898473739624,-0.35171930525086287
114,2009-01-01,7.561455249786378,7.062875747680664,-0.002275607352347719
115,2009-04-01,9.577187538146973,8.991419792175293,0.27305365595988745
116,2009-07-01,11.642084121704102,10.97586154937744,0.22070393809541516
117,2009-10-01,12.38938045501709,11.729381561279295,0.0686524705611466
118,2010-01-01,15.10324478149414,14.34040641784668,0.2226055008037957
119,2010-04-01,19.58702087402344,18.64726448059082,0.3003302652137001
120,2010-07-01,14.523107528686525,13.854599952697756,-0.2570170296496601
121,2010-10-01,14.26745319366455,13.65023708343506,-0.014750542777159144
122,2011-01-01,19.036380767822266,18.258455276489254,0.33759253886120366
123,2011-04-01,18.672565460205078,17.946229934692386,-0.01710031528236176
124,2011-07-01,17.394296646118164,16.753721237182614,-0.06644898130968996
125,2011-10-01,16.263519287109375,15.698631286621096,-0.06297645374568421
126,2012-01-01,21.13077735900879,20.451171875,0.30273598389619993
127,2012-04-01,27.276302337646484,26.447139739990234,0.2931845618255181
128,2012-07-01,28.72173118591309,27.89266395568848,0.05465710961221622
129,2012-10-01,36.843658447265625,35.825965881347656,0.2844225255164717
130,2013-01-01,40.84562301635742,39.76136779785156,0.10984775482502272
131,2013-04-01,40.53097534179688,39.492713928222656,-0.006756655631032454
132,2013-07-01,33.3038330078125,32.485321044921875,-0.177435080709738
133,2013-10-01,34.955753326416016,34.13757705688477,0.05086161868857933
134,2014-01-01,39.48869323730469,38.61152267456055,0.13105633156742977
135,2014-04-01,37.9449348449707,37.14299392700195,-0.038033432660404855
136,2014-07-01,35.624385833740234,34.90863800048828,-0.060155514951350096
137,2014-10-01,42.35988235473633,41.549949645996094,0.19024837478376894
138,2015-01-01,44.1592903137207,43.36093521118164,0.04358574632737395
139,2015-04-01,45.03441619873047,44.260353088378906,0.020742584836254397
140,2015-07-01,52.15339279174805,51.29992294311523,0.15904911198244928
141,2015-10-01,49.23303985595703,48.46586227416992,-0.055244930330361326
142,2016-01-01,41.44542694091797,40.83251190185547,-0.15749952676242135
143,2016-04-01,44.55260467529297,43.937767028808594,0.07604859417948322
144,2016-07-01,46.0177001953125,45.42168045043945,0.03377307318912918
145,2016-10-01,40.99311828613281,40.49773406982422,-0.10840520059551419
146,2017-01-01,43.90363693237305,43.41479110717773,0.07203012969377647
147,2017-04-01,49.65584945678711,49.14606857299805,0.1320120935667193
148,2017-07-01,51.56342315673828,51.07471084594727,0.039243063157423444
149,2017-10-01,54.73942947387695,54.26104354858398,0.06238572181538913
150,2018-01-01,62.65999984741211,62.15756607055664,0.14552839395545933
151,2018-04-01,52.88999938964844,52.49554061889648,-0.15544407644103297
152,2018-07-01,52.27000045776367,51.91830444335938,-0.01099590877114067
153,2018-10-01,42.97999954223633,42.72224426269531,-0.1771255875795515
154,2019-01-01,47.41999816894531,47.1794319152832,0.10432943609378376
155,2019-04-01,52.02999877929688,51.81351852416992,0.09822260295986232
156,2019-07-01,47.56999969482422,47.40847778320313,-0.08501720914614071
157,2019-10-01,59.599998474121094,59.44782638549805,0.2539492758521023
158,2020-01-01,66.36000061035156,66.23387908935547,0.11415140159797062
