,Date,Close,Adj Close,RoR
0,1972-10-01,4.9375,0.3059343099594116,0.06120281034241072
1,1973-01-01,4.5625,0.2833732962608337,-0.073744633943055
2,1973-04-01,5.0234375,0.312765508890152,0.10372259142676572
3,1973-07-01,5.5234375,0.3446749448776245,0.10202351308078415
4,1973-10-01,5.1328125,0.3210940659046173,-0.06841483352199998
5,1974-01-01,4.46875,0.2802511751651764,-0.12719914528589735
6,1974-04-01,4.6484375,0.2925618290901184,0.043927216068536654
7,1974-07-01,4.15625,0.2623818516731262,-0.10315760436299361
8,1974-10-01,4.515625,0.28616568446159363,0.0906458759887752
9,1975-01-01,4.046875,0.2573325634002685,-0.10075673858510743
10,1975-04-01,4.375,0.2793271839618683,0.08547157915412441
11,1975-07-01,4.25,0.2723744213581085,-0.024891106211520415
12,1975-10-01,3.484375,0.22424152493476868,-0.17671591988462224
13,1976-01-01,3.5859375,0.23193493485450745,0.03430858723412965
14,1976-04-01,3.1640625,0.20576050877571106,-0.11285245189654408
15,1976-07-01,3.2890625,0.21516452729702,0.04570370950802694
16,1976-10-01,3.4140625,0.224697083234787,0.04430356647314804
17,1977-01-01,2.6875,0.17799586057662964,-0.20784080498881702
18,1977-04-01,2.375,0.15860453248023987,-0.10894257896543352
19,1977-07-01,2.21875,0.14959579706192014,-0.05679998722257263
20,1977-10-01,2.234375,0.15216587483882904,0.01718014695189
21,1978-01-01,2.5078125,0.17252521216869354,0.13379699851513155
22,1978-04-01,2.8359375,0.1970631182193756,0.1422279430480522
23,1978-07-01,3.2265625,0.2262007594108581,0.1478594343516159
24,1978-10-01,2.703125,0.1909845918416977,-0.15568545243119974
25,1979-01-01,3.0859375,0.22021594643592834,0.1530560885166055
26,1979-04-01,3.3984375,0.2447301745414734,0.11131904161480621
27,1979-07-01,3.515625,0.2553271651268005,0.04330071110022138
28,1979-10-01,3.5546875,0.2605908215045929,0.02061534022507311
29,1980-01-01,3.5546875,0.2629711031913757,0.00913417315713412
30,1980-04-01,3.1484375,0.2351616472005844,-0.10575099565427573
31,1980-07-01,3.3984375,0.2565624415874481,0.09100461168572102
32,1980-10-01,3.203125,0.2442927956581116,-0.047823234973208145
33,1981-01-01,3.8203125,0.2944927513599396,0.20549093789930237
34,1981-04-01,4.0390625,0.3143306374549866,0.06736290113572413
35,1981-07-01,3.4296875,0.26938098669052124,-0.14300117585866032
36,1981-10-01,3.296875,0.2617965042591095,-0.02815522552126215
37,1982-01-01,3.5703125,0.2866265475749969,0.09484482379226959
38,1982-04-01,3.921875,0.31843486428260803,0.11097477528416441
39,1982-07-01,3.421875,0.2807403802871704,-0.11837423669157066
40,1982-10-01,3.6484375,0.3035719692707062,0.08132634486061907
41,1983-01-01,3.921875,0.329802930355072,0.08640771790420064
42,1983-04-01,4.03125,0.3427059352397919,0.039123378530409925
43,1983-07-01,3.8046875,0.3266627788543701,-0.04681318511217608
44,1983-10-01,4.2109375,0.36588191986083984,0.12006002380808146
45,1984-01-01,3.90625,0.3430792391300201,-0.062322513065123764
46,1984-04-01,3.921875,0.3485606610774994,0.01597713100151174
47,1984-07-01,3.4296875,0.3083299696445465,-0.11541948339376124
48,1984-10-01,3.7890625,0.34502628445625305,0.11901637344566708
49,1985-01-01,4.4609375,0.4114203155040741,0.1924318060360394
50,1985-04-01,4.78125,0.4458140730857849,0.08359761607681289
51,1985-07-01,5.3046875,0.4997294545173645,0.12093692121110997
52,1985-10-01,5.859375,0.5574304461479187,0.11546446003724445
53,1986-01-01,6.8125,0.6536248326301575,0.1725675142916625
54,1986-04-01,8.421875,0.8651002049446106,0.3235424386547334
55,1986-07-01,9.40625,1.0177767276763916,0.17648420594416153
56,1986-10-01,9.34375,1.0622167587280271,0.043663831018314954
57,1987-01-01,10.8125,1.2925511598587036,0.21684312475590675
58,1987-04-01,11.375,1.4257242679595947,0.1030312085406732
59,1987-07-01,12.0,1.5731137990951538,0.10337870684244825
60,1987-10-01,9.625,1.315389633178711,-0.16383059258947721
61,1988-01-01,9.5625,1.3782110214233398,0.04775876794225418
62,1988-04-01,10.0,1.5400352478027344,0.11741614590505266
63,1988-07-01,10.46875,1.711941123008728,0.11162463680702285
64,1988-10-01,11.203125,1.9382094144821167,0.13217060355190444
65,1989-01-01,11.734375,2.1417996883392334,0.10504039054599029
66,1989-04-01,13.5,2.6093759536743164,0.21830998850207367
67,1989-07-01,15.9375,3.159898042678833,0.21097844801908097
68,1989-10-01,15.53125,3.1474955081939697,-0.003924979324443303
69,1990-01-01,15.78125,3.267789363861084,0.03821891257793685
70,1990-04-01,16.53125,3.513657331466675,0.07523984572710753
71,1990-07-01,20.8125,4.531725883483887,0.28974611237694275
72,1990-10-01,16.84375,3.745952606201172,-0.17339382334366402
73,1991-01-01,19.5,4.4430580139160165,0.18609562933626914
74,1991-04-01,19.1875,4.489818572998047,0.010524408849844525
75,1991-07-01,19.09375,4.58802604675293,0.021873372422107785
76,1991-10-01,19.21875,4.737624168395996,0.032606205832013756
77,1992-01-01,19.71875,4.989856243133545,0.05324020348008025
78,1992-04-01,17.1875,4.47597074508667,-0.10298603266457304
79,1992-07-01,17.65625,4.752954006195068,0.06188227691444286
80,1992-10-01,15.40625,4.279883861541748,-0.09953181622138861
81,1993-01-01,14.125,4.068915367126465,-0.04929304187690872
82,1993-04-01,12.375,3.7285404205322266,-0.08365250094513926
83,1993-07-01,11.65625,3.684767723083496,-0.011739901546375667
84,1993-10-01,13.53125,4.517167568206787,0.22590293545741336
85,1994-01-01,14.96875,5.2233548164367685,0.15633408271155227
86,1994-04-01,12.3125,4.487898826599121,-0.14080146106929714
87,1994-07-01,12.15625,4.652015686035156,0.03656875205460036
88,1994-10-01,15.5,6.243093967437744,0.3420191136024823
89,1995-01-01,16.46875,6.906352043151856,0.10623868216199907
90,1995-04-01,18.6875,8.152607917785645,0.1804506730683589
91,1995-07-01,19.5625,8.840059280395508,0.08432287797259654
92,1995-10-01,24.15625,11.29575252532959,0.27779149064984704
93,1996-01-01,28.625,13.773062705993652,0.21931342556495845
94,1996-04-01,29.5625,14.378866195678713,0.04398466068272757
95,1996-07-01,28.0,13.786645889282227,-0.04118685703984549
96,1996-10-01,35.25,17.56480598449707,0.2740449073368886
97,1997-01-01,43.5625,21.90599822998047,0.24715287201663327
98,1997-04-01,43.9375,22.27402114868164,0.01680009807530693
99,1997-07-01,56.5,28.86602210998535,0.2959501976451109
100,1997-10-01,67.0625,34.49454879760742,0.19498795733531454
101,1998-01-01,67.625,34.89101791381836,0.01149367450889623
102,1998-04-01,69.5625,36.004066467285156,0.03190071886741892
103,1998-07-01,67.25,34.91208648681641,-0.030329351309829486
104,1998-10-01,81.0,42.1757926940918,0.20805706384859932
105,1999-01-01,93.6875,48.89556121826172,0.15932761650526753
106,1999-04-01,73.625,38.52714538574219,-0.21205229215463206
107,1999-07-01,65.6875,34.478134155273445,-0.1050950230007741
108,1999-10-01,68.875,36.28300857543945,0.05234837859954067
109,2000-01-01,66.875,35.33925247192383,-0.02601096602982556
110,2000-04-01,77.125,40.92650604248047,0.15810333212326935
111,2000-07-01,103.875,55.30757141113281,0.3513875666230886
112,2000-10-01,89.375,47.74812698364258,-0.1366801006555967
113,2001-01-01,78.80000305175781,42.21979141235352,-0.11578120275132336
114,2001-04-01,85.0,45.70078659057617,0.08244936940176613
115,2001-07-01,79.27999877929688,42.76625061035156,-0.06421193592387164
116,2001-10-01,76.5,41.41513442993164,-0.03159304734778139
117,2002-01-01,75.0999984741211,40.80273818969727,-0.014786774174799623
118,2002-04-01,66.05000305175781,36.0332145690918,-0.11689224381048488
119,2002-07-01,58.41999816894531,32.02413558959961,-0.11126065291246744
120,2002-10-01,55.5,30.58694839477539,-0.044878250993009475
121,2003-01-01,60.2400016784668,33.36772918701172,0.09091396619060299
122,2003-04-01,63.81999969482422,35.54909896850586,0.06537363598429202
123,2003-07-01,65.83999633789061,36.86613845825195,0.037048463335537796
124,2003-10-01,66.62000274658203,37.502689361572266,0.01726654675376856
125,2004-01-01,68.04000091552734,38.50038146972656,0.026603214999738077
126,2004-04-01,73.80999755859375,41.96520233154297,0.08999445536769156
127,2004-07-01,63.72000122070313,36.4034423828125,-0.13253266134141797
128,2004-10-01,54.90999984741211,31.553720474243164,-0.1332215194807808
129,2005-01-01,54.2400016784668,31.36569404602051,-0.005958930528529461
130,2005-04-01,58.47000122070313,34.047889709472656,0.08551367170504061
131,2005-07-01,56.31999969482422,33.00803756713867,-0.030540869087833107
132,2005-10-01,49.790000915527344,29.388126373291016,-0.10966756767907579
133,2006-01-01,56.61999893188477,33.665332794189446,0.14554199089009326
134,2006-04-01,52.91999816894531,31.691015243530273,-0.05864541909414705
135,2006-07-01,56.77000045776367,34.25981903076172,0.08105779406217878
136,2006-10-01,56.0099983215332,34.0474853515625,-0.006197746666687451
137,2007-01-01,54.11999893188477,33.14345932006836,-0.0265519177748219
138,2007-04-01,59.13000106811523,36.49670028686523,0.10117353576204645
139,2007-07-01,54.09000015258789,33.629318237304695,-0.07856551488279265
140,2007-10-01,54.1500015258789,33.9188232421875,0.008608708711842399
141,2008-01-01,51.38999938964844,32.45270156860352,-0.04322442624602751
142,2008-04-01,48.13999938964844,30.68298721313477,-0.05453211196385788
143,2008-07-01,47.11000061035156,30.318742752075195,-0.011871219009068587
144,2008-10-01,33.81999969482422,21.975366592407227,-0.2751887249380385
145,2009-01-01,36.81999969482422,24.260353088378906,0.10397944836839136
146,2009-04-01,32.919998168945305,21.98225975036621,-0.09390190364145765
147,2009-07-01,34.889999389648445,23.6201171875,0.07450814682992286
148,2009-10-01,34.009998321533196,23.364389419555664,-0.010826693445859346
149,2010-01-01,35.20000076293945,24.52209854125977,0.0495501551919486
150,2010-04-01,34.970001220703125,24.70578765869141,0.007490758473324526
151,2010-07-01,35.599998474121094,25.505109786987305,0.0323536387237869
152,2010-10-01,35.20000076293945,25.55000305175781,0.001760167478024689
153,2011-01-01,34.77000045776367,25.58841133117676,0.0015032592888989881
154,2011-04-01,37.0099983215332,27.61680603027344,0.07927005208898202
155,2011-07-01,38.29999923706055,28.94571304321289,0.048119504170131285
156,2011-10-01,37.15999984741211,28.4888858795166,-0.015782204536274314
157,2012-01-01,39.7400016784668,30.866458892822266,0.08345615982880994
158,2012-04-01,41.38999938964844,32.55379867553711,0.05466580369888884
159,2012-07-01,44.02999877929688,35.041465759277344,0.07641710598921955
160,2012-10-01,48.63000106811523,39.14229583740234,0.1170279264656412
161,2013-01-01,53.68999862670898,43.65799331665039,0.11536618848333084
162,2013-04-01,55.38000106811523,45.44613647460938,0.04095797864527651
163,2013-07-01,53.11000061035156,43.96611022949219,-0.03256660213446485
164,2013-10-01,49.81999969482422,41.6198616027832,-0.05336493527542347
165,2014-01-01,54.0099983215332,45.56621551513672,0.09481900612782468
166,2014-04-01,59.099998474121094,50.3127326965332,0.10416746547274111
167,2014-07-01,61.06000137329102,52.41352844238281,0.04175475338461122
168,2014-10-01,66.33000183105469,57.39554214477539,0.09505205717774201
169,2015-01-01,72.0,62.75499725341797,0.09337755003905716
170,2015-04-01,71.87000274658203,63.08913803100586,0.00532452859871158
171,2015-07-01,84.51000213623047,74.6978530883789,0.18400497169049632
172,2015-10-01,81.56999969482422,72.53331756591797,-0.028977211967524195
173,2016-01-01,79.0999984741211,70.78291320800781,-0.0241324182686032
174,2016-04-01,75.52999877929688,68.05899810791016,-0.03848266448278218
175,2016-07-01,82.88999938964844,75.18978118896484,0.10477355352408446
176,2016-10-01,73.83999633789062,67.40727233886719,-0.10350487429320845
177,2017-01-01,77.02999877929688,71.24364471435547,0.05691333060032783
178,2017-04-01,82.05999755859375,76.40655517578125,0.07246836517314595
179,2017-07-01,82.66000366210938,77.46222686767578,0.013816506835910196
180,2017-10-01,81.94000244140625,77.2772445678711,-0.002388032300190414
181,2018-01-01,81.44999694824219,77.30023956298828,0.0002975648943718671
182,2018-04-01,81.06999969482422,77.51170349121094,0.0027356180190146033
183,2018-07-01,98.80999755859376,95.1239242553711,0.2272201483245328
184,2018-10-01,108.44000244140624,104.97108459472656,0.10351928199387188
185,2019-01-01,119.86000061035156,116.60936737060548,0.11087132061950318
186,2019-04-01,117.04000091552734,114.48300170898438,-0.018234947239385464
187,2019-07-01,108.9499969482422,107.16759490966795,-0.06389950202312282
188,2019-10-01,113.9499969482422,112.71414184570312,0.05175582171747327
189,2020-01-01,139.63999938964844,138.91995239257812,0.23249798222079987
