,Date,Close,Adj Close,RoR
0,1973-07-01,4.84375,0.7683454155921936,-0.012738129583789379
1,1973-10-01,4.46875,0.7088601589202881,-0.07741994090777247
2,1974-01-01,4.5,0.713817298412323,0.006993113422519697
3,1974-04-01,3.96875,0.6295472979545593,-0.11805541928613603
4,1974-07-01,3.84375,0.6097193956375122,-0.03149549268413872
5,1974-10-01,3.71875,0.5898907780647278,-0.03252089028929769
6,1975-01-01,4.09375,0.6493756771087646,0.10084053057956041
7,1975-04-01,3.84375,0.6097193956375122,-0.0610683197249015
8,1975-07-01,4.28125,0.6791177988052368,0.11382023216624562
9,1975-10-01,3.84375,0.6097193956375122,-0.10218905069167135
10,1976-01-01,4.59375,0.7286887168884277,0.19512143143572336
11,1976-04-01,4.4375,0.7039035558700562,-0.034013372848980906
12,1976-07-01,4.71875,0.7485167980194092,0.06337976527794219
13,1976-10-01,5.0,0.7931307554244995,0.05960314788277268
14,1977-01-01,5.28125,0.8377436995506287,0.05624916676223381
15,1977-04-01,5.15625,0.8179157376289368,-0.023668291307147694
16,1977-07-01,5.40625,0.8575723767280579,0.04848499334917076
17,1977-10-01,5.1875,0.8228731751441956,-0.040462126026320995
18,1978-01-01,5.03125,0.7980875372886658,-0.030120848028842954
19,1978-04-01,4.90625,0.7782589793205261,-0.02484509159922857
20,1978-07-01,5.1875,0.8228731751441956,0.057325642246518906
21,1978-10-01,4.84375,0.7683454155921936,-0.06626508336773382
22,1979-01-01,4.9375,0.7832165956497192,0.019354810682463485
23,1979-04-01,4.5625,0.7237312197685242,-0.0759500963227788
24,1979-07-01,4.84375,0.7683454155921936,0.061644702625843185
25,1979-10-01,4.375,0.6939893960952759,-0.096774208562966
26,1980-01-01,4.0,0.6345044374465942,-0.0857145065664881
27,1980-04-01,4.375,0.6939893960952759,0.09375026420313798
28,1980-07-01,4.40625,0.6989462375640869,0.007142531999336952
29,1980-10-01,4.1875,0.664246678352356,-0.0496455340151242
30,1981-01-01,4.0625,0.6444185972213745,-0.029850478409864854
31,1981-04-01,4.09375,0.6493756771087646,0.007692329037002095
32,1981-07-01,4.375,0.6939893960952759,0.06870247925691685
33,1981-10-01,4.75,0.7534745931625366,0.0857148501143585
34,1982-01-01,5.1875,0.8228731751441956,0.09210474063946114
35,1982-04-01,5.28125,0.8377436995506287,0.01807146575634487
36,1982-07-01,5.0625,0.8030443787574768,-0.04141997225615043
37,1982-10-01,6.25,0.9914135336875916,0.2345687983291433
38,1983-01-01,6.1875,0.9814990758895874,-0.010000325253909976
39,1983-04-01,6.375,1.01124107837677,0.030302629129045057
40,1983-07-01,6.21875,0.986456334590912,-0.024509233570339295
41,1983-10-01,6.875,1.0905543565750122,0.10552724771874486
42,1984-01-01,7.125,1.1302111148834229,0.0363638529976226
43,1984-04-01,6.59375,1.0459412336349487,-0.07456118608174035
44,1984-07-01,6.65625,1.0558555126190186,0.009478810725928486
45,1984-10-01,7.25,1.1500394344329834,0.08920152491352192
46,1985-01-01,7.34375,1.1649105548858645,0.012930965676158012
47,1985-04-01,8.46875,1.343364953994751,0.15319150329646647
48,1985-07-01,8.875,1.4078071117401123,0.047970700407011756
49,1985-10-01,9.09375,1.4425057172775269,0.024647272519120557
50,1986-01-01,10.46875,1.660616397857666,0.1512026454853741
51,1986-04-01,11.53125,1.82915723323822,0.10149293695882189
52,1986-07-01,13.875,2.200937271118164,0.2032520939830684
53,1986-10-01,13.34375,2.116666555404663,-0.0382885586151613
54,1987-01-01,13.25,2.101795196533203,-0.007025839206221531
55,1987-04-01,11.0,1.7699720859527588,-0.15787604383517886
56,1987-07-01,11.71875,1.9173014163970947,0.08323822257627865
57,1987-10-01,11.4375,1.902360677719116,-0.007792587305367297
58,1988-01-01,11.4375,1.9355413913726809,0.017441862651065603
59,1988-04-01,11.125,1.9166861772537231,-0.009741571119585138
60,1988-07-01,11.1875,2.0806660652160645,0.08555385326422914
61,1988-10-01,11.375,2.1540966033935547,0.03529184207167089
62,1989-01-01,11.25,2.1688251495361333,0.006837458505517013
63,1989-04-01,11.0625,2.172565698623657,0.0017246890964555403
64,1989-07-01,11.875,2.37674880027771,0.09398247509081328
65,1989-10-01,11.5,2.3429090976715092,-0.014237812006993228
66,1990-01-01,11.0625,2.295238494873047,-0.02034675730519788
67,1990-04-01,11.3125,2.392607450485229,0.04242215169782075
68,1990-07-01,10.9375,2.359158515930176,-0.013980118029085676
69,1990-10-01,11.5,2.53052306175232,0.0726379955670668
70,1991-01-01,12.0,2.6908905506134038,0.06337325720716165
71,1991-04-01,12.875,2.939754009246826,0.09248367926993262
72,1991-07-01,13.25,3.0773906707763667,0.04681910836641855
73,1991-10-01,14.5,3.425607919692993,0.11315341020019985
74,1992-01-01,15.0625,3.614832878112793,0.05523835852083106
75,1992-04-01,16.375,3.988698720932007,0.1034254847804746
76,1992-07-01,17.875,4.416305541992188,0.10720459251940345
77,1992-10-01,16.9375,4.240023612976073,-0.039916153295995585
78,1993-01-01,16.6875,4.234727382659912,-0.0012491039672403608
79,1993-04-01,17.5,4.505769729614258,0.06400467431839707
80,1993-07-01,17.6875,4.615584850311278,0.024372111156781628
81,1993-10-01,17.5,4.627932548522949,0.0026752185502207965
82,1994-01-01,15.5,4.156248092651366,-0.10192120367487328
83,1994-04-01,15.1875,4.138954639434815,-0.004160832758546679
84,1994-07-01,14.125,3.9104382991790767,-0.055211124586507454
85,1994-10-01,14.125,3.978334903717041,0.0173629141654576
86,1995-01-01,14.625,4.1906824111938485,0.053375975782834886
87,1995-04-01,14.1875,4.135698318481444,-0.013120558256940345
88,1995-07-01,14.125,4.188130855560304,0.012678037187710418
89,1995-10-01,15.25,4.599287986755371,0.09817198778524348
90,1996-01-01,15.75,4.8255815505981445,0.04920186874456088
91,1996-04-01,14.875,4.628944396972656,-0.04074890281382035
92,1996-07-01,15.75,4.984361171722412,0.07678138777864765
93,1996-10-01,14.0625,4.520936489105225,-0.09297574285874732
94,1997-01-01,14.0625,4.59930419921875,0.017334397486533988
95,1997-04-01,13.5625,4.514983177185059,-0.01833343009753832
96,1997-07-01,13.8125,4.6841559410095215,0.037469190290524285
97,1997-10-01,14.59375,5.038471221923828,0.07564122231975591
98,1998-01-01,16.03125,5.63040018081665,0.11748185765499071
99,1998-04-01,15.78125,5.62819766998291,-0.0003911819343222555
100,1998-07-01,14.65625,5.305914402008057,-0.05726225105662149
101,1998-10-01,15.46875,5.694179058074951,0.07317582355266669
102,1999-01-01,14.46875,5.412321090698242,-0.04949931579285418
103,1999-04-01,14.46875,5.5029025077819815,0.0167361499005325
104,1999-07-01,14.4375,5.587141513824463,0.015308104390974395
105,1999-10-01,13.59375,5.350163459777832,-0.04241490097579731
106,2000-01-01,14.90625,5.978212356567383,0.11738873055209996
107,2000-04-01,15.0,6.115865230560303,0.023025758501485975
108,2000-07-01,13.15625,5.452971458435059,-0.10838920531028663
109,2000-10-01,15.15625,6.401865005493164,0.1740140314855833
110,2001-01-01,15.25,6.552048683166504,0.02345936341120497
111,2001-04-01,15.600000381469727,6.809665203094482,0.03931846852570644
112,2001-07-01,14.28499984741211,6.336544990539551,-0.06947774941122421
113,2001-10-01,14.699999809265135,6.635025024414063,0.04710453951169647
114,2002-01-01,14.904999732971193,6.842360496520996,0.031248634533257456
115,2002-04-01,14.125,6.593528270721436,-0.03636643025839966
116,2002-07-01,9.5649995803833,4.543644905090332,-0.310893239774767
117,2002-10-01,8.010000228881836,3.9097375869750977,-0.1395151538812058
118,2003-01-01,8.095000267028809,4.0731773376464835,0.04180325329655605
119,2003-04-01,8.779999732971191,4.486368179321289,0.10144189840591393
120,2003-07-01,10.154999732971193,5.265043258666992,0.17356468489028543
121,2003-10-01,12.029999732971193,6.3168463706970215,0.1997710294779849
122,2004-01-01,12.94499969482422,6.87074613571167,0.08768612255382892
123,2004-04-01,12.43000030517578,6.662285327911378,-0.030340344946931993
124,2004-07-01,12.954999923706055,7.012153625488281,0.0525147573777941
125,2004-10-01,13.1899995803833,7.208585739135742,0.02801309328612758
126,2005-01-01,13.75,7.59071683883667,0.05301055068629072
127,2005-04-01,13.170000076293945,7.338487148284912,-0.033228704996775216
128,2005-07-01,14.550000190734865,8.188369750976562,0.11581169054582015
129,2005-10-01,13.225000381469727,7.511335849761963,-0.08268238023006412
130,2006-01-01,14.829999923706055,8.507283210754395,0.13259257486456202
131,2006-04-01,15.979999542236328,9.257548332214355,0.0881909186368124
132,2006-07-01,18.09000015258789,10.575757026672363,0.14239285036956426
133,2006-10-01,19.174999237060547,11.299989700317385,0.0684804569373602
134,2007-01-01,18.174999237060547,10.790221214294434,-0.045112296519051964
135,2007-04-01,21.899999618530273,13.116347312927244,0.21557723909786541
136,2007-07-01,18.475000381469727,11.14251708984375,-0.1504862730447921
137,2007-10-01,20.0,12.162986755371096,0.09158340591260923
138,2008-01-01,18.450000762939453,11.311373710632324,-0.07001676988283363
139,2008-04-01,18.834999084472656,11.659083366394045,0.030739825653084446
140,2008-07-01,16.114999771118164,10.06788444519043,-0.13647718874624926
141,2008-10-01,14.6899995803833,9.278368949890137,-0.07841920510693343
142,2009-01-01,14.414999961853027,9.211004257202148,-0.007260402453470653
143,2009-04-01,11.18000030517578,7.236337661743164,-0.21438124881062548
144,2009-07-01,13.079999923706055,8.604915618896483,0.18912577344043413
145,2009-10-01,13.279999732971193,8.862615585327148,0.029947994593317578
146,2010-01-01,15.600000381469727,10.556015014648438,0.1910721968043907
147,2010-04-01,17.100000381469727,11.71683120727539,0.10996727373124275
148,2010-07-01,17.280000686645508,11.978508949279785,0.02233349080269328
149,2010-10-01,18.26499938964844,12.80162239074707,0.06871585144299411
150,2011-01-01,18.57999992370605,13.164278984069824,0.028328955678686457
151,2011-04-01,19.770000457763672,14.168118476867676,0.07625480240980945
152,2011-07-01,19.70499992370605,14.275997161865234,0.007614185692595132
153,2011-10-01,20.38999938964844,14.92869758605957,0.04572012846415117
154,2012-01-01,21.19499969482422,15.681436538696287,0.05042227885570039
155,2012-04-01,22.6200008392334,16.911827087402347,0.07846159665728886
156,2012-07-01,23.354999542236328,17.637725830078125,0.042922549936458436
157,2012-10-01,22.350000381469727,17.041986465454098,-0.033776427321945066
158,2013-01-01,22.920000076293945,18.01971435546875,0.05737170910190602
159,2013-04-01,26.7549991607666,21.253273010253906,0.17944561112334242
160,2013-07-01,26.48500061035156,21.22921371459961,-0.0011320277889758047
161,2013-10-01,26.11000061035156,21.11363220214844,-0.005444455645179237
162,2014-01-01,25.979999542236328,21.197479248046875,0.003971227929692836
163,2014-04-01,29.239999771118164,24.09763336181641,0.13681599023321386
164,2014-07-01,28.25,23.48561668395996,-0.02539737694018583
165,2014-10-01,30.95499992370605,25.955705642700195,0.10517454116617846
166,2015-01-01,34.30500030517578,29.00711441040039,0.11756215799736411
167,2015-04-01,30.23500061035156,25.7680721282959,-0.11166371933028767
168,2015-07-01,30.7549991607666,26.444660186767575,0.026256836565150536
169,2015-10-01,29.51000022888184,25.606788635253906,-0.031683959846567585
170,2016-01-01,32.669998168945305,28.60942459106445,0.11725937205873181
171,2016-04-01,35.2599983215332,31.16888427734375,0.08946211686755468
172,2016-07-01,40.25,35.885498046875,0.15132443393104367
173,2016-10-01,38.04999923706055,34.174667358398445,-0.047674709328035615
174,2017-01-01,37.650001525878906,34.08275985717773,-0.0026893458905352303
175,2017-04-01,39.31999969482422,35.90059280395508,0.053335849397023544
176,2017-07-01,40.52999877929688,37.299015045166016,0.038952622561064694
177,2017-10-01,43.2599983215332,40.12060928344727,0.07564795571316134
178,2018-01-01,39.75,37.1326904296875,-0.07447341670836766
179,2018-04-01,42.95000076293945,40.46524429321289,0.08974716954150518
180,2018-07-01,42.97000122070313,40.80300903320313,0.008347033260018986
181,2018-10-01,42.97999954223633,41.13340759277344,0.008097406720701557
182,2019-01-01,44.47000122070313,42.88870239257813,0.04267321631075066
183,2019-04-01,47.22999954223633,45.92938995361328,0.07089716851777121
184,2019-07-01,49.540000915527344,48.54258728027344,0.05689597291188439
185,2019-10-01,53.65999984741211,52.954490661621094,0.09088727298102937
186,2020-01-01,59.36000061035156,58.97819900512695,0.11375254993948149
