,Date,Close,Adj Close,RoR
0,1980-07-01,0.625,0.020188746973872185,0.14942569813917925
1,1980-10-01,0.7312499880790709,0.02362082339823246,0.1699994768769944
2,1981-01-01,0.8125,0.026245351880788803,0.11111079568685721
3,1981-04-01,0.7749999761581421,0.025034032762050632,-0.046153662722458605
4,1981-07-01,0.7749999761581421,0.025034032762050632,0.0
5,1981-10-01,0.875,0.028264233842492107,0.12903239007253248
6,1982-01-01,0.8125,0.026245351880788803,-0.07142885856924029
7,1982-04-01,0.962499976158142,0.03109065815806389,0.18461578641747134
8,1982-07-01,0.8999999761581421,0.029071791097521782,-0.06493484474591218
9,1982-10-01,1.0750000476837158,0.034724634140729904,0.1944442646910048
10,1983-01-01,1.1875,0.03835862502455712,0.10465166800892983
11,1983-04-01,1.4874999523162842,0.04804915562272072,0.2526297694966839
12,1983-07-01,1.4750000238418581,0.04764543473720551,-0.00840224724624091
13,1983-10-01,1.5375000238418581,0.04966428875923157,0.042372454636237504
14,1984-01-01,1.7999999523162842,0.058143582195043564,0.1707322031111514
15,1984-04-01,1.825000047683716,0.058951102197170265,0.013888377214493977
16,1984-07-01,1.862499952316284,0.06016244366765022,0.020548241259823373
17,1984-10-01,2.075000047683716,0.06702660024166107,0.11409371288057828
18,1985-01-01,2.362499952316284,0.07631342113018036,0.1385542583845237
19,1985-04-01,2.625,0.09800714999437332,0.28427147601188524
20,1985-07-01,2.9874999523162837,0.12585695087909698,0.2841609095491762
21,1985-10-01,3.1124999523162837,0.14582836627960205,0.15868345181578705
22,1986-01-01,3.5374999046325684,0.18386848270893094,0.2608553973401388
23,1986-04-01,4.3125,0.24294167757034305,0.3212796124223566
24,1986-07-01,4.550000190734863,0.2793242335319519,0.14975839602932847
25,1986-10-01,4.125,0.2743993699550629,-0.017631350902196703
26,1987-01-01,4.0625,0.29651516675949097,0.08059711218742902
27,1987-04-01,4.675000190734863,0.3766720592975617,0.270329822970194
28,1987-07-01,5.474999904632568,0.4828930497169495,0.28199859213734735
29,1987-10-01,4.0,0.381452351808548,-0.21006866420600084
30,1988-01-01,4.425000190734863,0.4451040029525757,0.16686658462647166
31,1988-04-01,5.125,0.5390821695327759,0.21113754528559756
32,1988-07-01,5.275000095367432,0.5857717394828796,0.08660937532133506
33,1988-10-01,5.375,0.6273292303085327,0.07094485449629254
34,1989-01-01,5.612500190734863,0.6894338130950928,0.0989983883837452
35,1989-04-01,5.6624999046325675,0.7290171980857849,0.05741433657422377
36,1989-07-01,6.699999809265138,0.900012731552124,0.23455624080656837
37,1989-10-01,6.8375000953674325,0.959609031677246,0.06621717453079212
38,1990-01-01,6.425000190734862,0.9439018964767456,-0.01636826528513052
39,1990-04-01,6.487500190734862,1.0003446340560913,0.05979724989432337
40,1990-07-01,5.824999809265138,0.9406240582466124,-0.059700001155931846
41,1990-10-01,4.724999904632568,0.808099091053009,-0.14089047163075863
42,1991-01-01,5.5,1.0090546607971191,0.24867689119938385
43,1991-04-01,7.7249999046325675,1.499936580657959,0.48647703532042524
44,1991-07-01,9.4375,1.9173941612243648,0.27831682082404097
45,1991-10-01,9.300000190734863,1.9603776931762693,0.022417681675038114
46,1992-01-01,10.550000190734863,2.3168065547943115,0.18181642387520963
47,1992-04-01,12.837499618530273,2.9172046184539795,0.25914898350802185
48,1992-07-01,13.175000190734865,3.0912623405456543,0.05966592846816469
49,1992-10-01,13.5,3.2663080692291264,0.05662597004063198
50,1993-01-01,13.800000190734865,3.4381916522979736,0.05262320008578157
51,1993-04-01,15.074999809265135,3.8782148361206055,0.12798099359252846
52,1993-07-01,14.600000381469727,3.891124248504639,0.003328699654232406
53,1993-10-01,14.399999618530273,3.9775056838989262,0.022199608616323044
54,1994-01-01,14.350000381469727,4.1167335510253915,0.03500381349297985
55,1994-04-01,13.9375,4.150712966918944,0.008253975019852658
56,1994-07-01,16.200000762939453,4.99805212020874,0.20414303760415692
57,1994-10-01,15.024999618530273,4.817324638366699,-0.03615958327271166
58,1995-01-01,14.725000381469727,4.927150249481201,0.022798050652392408
59,1995-04-01,16.049999237060547,5.57706880569458,0.13190556879847765
60,1995-07-01,17.700000762939453,6.382502555847168,0.14441882971394998
61,1995-10-01,19.674999237060547,7.3358521461486825,0.14936924536412877
62,1996-01-01,22.5,8.69343090057373,0.18506081193822532
63,1996-04-01,23.79999923706055,9.470800399780273,0.0894203345143331
64,1996-07-01,24.899999618530273,10.208785057067873,0.07792210015372313
65,1996-10-01,25.67499923706055,10.82156753540039,0.06002501521062671
66,1997-01-01,29.82500076293945,12.89783763885498,0.19186408038045566
67,1997-04-01,32.200000762939446,14.276326179504395,0.10687749212291921
68,1997-07-01,35.92499923706055,16.333662033081055,0.1441082129750051
69,1997-10-01,40.900001525878906,19.01114845275879,0.16392444108705942
70,1998-01-01,45.625,21.62375831604004,0.13742514660665453
71,1998-04-01,51.0,24.585344314575195,0.13695981777313498
72,1998-07-01,53.20000076293945,26.16287422180176,0.06416545918746161
73,1998-10-01,49.849998474121094,25.061397552490234,-0.04210075162130529
74,1999-01-01,50.0,25.645647048950195,0.023312726085457543
75,1999-04-01,55.9000015258789,29.28390693664551,0.14186656631243968
76,1999-07-01,53.95000076293945,28.80020904541016,-0.01651753272819134
77,1999-10-01,49.54999923706055,27.17445373535156,-0.056449427415447694
78,2000-01-01,41.099998474121094,23.15468788146973,-0.1479244401020827
79,2000-04-01,43.92499923706055,25.613140106201172,0.10617513988166931
80,2000-07-01,47.2437515258789,28.350101470947266,0.10685770481079947
81,2000-10-01,50.20000076293945,30.91621398925781,0.09051510877095995
82,2001-01-01,68.30000305175781,42.257137298583984,0.36682768832130314
83,2001-04-01,71.55000305175781,44.43168258666992,0.051459834411423926
84,2001-07-01,80.5,50.15669631958008,0.1288498071560255
85,2001-10-01,65.5,40.94981002807617,-0.18356245460907158
86,2002-01-01,75.0,47.05374526977539,0.14905893916270221
87,2002-04-01,85.37999725341797,53.74377822875977,0.14217854329401644
88,2002-07-01,83.5999984741211,52.77449035644531,-0.018035350402584232
89,2002-10-01,81.91999816894531,51.86797714233398,-0.017177109773844047
90,2003-01-01,79.80000305175781,50.71702575683594,-0.02219001875356824
91,2003-04-01,84.47000122070312,53.891319274902344,0.06258832158821057
92,2003-07-01,88.56999969482422,56.70504379272461,0.05221108994324883
93,2003-10-01,93.9000015258789,60.33149337768555,0.06395285749565402
94,2004-01-01,89.97000122070312,57.99250793457031,-0.03876889684252936
95,2004-04-01,85.0,55.01993942260742,-0.051257802392624105
96,2004-07-01,93.2300033569336,60.61543655395508,0.10169944187631173
97,2004-10-01,103.0,67.24636077880861,0.10939332621899381
98,2005-01-01,102.36000061035156,67.08149719238281,-0.002451635813692226
99,2005-04-01,103.4499969482422,68.07530212402344,0.014814888952023462
100,2005-07-01,108.51000213623048,71.71575164794922,0.053476803045154384
101,2005-10-01,107.58000183105469,71.40342712402344,-0.004355033821007334
102,2006-01-01,108.3000030517578,72.17314147949219,0.010779795683081187
103,2006-04-01,119.4000015258789,79.88802337646484,0.10689408468058467
104,2006-07-01,121.91999816894531,81.99668884277344,0.02639526398558774
105,2006-10-01,121.80999755859376,82.3253173828125,0.004007826958344615
106,2007-01-01,121.30999755859376,82.40711212158203,0.0009935550978708767
107,2007-04-01,111.33999633789062,76.00157165527344,-0.07773043250026733
108,2007-07-01,106.29000091552734,72.94918060302734,-0.04016220961970463
109,2007-10-01,99.4800033569336,68.72660064697266,-0.05788385724348291
110,2008-01-01,91.27999877929688,63.58037185668945,-0.07487972257958447
111,2008-04-01,93.2300033569336,65.46218109130861,0.029597329799529396
112,2008-07-01,70.37999725341797,49.82024383544922,-0.23894616700964405
113,2008-10-01,81.0999984741211,58.00005722045898,0.16418653854900392
114,2009-01-01,38.90999984741211,28.13305473327637,-0.5149478107178022
115,2009-04-01,52.45000076293945,38.61687469482422,0.37265131927345824
116,2009-07-01,58.31999969482422,43.56401062011719,0.12810813833041823
117,2009-10-01,62.849998474121094,47.49066543579102,0.09013529194808723
118,2010-01-01,73.75,56.32094955444336,0.18593725814583875
119,2010-04-01,87.3499984741211,67.31715393066406,0.19524181433750656
120,2010-07-01,87.33999633789062,67.90119934082031,0.008676026481419736
121,2010-10-01,74.75,58.58045196533203,-0.13726925983595856
122,2011-01-01,86.47000122070312,68.39143371582031,0.16747876503742973
123,2011-04-01,88.37000274658203,70.44770812988281,0.03006625687372953
124,2011-07-01,86.23999786376953,69.30825042724611,-0.016174517708026963
125,2011-10-01,76.11000061035156,61.72952651977539,-0.10934807704352911
126,2012-01-01,79.73999786376953,65.33785247802734,0.05845380908755239
127,2012-04-01,86.2699966430664,71.29993438720703,0.0912500439340992
128,2012-07-01,85.83999633789062,71.54869842529297,0.0034889799019306236
129,2012-10-01,104.0999984741211,87.46027374267578,0.22238804712844307
130,2013-01-01,102.69000244140624,86.89456939697266,-0.006468129145896928
131,2013-04-01,100.1999969482422,85.36970520019531,-0.01754844068345736
132,2013-07-01,116.86000061035156,100.22586822509766,0.1740214867799304
133,2013-10-01,112.52999877929688,97.10590362548828,-0.031129334720276354
134,2014-01-01,111.51000213623048,96.80911254882812,-0.003056364912732811
135,2014-04-01,122.01000213623048,106.56948852539062,0.10082083927419133
136,2014-07-01,121.5,106.7358856201172,0.0015613952645266934
137,2014-10-01,122.18000030517578,107.94371032714844,0.011316013354027854
138,2015-01-01,113.16000366210938,100.5322494506836,-0.06866042360414232
139,2015-04-01,119.66999816894531,106.93154907226562,0.063654197101411
140,2015-07-01,131.14999389648438,117.86428833007812,0.10224053941670688
141,2015-10-01,119.8499984741211,108.33747863769531,-0.08082863628466536
142,2016-01-01,110.18000030517578,100.16565704345705,-0.07542931307794841
143,2016-04-01,118.31999969482422,108.28575134277344,0.08106665037691986
144,2016-07-01,114.55999755859376,105.46776580810548,-0.02602360421130343
145,2016-10-01,122.7300033569336,113.66242980957031,0.07769828002590577
146,2017-01-01,162.57000732421875,151.311279296875,0.33123389628729083
147,2017-04-01,155.41000366210938,145.27987670898438,-0.03986089216823633
148,2017-07-01,163.14999389648438,153.23269653320312,0.054741372338505935
149,2017-10-01,166.77000427246094,157.4190673828125,0.027320349666379813
150,2018-01-01,190.77999877929688,180.885009765625,0.1490667094714003
151,2018-04-01,182.2700042724609,173.5054473876953,-0.0407969813943758
152,2018-07-01,173.35000610351562,165.77601623535156,-0.044548636764541766
153,2018-10-01,165.41000366210938,159.08497619628906,-0.04036193045900715
154,2019-01-01,164.5399932861328,159.19192504882812,0.0006722750010478819
155,2019-04-01,170.07000732421875,165.49850463867188,0.03961620281876336
156,2019-07-01,164.25,160.82659912109375,-0.028229291423376678
157,2019-10-01,156.52999877929688,154.31527709960938,-0.040486598964775106
158,2020-01-01,168.52000427246094,167.23866271972656,0.08374663781198563
