,Date,Close,Adj Close,RoR
0,1980-07-01,5.190611362457275,2.4926583766937256,0.3345330766120138
1,1980-10-01,5.470428943634033,2.62703275680542,0.05390806111583136
2,1981-01-01,5.484419822692871,2.63375186920166,0.0025576812389697615
3,1981-04-01,5.120657444000244,2.4590659141540527,-0.06632589694205249
4,1981-07-01,4.924785137176514,2.365001916885376,-0.038251921889225105
5,1981-10-01,4.3371686935424805,2.082813262939453,-0.11931857303420512
6,1982-01-01,3.693588733673096,1.7737518548965454,-0.14838651814936712
7,1982-04-01,2.9940454959869385,1.4406262636184692,-0.18780845266403165
8,1982-07-01,2.266520500183105,1.0929535627365112,-0.24133441799727906
9,1982-10-01,2.686246395111084,1.299204707145691,0.18870988799631427
10,1983-01-01,3.3578081130981445,1.6281657218933103,0.2532018341207643
11,1983-04-01,3.3857898712158203,1.6447716951370241,0.01019919104082574
12,1983-07-01,4.001388072967528,1.9477521181106567,0.18420819367784147
13,1983-10-01,3.8334975242614746,1.8692589998245241,-0.04029933663338632
14,1984-01-01,3.9734060764312735,1.94088077545166,0.038315597589129835
15,1984-04-01,4.113314628601073,2.012829542160034,0.03707016299938935
16,1984-07-01,2.798173427581787,1.3715583086013794,-0.3185919225283654
17,1984-10-01,3.3578081130981445,1.6495388746261597,0.20267498966795344
18,1985-01-01,3.2458810806274414,1.5977517366409302,-0.0313949181688526
19,1985-04-01,3.3857898712158203,1.6703704595565796,0.04545056735054536
20,1985-07-01,3.1059725284576416,1.5352494716644287,-0.08089282656975412
21,1985-10-01,3.18991756439209,1.5801922082901,0.029273898122203598
22,1986-01-01,2.57431960105896,1.277888536453247,-0.1913081650769376
23,1986-04-01,2.2385387420654297,1.1141804456710815,-0.12810827087981705
24,1986-07-01,1.7908309698104858,0.893962025642395,-0.1976505878238124
25,1986-10-01,2.266520500183105,1.135553240776062,0.27024773782763445
26,1987-01-01,3.1619358062744136,1.5887631177902222,0.39910931582954806
27,1987-04-01,3.4417531490325928,1.7329496145248413,0.09075392997237068
28,1987-07-01,4.46875,2.2544167041778564,0.3009130128667916
29,1987-10-01,2.71875,1.3738114833831787,-0.39061333211502175
30,1988-01-01,3.21875,1.6308646202087402,0.18710946875515755
31,1988-04-01,3.4375,1.7456895112991333,0.07040737144429328
32,1988-07-01,2.875,1.4632828235626218,-0.16177372087568184
33,1988-10-01,3.0,1.530942678451538,0.04623839889283078
34,1989-01-01,2.75,1.4068808555603027,-0.08103622992385115
35,1989-04-01,3.21875,1.6511937379837036,0.17365570187256626
36,1989-07-01,3.625,1.8640265464782717,0.12889632730466946
37,1989-10-01,3.25,1.689841628074646,-0.0934455138166972
38,1990-01-01,3.90625,2.057131290435791,0.21735152943274552
39,1990-04-01,3.65625,1.9444738626480105,-0.05476433532053014
40,1990-07-01,4.25,2.2852442264556885,0.1752506785273073
41,1990-10-01,4.21875,2.2908244132995605,0.0024418339095977895
42,1991-01-01,3.53125,1.935457468032837,-0.15512622582665567
43,1991-04-01,3.625,2.010018825531006,0.03852389356504523
44,1991-07-01,3.625,2.0334677696228027,0.011666032075894684
45,1991-10-01,4.3125,2.4465956687927246,0.20316422288146463
46,1992-01-01,3.125,1.7899948358535769,-0.26837325076404966
47,1992-04-01,3.6875,2.1404380798339844,0.1957789134141804
48,1992-07-01,4.34375,2.5490143299102783,0.19088440535873094
49,1992-10-01,4.625,2.739469051361084,0.0747170069685365
50,1993-01-01,4.6875,2.800710201263428,0.02235511654052708
51,1993-04-01,5.375,3.238574981689453,0.15634062397048426
52,1993-07-01,6.5,3.945108652114868,0.2181618997306157
53,1993-10-01,6.96875,4.255675315856934,0.0787219544829466
54,1994-01-01,6.84375,4.203145503997804,-0.012343472647784088
55,1994-04-01,7.28125,4.498128890991211,0.07018157870405276
56,1994-07-01,6.8125,4.232102394104004,-0.05914159049999682
57,1994-10-01,7.5,4.68696928024292,0.10748012306427614
58,1995-01-01,5.46875,3.43590784072876,-0.26692332821292114
59,1995-04-01,6.75,4.269810199737549,0.24270219041495505
60,1995-07-01,6.25,4.000803470611571,-0.06300203440951835
61,1995-10-01,6.1875,4.012509822845459,0.002926000319655329
62,1996-01-01,7.4375,4.884233474731445,0.2172514686251425
63,1996-04-01,8.78125,5.828042030334473,0.19323575756274053
64,1996-07-01,9.84375,6.563221454620361,0.12614518228580732
65,1996-10-01,10.875,7.280377388000487,0.10926889155557357
66,1997-01-01,10.90625,7.32856559753418,0.006618916433249198
67,1997-04-01,8.9375,6.028473377227782,-0.17740063904781522
68,1997-07-01,10.375,7.0295515060424805,0.16605831463007106
69,1997-10-01,10.265625,6.981535911560059,-0.006830534557026647
70,1998-01-01,9.09375,6.20817232131958,-0.11077270102699602
71,1998-04-01,10.78125,7.391329288482666,0.19058056154465758
72,1998-07-01,7.96875,5.483799457550049,-0.2580766945270552
73,1998-10-01,8.1875,5.666003227233888,0.0332258265631837
74,1999-01-01,4.921875,3.4227488040924072,-0.39591478034449074
75,1999-04-01,8.015625,5.615619659423828,0.6406753696647316
76,1999-07-01,7.3125,5.1498703956604,-0.08293817815489563
77,1999-10-01,6.328125,4.481291770935059,-0.1298243593253779
78,2000-01-01,5.015625,3.5748326778411865,-0.2022762942982246
79,2000-04-01,9.015625,6.47273063659668,0.810638768275306
80,2000-07-01,7.5,5.407821178436278,-0.16452244314623973
81,2000-10-01,9.171875,6.646613597869872,0.2290742202004176
82,2001-01-01,10.59000015258789,7.706367015838622,0.15944260973864693
83,2001-04-01,10.86750030517578,7.935858726501465,0.029779494045790517
84,2001-07-01,9.067500114440918,6.64804744720459,-0.16227749556532348
85,2001-10-01,9.24250030517578,6.806643962860107,0.023856104655541405
86,2002-01-01,8.125,6.009671211242676,-0.11708747452724835
87,2002-04-01,9.762499809265137,7.257194519042969,0.2075859500377444
88,2002-07-01,7.772500038146973,5.8013858795166025,-0.200602124651104
89,2002-10-01,9.09749984741211,6.825486660003662,0.1765269199042475
90,2003-01-01,8.925000190734863,6.725340843200684,-0.014672333533346146
91,2003-04-01,8.300000190734862,6.2829222679138175,-0.06578381462021379
92,2003-07-01,9.125,6.941062927246094,0.10475072446675444
93,2003-10-01,9.93000030517578,7.586581230163574,0.09299992085990114
94,2004-01-01,11.050000190734863,8.486351013183594,0.11860016464894815
95,2004-04-01,11.524999618530273,8.8927640914917,0.04789020365487363
96,2004-07-01,13.827500343322756,10.714985847473145,0.20491061465634589
97,2004-10-01,14.5,11.279031753540039,0.052640844710019875
98,2005-01-01,14.792499542236328,11.545692443847654,0.023642161502375525
99,2005-04-01,16.030000686645508,12.553357124328613,0.08727624483171752
100,2005-07-01,20.627500534057614,16.203289031982422,0.2907534511688654
101,2005-10-01,20.024999618530273,15.803366661071776,-0.024681555091763802
102,2006-01-01,23.13999938964844,18.306447982788086,0.15838911893894847
103,2006-04-01,22.489999771118164,17.831758499145508,-0.025930179578741115
104,2006-07-01,25.30500030517578,20.127403259277344,0.1287391123114326
105,2006-10-01,24.315000534057614,19.39755249023437,-0.0362615464916748
106,2007-01-01,26.70499992370605,21.371768951416016,0.10177657527544036
107,2007-04-01,29.40500068664551,23.598833084106445,0.10420588664200735
108,2007-07-01,30.56999969482422,24.630624771118164,0.04372214860516214
109,2007-10-01,38.27000045776367,30.951642990112305,0.2566324759413394
110,2008-01-01,36.290000915527344,29.442607879638672,-0.04875460443103791
111,2008-04-01,43.5,35.40972137451172,0.2026693260076212
112,2008-07-01,36.935001373291016,30.190622329711914,-0.1473917004203418
113,2008-10-01,25.90999984741211,21.27814483642578,-0.29520681607530075
114,2009-01-01,24.46500015258789,20.25035858154297,-0.04830243720887539
115,2009-04-01,28.375,23.65060615539551,0.16791048712350565
116,2009-07-01,30.559999465942386,25.624711990356445,0.08346956614938907
117,2009-10-01,32.814998626708984,27.67983818054199,0.08020094785685652
118,2010-01-01,36.97000122070313,31.35529708862305,0.13278469635941686
119,2010-04-01,38.20000076293945,32.55126571655273,0.0381424747642918
120,2010-07-01,33.529998779296875,28.709760665893555,-0.11801399933599875
121,2010-10-01,40.7400016784668,35.066505432128906,0.22141406332888725
122,2011-01-01,45.54999923706055,39.37645721435547,0.12290793533927863
123,2011-04-01,48.1349983215332,41.780120849609375,0.06104316653397663
124,2011-07-01,49.84000015258789,43.43548202514648,0.039620784762583544
125,2011-10-01,44.66999816894531,39.10894393920898,-0.09960838200051976
126,2012-01-01,50.334999084472656,44.28900909423828,0.13245218697495917
127,2012-04-01,49.65999984741211,43.88473129272461,-0.009128174456408551
128,2012-07-01,43.71500015258789,38.80450439453125,-0.1157629715061188
129,2012-10-01,47.50500106811523,42.37942886352539,0.09212653336961463
130,2013-01-01,53.89500045776367,48.33434295654297,0.14051426016603968
131,2013-04-01,56.64500045776367,51.02525329589844,0.0556728440846883
132,2013-07-01,62.4900016784668,56.57602310180664,0.10878475749486168
133,2013-10-01,74.93000030517578,67.99107360839844,0.2017648092028455
134,2014-01-01,62.33000183105469,56.66214370727539,-0.16662378309207443
135,2014-04-01,71.77999877929688,65.40245056152344,0.15425302119527462
136,2014-07-01,66.48999786376953,60.73476791381836,-0.07136862009955171
137,2014-10-01,57.63000106811523,52.78339385986328,-0.13091964169909973
138,2015-01-01,47.7400016784668,43.86324691772461,-0.16899532769380315
139,2015-04-01,50.72000122070313,46.777076721191406,0.06642987029510926
140,2015-07-01,35.22999954223633,32.610610961914055,-0.30285060017141946
141,2015-10-01,35.84000015258789,33.34122848510742,0.022404288102625704
142,2016-01-01,32.36999893188477,30.26953887939453,-0.09212886702974747
143,2016-04-01,36.11000061035156,33.87192153930664,0.11901015982653008
144,2016-07-01,35.720001220703125,33.600494384765625,-0.008013337956809986
145,2016-10-01,34.470001220703125,32.52018356323242,-0.03215163470996466
146,2017-01-01,39.7599983215332,37.61301803588867,0.15660534211787935
147,2017-04-01,32.330001831054695,30.66193199157715,-0.18480532558379403
148,2017-07-01,28.90999984741211,27.509536743164066,-0.10281137044068349
149,2017-10-01,27.8700008392334,26.6144962310791,-0.03253564465448063
150,2018-01-01,30.520000457763672,29.25014495849609,0.09903056982680015
151,2018-04-01,33.830001831054695,32.55042266845703,0.11282944801278094
152,2018-07-01,36.09000015258789,34.842987060546875,0.07043117121521902
153,2018-10-01,24.85000038146973,24.06523895263672,-0.3093233105755714
154,2019-01-01,22.34000015258789,21.72561264038086,-0.09722015712624026
155,2019-04-01,27.059999465942386,26.45398139953613,0.217640295692595
156,2019-07-01,22.07999992370605,21.68764877319336,-0.18017449072623706
157,2019-10-01,19.26000022888184,19.029205322265625,-0.12257868424232585
158,2020-01-01,19.770000457763672,19.65555763244629,0.03291531619808548
