,Date,Close,Adj Close,RoR
0,1980-07-01,0.6875,0.2269393652677536,0.2941180319393778
1,1980-10-01,0.7578125,0.2501489520072937,0.10227219377368202
2,1981-01-01,0.8515625,0.28109532594680786,0.12371178728189053
3,1981-04-01,1.03125,0.3404088914394379,0.21100872201572668
4,1981-07-01,1.0703125,0.3533033132553101,0.037879215673090716
5,1981-10-01,1.0625,0.35072436928749084,-0.007299518207335997
6,1982-01-01,0.96875,0.3197784125804901,-0.08823440689299279
7,1982-04-01,0.9375,0.3094627261161804,-0.03225885819204
8,1982-07-01,0.828125,0.2733587324619293,-0.11666669555769606
9,1982-10-01,1.46875,0.4848247468471527,0.7735842659230733
10,1983-01-01,1.875,0.6189254522323608,0.27659624690627665
11,1983-04-01,2.515625,0.8303917646408081,0.3416668544583577
12,1983-07-01,2.21875,0.7323952913284302,-0.11801233765217675
13,1983-10-01,1.875,0.6189254522323608,-0.15492977691084817
14,1984-01-01,1.875,0.6189254522323608,0.0
15,1984-04-01,1.90625,0.6292406916618347,0.016666368126029604
16,1984-07-01,2.387279987335205,0.7880256772041321,0.2523437972883535
17,1984-10-01,1.703125,0.5621906518936157,-0.28658333331442387
18,1985-01-01,2.328125,0.7684992551803589,0.36697266770950027
19,1985-04-01,2.0,0.6601870656013489,-0.1409398758019489
20,1985-07-01,2.15625,0.7117643356323242,0.07812523558606048
21,1985-10-01,2.4375,0.8046031594276428,0.1304347789677345
22,1986-01-01,3.375,1.114065647125244,0.3846150541065962
23,1986-04-01,3.96875,1.3824968338012695,0.24094736909686654
24,1986-07-01,3.34375,1.2160409688949585,-0.12040234801017899
25,1986-10-01,3.421875,1.3122599124908447,0.07912475488660746
26,1987-01-01,3.703125,1.5068273544311523,0.14826898245408762
27,1987-04-01,4.28125,1.753488063812256,0.16369540190237752
28,1987-07-01,4.84375,1.9960235357284544,0.13831600962763455
29,1987-10-01,3.40625,1.4114303588867188,-0.29287889966106373
30,1988-01-01,4.046875,1.690212965011597,0.1975177906367063
31,1988-04-01,4.75,1.99746835231781,0.18178501388084253
32,1988-07-01,5.375,2.276098251342773,0.1394915212056542
33,1988-10-01,6.875,2.9305603504180913,0.28753684015583314
34,1989-01-01,7.5,3.2149174213409424,0.09703163795356852
35,1989-04-01,9.1875,3.963270425796509,0.23277518715968396
36,1989-07-01,10.875,4.715187072753906,0.18972125698596073
37,1989-10-01,11.84375,5.161171913146973,0.09458476058566831
38,1990-01-01,11.625,5.095471858978272,-0.012729677537255358
39,1990-04-01,13.0,5.727085590362549,0.12395588649388117
40,1990-07-01,14.9375,6.609010696411133,0.1539919549190384
41,1990-10-01,10.3125,4.584640979766847,-0.30630449996753256
42,1991-01-01,14.9375,6.6798439025878915,0.4570047975550742
43,1991-04-01,15.4375,6.937985897064209,0.038644914198714825
44,1991-07-01,18.75,8.466700553894043,0.2203398334200572
45,1991-10-01,21.8125,9.888118743896484,0.16788336624810668
46,1992-01-01,24.4375,11.115455627441406,0.12412238519106628
47,1992-04-01,20.75,9.467095375061037,-0.14829443862930472
48,1992-07-01,19.9375,9.130008697509766,-0.03560613516572902
49,1992-10-01,20.8125,9.566685676574707,0.04782875827753003
50,1993-01-01,19.25,8.880854606628418,-0.07168951642527956
51,1993-04-01,19.4375,9.004105567932129,0.013878277121181549
52,1993-07-01,16.25,7.563737869262695,-0.15996788218468505
53,1993-10-01,20.375,9.53278923034668,0.2603278161034321
54,1994-01-01,20.9375,9.840523719787598,0.03228168398618067
55,1994-04-01,19.5625,9.23610019683838,-0.061421885680111254
56,1994-07-01,22.3125,10.587241172790527,0.14628912064148644
57,1994-10-01,21.0,10.00809097290039,-0.05470265486901036
58,1995-01-01,22.5,10.771918296813963,0.07632098129222059
59,1995-04-01,23.625,11.407913208007812,0.05904193604791444
60,1995-07-01,25.375,12.3145170211792,0.07947148585729018
61,1995-10-01,24.125,11.762707710266113,-0.04480965919849339
62,1996-01-01,26.375,12.989657402038574,0.1043084400287885
63,1996-04-01,28.5,14.16943073272705,0.09082405287327477
64,1996-07-01,32.0,15.984448432922365,0.12809390401289578
65,1996-10-01,28.375,14.235994338989258,-0.10938469983937038
66,1997-01-01,33.0,16.715705871582028,0.17418604373853855
67,1997-04-01,35.125,17.870162963867188,0.06906421428770321
68,1997-07-01,42.125,21.525196075439453,0.20453272412582965
69,1997-10-01,38.375,19.687631607055664,-0.08536807107092863
70,1998-01-01,41.0625,21.152915954589844,0.07442664393461376
71,1998-04-01,48.3125,24.99138832092285,0.18146303680179474
72,1998-07-01,51.5,26.743757247924805,0.07011891074234021
73,1998-10-01,44.125,23.621923446655273,-0.11673130937919246
74,1999-01-01,41.5625,22.337759017944336,-0.05436324572005874
75,1999-04-01,47.4375,25.60893249511719,0.1464414346374254
76,1999-07-01,43.25,23.45213890075684,-0.08422036313975928
77,1999-10-01,34.625,18.86591339111328,-0.19555681164311853
78,2000-01-01,29.9375,16.414451599121097,-0.12994132545667977
79,2000-04-01,25.1875,13.915613174438475,-0.15223404873400836
80,2000-07-01,26.9375,14.996712684631348,0.07768967825138597
81,2000-10-01,19.1875,10.769947052001953,-0.2818461433191949
82,2001-01-01,27.20000076293945,15.432498931884766,0.43292245146331726
83,2001-04-01,26.959999084472656,15.417281150817873,-0.000986086643132799
84,2001-07-01,21.68000030517578,12.49766731262207,-0.18937280896903924
85,2001-10-01,27.63999938964844,16.074316024780273,0.286185303440263
86,2002-01-01,27.61000061035156,16.183294296264652,0.006779652167866858
87,2002-04-01,31.399999618530273,18.541872024536133,0.14574150881108774
88,2002-07-01,30.07999992370605,17.869401931762695,-0.03626764826569667
89,2002-10-01,32.419998168945305,19.37299346923828,0.0841433609931268
90,2003-01-01,27.85000038146973,16.755744934082028,-0.13509778647848583
91,2003-04-01,30.479999542236328,18.469236373901367,0.10226292215358397
92,2003-07-01,23.6299991607666,14.425774574279785,-0.21892956036532968
93,2003-10-01,22.79999923706055,14.04932975769043,-0.026095293160932377
94,2004-01-01,24.43000030517578,15.193990707397461,0.08147441689027607
95,2004-04-01,23.63999938964844,14.822147369384766,-0.024473052878178796
96,2004-07-01,21.600000381469727,13.666248321533205,-0.07798458745856739
97,2004-10-01,21.559999465942386,13.776131629943848,0.008040488203152674
98,2005-01-01,21.520000457763672,13.878393173217773,0.007423095686139477
99,2005-04-01,21.729999542236328,14.143413543701172,0.019095897282606827
100,2005-07-01,24.8700008392334,16.33748435974121,0.15513021727468174
101,2005-10-01,22.989999771118164,15.234193801879885,-0.06753123881055105
102,2006-01-01,23.63999938964844,15.809505462646484,0.037764496648034426
103,2006-04-01,27.420000076293945,18.49728202819824,0.17001016077967976
104,2006-07-01,26.36000061035156,17.92501449584961,-0.03093792544635662
105,2006-10-01,28.78000068664551,19.72572898864746,0.10045818893004478
106,2007-01-01,29.540000915527344,20.396129608154297,0.033986101091253176
107,2007-04-01,30.670000076293945,21.317386627197266,0.04516822734224309
108,2007-07-01,26.45000076293945,18.50794792175293,-0.1317909532991245
109,2007-10-01,29.15999984741211,20.572261810302734,0.11153661644593005
110,2008-01-01,24.059999465942386,17.110958099365234,-0.1682510043306981
111,2008-04-01,20.530000686645508,14.72911262512207,-0.1392000062422877
112,2008-07-01,16.530000686645508,11.985822677612305,-0.18624950581413793
113,2008-10-01,13.75,10.088083267211914,-0.15833201119728557
114,2009-01-01,8.079999923706055,6.0438194274902335,-0.40089516834840827
115,2009-04-01,10.449999809265137,7.953024387359619,0.3158937792193777
116,2009-07-01,12.869999885559082,9.83796215057373,0.23700892533537235
117,2009-10-01,14.510000228881836,11.131577491760254,0.13149220553883534
118,2010-01-01,13.56999969482422,10.445924758911133,-0.06159528901960667
119,2010-04-01,17.069999694824222,13.188257217407227,0.26252653755299976
120,2010-07-01,15.5,12.012651443481445,-0.08914034315118567
121,2010-10-01,17.649999618530273,13.724186897277832,0.14247774205794805
122,2011-01-01,19.25,15.012002944946287,0.093835507874342
123,2011-04-01,19.059999465942386,14.901918411254885,-0.007333100992260469
124,2011-07-01,15.520000457763672,12.189955711364744,-0.18198748812380372
125,2011-10-01,14.800000190734865,11.693943977355955,-0.0406901998459564
126,2012-01-01,18.46999931335449,14.676118850708008,0.2550187412498904
127,2012-04-01,18.200000762939453,14.524802207946776,-0.010310399111678794
128,2012-07-01,17.649999618530273,14.160629272460938,-0.02507248844232747
129,2012-10-01,20.63999938964844,16.655452728271484,0.17618026768502346
130,2013-01-01,23.479999542236328,19.08119201660156,0.1456423507607541
131,2013-04-01,26.34000015258789,21.54689216613769,0.12922149451621548
132,2013-07-01,27.020000457763672,22.224117279052734,0.03143029202045875
133,2013-10-01,29.6299991607666,24.516788482666016,0.10316140680980974
134,2014-01-01,30.899999618530273,25.69491577148437,0.04805389945960179
135,2014-04-01,30.11000061035156,25.157480239868164,-0.020916026205177952
136,2014-07-01,32.47999954223633,27.29560470581055,0.08498961126297563
137,2014-10-01,33.330001831054695,28.15353012084961,0.03143089974688958
138,2015-01-01,36.86999893188477,31.291000366210934,0.11144145092617759
139,2015-04-01,38.13000106811523,32.515411376953125,0.039129813569794045
140,2015-07-01,43.27999877929688,37.08537292480469,0.14054755435420216
141,2015-10-01,42.43000030517578,36.52639389038086,-0.015072762934249825
142,2016-01-01,38.77999877929688,33.526782989501946,-0.08212173667844211
143,2016-04-01,45.540000915527344,39.57027816772461,0.1802587256914876
144,2016-07-01,52.459999084472656,45.7647476196289,0.15654349018341732
145,2016-10-01,48.02000045776367,42.03967666625977,-0.08139607770439033
146,2017-01-01,47.33000183105469,41.59871292114258,-0.010489227798250492
147,2017-04-01,47.7400016784668,42.12941360473633,0.012757622684138888
148,2017-07-01,52.72000122070313,46.72584915161133,0.1091027658253058
149,2017-10-01,40.77999877929688,36.31676864624024,-0.22276921007035635
150,2018-01-01,26.440000534057614,23.7235050201416,-0.34676167774641425
151,2018-04-01,27.6299991607666,24.99790954589844,0.05371906573985807
152,2018-07-01,26.190000534057614,23.9166259765625,-0.043254959673752154
153,2018-10-01,15.880000114440918,14.651333808898926,-0.3873996347454383
154,2019-01-01,21.209999084472656,19.76169776916504,0.3487985480995717
155,2019-04-01,14.380000114440918,13.580526351928713,-0.3127854443195186
156,2019-07-01,14.1899995803833,13.63076400756836,0.0036992421602651568
157,2019-10-01,18.96999931335449,18.48383903503418,0.35603837208033196
158,2020-01-01,19.530000686645508,19.259241104125977,0.04195027167365521
