,Date,Close,Adj Close,RoR
0,1980-07-01,2.203125,0.20508481562137604,0.4536086023831223
1,1980-10-01,2.4375,0.2269023209810257,0.10638284113597543
2,1981-01-01,2.21875,0.20653937757015228,-0.08974321339170536
3,1981-04-01,1.9375,0.18035823106765747,-0.12676104097196786
4,1981-07-01,1.90625,0.17744919657707214,-0.01612920282797665
5,1981-10-01,2.0,0.18617624044418332,0.0491805205966133
6,1982-01-01,1.96875,0.1832672208547592,-0.015625085040302304
7,1982-04-01,1.90625,0.17744919657707214,-0.03174612596050593
8,1982-07-01,1.96875,0.1832672208547592,0.03278698573966257
9,1982-10-01,2.1875,0.20363026857376101,0.1111112375908167
10,1983-01-01,2.78125,0.2589012384414673,0.2714280654581834
11,1983-04-01,3.0,0.27926430106163025,0.07865185482597323
12,1983-07-01,3.40625,0.3170813322067261,0.1354166322058832
13,1983-10-01,2.9375,0.273446261882782,-0.1376147565051087
14,1984-01-01,2.1875,0.20363026857376101,-0.25531887994486074
15,1984-04-01,2.0625,0.1919943690299988,-0.057142288448867484
16,1984-07-01,1.9375,0.18035823106765747,-0.06060666269083761
17,1984-10-01,2.15625,0.20072129368782046,0.11290342835822242
18,1985-01-01,2.5,0.24485981464385986,0.21989954401493417
19,1985-04-01,2.71875,0.2780782878398895,0.13566322936389044
20,1985-07-01,3.1875,0.3378562331199646,0.21496804279266027
21,1985-10-01,2.59375,0.2874120771884918,-0.14930657180908447
22,1986-01-01,2.4375,0.2825295925140381,-0.016987750557370222
23,1986-04-01,3.34375,0.4049561321735382,0.43332289042754735
24,1986-07-01,2.625,0.3305568993091583,-0.18372170947271185
25,1986-10-01,2.15625,0.2835542559623718,-0.14219229259779137
26,1987-01-01,3.171875,0.4370841085910797,0.5414478866051003
27,1987-04-01,2.9375,0.4215185344219208,-0.03561230862255285
28,1987-07-01,2.984375,0.4467233121395111,0.0597951825585954
29,1987-10-01,2.109375,0.3281458020210266,-0.2654383751557002
30,1988-01-01,2.359375,0.3897254168987274,0.1876593102774326
31,1988-04-01,2.625,0.4548817873001098,0.16718532478551093
32,1988-07-01,2.359375,0.4303970336914063,-0.05382662988999734
33,1988-10-01,2.59375,0.4984241127967834,0.158056570515661
34,1989-01-01,2.625,0.5304867029190063,0.06432792735951653
35,1989-04-01,2.578125,0.5469064116477966,0.03095215891075259
36,1989-07-01,2.921875,0.648972749710083,0.18662487015788778
37,1989-10-01,3.0,0.6952348351478577,0.07128509703749722
38,1990-01-01,2.953125,0.7123650908470154,0.02463952442129079
39,1990-04-01,2.890625,0.7275416254997253,0.02130443342565366
40,1990-07-01,3.265625,0.8593920469284058,0.18122732336877156
41,1990-10-01,2.109375,0.5822387933731079,-0.32249920690549155
42,1991-01-01,3.0,0.87042236328125,0.49495769294003306
43,1991-04-01,3.796875,1.1475640535354614,0.3183990921481663
44,1991-07-01,3.78125,1.1877336502075195,0.03500423052491231
45,1991-10-01,4.09375,1.3375564813613892,0.1261417752437112
46,1992-01-01,4.34375,1.469800353050232,0.09886974758198067
47,1992-04-01,4.53125,1.58340322971344,0.0772913657473625
48,1992-07-01,4.109375,1.4882171154022217,-0.060114892103917704
49,1992-10-01,4.75,1.7832542657852173,0.19824872817919156
50,1993-01-01,5.34375,2.0704269409179688,0.16103854657333525
51,1993-04-01,5.265625,2.1008176803588867,0.014678489175495163
52,1993-07-01,4.890625,2.0085339546203613,-0.04392752717254378
53,1993-10-01,5.6875,2.400237560272217,0.1950196583686296
54,1994-01-01,6.125,2.661041498184204,0.10865755216429865
55,1994-04-01,6.0625,2.7030882835388184,0.01580087547800567
56,1994-07-01,6.359375,2.9158079624176025,0.07869505416238078
57,1994-10-01,6.65625,3.13085675239563,0.07375272746004938
58,1995-01-01,6.28125,3.02960467338562,-0.03234005482126736
59,1995-04-01,6.953125,3.4326744079589844,0.13304367335918085
60,1995-07-01,7.546875,3.8077359199523926,0.10926218668563269
61,1995-10-01,7.984375,4.116461277008057,0.08107845805113607
62,1996-01-01,9.65625,5.078920841217041,0.23380751073371525
63,1996-04-01,10.84375,5.8028907775878915,0.14254404803784432
64,1996-07-01,10.125,5.50339937210083,-0.05161072592366663
65,1996-10-01,12.40625,6.85856819152832,0.24624213650520102
66,1997-01-01,12.15625,6.8380069732666025,-0.0029978878517406896
67,1997-04-01,13.25,7.57056713104248,0.10713065380597643
68,1997-07-01,17.421875,10.084879875183104,0.3321168283193599
69,1997-10-01,17.65625,10.362256050109863,0.027504162504635037
70,1998-01-01,20.28125,12.073038101196287,0.16509745009324353
71,1998-04-01,23.6875,14.179694175720215,0.1744926220613173
72,1998-07-01,26.25,15.797447204589846,0.11408941609189972
73,1998-10-01,24.8125,15.008060455322266,-0.049969260162377925
74,1999-01-01,32.0,19.460674285888672,0.2966814961747698
75,1999-04-01,36.25,22.143163681030273,0.13784154422063005
76,1999-07-01,35.4375,21.744220733642575,-0.018016528854432282
77,1999-10-01,44.0,27.10875129699707,0.24671063769392823
78,2000-01-01,46.84375,28.96540832519531,0.0684892125003156
79,2000-04-01,45.53125,28.276382446289066,-0.023787887647587543
80,2000-07-01,42.5,26.49530792236328,-0.06298806176175231
81,2000-10-01,46.125,28.88832664489746,0.0903185850697119
82,2001-01-01,45.6500015258789,28.70950698852539,-0.00619003165431374
83,2001-04-01,43.92499923706055,27.731159210205078,-0.03407748446224933
84,2001-07-01,43.685001373291016,27.697927474975586,-0.0011983536273255716
85,2001-10-01,38.38999938964844,24.48766899108887,-0.11590247995223132
86,2002-01-01,43.685001373291016,27.9959774017334,0.14326836955862196
87,2002-04-01,43.61999893188477,28.07245445251465,0.0027317156920020533
88,2002-07-01,26.65500068664551,17.238407135009766,-0.3859316019491983
89,2002-10-01,28.815000534057614,18.7574520111084,0.08811979344736437
90,2003-01-01,30.149999618530273,19.745853424072266,0.05269379936989968
91,2003-04-01,30.95000076293945,20.4270133972168,0.03449635518483741
92,2003-07-01,36.93999862670898,24.52113151550293,0.2004266624137994
93,2003-10-01,39.900001525878906,26.62356376647949,0.08573960992164427
94,2004-01-01,41.20000076293945,27.61969757080078,0.03741549452427098
95,2004-04-01,39.75500106811523,26.80170440673828,-0.02961629691873501
96,2004-07-01,36.0099983215332,24.413494110107425,-0.08910665756131651
97,2004-10-01,39.45000076293945,26.914306640625,0.10243566608035078
98,2005-01-01,42.44499969482422,29.117610931396484,0.08186368388349162
99,2005-04-01,41.45000076293945,28.57854461669922,-0.018513411555891406
100,2005-07-01,42.435001373291016,29.419208526611328,0.029415910473652555
101,2005-10-01,41.47999954223633,28.9119930267334,-0.017240963482043535
102,2006-01-01,40.89500045776367,28.66829490661621,-0.008428963022087501
103,2006-04-01,45.00500106811523,31.74704742431641,0.10739224386134207
104,2006-07-01,44.25500106811523,31.38131523132324,-0.011520195503694035
105,2006-10-01,50.724998474121094,36.16593933105469,0.15246729031151887
106,2007-01-01,52.599998474121094,37.68146514892578,0.04190478239755697
107,2007-04-01,52.35499954223633,37.68867111206055,0.00019123362391260552
108,2007-07-01,51.86999893188477,37.55239486694336,-0.0036158410762744692
109,2007-10-01,50.97999954223633,37.021949768066406,-0.014125466584925948
110,2008-01-01,45.36999893188477,33.051746368408196,-0.10723917634080803
111,2008-04-01,47.7400016784668,34.89422607421875,0.05574530571769269
112,2008-07-01,42.68999862670898,31.30067253112793,-0.1029841881418279
113,2008-10-01,29.540000915527344,21.741411209106445,-0.30540114793108614
114,2009-01-01,25.88999938964844,19.158912658691406,-0.11878247118261362
115,2009-04-01,31.46999931335449,23.44179916381836,0.22354538492997564
116,2009-07-01,34.0,25.445619583129886,0.08548065808892166
117,2009-10-01,34.279998779296875,25.759292602539066,0.012327191263094289
118,2010-01-01,35.29999923706055,26.63314819335937,0.03392389706905889
119,2010-04-01,42.65999984741211,32.357959747314446,0.21495061388884104
120,2010-07-01,37.2599983215332,28.414295196533203,-0.12187618074741402
121,2010-10-01,43.959999084472656,33.69550323486328,0.18586447426556027
122,2011-01-01,44.88000106811523,34.549484252929695,0.025344064818205062
123,2011-04-01,49.18999862670898,38.058876037597656,0.10157580816478833
124,2011-07-01,46.91999816894531,36.49946975708008,-0.04097352425691893
125,2011-10-01,44.47999954223633,34.823745727539055,-0.04591091434187122
126,2012-01-01,45.61000061035156,35.92568588256836,0.03164335518789054
127,2012-04-01,51.31000137329102,40.66215133666992,0.131840640971583
128,2012-07-01,50.18000030517578,40.01839447021485,-0.015831844732585965
129,2012-10-01,47.90999984741211,38.42061996459961,-0.039926002198924886
130,2013-01-01,54.27999877929688,43.79397201538086,0.1398559433900912
131,2013-04-01,59.77000045776367,48.5610237121582,0.1088517774798575
132,2013-07-01,64.26999664306639,52.55510330200195,0.0822486694991925
133,2013-10-01,68.11000061035156,56.03684616088867,0.06624937713240286
134,2014-01-01,72.58000183105469,60.05846405029297,0.07176738458580874
135,2014-04-01,67.68000030517578,56.60358810424805,-0.057525213151501976
136,2014-07-01,69.98999786376953,58.95009231567383,0.04145504357610994
137,2014-10-01,71.86000061035156,60.956459045410156,0.03403500572980221
138,2015-01-01,72.80000305175781,62.15724563598633,0.019699087010313924
139,2015-04-01,75.76000213623047,65.09609222412111,0.047280836820628294
140,2015-07-01,73.08000183105469,63.22753143310547,-0.028704653799836714
141,2015-10-01,74.91999816894531,65.29216766357422,0.032654069891264514
142,2016-01-01,73.3499984741211,64.35890197753906,-0.014293685129951886
143,2016-04-01,82.97000122070312,73.26482391357422,0.1383790223634219
144,2016-07-01,82.29000091552734,73.13555145263672,-0.0017644546732275557
145,2016-10-01,79.81999969482422,71.40782165527344,-0.023623665413696586
146,2017-01-01,85.6500015258789,77.10591888427734,0.07979654184820108
147,2017-04-01,82.12000274658203,74.41233825683594,-0.03493351310012925
148,2017-07-01,78.73999786376953,71.8343505859375,-0.034644626567175624
149,2017-10-01,67.19000244140625,61.75406265258789,-0.14032684712991553
150,2018-01-01,76.6500015258789,71.02139282226562,0.1500683480828346
151,2018-04-01,73.66000366210938,68.80803680419922,-0.031164638288711598
152,2018-07-01,68.83000183105469,64.81069183349611,-0.058094158129783476
153,2018-10-01,74.31999969482422,70.59414672851562,0.08923612341429218
154,2019-01-01,77.87999725341797,74.58145904541016,0.05648219436986135
155,2019-04-01,80.02999877929688,77.31532287597656,0.036656078676361746
156,2019-07-01,80.22000122070312,78.13531494140625,0.010605815702859539
157,2019-10-01,77.19000244140625,75.8058090209961,-0.029813739435965096
158,2020-01-01,75.30999755859375,74.56627655029297,-0.01635141800755413
