,Date,Close,Adj Close,RoR
0,1980-07-01,2.2109375,0.16813363134860992,0.20425532278227768
1,1980-10-01,2.265625,0.17229242622852325,0.024735056553262944
2,1981-01-01,2.6640625,0.2025921642780304,0.17586227504462978
3,1981-04-01,3.1875,0.24239762127399445,0.19648073328905472
4,1981-07-01,2.78125,0.21150372922420504,-0.1274513004187795
5,1981-10-01,2.390625,0.18179821968078613,-0.14044910532962523
6,1982-01-01,2.0859375,0.15862780809402466,-0.127451256824438
7,1982-04-01,2.1328125,0.16219250857830048,0.022472103265543997
8,1982-07-01,2.2265625,0.16932184994220734,0.04395604597523739
9,1982-10-01,3.0078125,0.2287331521511078,0.3508779417965172
10,1983-01-01,3.4296875,0.2608150541782379,0.1402590823648331
11,1983-04-01,4.085939884185791,0.3107207417488098,0.19134511896873463
12,1983-07-01,3.9921875,0.3063887357711792,-0.013941798520591388
13,1983-10-01,4.5625,0.3538107573986053,0.15477730115653585
14,1984-01-01,4.0,0.3129432201385498,-0.11550676853506146
15,1984-04-01,3.78125,0.2990054190158844,-0.04453779543936022
16,1984-07-01,3.453125,0.27630650997161865,-0.07591470789718326
17,1984-10-01,4.296875,0.3478601574897766,0.2589647544877163
18,1985-01-01,4.84375,0.3964579105377197,0.1397048555334233
19,1985-04-01,4.359375,0.3605218231678009,-0.09064288141250192
20,1985-07-01,5.671875,0.4744695425033569,0.3160633060554569
21,1985-10-01,5.6875,0.4800195395946503,0.011697267356743304
22,1986-01-01,6.140625,0.5231345891952515,0.0898193636805064
23,1986-04-01,8.125,0.7408164143562317,0.41611055674189806
24,1986-07-01,7.703125,0.7459146976470947,0.006881979383911785
25,1986-10-01,8.640625,0.8911188244819641,0.19466586097968
26,1987-01-01,10.875,1.1866495609283447,0.331640100430133
27,1987-04-01,10.40625,1.1948295831680298,0.006893376535938402
28,1987-07-01,12.40625,1.462410807609558,0.22394927963873337
29,1987-10-01,7.65625,0.9227826595306396,-0.36899901537310786
30,1988-01-01,8.5625,1.0697660446166992,0.1592827775511306
31,1988-04-01,10.71875,1.3858401775360107,0.29546098841879204
32,1988-07-01,11.21875,1.4573850631713867,0.05162563966256268
33,1988-10-01,10.71875,1.4362016916275024,-0.01453519188524381
34,1989-01-01,11.25,1.5584567785263062,0.08512389841308735
35,1989-04-01,11.09375,1.5865564346313477,0.018030436578172444
36,1989-07-01,11.1875,1.6557365655899048,0.04360395221278834
37,1989-10-01,9.84375,1.507792592048645,-0.08935236233582265
38,1990-01-01,9.9375,1.5838844776153564,0.050465751037631124
39,1990-04-01,11.1875,1.8544769287109373,0.17084102718335606
40,1990-07-01,13.34375,2.297435760498047,0.23885917636894738
41,1990-10-01,9.46875,1.6869469881057741,-0.2657261556074711
42,1991-01-01,12.34375,2.2981512546539307,0.36231385506337743
43,1991-04-01,11.875,2.282557487487793,-0.006785352850278733
44,1991-07-01,14.21875,2.831129789352417,0.2403323048254914
45,1991-10-01,12.5,2.564833164215088,-0.09406019679452453
46,1992-01-01,14.125,3.0092802047729488,0.1732849710300258
47,1992-04-01,16.03125,3.525827646255493,0.17165149349112144
48,1992-07-01,16.78125,3.801138162612915,0.07808394056068162
49,1992-10-01,15.40625,3.5872907638549805,-0.056258780820251784
50,1993-01-01,15.75,3.786352634429932,0.05549086585917987
51,1993-04-01,18.4375,4.567009449005127,0.20617646847695933
52,1993-07-01,17.3125,4.4076738357543945,-0.03488839141452662
53,1993-10-01,17.4375,4.582164764404297,0.03958798567045907
54,1994-01-01,19.71875,5.3445024490356445,0.1663706400418919
55,1994-04-01,18.9375,5.276335716247559,-0.01275455169833178
56,1994-07-01,19.5625,5.616276741027832,0.06442748207500977
57,1994-10-01,20.375,5.934762001037598,0.05670754392909061
58,1995-01-01,17.5625,5.191534519195557,-0.12523290432069553
59,1995-04-01,19.6875,5.910501956939697,0.13848842477802628
60,1995-07-01,22.875,6.970109462738037,0.17927538363374076
61,1995-10-01,21.25,6.5619754791259775,-0.05855488867053376
62,1996-01-01,23.375,7.3197197914123535,0.11547502953901678
63,1996-04-01,25.3125,8.027301788330076,0.09666790766333332
64,1996-07-01,24.625,7.909767627716064,-0.014641801655555231
65,1996-10-01,28.5,9.270792007446287,0.1720688196908786
66,1997-01-01,26.75,8.846488952636719,-0.04576772453408176
67,1997-04-01,27.1875,9.103476524353027,0.029049668528632795
68,1997-07-01,32.0,10.84097957611084,0.1908614854017317
69,1997-10-01,28.3125,9.686880111694336,-0.10645712007055849
70,1998-01-01,28.6875,9.934882164001463,0.025601850074280418
71,1998-04-01,35.34375,12.378454208374025,0.24595883514620037
72,1998-07-01,31.6875,11.212635040283203,-0.09418132090371553
73,1998-10-01,28.625,10.25058650970459,-0.08580039634950201
74,1999-01-01,26.875,9.736987113952637,-0.05010439112588441
75,1999-04-01,32.46875,11.93038558959961,0.22526459673587712
76,1999-07-01,29.8125,11.079466819763184,-0.0713236603667043
77,1999-10-01,30.3125,11.40480136871338,0.02936373692368266
78,2000-01-01,27.53125,10.490714073181152,-0.08014933938611418
79,2000-04-01,27.1875,10.519075393676758,0.0027034690201031587
80,2000-07-01,20.34375,7.987080097198486,-0.24070511919710247
81,2000-10-01,22.3125,8.929351806640625,0.11797449104994526
82,2001-01-01,23.09000015258789,9.406810760498047,0.05347072936496273
83,2001-04-01,26.57500076293945,11.010278701782227,0.17045819057162404
84,2001-07-01,27.47500038146973,11.560583114624025,0.049980970304840805
85,2001-10-01,24.415000915527344,10.431525230407717,-0.09766444071389975
86,2002-01-01,24.295000076293945,10.548288345336914,0.011193292672948245
87,2002-04-01,26.15500068664551,11.554338455200195,0.0953756739412633
88,2002-07-01,28.70000076293945,12.874686241149902,0.11427290199859652
89,2002-10-01,23.51499938964844,10.708012580871582,-0.16828943398661061
90,2003-01-01,24.415000915527344,11.31170654296875,0.056377778559542006
91,2003-04-01,24.2549991607666,11.447033882141113,0.011963476833341428
92,2003-07-01,28.23500061035156,13.567909240722654,0.18527728496465684
93,2003-10-01,28.82500076293945,14.074636459350586,0.03734747997186206
94,2004-01-01,29.114999771118164,14.435138702392578,0.025613609565204077
95,2004-04-01,29.65500068664551,14.919197082519533,0.03353333764965651
96,2004-07-01,29.47500038146973,15.056921005249025,0.009231322702403337
97,2004-10-01,31.875,16.539445877075195,0.09846135682782316
98,2005-01-01,34.389999389648445,18.09182548522949,0.09385922718886235
99,2005-04-01,33.775001525878906,17.993579864501953,-0.0054303873762072885
100,2005-07-01,32.514999389648445,17.56184196472168,-0.02399399691620084
101,2005-10-01,29.98500061035156,16.43430519104004,-0.06420378773175629
102,2006-01-01,29.75,16.564931869506836,0.00794841503479042
103,2006-04-01,33.560001373291016,18.98302459716797,0.1459766177555141
104,2006-07-01,30.770000457763672,17.653072357177734,-0.07006008095193886
105,2006-10-01,34.200000762939446,19.925392150878906,0.12872092447846606
106,2007-01-01,33.14500045776367,19.5866813659668,-0.016998952007936535
107,2007-04-01,36.79499816894531,22.06426239013672,0.12649315000727407
108,2007-07-01,38.1349983215332,23.17351722717285,0.050273823680233136
109,2007-10-01,37.36999893188477,23.01689147949219,-0.006758825004648149
110,2008-01-01,32.685001373291016,20.419336318969727,-0.11285429932347116
111,2008-04-01,30.684999465942386,19.48041343688965,-0.04598204698787449
112,2008-07-01,30.31999969482422,19.573034286499023,0.004754562828424414
113,2008-10-01,24.790000915527344,16.276350021362305,-0.16842990294104204
114,2009-01-01,18.790000915527344,12.614227294921875,-0.2249965576824033
115,2009-04-01,22.024999618530273,15.25634765625,0.20945558531292413
116,2009-07-01,27.5,19.498798370361328,0.2780777424387902
117,2009-10-01,28.21500015258789,20.38410758972168,0.04540327062954014
118,2010-01-01,29.34000015258789,21.5908317565918,0.05919926401284252
119,2010-04-01,35.185001373291016,26.355506896972656,0.22068048114571473
120,2010-07-01,34.735000610351555,26.441686630249023,0.00326989473635456
121,2010-10-01,38.349998474121094,29.657960891723636,0.1216365017273606
122,2011-01-01,42.13999938964844,33.04520797729492,0.11421038344266386
123,2011-04-01,47.334999084472656,37.58699035644531,0.13744148265827258
124,2011-07-01,42.099998474121094,33.857784271240234,-0.0992153415274869
125,2011-10-01,43.20500183105469,35.26262283325195,0.0414923360240389
126,2012-01-01,44.790000915527344,37.03111267089844,0.05015196532626704
127,2012-04-01,52.61999893188477,44.05963134765625,0.18980036433745345
128,2012-07-01,54.72999954223633,46.33786010742188,0.05170784888754686
129,2012-10-01,58.540000915527344,50.09368896484375,0.08105313557240208
130,2013-01-01,68.93499755859375,59.559364318847656,0.18895943879571359
131,2013-04-01,73.56999969482422,64.12152099609375,0.07659847833201927
132,2013-07-01,80.22000122070312,70.47865295410156,0.0991419395431229
133,2013-10-01,91.29000091552734,80.81643676757812,0.14667964525668403
134,2014-01-01,91.18000030517578,81.25984954833984,0.005486665813254548
135,2014-04-01,96.80999755859376,86.84513854980469,0.0687336862239976
136,2014-07-01,99.18000030517578,89.57514190673828,0.031435304295910224
137,2014-10-01,101.84500122070312,92.60599517822266,0.033835874629592734
138,2015-01-01,111.44000244140624,101.9964599609375,0.1014023418747636
139,2015-04-01,110.77999877929688,101.97176361083984,-0.00024212948279885824
140,2015-07-01,108.37999725341795,100.41376495361328,-0.015278726208682964
141,2015-10-01,104.26000213623048,96.92395782470705,-0.03475427029868238
142,2016-01-01,95.12000274658205,88.73660278320312,-0.0844719430082628
143,2016-04-01,110.38999938964844,103.37936401367188,0.16501376851492974
144,2016-07-01,104.70999908447266,98.42268371582031,-0.04794651568175679
145,2016-10-01,93.12999725341795,87.87459564208984,-0.10717131128212658
146,2017-01-01,100.01000213623048,94.76811981201172,0.07844729320859646
147,2017-04-01,109.83999633789062,104.4944076538086,0.10263248718124386
148,2017-07-01,105.25,100.49137115478516,-0.038308619464933975
149,2017-10-01,116.23999786376952,111.46153259277344,0.1091652080365301
150,2018-01-01,118.7300033569336,114.29209899902344,0.025395007052267275
151,2018-04-01,105.87999725341795,102.3182373046875,-0.1047654369742413
152,2018-07-01,110.66000366210938,107.39044189453124,0.04957283005901982
153,2018-10-01,105.08999633789062,102.43505096435548,-0.04614368693111879
154,2019-01-01,105.44000244140624,103.2286148071289,0.007746995147682029
155,2019-04-01,117.5,115.5410385131836,0.11927335970805257
156,2019-07-01,117.38999938964844,115.92088317871094,0.003287530304516021
157,2019-10-01,125.12000274658205,124.09671020507812,0.07052937143139962
158,2020-01-01,119.83999633789062,119.32862854003906,-0.03842230512927771
