,Date,Close,Adj Close,RoR
0,1983-10-01,0.5560128092765808,0.1295277625322342,-0.32142854354844086
1,1984-01-01,0.5560128092765808,0.1295277625322342,0.0
2,1984-04-01,0.43895748257637024,0.10225876420736313,-0.21052628248777877
3,1984-07-01,0.39506173133850103,0.09203292429447174,-0.09999964298566281
4,1984-10-01,0.4755372703075409,0.11078037321567537,0.20370371869548162
5,1985-01-01,0.5267489552497864,0.1227104663848877,0.10769139715738225
6,1985-04-01,0.5486968159675598,0.13240592181682587,0.07901082701069587
7,1985-07-01,0.5852766633033752,0.14123302698135376,0.06666699678840318
8,1985-10-01,0.570644736289978,0.14059863984584808,-0.004491776102691837
9,1986-01-01,0.8486511111259459,0.227627232670784,0.6189860223424195
10,1986-04-01,0.9876543283462524,0.2649109363555908,0.16379280830044635
11,1986-07-01,0.7608596086502075,0.20860549807548526,-0.21254478601263402
12,1986-10-01,0.7754915356636047,0.2126171737909317,0.019230920337462983
13,1987-01-01,0.9364426136016846,0.26056966185569763,0.22553440632184316
14,1987-04-01,1.2217649221420288,0.3494280576705933,0.34101589257196446
15,1987-07-01,0.9949702620506288,0.287554532289505,-0.1770708562831455
16,1987-10-01,0.6438043117523193,0.18811462819576266,-0.3458123344535844
17,1988-01-01,0.6218564510345459,0.18170155584812164,-0.03409130065614682
18,1988-04-01,0.6072245240211487,0.18434390425682068,0.014542244266238907
19,1988-07-01,0.5852766633033752,0.1811534017324448,-0.01730733943841726
20,1988-10-01,0.6291723847389221,0.1989039182662964,0.097986106604105
21,1989-01-01,0.7681756019592285,0.25014838576316833,0.25763427861820637
22,1989-04-01,0.8120713233947754,0.2694020569324493,0.07696900026174723
23,1989-07-01,1.0827617645263672,0.36525994539260864,0.3558172107208337
24,1989-10-01,0.9437585473060608,0.32274410128593445,-0.11639886782815727
25,1990-01-01,0.8852308988571167,0.30272889137268066,-0.06201572649509511
26,1990-04-01,1.0754457712173462,0.3812817633152008,0.2594825739503535
27,1990-07-01,1.1559213399887085,0.4160334169864655,0.09114428492226614
28,1990-10-01,0.8705989718437195,0.3187790811061859,-0.23376568301830306
29,1991-01-01,1.1559213399887085,0.4330315589904785,0.3584064471477502
30,1991-04-01,1.8875170946121216,0.7193488478660583,0.661192661207114
31,1991-07-01,1.986282587051392,0.7671835422515869,0.06649721415058875
32,1991-10-01,2.534979343414306,0.9923703670501708,0.2935240557138243
33,1992-01-01,3.1385459899902344,1.2286491394042969,0.23809535250076713
34,1992-04-01,3.0452675819396973,1.223388433456421,-0.004281699127243598
35,1992-07-01,2.7489712238311768,1.1206586360931396,-0.08397152903680828
36,1992-10-01,2.518518447875977,1.0428476333618164,-0.06943327809669977
37,1993-01-01,3.3415637016296387,1.3836472034454346,0.3267970882620564
38,1993-04-01,3.012345790863037,1.2917301654815674,-0.06643097874587077
39,1993-07-01,2.9465019702911377,1.2853426933288574,-0.004944896638167972
40,1993-10-01,3.555555582046509,1.577562689781189,0.2273479267194671
41,1994-01-01,3.4814815521240234,1.5446977615356443,-0.020832724086611788
42,1994-04-01,2.9382715225219727,1.3717162609100342,-0.11198404304907031
43,1994-07-01,2.6666667461395264,1.2794594764709473,-0.06725646335772183
44,1994-10-01,2.962962865829468,1.4604018926620483,0.1414209824684586
45,1995-01-01,3.012345790863037,1.484741449356079,0.016666341516213837
46,1995-04-01,3.4567902088165283,1.808327555656433,0.2179410472043404
47,1995-07-01,4.296296119689941,2.3035378456115723,0.2738498832283596
48,1995-10-01,4.246913433074951,2.3247227668762207,0.009196689042903047
49,1996-01-01,4.345678806304932,2.425280332565308,0.04325572370257667
50,1996-04-01,4.469135761260986,2.6080870628356934,0.07537550518006465
51,1996-07-01,4.123456954956056,2.4570038318634038,-0.05792875288757478
52,1996-10-01,4.814815044403076,2.9885621070861816,0.21634409695634926
53,1997-01-01,6.370370388031006,4.035340309143066,0.35026148513857824
54,1997-04-01,6.925925731658936,4.467062473297119,0.10698531749004635
55,1997-07-01,8.574073791503906,5.584161758422852,0.25007469490374207
56,1997-10-01,8.88888931274414,5.83768892288208,0.04540111397683308
57,1998-01-01,10.259259223937988,6.792475700378418,0.16355561080924427
58,1998-04-01,14.472222328186035,9.657721519470217,0.4218264364099487
59,1998-07-01,11.38888931274414,7.634457588195801,-0.2094970254832326
60,1998-10-01,10.19444465637207,6.88193941116333,-0.09856864987972357
61,1999-01-01,8.472222328186035,5.758007049560548,-0.163316224461324
62,1999-04-01,9.583333015441896,6.568309307098389,0.14072616628694182
63,1999-07-01,9.527777671813963,6.57912540435791,0.001646709488518225
64,1999-10-01,9.0,6.264631271362305,-0.047801814628322704
65,2000-01-01,8.44444465637207,5.9342899322509775,-0.05273117040765454
66,2000-04-01,8.94444465637207,6.338930606842041,0.06818687310708738
67,2000-07-01,11.11111068725586,7.936141967773437,0.2519685827144749
68,2000-10-01,15.027777671813965,10.792088508605957,0.35986585830114437
69,2001-01-01,17.102222442626953,12.358247756958008,0.14512105299202702
70,2001-04-01,13.48888874053955,9.866559028625488,-0.2016215225115256
71,2001-07-01,13.288888931274414,9.789801597595217,-0.007779554230363202
72,2001-10-01,12.991110801696776,9.642348289489746,-0.015061930176571833
73,2002-01-01,14.897777557373047,11.123796463012695,0.15363977000682938
74,2002-04-01,14.862222671508787,11.16064453125,0.003312544270279196
75,2002-07-01,12.088889122009276,9.138654708862305,-0.18117142040731504
76,2002-10-01,13.911110877990724,10.59745979309082,0.1596301786972895
77,2003-01-01,11.333333015441895,8.689967155456543,-0.1799952700814111
78,2003-04-01,12.74666690826416,9.847517013549805,0.1332053202717137
79,2003-07-01,15.44444465637207,12.00572681427002,0.2191628405161018
80,2003-10-01,18.128889083862305,14.170971870422365,0.18035101828060363
81,2004-01-01,16.906665802001953,13.286553382873535,-0.06241057392787484
82,2004-04-01,16.746665954589847,13.215703964233398,-0.00533241515677513
83,2004-07-01,15.579999923706055,12.344228744506836,-0.0659423986860706
84,2004-10-01,17.399999618530273,13.84688663482666,0.12172958889703861
85,2005-01-01,20.780000686645508,16.601072311401367,0.1989028833129596
86,2005-04-01,17.979999542236328,14.419405937194824,-0.13141719602704263
87,2005-07-01,19.899999618530273,16.027715682983402,0.1115378645135405
88,2005-10-01,22.68666648864746,18.341869354248047,0.144384497269413
89,2006-01-01,28.373332977294922,23.047956466674805,0.25657619850709545
90,2006-04-01,30.35000038146973,24.721820831298828,0.07262528315880304
91,2006-07-01,29.059999465942386,23.73664093017578,-0.0398506205447363
92,2006-10-01,31.86000061035156,26.09558486938477,0.09937985522669819
93,2007-01-01,31.920000076293945,26.229990005493164,0.005150493341349802
94,2007-04-01,30.68000030517578,25.29583168029785,-0.03561413195352641
95,2007-07-01,30.670000076293945,25.368078231811523,0.00285606547461108
96,2007-10-01,37.25,30.90346908569336,0.21820300313251423
97,2008-01-01,28.09000015258789,23.30412483215332,-0.2459058635930982
98,2008-04-01,28.770000457763672,24.06492805480957,0.03264671933127262
99,2008-07-01,28.899999618530273,24.27161026000977,0.008588523710915136
100,2008-10-01,23.290000915527344,19.630983352661133,-0.19119567501438484
101,2009-01-01,18.51000022888184,15.706663131713867,-0.19990441387722402
102,2009-04-01,15.6899995803833,13.388545989990234,-0.14758813646693944
103,2009-07-01,20.520000457763672,17.625333786010742,0.31644868674971016
104,2009-10-01,23.61000061035156,20.37404441833496,0.15595225972434493
105,2010-01-01,25.309999465942386,21.941570281982425,0.0769373930605953
106,2010-04-01,30.63999938964844,26.66940498352051,0.2154738535473189
107,2010-07-01,26.68000030517578,23.318613052368164,-0.12564179565396602
108,2010-10-01,28.21999931335449,24.77190589904785,0.06232329699094585
109,2011-01-01,36.22000122070313,31.91990089416504,0.2885524845866596
110,2011-04-01,37.5,33.16311264038086,0.038947857336332756
111,2011-07-01,31.76000022888184,28.203899383544922,-0.14954004199223997
112,2011-10-01,30.3700008392334,27.10346031188965,-0.03901726696335137
113,2012-01-01,35.0,31.36794662475586,0.15734102818581736
114,2012-04-01,36.61999893188477,32.935577392578125,0.04997556220607305
115,2012-07-01,33.61999893188477,30.35660743713379,-0.07830346875975809
116,2012-10-01,38.13999938964844,34.56058883666992,0.1384865356987686
117,2013-01-01,44.63000106811523,40.59015274047852,0.17446357561509587
118,2013-04-01,41.41999816894531,37.78570938110352,-0.06909171732626346
119,2013-07-01,44.06999969482422,40.33597183227539,0.06749277684455075
120,2013-10-01,45.6500015258789,41.92061996459961,0.039286226669174744
121,2014-01-01,50.90999984741211,46.89546203613281,0.1186729126557353
122,2014-04-01,49.70000076293945,45.918495178222656,-0.020832865601311406
123,2014-07-01,50.95000076293945,47.22300338745117,0.02840921080199494
124,2014-10-01,56.13000106811523,52.17621231079102,0.1048897479624537
125,2015-01-01,52.61999893188477,49.06654739379883,-0.05959928441085896
126,2015-04-01,56.52999877929688,52.87973022460938,0.07771451290849282
127,2015-07-01,59.0,55.35335540771485,0.04677832456025434
128,2015-10-01,55.11000061035156,51.89615249633789,-0.062456970962506714
129,2016-01-01,43.810001373291016,41.39512252807617,-0.2023469845669722
130,2016-04-01,52.16999816894531,49.50173950195313,0.19583507618267493
131,2016-07-01,54.9000015258789,52.31335067749024,0.05679822979606959
132,2016-10-01,60.11999893188477,57.487083435058594,0.09889889847553854
133,2017-01-01,74.93000030517578,71.87398529052734,0.2502632068944878
134,2017-04-01,74.5199966430664,71.69117736816406,-0.002543450479674104
135,2017-07-01,83.19000244140625,80.25080871582031,0.11939588191862127
136,2017-10-01,84.77999877929688,81.99793243408203,0.021770792671367785
137,2018-01-01,96.38999938964844,93.22695922851562,0.13694280405741432
138,2018-04-01,89.75,87.29723358154297,-0.06360526714636117
139,2018-07-01,91.58999633789062,89.38314819335938,0.023894395346079168
140,2018-10-01,76.69000244140625,75.08502197265625,-0.1599644509026746
141,2019-01-01,80.5,78.81527709960938,0.049680415999765894
142,2019-04-01,91.56999969482422,90.44984436035156,0.1476181736446607
143,2019-07-01,80.66999816894531,80.01293182373047,-0.11538894964860863
144,2019-10-01,83.48999786376953,83.14703369140625,0.03916994161119166
145,2020-01-01,91.43000030517578,91.43000030517578,0.0996183056212338
