,Date,Close,Adj Close,RoR
0,1980-07-01,0.3794445991516113,0.0011769554112106562,0.2666659942834483
1,1980-10-01,0.4643203616142273,0.0014402215601876376,0.22368404654019727
2,1981-01-01,0.4809626638889313,0.00149184325709939,0.03584288580225599
3,1981-04-01,0.5358822941780089,0.0016621924005448818,0.11418702510121861
4,1981-07-01,0.4859553575515747,0.0015073290560394526,-0.09316812208662707
5,1981-10-01,0.4593276679515839,0.0014247368089854715,-0.054793773611048396
6,1982-01-01,0.43269997835159296,0.0013421421172097323,-0.057971894356090466
7,1982-04-01,0.4060722887516022,0.0012595495209097862,-0.06153789173359173
8,1982-07-01,0.3162038326263428,0.0009807968745008109,-0.2213113829836792
9,1982-10-01,0.3528169095516205,0.001094362698495388,0.11578934124599237
10,1983-01-01,0.4127292037010193,0.0012801975244656205,0.1698110016228917
11,1983-04-01,0.3794445991516113,0.0011769554112106562,-0.08064545609714378
12,1983-07-01,0.4127292037010193,0.0012801975244656205,0.08771964704148479
13,1983-10-01,0.4526707231998444,0.0014040874084457755,0.09677403807812318
14,1984-01-01,0.5258969068527222,0.001631219289265573,0.16176477294331432
15,1984-04-01,0.5059261322021484,0.00156927399802953,-0.03797483982912728
16,1984-07-01,0.4609053432941437,0.0014296302106231449,-0.08898623668124869
17,1984-10-01,0.5340649485588074,0.001656554872170091,0.1587296210311857
18,1985-01-01,0.6364883184432983,0.0019742506556212898,0.19178102022966292
19,1985-04-01,0.6218564510345459,0.0021841186098754406,0.10630258810176568
20,1985-07-01,0.6950160264968872,0.0027857942041009665,0.27547752741314685
21,1985-10-01,0.6950160264968872,0.0031207341235131025,0.12023139358932945
22,1986-01-01,0.7608596086502075,0.0038417289033532147,0.23103370915445595
23,1986-04-01,0.8779149651527405,0.004921070765703917,0.28095211544172466
24,1986-07-01,0.9437585473060608,0.005825378932058811,0.18376247963293416
25,1986-10-01,0.9364426136016846,0.0063200751319527635,0.08492086191534948
26,1987-01-01,1.009602189064026,0.007450220175087452,0.17881829243151712
27,1987-04-01,1.0242340564727783,0.008218956179916859,0.10318299147721272
28,1987-07-01,1.1705533266067505,0.010225308127701284,0.24411274422985443
29,1987-10-01,0.9949702620506288,0.009367014281451702,-0.08393818900424002
30,1988-01-01,0.9291266798973083,0.009601881727576256,0.025073885772719656
31,1988-04-01,0.9144947528839112,0.010398540645837784,0.08296904095095782
32,1988-07-01,1.009602189064026,0.012693696655333042,0.22071904968837514
33,1988-10-01,1.0754457712173462,0.014792440459132196,0.16533747896972176
34,1989-01-01,1.0242340564727783,0.015352049842476843,0.03783076801226324
35,1989-04-01,1.0681298971176147,0.017514780163764954,0.14087567090253686
36,1989-07-01,1.0388660430908203,0.018604429438710213,0.0622131288407236
37,1989-10-01,1.009602189064026,0.019784444943070408,0.06342658925647775
38,1990-01-01,1.0169181823730469,0.021865326911211014,0.1051776774192214
39,1990-04-01,1.0827617645263672,0.02561955340206623,0.17169770688085673
40,1990-07-01,1.0534979104995728,0.0273732952773571,0.06845325707939275
41,1990-10-01,1.009602189064026,0.02871183305978775,0.04889940246024647
42,1991-01-01,1.2144490480422974,0.03809038922190666,0.3266442843474878
43,1991-04-01,1.411979913711548,0.04802607372403145,0.26084491928506065
44,1991-07-01,1.4924553632736206,0.05450206249952316,0.13484318565586254
45,1991-10-01,1.3827160596847534,0.05399909615516663,-0.009228391023934744
46,1992-01-01,1.6753543615341189,0.07035594433546066,0.30290966599315955
47,1992-04-01,1.704618215560913,0.07611943781375885,0.08191906928030931
48,1992-07-01,1.711934208869934,0.08115795999765396,0.0661923199724996
49,1992-10-01,1.9606766700744631,0.09870511293411256,0.21620988177827336
50,1993-01-01,2.238683223724365,0.1187254637479782,0.20282992662426289
51,1993-04-01,1.986282587051392,0.11083029210567474,-0.0664993961115431
52,1993-07-01,2.172839403152466,0.12841419875621796,0.15865614279692836
53,1993-10-01,2.106995820999145,0.1310812085866928,0.02076880793795954
54,1994-01-01,2.5020575523376465,0.16465847194194794,0.25615619292255937
55,1994-04-01,2.447187900543213,0.16957060992717746,0.02983228210062186
56,1994-07-01,2.106995820999145,0.15394596755504608,-0.09214239648510682
57,1994-10-01,2.052126169204712,0.15925516188144684,0.03448738807986225
58,1995-01-01,2.1399176120758057,0.17695294320583346,0.11112846274685435
59,1995-04-01,2.4691357612609863,0.2180824279785156,0.23243176421677203
60,1995-07-01,2.117969751358032,0.198149636387825,-0.09140026445713574
61,1995-10-01,1.8436213731765747,0.1848926693201065,-0.06690381728367915
62,1996-01-01,1.9094650745391848,0.2078591287136078,0.12421508909982376
63,1996-04-01,1.9753086566925049,0.2316212803125381,0.11431853749214085
64,1996-07-01,1.8436213731765747,0.2330196350812912,0.006037246520985627
65,1996-10-01,1.6790122985839844,0.2297797501087189,-0.013903914026137896
66,1997-01-01,1.7229081392288208,0.2573816180229187,0.12012315228448174
67,1997-04-01,1.6899862289428709,0.2768929004669189,0.075806821768689
68,1997-07-01,1.7887517213821411,0.3208445906639099,0.1587317339046114
69,1997-10-01,1.8765431642532349,0.36651453375816345,0.142342880083316
70,1998-01-01,1.7942386865615845,0.38139262795448303,0.04059346308524988
71,1998-04-01,1.7503429651260376,0.4061352014541626,0.0648742835759071
72,1998-07-01,1.7942386865615845,0.4552286267280578,0.12087951277829831
73,1998-10-01,1.5144033432006836,0.4198948740959168,-0.07761759818599567
74,1999-01-01,1.4650205373764038,0.4198527932167053,-0.00010021765400705686
75,1999-04-01,1.481481432914734,0.44054844975471497,0.04929264940563981
76,1999-07-01,1.497942328453064,0.4611668884754181,0.046801750709105645
77,1999-10-01,1.37722909450531,0.4395111501216888,-0.04695857160370184
78,2000-01-01,1.36076819896698,0.4500774443149567,0.024041015092205083
79,2000-04-01,1.26200270652771,0.4331190586090088,-0.03767881710170913
80,2000-07-01,1.3278464078903198,0.4748436808586121,0.09633522566198029
81,2000-10-01,1.5857338905334473,0.5899175405502319,0.24234050979375638
82,2001-01-01,1.5495198965072632,0.5951269268989563,0.008830702582373513
83,2001-04-01,1.6381893157958984,0.6492584347724915,0.09095792078439409
84,2001-07-01,1.7338820695877075,0.7082829475402832,0.09091065992615822
85,2001-10-01,1.4266117811203003,0.6000686883926392,-0.15278393970015694
86,2002-01-01,1.761097431182861,0.7664276957511902,0.27723327441757534
87,2002-04-01,1.773388147354126,0.7950583100318909,0.03735592338249113
88,2002-07-01,1.7909464836120603,0.8263201713562012,0.039320212027035284
89,2002-10-01,2.0762689113616943,0.9869242310523988,0.1943605702286144
90,2003-01-01,2.5714128017425537,1.2511026859283447,0.26767855785062783
91,2003-04-01,3.189465045928955,1.5971437692642212,0.2765888741411395
92,2003-07-01,2.466501951217652,1.2547261714935305,-0.21439372231870965
93,2003-10-01,2.67588472366333,1.3926836252212524,0.10995024799993444
94,2004-01-01,3.3316872119903564,1.7648071050643919,0.26719886204163634
95,2004-04-01,3.127572059631348,1.68867826461792,-0.04313720192309304
96,2004-07-01,3.048559665679932,1.6781983375549316,-0.006205993931804096
97,2004-10-01,3.469958782196045,1.9489150047302248,0.16131386923533522
98,2005-01-01,3.265843629837036,1.8660947084426882,-0.04249559169410822
99,2005-04-01,3.899259328842163,2.2800734043121342,0.22184227520527272
100,2005-07-01,4.126419544219972,2.44413423538208,0.07195418829923182
101,2005-10-01,3.757036924362183,2.2540147304534908,-0.07778603244304576
102,2006-01-01,4.244938373565674,2.58015251159668,0.1446919475444479
103,2006-04-01,4.0,2.4690515995025635,-0.04305982363242702
104,2006-07-01,4.173827171325684,2.617762327194214,0.06022989868725746
105,2006-10-01,4.2745680809021005,2.7216815948486333,0.039697747413839045
106,2007-01-01,4.3101234436035165,2.784531354904175,0.023092253030074575
107,2007-04-01,4.557036876678467,2.995370626449585,0.07571804539894142
108,2007-07-01,4.701234340667725,3.1416125297546387,0.04882264051523879
109,2007-10-01,5.999012470245361,4.067489147186278,0.29471381612548864
110,2008-01-01,5.241481304168701,3.5981605052948,-0.11538534582597247
111,2008-04-01,4.71999979019165,3.278212070465088,-0.08892000075007725
112,2008-07-01,5.060740947723389,3.5614130496978764,0.08638885256517591
113,2008-10-01,5.205925941467285,3.7096972465515137,0.04163633781996069
114,2009-01-01,4.622222423553467,3.3372905254364014,-0.10038736219277644
115,2009-04-01,5.333333492279053,3.904283761978149,0.16989627730046206
116,2009-07-01,5.4311113357543945,4.031497001647948,0.03258299022951788
117,2009-10-01,5.35703706741333,4.028317451477052,-0.0007886773001683895
118,2010-01-01,5.831110954284668,4.44094181060791,0.10243094396137094
119,2010-04-01,6.44444465637207,4.98599910736084,0.1227346180152534
120,2010-07-01,6.471111297607423,5.076951503753662,0.018241558900110727
121,2010-10-01,7.718518733978271,6.14094352722168,0.2095730129943828
122,2011-01-01,8.439999580383299,6.7915358543396,0.10594338219102051
123,2011-04-01,9.31999969482422,7.5609169006347665,0.11328528079602998
124,2011-07-01,8.484444618225098,6.937728404998778,-0.0824223442508235
125,2011-10-01,9.68000030517578,7.9841246604919425,0.15082692697212155
126,2012-01-01,9.506667137145996,7.897931575775146,-0.010795558484113909
127,2012-04-01,9.44444465637207,7.91217565536499,0.0018035202575741038
128,2012-07-01,10.479999542236328,8.855225563049316,0.1191897082119094
129,2012-10-01,10.075555801391602,8.578007698059082,-0.03130556788378113
130,2013-01-01,10.986666679382324,9.426240921020508,0.09888464231074924
131,2013-04-01,10.80888843536377,9.349320411682127,-0.008160252849770476
132,2013-07-01,11.333333015441895,9.884780883789062,0.05727266245339809
133,2013-10-01,12.284444808959961,10.800705909729004,0.09266012435764245
134,2014-01-01,12.80888843536377,11.346624374389648,0.050544702283662306
135,2014-04-01,13.368888854980467,11.945395469665527,0.052770857262831324
136,2014-07-01,12.58222198486328,11.332242012023926,-0.051329690942310005
137,2014-10-01,14.164443969726562,12.86357307434082,0.13513045879995292
138,2015-01-01,14.688888549804688,13.438356399536133,0.044683022506541534
139,2015-04-01,16.533332824707028,15.247647285461426,0.134636322488645
140,2015-07-01,19.33333396911621,17.917423248291016,0.17509428916126693
141,2015-10-01,17.8799991607666,16.63665771484375,-0.07148156940309074
142,2016-01-01,18.36666679382324,17.167333602905273,0.031897986792625885
143,2016-04-01,17.913333892822266,16.840019226074222,-0.019066116171684275
144,2016-07-01,18.786666870117188,17.759572982788086,0.05460526762879663
145,2016-10-01,20.546667098999023,19.529226303100586,0.09964503775105302
146,2017-01-01,23.50666618347168,22.452312469482425,0.1496775202977576
147,2017-04-01,25.886667251586914,24.844741821289066,0.10655603315063748
148,2017-07-01,28.940000534057614,27.89547920227051,0.12279207419122048
149,2017-10-01,29.273332595825195,28.32748603820801,0.015486625370548839
150,2018-01-01,32.893333435058594,31.95235252380371,0.12796287255093844
151,2018-04-01,32.346668243408196,31.56044769287109,-0.012265288780870246
152,2018-07-01,36.62666702270508,35.887413024902344,0.13710088570792464
153,2018-10-01,39.46666717529297,38.81500625610352,0.08157715991313491
154,2019-01-01,37.2400016784668,36.75053405761719,-0.053187475608398344
155,2019-04-01,38.66999816894531,38.26857376098633,0.041306602537780006
156,2019-07-01,33.529998779296875,33.277061462402344,-0.13043371644209753
157,2019-10-01,38.11000061035156,37.944278717041016,0.14025328708521534
158,2020-01-01,37.95000076293945,37.83421325683594,-0.0029007129381971104
