,Date,Close,Adj Close,RoR
0,1980-07-01,0.373046875,-0.5955482721328735,0.5158731272504421
1,1980-10-01,0.4296875,-0.6859719753265381,0.15183270177214114
2,1981-01-01,0.47265625,-0.7545690536499023,0.09999982621842606
3,1981-04-01,0.50390625,-0.8044579029083252,0.06611568420028235
4,1981-07-01,0.4921875,-0.7857494950294495,-0.023255919062066463
5,1981-10-01,0.35546875,-0.5674859881401062,-0.27777747013526605
6,1982-01-01,0.404296875,-0.6454371213912964,0.13736221665431655
7,1982-04-01,0.453125,-0.7233883142471313,0.12077271398305124
8,1982-07-01,0.328125,-0.5238332748413086,-0.2758615745866869
9,1982-10-01,0.390625,-0.6236109733581543,0.1904760604355892
10,1983-01-01,0.50390625,-0.8044579029083252,0.2899995947414259
11,1983-04-01,0.55859375,-0.8917631506919861,0.10852680726739043
12,1983-07-01,0.68359375,-1.091318964958191,0.22377669912841147
13,1983-10-01,0.7265625,-1.1599158048629759,0.06285682014828077
14,1984-01-01,0.7421875,-1.184860348701477,0.021505478013076965
15,1984-04-01,0.75390625,-1.388486623764038,0.17185677222275267
16,1984-07-01,0.703125,-1.5144079923629759,0.09068965191582362
17,1984-10-01,0.84375,-2.055378198623657,0.35721563078691165
18,1985-01-01,0.80078125,-2.240370512008667,0.09000402627063313
19,1985-04-01,0.7734375,-2.4642767906188965,0.09994162903415472
20,1985-07-01,0.94140625,-3.420423984527588,0.3880031648833399
21,1985-10-01,0.9609375,-3.946898460388184,0.15392082333714258
22,1986-01-01,1.18359375,-5.454464912414551,0.3819623096860959
23,1986-04-01,1.26171875,-6.377474308013916,0.1692208879185498
24,1986-07-01,1.12890625,-6.278489112854004,-0.015521065296261185
25,1986-10-01,1.18359375,-7.368622779846191,0.17362993666109058
26,1987-01-01,1.421875,-9.782470703125,0.32758467835819843
27,1987-04-01,1.40625,-10.628376007080078,0.08647153971898475
28,1987-07-01,1.546875,-12.846719741821287,0.20871897393011524
29,1987-10-01,0.98046875,-8.89608383178711,-0.30752098507864656
30,1988-01-01,1.19921875,-12.313733100891113,0.38417457993057624
31,1988-04-01,1.37890625,-15.878026962280273,0.28945680665526374
32,1988-07-01,1.359375,-17.485530853271484,0.10124078355641955
33,1988-10-01,1.37890625,-20.00252914428711,0.1439474907646114
34,1989-01-01,1.44921875,-23.63838768005371,0.18176994066797963
35,1989-04-01,1.5703125,-28.68983268737793,0.2136966816728653
36,1989-07-01,2.46875,1.8621509075164795,-1.0649063007026782
37,1989-10-01,2.46875,1.8621509075164795,0.0
38,1990-01-01,2.453125,1.8503644466400144,-0.006329487491529072
39,1990-04-01,2.6875,2.0271518230438232,0.09554192241686674
40,1990-07-01,3.375,2.545725584030152,0.25581397263460814
41,1990-10-01,2.625,1.980008244514465,-0.2222224355462919
42,1991-01-01,3.671875,2.7696547508239746,0.39880970622076656
43,1991-04-01,3.84375,2.899298667907715,0.046808692327146934
44,1991-07-01,4.640625,3.5003695487976074,0.2073159580084437
45,1991-10-01,5.140625,3.8775153160095215,0.10774455724009635
46,1992-01-01,6.078125,4.584661483764648,0.1823709541095699
47,1992-04-01,6.3125,4.761448860168457,0.038560617186209664
48,1992-07-01,6.515625,4.914662837982178,0.032178016043692234
49,1992-10-01,6.0,4.525731563568115,-0.07913691889670843
50,1993-01-01,5.90625,4.455019474029541,-0.015624455084301192
51,1993-04-01,5.90625,4.455019474029541,0.0
52,1993-07-01,6.3125,4.761448860168457,0.06878295098938193
53,1993-10-01,7.46875,5.633596420288086,0.183168524063235
54,1994-01-01,7.71875,5.822166919708253,0.033472489925099026
55,1994-04-01,7.28125,5.492164611816406,-0.05668032408599905
56,1994-07-01,7.875,5.940025806427003,0.08154547910800454
57,1994-10-01,8.53125,6.435027122497559,0.08333319285161574
58,1995-01-01,10.0,7.542888164520264,0.17216105246075836
59,1995-04-01,10.71875,8.085033416748049,0.0718750219283234
60,1995-07-01,12.6875,9.57004165649414,0.1836737293713487
61,1995-10-01,13.1875,9.947183609008787,0.03940860092899613
62,1996-01-01,14.6875,11.078619003295898,0.11374429574843808
63,1996-04-01,17.6875,13.34148406982422,0.2042551572407281
64,1996-07-01,17.375,13.105770111083984,-0.017667746519547566
65,1996-10-01,19.4375,14.661487579345705,0.11870477317055933
66,1997-01-01,21.375,16.1229248046875,0.0996786456648906
67,1997-04-01,23.125,17.442930221557614,0.08187133741927158
68,1997-07-01,23.4375,17.67864227294922,0.013513328804141519
69,1997-10-01,25.78125,19.446514129638672,0.10000043155998144
70,1998-01-01,31.4375,23.712953567504886,0.21939353291928457
71,1998-04-01,31.34375,23.642242431640625,-0.002981962397175212
72,1998-07-01,20.0,15.085776329040527,-0.3619143204093408
73,1998-10-01,17.71875,13.365055084228516,-0.11406249219667779
74,1999-01-01,26.53125,20.012231826782227,0.49735498287603297
75,1999-04-01,30.40625,22.935094833374023,0.14605382507512982
76,1999-07-01,32.125,24.23153305053711,0.056526394444054044
77,1999-10-01,27.6875,20.88437271118164,-0.13813242160017922
78,2000-01-01,28.0625,21.167232513427734,0.01354408897781491
79,2000-04-01,27.8125,20.978656768798828,-0.008908852137816342
80,2000-07-01,25.1875,18.998653411865234,-0.09438179854672185
81,2000-10-01,24.0625,18.15007781982422,-0.044665038813280024
82,2001-01-01,15.914999961853027,12.004507064819336,-0.3385974879012613
83,2001-04-01,19.399999618530273,14.633206367492676,0.21897603029257753
84,2001-07-01,20.600000381469727,15.538350105285645,0.06185546182166366
85,2001-10-01,20.020000457763672,15.100855827331545,-0.028155774261083122
86,2002-01-01,20.76000022888184,15.659042358398438,0.036963900420571676
87,2002-04-01,22.334999084472656,16.847034454345707,0.07586620361302693
88,2002-07-01,7.255000114440918,5.472367286682129,-0.6751732596314286
89,2002-10-01,7.6599998474121085,5.777853488922119,0.055823409913190444
90,2003-01-01,18.86000061035156,14.225892066955565,1.4621413634372822
91,2003-04-01,21.424999237060547,16.160638809204098,0.1360017869629867
92,2003-07-01,23.864999771118164,18.001102447509766,0.11388557470002074
93,2003-10-01,26.614999771118164,20.075403213500977,0.11523187382771466
94,2004-01-01,24.895000457763672,18.778024673461914,-0.06462527931526467
95,2004-04-01,24.540000915527344,18.510250091552734,-0.014259997340807243
96,2004-07-01,23.71999931335449,17.89173126220703,-0.03341493638856711
97,2004-10-01,24.770000457763672,18.68373680114746,0.044266568021474516
98,2005-01-01,25.649999618530273,19.347505569458008,0.03552655313950802
99,2005-04-01,24.21999931335449,18.268875122070312,-0.05575036241831725
100,2005-07-01,26.53000068664551,20.011289596557614,0.09537612265915159
101,2005-10-01,25.15500068664551,18.974145889282227,-0.0518279295430215
102,2006-01-01,27.63500022888184,20.844776153564453,0.09858837784834755
103,2006-04-01,26.92499923706055,20.41691017150879,-0.020526292962013845
104,2006-07-01,23.6200008392334,18.017168045043945,-0.11753698803130432
105,2006-10-01,29.76000022888184,22.83242416381836,0.2672593221496297
106,2007-01-01,32.950000762939446,25.408187866210934,0.1128116613423066
107,2007-04-01,32.900001525878906,25.52827262878418,0.004726223027221095
108,2007-07-01,27.25,21.210723876953125,-0.1691281198150023
109,2007-10-01,24.93000030517578,19.47895622253418,-0.08164585350623639
110,2008-01-01,26.149999618530273,20.520580291748047,0.053474326720282225
111,2008-04-01,25.290000915527344,19.943756103515625,-0.02810954563816017
112,2008-07-01,21.700000762939453,17.201417922973633,-0.13750359592787945
113,2008-10-01,16.920000076293945,13.47783088684082,-0.21646977317839103
114,2009-01-01,13.550000190734865,10.881108283996582,-0.19266621050866334
115,2009-04-01,19.059999465942386,15.483967781066895,0.42301384904329825
116,2009-07-01,18.38999938964844,15.026658058166506,-0.029534401605999645
117,2009-10-01,19.229999542236328,15.817204475402832,0.052609596503507966
118,2010-01-01,19.84000015258789,16.406448364257812,0.03725335218187938
119,2010-04-01,21.5,17.88243865966797,0.08996403503305857
120,2010-07-01,21.6299991607666,18.097698211669922,0.012037483035658289
121,2010-10-01,23.149999618530273,19.493032455444336,0.07710009457858359
122,2011-01-01,26.690000534057614,22.600187301635746,0.15939822874114143
123,2011-04-01,25.770000457763672,21.92732810974121,-0.029772283871551584
124,2011-07-01,21.530000686645508,18.41278076171875,-0.16028160523858465
125,2011-10-01,17.799999237060547,15.332345962524414,-0.1672987279356924
126,2012-01-01,19.93000030517578,17.301584243774414,0.12843685409025118
127,2012-04-01,19.18000030517578,16.759759902954098,-0.031316458261056605
128,2012-07-01,16.200000762939453,14.27009391784668,-0.14855021787445694
129,2012-10-01,16.219999313354492,14.43058967590332,0.011247000824284625
130,2013-01-01,18.71999931335449,16.7838134765625,0.1630719085990416
131,2013-04-01,22.1200008392334,19.95236015319824,0.18878586091655555
132,2013-07-01,27.239999771118164,24.70136833190918,0.23801736447453334
133,2013-10-01,30.18000030517578,27.49260139465332,0.11299912722399395
134,2014-01-01,31.190000534057614,28.52889060974121,0.03769338522070251
135,2014-04-01,34.310001373291016,31.50088310241699,0.10417483572463167
136,2014-07-01,32.11999893188477,29.607065200805664,-0.06011951777523394
137,2014-10-01,36.25,33.53342819213867,0.13261574440772886
138,2015-01-01,40.5,37.5886344909668,0.12093026324635658
139,2015-04-01,45.599998474121094,42.43983840942383,0.12906039243385817
140,2015-07-01,53.16999816894531,49.61725997924805,0.1691199080586146
141,2015-10-01,49.11999893188477,45.9559211730957,-0.07379163637177193
142,2016-01-01,40.52999877929688,38.027828216552734,-0.17251515700623946
143,2016-04-01,47.36000061035156,44.56113052368164,0.17180319291242338
144,2016-07-01,47.18000030517578,44.54523468017578,-0.0003567199332479157
145,2016-10-01,45.63000106811523,43.22864532470703,-0.029556233453960884
146,2017-01-01,48.5,46.10459899902344,0.06652888733186083
147,2017-04-01,44.02000045776367,41.99040985107422,-0.08923598159993461
148,2017-07-01,43.5099983215332,41.653076171875,-0.008033588631204774
149,2017-10-01,44.22999954223633,42.496925354003906,0.02025898828328771
150,2018-01-01,47.349998474121094,45.64895248413086,0.07417071008950017
151,2018-04-01,43.849998474121094,42.4349365234375,-0.07040722263694138
152,2018-07-01,44.06999969482422,42.80070114135742,0.008619421822815835
153,2018-10-01,32.360000610351555,31.55274772644043,-0.26279834476936476
154,2019-01-01,39.5,38.69247817993164,0.2262791981031906
155,2019-04-01,46.61999893188477,45.83019256591797,0.1844729188136726
156,2019-07-01,41.790000915527344,41.23196029663086,-0.10033194302366134
157,2019-10-01,41.77000045776367,41.37941360473633,0.003576189612248861
158,2020-01-01,35.5,35.31841278076172,-0.14647382106161266
