,Date,Close,Adj Close,RoR
0,1973-07-01,0.5859375,0.01556986104696989,-0.06249962848810416
1,1973-10-01,0.546875,0.014531860128045082,-0.06666732065196034
2,1974-01-01,0.4375,0.011625493876636028,-0.19999960265238506
3,1974-04-01,0.5234375,0.01390907447785139,0.19642869588574788
4,1974-07-01,0.4765625,0.012663479894399643,-0.08955265754275848
5,1974-10-01,0.375,0.009964707307517529,-0.21311461062733889
6,1975-01-01,0.4921875,0.013078679330646992,0.3125000993034923
7,1975-04-01,0.734375,0.01951422169804573,0.4920636254394944
8,1975-07-01,0.6484375,0.017230652272701263,-0.1170207790338447
9,1975-10-01,0.8125,0.021590210497379303,0.25301179291888687
10,1976-01-01,0.9140625,0.02428899146616459,0.12500021568168007
11,1976-04-01,0.875,0.023250987753272057,-0.042735562501164684
12,1976-07-01,0.9453125,0.025119371712207798,0.08035718648868187
13,1976-10-01,0.875,0.023250987753272057,-0.07438020267153905
14,1977-01-01,1.046875,0.02781814895570278,0.19642869588574788
15,1977-04-01,1.0703125,0.02844094857573509,0.022388248083078575
16,1977-07-01,1.171875,0.03113972209393978,0.09489041868692101
17,1977-10-01,1.171875,0.03113972209393978,0.0
18,1978-01-01,1.0546875,0.02802574634552002,-0.10000011364988336
19,1978-04-01,1.3359375,0.03549927845597267,0.2666666578050762
20,1978-07-01,1.5546875,0.04131200537085533,0.16374211442330547
21,1978-10-01,1.3359375,0.03549927845597267,-0.1407030925442173
22,1979-01-01,1.7421875,0.046294383704662316,0.30409365255347587
23,1979-04-01,1.65625,0.04401078447699547,-0.04932778114587723
24,1979-07-01,1.5859375,0.04214240238070488,-0.04245282419965033
25,1979-10-01,1.5390625,0.040896840393543236,-0.029556027108030517
26,1980-01-01,1.8828125,0.0500311478972435,0.22334995603089136
27,1980-04-01,1.75,0.04650197550654411,-0.07053950466912691
28,1980-07-01,1.9921875,0.05293750762939453,0.13839266080093224
29,1980-10-01,2.390625,0.06352502107620239,0.20000022518870814
30,1981-01-01,2.6875,0.07141376286745071,0.12418322194313423
31,1981-04-01,2.9375,0.07805688679218292,0.09302302046542965
32,1981-07-01,3.1484375,0.08366202563047409,0.07180838320152554
33,1981-10-01,3.109375,0.08262401074171066,-0.012407240691831018
34,1982-01-01,3.0703125,0.08158605545759201,-0.012562392878304886
35,1982-04-01,3.2109375,0.08532280474901201,0.04580132316070041
36,1982-07-01,3.140625,0.08345445990562439,-0.021897367871152314
37,1982-10-01,4.09375,0.10878145694732666,0.3034828464571414
38,1983-01-01,4.6875,0.12455888837575912,0.14503787567463905
39,1983-04-01,6.109375,0.16234175860881805,0.30333339294967565
40,1983-07-01,5.5,0.14614909887313846,-0.09974426712166988
41,1983-10-01,5.5,0.14614909887313846,0.0
42,1984-01-01,4.96875,0.1320323944091797,-0.09659111532540113
43,1984-04-01,5.0,0.13286276161670685,0.00628911723704549
44,1984-07-01,5.5,0.14614909887313846,0.10000045983359204
45,1984-10-01,5.109375,0.13576920330524445,-0.07102264501065485
46,1985-01-01,5.625,0.14947064220905304,0.10091713415305384
47,1985-04-01,5.640625,0.14988592267036438,0.00277834131956508
48,1985-07-01,5.890625,0.15652897953987122,0.04432075241726693
49,1985-10-01,5.40625,0.14476534724235535,-0.07515306323529328
50,1986-01-01,6.109375,0.16486845910549164,0.13886687833850983
51,1986-04-01,6.703125,0.19155177474021912,0.16184609099581668
52,1986-07-01,7.109375,0.2147408425807953,0.12105900805160896
53,1986-10-01,7.03125,0.22354449331760406,0.04099662938360896
54,1987-01-01,8.03125,0.2688169777393341,0.20252113460656132
55,1987-04-01,7.65625,0.2688556611537933,0.00014390242307047831
56,1987-07-01,9.546875,0.3547466397285461,0.3194687372627823
57,1987-10-01,6.828125,0.2658550441265106,-0.2505776958734712
58,1988-01-01,6.4375,0.2667980194091797,0.003546952760543976
59,1988-04-01,6.53125,0.28995245695114136,0.08678639216751621
60,1988-07-01,8.15625,0.3907066881656647,0.3474853507845977
61,1988-10-01,8.3125,0.42110708355903625,0.07780874071057986
62,1989-01-01,8.703125,0.4702253341674805,0.11664076080914045
63,1989-04-01,9.34375,0.536701500415802,0.14137087353240013
64,1989-07-01,9.59375,0.5853691697120667,0.09067921229689138
65,1989-10-01,8.0,0.5136479139328003,-0.12252311787200007
66,1990-01-01,7.078125,0.48611781001091,-0.05359722715722356
67,1990-04-01,6.53125,0.4895224273204804,0.007003687664712415
68,1990-07-01,6.90625,0.5617519617080688,0.1475510218866872
69,1990-10-01,5.875,0.5256796479225159,-0.06421395249937557
70,1991-01-01,7.078125,0.695790708065033,0.3236021421312303
71,1991-04-01,7.453125,0.7928444147109985,0.13948692548060634
72,1991-07-01,7.0,0.8028315305709839,0.012596564565099165
73,1991-10-01,6.75,0.8420339822769165,0.04883023425606035
74,1992-01-01,7.34375,0.9991068840026855,0.18653986066100725
75,1992-04-01,8.140625,1.1989463567733765,0.2000181121464015
76,1992-07-01,7.078125,1.120111346244812,-0.06575357611555407
77,1992-10-01,7.46875,1.2808631658554075,0.14351414272296953
78,1993-01-01,7.6875,1.4240463972091677,0.1117865164450546
79,1993-04-01,7.609375,1.526924729347229,0.07224366589437062
80,1993-07-01,8.171875,1.7785294055938718,0.16477870284686896
81,1993-10-01,9.28125,2.1616473197937007,0.21541275224060819
82,1994-01-01,8.65625,2.158027648925781,-0.001674496498469218
83,1994-04-01,8.140625,2.17328143119812,0.007068390564843927
84,1994-07-01,8.6875,2.493596315383911,0.14738766898183217
85,1994-10-01,9.34375,2.874196529388428,0.15263104603437797
86,1995-01-01,8.125,2.6730751991271973,-0.06997480102866366
87,1995-04-01,9.328125,3.2948243618011475,0.23259695906683114
88,1995-07-01,9.609375,3.6274933815002437,0.10096714822068376
89,1995-10-01,10.234375,4.113353252410889,0.13393818259971713
90,1996-01-01,11.125,4.733604907989502,0.1507897857338355
91,1996-04-01,11.03125,4.982407569885254,0.05256092697466498
92,1996-07-01,9.75,4.527577877044678,-0.09128713106283495
93,1996-10-01,11.71875,5.618921756744385,0.2410436461475222
94,1997-01-01,12.4375,6.1377806663513175,0.09234136584730816
95,1997-04-01,12.71875,6.459874629974365,0.052477268434963587
96,1997-07-01,16.953125,8.843649864196777,0.3690126156878484
97,1997-10-01,16.34375,8.730396270751951,-0.01280620503795943
98,1998-01-01,17.453125,9.515128135681152,0.08988502246549364
99,1998-04-01,19.359375,10.776683807373047,0.13258420209404614
100,1998-07-01,20.484375,11.638535499572756,0.07997373845283079
101,1998-10-01,22.484375,13.022994041442873,0.11895470370141845
102,1999-01-01,27.03125,15.93213939666748,0.22338529419324613
103,1999-04-01,27.625,16.55000877380371,0.03878131880175929
104,1999-07-01,25.4375,15.361103057861328,-0.07183716529650727
105,1999-10-01,29.8125,18.14723014831543,0.18137545721550574
106,2000-01-01,28.03125,17.185609817504886,-0.05298992314261296
107,2000-04-01,26.25,16.245695114135742,-0.05469196108547557
108,2000-07-01,29.71875,18.56763458251953,0.14292644617978936
109,2000-10-01,32.09375,20.210468292236328,0.08847835207094391
110,2001-01-01,31.92499923706055,20.279273986816406,0.0034044582037967533
111,2001-04-01,32.389999389648445,20.740964889526367,0.022766638638548255
112,2001-07-01,30.684999465942386,19.794231414794922,-0.04564558494622015
113,2001-10-01,26.290000915527344,17.095739364624027,-0.13632719521273984
114,2002-01-01,32.040000915527344,21.01590919494629,0.2293068317614981
115,2002-04-01,31.9950008392334,21.15191650390625,0.00647163573549636
116,2002-07-01,31.274999618530273,20.841562271118164,-0.014672629439075697
117,2002-10-01,32.25,21.664125442504886,0.03946744302017198
118,2003-01-01,29.61000061035156,20.06009864807129,-0.07404068992725209
119,2003-04-01,29.19499969482422,19.970460891723636,-0.004468460395944816
120,2003-07-01,30.38999938964844,20.976863861083984,0.050394579014319686
121,2003-10-01,33.47499847412109,23.311391830444336,0.11129060973176923
122,2004-01-01,37.5099983215332,26.334917068481445,0.12970161799127025
123,2004-04-01,39.43000030517578,27.90101432800293,0.059468471286581136
124,2004-07-01,37.52999877929688,26.76630401611328,-0.0406691419369221
125,2004-10-01,43.125,31.00349426269531,0.1583031502605382
126,2005-01-01,45.25,32.75529098510742,0.05650320275414721
127,2005-04-01,43.540000915527344,31.74258232116699,-0.030917407035122146
128,2005-07-01,46.0099983215332,33.67148971557617,0.06076718569689035
129,2005-10-01,48.93999862670898,35.93788528442383,0.06730903764555564
130,2006-01-01,51.040000915527344,37.59851455688477,0.046208319140600446
131,2006-04-01,55.65999984741211,41.139198303222656,0.09417084127036446
132,2006-07-01,56.29999923706055,41.76066970825195,0.015106551188689879
133,2006-10-01,64.16999816894531,47.75268173217773,0.14348457689465038
134,2007-01-01,67.08000183105469,50.05560302734375,0.04822600975756759
135,2007-04-01,65.52999877929689,49.04545211791992,-0.02018057616590925
136,2007-07-01,60.5,45.4126205444336,-0.07407071230074316
137,2007-10-01,50.040000915527344,37.71467208862305,-0.16951121436118316
138,2008-01-01,42.7599983215332,32.371505737304695,-0.14167341396374394
139,2008-04-01,40.9900016784668,31.198490142822266,-0.03623605290410245
140,2008-07-01,40.66999816894531,31.12216186523437,-0.0024465375484029562
141,2008-10-01,26.86000061035156,20.6628475189209,-0.3360728728166297
142,2009-01-01,21.989999771118164,17.119049072265625,-0.1715058122270045
143,2009-04-01,30.149999618530273,23.723812103271484,0.3858136630793448
144,2009-07-01,31.35000038146973,24.85004997253418,0.047472887761886656
145,2009-10-01,28.78000068664551,22.98722839355469,-0.07496248824603552
146,2010-01-01,35.45000076293945,28.52177619934082,0.24076620769722468
147,2010-04-01,33.720001220703125,27.311553955078125,-0.04243151744142307
148,2010-07-01,30.690000534057614,25.06472396850586,-0.08226664767108594
149,2010-10-01,37.650001525878906,31.009441375732425,0.23717466087782088
150,2011-01-01,38.97999954223633,32.321826934814446,0.04232212838600427
151,2011-04-01,40.47000122070313,33.774669647216804,0.04494927577368697
152,2011-07-01,41.599998474121094,34.92391967773437,0.034026980649158406
153,2011-10-01,42.5,35.911529541015625,0.028278895163961353
154,2012-01-01,46.0,39.0926399230957,0.08858186835085477
155,2012-04-01,49.16999816894531,42.02096176147461,0.07490724198057729
156,2012-07-01,46.959999084472656,40.36160659790039,-0.039488747853828
157,2012-10-01,55.27999877929688,47.758522033691406,0.18326612985162496
158,2013-01-01,57.52000045776367,52.31969833374024,0.09550497180023994
159,2013-04-01,54.11000061035156,49.52040100097656,-0.05350369787890102
160,2013-07-01,61.86000061035156,56.907958984375,0.14918211149487162
161,2013-10-01,69.68000030517578,64.4024658203125,0.1316952315579485
162,2014-01-01,76.04000091552734,70.54861450195312,0.09543343726603296
163,2014-04-01,73.93000030517578,68.84844970703125,-0.024099194674826765
164,2014-07-01,80.22000122070312,74.98857879638672,0.08918325852627584
165,2014-10-01,90.4800033569336,84.9000015258789,0.13217243063646064
166,2015-01-01,89.44000244140625,84.20214080810547,-0.008219796292473778
167,2015-04-01,104.3000030517578,98.5025405883789,0.169834159120297
168,2015-07-01,101.75,96.39193725585938,-0.021426892341176174
169,2015-10-01,92.63999938964844,88.0628662109375,-0.08640837897897499
170,2016-01-01,85.0199966430664,81.0955581665039,-0.0791174344444429
171,2016-04-01,106.8499984741211,102.32976531982422,0.2618418028484696
172,2016-07-01,122.1999969482422,117.4187469482422,0.14745447310719878
173,2016-10-01,121.8499984741211,117.43106079101562,0.00010487118193188683
174,2017-01-01,120.18000030517578,116.16778564453124,-0.010757589499532472
175,2017-04-01,134.19000244140622,130.11805725097656,0.12008726454623658
176,2017-07-01,153.58999633789062,149.3724822998047,0.14797657954337168
177,2017-10-01,156.47000122070312,152.58692932128906,0.021519673315950363
178,2018-01-01,181.1000061035156,177.0479736328125,0.16030890994613267
179,2018-04-01,188.6000061035156,184.87222290039062,0.04419282021157258
180,2018-07-01,200.44000244140625,196.97105407714844,0.0654442889631758
181,2018-10-01,182.32000732421875,179.6073760986328,-0.08815345005827467
182,2019-01-01,191.6499938964844,189.3321685791016,0.054144727748421266
183,2019-04-01,220.66000366210938,218.6085662841797,0.15462981238101983
184,2019-07-01,244.9499969482422,243.31982421875,0.11303883628442525
185,2019-10-01,257.989990234375,256.84259033203125,0.0555760968375679
186,2020-01-01,293.7300109863281,293.0534973144531,0.14098482239884946
