,Date,Close,Adj Close,RoR
0,1984-04-01,4.958333492279053,0.21387775242328644,-0.03052564716873851
1,1984-07-01,5.0625,0.22373691201210025,0.04609717222622343
2,1984-10-01,5.458333492279053,0.24648955464363095,0.10169373675051074
3,1985-01-01,6.0625,0.2737725377082825,0.11068616316864499
4,1985-04-01,6.270833492279053,0.28891831636428833,0.05532249064420165
5,1985-07-01,6.78125,0.3187360465526581,0.1032047070036691
6,1985-10-01,6.510416507720947,0.311511367559433,-0.02266665183108342
7,1986-01-01,7.114583492279053,0.3470191955566406,0.11398565733057281
8,1986-04-01,7.645833492279053,0.4009644985198975,0.1554533687300071
9,1986-07-01,8.708333015441895,0.4899665117263794,0.22196980913527242
10,1986-10-01,8.9375,0.535799503326416,0.09354311060677539
11,1987-01-01,9.71875,0.6184170842170715,0.15419495609409667
12,1987-04-01,8.958333015441895,0.6038604378700256,-0.02353855790623072
13,1987-07-01,9.46875,0.6785157322883606,0.1236300471706075
14,1987-10-01,9.78125,0.7452413439750671,0.09834055204831861
15,1988-01-01,9.625,0.7735527157783508,0.03798953457449467
16,1988-04-01,8.8125,0.7595128417015076,-0.018149860753466945
17,1988-07-01,9.5,0.8788937926292419,0.1571809512269599
18,1988-10-01,10.40625,1.0270134210586548,0.16852961037113223
19,1989-01-01,10.90625,1.146568775177002,0.11641070278819572
20,1989-04-01,12.03125,1.3476158380508425,0.1753467103120821
21,1989-07-01,14.21875,1.6905881166458132,0.254503003683184
22,1989-10-01,13.875,1.7369848489761353,0.027444137264122502
23,1990-01-01,13.21875,1.7335597276687622,-0.0019718774803314967
24,1990-04-01,13.65625,1.8672387599945068,0.07711244682957194
25,1990-07-01,13.59375,1.9517722129821775,0.045271903518069305
26,1990-10-01,13.625,2.061629056930542,0.05628568908689942
27,1991-01-01,13.0625,2.0799520015716557,0.008887604964393477
28,1991-04-01,13.34375,2.236725330352783,0.0753735320154822
29,1991-07-01,13.5,2.3840949535369877,0.06588632997729808
30,1991-10-01,15.03125,2.80151104927063,0.175083670687853
31,1992-01-01,15.09375,2.9620466232299805,0.05730320928098636
32,1992-04-01,15.59375,3.1988677978515625,0.07995187272350866
33,1992-07-01,16.46875,3.558280229568481,0.11235613799304511
34,1992-10-01,16.6875,3.7811467647552486,0.0626332162753227
35,1993-01-01,17.21875,4.0769100189208975,0.07822051683434021
36,1993-04-01,19.3125,4.760496139526367,0.16767260435794595
37,1993-07-01,20.25,5.1930274963378915,0.09085846183556781
38,1993-10-01,22.125,5.7844557762146,0.11388891745591212
39,1994-01-01,20.9375,5.570144176483153,-0.03704957009312528
40,1994-04-01,20.75,5.622575759887695,0.009412967015450911
41,1994-07-01,21.0,5.803881645202638,0.03224605466562245
42,1994-10-01,20.9375,5.893643379211426,0.015465810555076235
43,1995-01-01,21.3125,6.1152591705322275,0.037602511224636405
44,1995-04-01,22.0625,6.456005096435548,0.05572060257810206
45,1995-07-01,24.0625,7.183804988861084,0.11273223635268889
46,1995-10-01,27.9375,8.491933822631836,0.1820941459016612
47,1996-01-01,28.3125,8.73743724822998,0.028910190626292194
48,1996-04-01,25.0625,7.8441734313964835,-0.10223407521632882
49,1996-07-01,24.4375,7.783099174499513,-0.007785939134456126
50,1996-10-01,24.3125,7.8816184997558585,0.012658109969757787
51,1997-01-01,27.5,9.232160568237305,0.17135339251998566
52,1997-04-01,27.75,9.626269340515137,0.04268868260737792
53,1997-07-01,29.59375,10.265848159790039,0.06644098525095664
54,1997-10-01,31.8125,11.196950912475586,0.09069905751504805
55,1998-01-01,38.875,13.874459266662598,0.2391283462003701
56,1998-04-01,41.4375,14.973817825317385,0.07923613724509711
57,1998-07-01,40.9375,14.872163772583008,-0.0067887865286101225
58,1998-10-01,46.3125,16.92423439025879,0.13798063611018024
59,1999-01-01,54.0,19.831514358520508,0.17178206713652489
60,1999-04-01,55.75,20.565570831298828,0.03701464545308093
61,1999-07-01,57.125,21.174766540527344,0.02962211524424978
62,1999-10-01,52.75,19.73817443847656,-0.06784453086182679
63,2000-01-01,42.875,16.043115615844727,-0.18720367651776748
64,2000-04-01,43.8125,16.483341217041016,0.02744015637221409
65,2000-07-01,42.5625,16.10129737854004,-0.023177572645648275
66,2000-10-01,57.6875,21.94478416442871,0.3629202447795869
67,2001-01-01,48.349998474121094,18.48333549499512,-0.1577344595188322
68,2001-04-01,41.25,15.849589347839355,-0.14249301203610817
69,2001-07-01,45.02999877929688,17.40234375,0.09796811564536331
70,2001-10-01,38.11000061035156,14.8200101852417,-0.14838998711069024
71,2002-01-01,37.45000076293945,14.6454496383667,-0.011778706268962871
72,2002-04-01,31.059999465942386,12.225045204162598,-0.16526665237121607
73,2002-07-01,27.65999984741211,10.966115951538086,-0.10297951717968694
74,2002-10-01,25.65999984741211,10.260583877563477,-0.06433746251567336
75,2003-01-01,24.440000534057614,9.899853706359863,-0.03515688536910765
76,2003-04-01,23.36000061035156,9.547514915466307,-0.03559030278065695
77,2003-07-01,23.36000061035156,9.672225952148438,0.013062146305747847
78,2003-10-01,23.979999542236328,10.036535263061523,0.03766550871696333
79,2004-01-01,25.5,10.80595588684082,0.07666197583254387
80,2004-04-01,24.899999618530273,10.674708366394043,-0.012145850105367057
81,2004-07-01,25.34000015258789,10.998981475830078,0.03037770197609397
82,2004-10-01,25.26000022888184,11.108116149902344,0.00992225273877274
83,2005-01-01,23.76000022888184,10.569923400878906,-0.04845040705017916
84,2005-04-01,23.79999923706055,10.72365951538086,0.01454467631138838
85,2005-07-01,24.45000076293945,11.165327072143556,0.041186271918575636
86,2005-10-01,23.85000038146973,11.039053916931152,-0.011309400467760931
87,2006-01-01,25.95000076293945,12.174920082092285,0.10289524570751464
88,2006-04-01,26.209999084472656,12.462993621826172,0.023661226340007373
89,2006-07-01,29.989999771118164,14.437606811523438,0.15843811283343417
90,2006-10-01,34.25,16.687301635742188,0.15582186532626352
91,2007-01-01,37.63000106811523,18.522336959838867,0.10996597078141473
92,2007-04-01,38.72000122070313,19.26019287109375,0.03983600518955799
93,2007-07-01,39.15999984741211,19.656940460205078,0.02059935701406076
94,2007-10-01,41.790000915527344,21.16050338745117,0.07649018067130085
95,2008-01-01,38.4900016784668,19.655712127685547,-0.07111320710158574
96,2008-04-01,38.709999084472656,19.960777282714844,0.015520432587105568
97,2008-07-01,30.809999465942386,16.051738739013672,-0.19583598816496126
98,2008-10-01,26.770000457763672,14.119757652282715,-0.12035961450302493
99,2009-01-01,24.6200008392334,13.190732955932615,-0.06579607945324088
100,2009-04-01,25.6200008392334,13.928292274475098,0.05591496098105453
101,2009-07-01,26.229999542236328,14.483243942260742,0.03984348237742293
102,2009-10-01,25.670000076293945,14.41697883605957,-0.004575294489642374
103,2010-01-01,25.36000061035156,14.461259841918945,0.0030714483500953677
104,2010-04-01,26.059999465942386,15.083170890808105,0.04300531597436778
105,2010-07-01,25.940000534057614,15.257280349731445,0.011543292864860702
106,2010-10-01,28.520000457763672,17.068450927734375,0.11870861231404255
107,2011-01-01,27.520000457763672,16.709007263183597,-0.021058950579206977
108,2011-04-01,31.1200008392334,19.169723510742188,0.14726884780165841
109,2011-07-01,29.26000022888184,18.280012130737305,-0.04641232198817646
110,2011-10-01,29.309999465942386,18.56361961364746,0.015514622248706202
111,2012-01-01,29.40999984741211,18.91424369812012,0.018887700339156415
112,2012-04-01,32.90999984741211,21.47601318359375,0.135441285750603
113,2012-07-01,37.91999816894531,25.09512710571289,0.16851889087514174
114,2012-10-01,34.59000015258789,23.176456451416016,-0.07645590501353113
115,2013-01-01,34.790000915527344,23.58108329772949,0.01745852939864547
116,2013-04-01,37.459999084472656,25.71786117553711,0.09061406767573571
117,2013-07-01,35.27000045776367,24.50436210632324,-0.047185069587674495
118,2013-10-01,36.20000076293945,25.470386505126953,0.039422548304346036
119,2014-01-01,33.31999969482422,23.75846290588379,-0.06721231336236573
120,2014-04-01,35.70000076293945,25.795000076293945,0.08571838921051611
121,2014-07-01,35.59000015258789,26.053203582763672,0.010009827707153996
122,2014-10-01,34.84000015258789,25.8341007232666,-0.008409824104780143
123,2015-01-01,32.919998168945305,24.73241996765137,-0.04264443989811651
124,2015-04-01,34.639999389648445,26.39383316040039,0.06717552083144536
125,2015-07-01,34.740001678466804,26.850605010986328,0.017306006589116758
126,2015-10-01,33.509998321533196,26.24477767944336,-0.022562893137606597
127,2016-01-01,36.060001373291016,28.646106719970703,0.09149740454491344
128,2016-04-01,38.81999969482422,31.27262115478516,0.0916883561347405
129,2016-07-01,43.290000915527344,35.30599594116211,0.1289746314008535
130,2016-10-01,36.790000915527344,30.34074211120605,-0.1406348609519674
131,2017-01-01,42.15999984741211,35.19276428222656,0.15991771569847216
132,2017-04-01,39.63000106811523,33.465343475341804,-0.04908454456807644
133,2017-07-01,39.0,33.326744079589844,-0.0041415799558156075
134,2017-10-01,33.650001525878906,29.12943458557129,-0.12594418116557313
135,2018-01-01,37.45000076293945,32.826045989990234,0.12690295767875945
136,2018-04-01,32.700000762939446,29.04216194152832,-0.11527078374336487
137,2018-07-01,31.96999931335449,28.79794692993164,-0.008408981813694413
138,2018-10-01,30.68000030517578,28.06533622741699,-0.025439685137873508
139,2019-01-01,30.059999465942386,27.907249450683594,-0.005632812500530819
140,2019-04-01,30.959999084472656,29.219196319580078,0.04701097007839832
141,2019-07-01,34.049999237060554,32.64954376220703,0.11740047211114574
142,2019-10-01,38.4900016784668,37.46479797363281,0.14748304743540103
143,2020-01-01,37.61999893188477,37.12311172485352,-0.009120194616283895
