,Date,Close,Adj Close,RoR
0,1972-10-01,1.8502603769302368,0.836814284324646,0.03625134159185331
1,1973-01-01,1.9505208730697632,0.8832135796546936,0.05544754218374072
2,1973-04-01,1.7786458730697632,0.8063184022903442,-0.08706294732743212
3,1973-07-01,2.2291667461395264,1.0123673677444458,0.2555429280403626
4,1973-10-01,2.5989582538604736,1.1822366714477541,0.16779413196790122
5,1974-01-01,2.3385417461395264,1.066980004310608,-0.09749035021558261
6,1974-04-01,2.0598957538604736,0.9398455023765564,-0.11915359371349706
7,1974-07-01,1.71875,0.786264181137085,-0.1634112424341186
8,1974-10-01,1.5286458730697632,0.7011643052101135,-0.10823318417468937
9,1975-01-01,1.5286458730697632,0.7067214846611023,0.007925645115838412
10,1975-04-01,2.25,1.0402165651321411,0.47189039488584583
11,1975-07-01,2.0286457538604736,0.942615568637848,-0.09382757376286795
12,1975-10-01,2.0286457538604736,0.942615568637848,0.0
13,1976-01-01,2.4192707538604736,1.1301567554473877,0.19895829545925187
14,1976-04-01,2.4192707538604736,1.1324454545974731,0.0020251165504730686
15,1976-07-01,2.4583332538604736,1.1530321836471558,0.018179002764420256
16,1976-10-01,2.1692707538604736,1.0196399688720703,-0.11568819731740061
17,1977-01-01,1.8098958730697632,0.8535599708557129,-0.16288101985652423
18,1977-04-01,1.6692708730697632,0.7903153896331787,-0.07409506464921273
19,1977-07-01,1.8697916269302368,0.8884893655776978,0.12422126309609895
20,1977-10-01,1.5677083730697632,0.74790358543396,-0.1582301213614736
21,1978-01-01,1.5286458730697632,0.7333608865737915,-0.019444617118301782
22,1978-04-01,1.6197916269302368,0.7821217775344849,0.0664896258491514
23,1978-07-01,1.828125,0.8874570727348328,0.13467889301382294
24,1978-10-01,1.6484375,0.8002282977104187,-0.09829069788762339
25,1979-01-01,1.7395833730697632,0.8536035418510437,0.06670002084822559
26,1979-04-01,1.7395833730697632,0.8588742613792419,0.006174669234348137
27,1979-07-01,1.7994791269302368,0.8932958245277405,0.04007753485733979
28,1979-10-01,1.9479166269302368,0.9669828414916992,0.08248893025209753
29,1980-01-01,2.1197917461395264,1.0639773607254028,0.10030634988732241
30,1980-04-01,1.7786458730697632,0.8982857465744019,-0.15572851478534758
31,1980-07-01,2.2578125,1.1402839422225952,0.2694000172785214
32,1980-10-01,2.5989582538604736,1.3249739408493042,0.16196842890439966
33,1981-01-01,2.2994792461395264,1.177167892456055,-0.11155392859915876
34,1981-04-01,2.2994792461395264,1.1821366548538208,0.0042209462470124085
35,1981-07-01,1.9895833730697632,1.0280498266220093,-0.1303460370669797
36,1981-10-01,1.7083333730697632,0.8880102634429932,-0.13621865356386612
37,1982-01-01,1.6927083730697632,0.8853216171264648,-0.003027719866777104
38,1982-04-01,1.890625,0.995067059993744,0.12396110152995671
39,1982-07-01,1.8463541269302368,0.9776846766471864,-0.01746855467878406
40,1982-10-01,2.4114582538604736,1.2834535837173462,0.3127479793574606
41,1983-01-01,3.6666667461395264,1.958524703979492,0.525980159178718
42,1983-04-01,2.9739582538604736,1.5932412147521973,-0.18650951324998943
43,1983-07-01,2.2760417461395264,1.224339485168457,-0.23154166874920876
44,1983-10-01,2.59375,1.4015012979507446,0.1446999095662686
45,1984-01-01,2.6979167461395264,1.4630373716354368,0.043907254152864034
46,1984-04-01,3.0729167461395264,1.6723895072937012,0.1430941818145376
47,1984-07-01,2.4661457538604736,1.3475127220153809,-0.19425904304078262
48,1984-10-01,2.6119792461395264,1.42719566822052,0.05913335355080205
49,1985-01-01,2.6979167461395264,1.4864391088485718,0.0415103842782249
50,1985-04-01,1.9505208730697632,1.079586625099182,-0.27370948552648533
51,1985-07-01,2.1822917461395264,1.2140564918518066,0.12455681056651749
52,1985-10-01,1.8828125,1.047449827194214,-0.13723139390611597
53,1986-01-01,2.2864582538604736,1.2851492166519165,0.22693152768416955
54,1986-04-01,2.8958332538604736,1.6276602745056152,0.26651462212770277
55,1986-07-01,2.2864582538604736,1.290750503540039,-0.2069902277782807
56,1986-10-01,2.3046875,1.3064982891082764,0.012200487642690902
57,1987-01-01,2.9557292461395264,1.6903060674667358,0.2937682977146641
58,1987-04-01,4.0078125,2.2982327938079834,0.3596548211249979
59,1987-07-01,3.90625,2.246543407440185,-0.02249092716241039
60,1987-10-01,3.0390625,1.7520010471343994,-0.22013478959184235
61,1988-01-01,2.9609375,1.712466835975647,-0.022565175530811023
62,1988-04-01,2.9375,1.704842209815979,-0.004452422668567462
63,1988-07-01,2.71875,1.5836730003356934,-0.07107356257525127
64,1988-10-01,2.3984375,1.4033676385879517,-0.1138526461646578
65,1989-01-01,2.7421875,1.6117544174194336,0.14849051175296996
66,1989-04-01,2.4921875,1.471785306930542,-0.08684270319109469
67,1989-07-01,2.4609375,1.4595115184783936,-0.0083393878131219
68,1989-10-01,1.9921875,1.186850905418396,-0.18681634890025295
69,1990-01-01,2.0859375,1.2491029500961304,0.05245144473794617
70,1990-04-01,2.125,1.2785906791687012,0.02360712467319162
71,1990-07-01,2.0,1.2089961767196655,-0.05443063490364545
72,1990-10-01,1.5,0.9127212762832642,-0.24505859169900399
73,1991-01-01,2.3359375,1.4280279874801636,0.5645827752534754
74,1991-04-01,2.515625,1.5448508262634275,0.08180710728884555
75,1991-07-01,2.03125,1.2541323900222778,-0.1881854424380367
76,1991-10-01,1.9765625,1.2278918027877808,-0.020923299201315537
77,1992-01-01,2.234375,1.3975893259048462,0.13820234220294297
78,1992-04-01,2.1640625,1.3607350587844849,-0.02636988308171332
79,1992-07-01,2.6171875,1.6542540788650513,0.21570622303415962
80,1992-10-01,3.0703125,1.9485883712768557,0.177925686369618
81,1993-01-01,3.375,2.150217056274414,0.10347423189508038
82,1993-04-01,3.5625,2.2767391204833984,0.05884153129554444
83,1993-07-01,4.421875,2.83345103263855,0.24452160862284036
84,1993-10-01,4.1015625,2.6343014240264893,-0.07028517744547348
85,1994-01-01,4.375,2.8183767795562744,0.06987634514824381
86,1994-04-01,4.78125,3.0875043869018555,0.09549028692606265
87,1994-07-01,4.9140625,3.183677673339844,0.031149198312392826
88,1994-10-01,4.6796875,3.0431063175201416,-0.04415376499852634
89,1995-01-01,4.3125,2.977792501449585,-0.02146287682902303
90,1995-04-01,6.625,4.586750984191895,0.5403192069155497
91,1995-07-01,9.765625,6.777489185333253,0.47762309501685907
92,1995-10-01,8.5625,5.942501544952393,-0.12320014352627896
93,1996-01-01,5.796875,4.044548034667969,-0.3193862880686267
94,1996-04-01,7.0625,4.927590847015381,0.2183291692368055
95,1996-07-01,5.40625,3.7846524715423584,-0.2319466877338842
96,1996-10-01,6.015625,4.2380967140197745,0.11981132901553418
97,1997-01-01,9.796875,6.9203529357910165,0.6328916970908764
98,1997-04-01,11.15625,7.897976875305176,0.14126793078110747
99,1997-07-01,14.375,10.19642162322998,0.2910169001774892
100,1997-10-01,13.3359375,9.471542358398438,-0.07109153501264483
101,1998-01-01,13.65625,9.71746826171875,0.02596471556739114
102,1998-04-01,16.03125,11.407463073730467,0.17391307761398378
103,1998-07-01,14.84375,10.577324867248537,-0.07277150064974598
104,1998-10-01,15.984375,11.40654182434082,0.07839571607182623
105,1999-01-01,24.71875,17.66425895690918,0.5486077400965468
106,1999-04-01,25.53125,18.26116371154785,0.033791666896119586
107,1999-07-01,36.0,25.768495559692386,0.4111091695321206
108,1999-10-01,44.875,32.140243530273445,0.2472689162555488
109,2000-01-01,53.875,38.60754776000977,0.20122138227249783
110,2000-04-01,81.4375,58.3814811706543,0.5121779174777487
111,2000-07-01,59.5,42.6671028137207,-0.26916717496425036
112,2000-10-01,49.0625,35.193965911865234,-0.1751498557209816
113,2001-01-01,43.79999923706055,31.433948516845703,-0.10683699030781539
114,2001-04-01,38.70000076293945,27.78788757324219,-0.11599118518787288
115,2001-07-01,34.5,24.78700256347656,-0.10799255617599648
116,2001-10-01,27.989999771118164,20.123485565185547,-0.18814364449062773
117,2002-01-01,31.209999084472656,22.453996658325195,0.11581050835306225
118,2002-04-01,30.93000030517578,22.26980209350586,-0.008203197302563182
119,2002-07-01,23.149999618530273,16.680328369140625,-0.2509889266593524
120,2002-10-01,15.859999656677244,11.43840217590332,-0.3142579736580671
121,2003-01-01,15.899999618530273,11.482610702514648,0.0038649215101441265
122,2003-04-01,18.489999771118164,13.370593070983887,0.16442100297415616
123,2003-07-01,18.8700008392334,13.662469863891602,0.021829756642667522
124,2003-10-01,28.920000076293945,20.96194648742676,0.534272111576756
125,2004-01-01,31.35000038146973,22.73954772949219,0.08480134433754313
126,2004-04-01,25.10000038146973,18.21868896484375,-0.1988104081236887
127,2004-07-01,21.32999992370605,15.494257926940918,-0.14954045503274763
128,2004-10-01,24.45000076293945,17.780513763427734,0.14755503924531604
129,2005-01-01,23.209999084472656,16.89652442932129,-0.04971674867599717
130,2005-04-01,24.959999084472656,18.190584182739254,0.0765873336159196
131,2005-07-01,31.76000022888184,23.169780731201172,0.27372383967671554
132,2005-10-01,28.54999923706055,20.844383239746094,-0.10036337928410445
133,2006-01-01,29.229999542236328,21.36355400085449,0.024906985979726157
134,2006-04-01,34.709999084472656,25.394025802612305,0.1886611095511827
135,2006-07-01,29.78000068664551,21.805997848510746,-0.14129417611808742
136,2006-10-01,30.18000030517578,22.121421813964844,0.01446500947332892
137,2007-01-01,31.190000534057614,22.89155578613281,0.03481394544367821
138,2007-04-01,34.36999893188477,25.25804901123047,0.10337843557715846
139,2007-07-01,35.189998626708984,25.919330596923828,0.026181023934165864
140,2007-10-01,32.59999847412109,24.0651798248291,-0.07153544205785863
141,2008-01-01,30.95000076293945,22.919416427612305,-0.04761083879517337
142,2008-04-01,29.15999984741211,21.665319442749023,-0.05471766651756457
143,2008-07-01,24.3799991607666,18.17535972595215,-0.16108508005243832
144,2008-10-01,19.559999465942386,14.6431245803833,-0.19434196620192645
145,2009-01-01,14.949999809265135,11.255517959594727,-0.23134451955198074
146,2009-04-01,18.059999465942386,13.695364952087402,0.21676896623072214
147,2009-07-01,24.04999923706055,18.353296279907227,0.34011005505259484
148,2009-10-01,23.45000076293945,17.977170944213867,-0.020493612153209387
149,2010-01-01,22.5,17.336292266845707,-0.03564958465138441
150,2010-04-01,26.01000022888184,20.14348793029785,0.16192595396079504
151,2010-07-01,24.690000534057614,19.208057403564453,-0.04643835913473634
152,2010-10-01,29.56999969482422,23.11297416687012,0.20329576704518956
153,2011-01-01,33.90999984741211,26.62283515930176,0.15185674362335577
154,2011-04-01,35.529998779296875,28.00075912475586,0.05175722109268534
155,2011-07-01,29.75,23.53082656860352,-0.1596361204436208
156,2011-10-01,30.729999542236328,24.41037368774414,0.03737850502515602
157,2012-01-01,32.380001068115234,25.86288452148437,0.05950383440747986
158,2012-04-01,31.940000534057614,25.64617156982422,-0.008379303224283766
159,2012-07-01,27.239999771118164,21.98923683166504,-0.1425918378578579
160,2012-10-01,28.09000015258789,22.818809509277344,0.03772630600884246
161,2013-01-01,33.080001831054695,27.26696968078613,0.19493392806931126
162,2013-04-01,36.209999084472656,30.037860870361328,0.10162079695741649
163,2013-07-01,39.18000030517578,32.75559616088867,0.09047699176238484
164,2013-10-01,42.09000015258789,35.44219207763672,0.08201944802201269
165,2014-01-01,42.400001525878906,35.96632766723633,0.014788464225110048
166,2014-04-01,45.45000076293945,38.82503128051758,0.07948277732801165
167,2014-07-01,46.25,39.76586532592773,0.02423266677140477
168,2014-10-01,49.65999984741211,42.97003555297852,0.0805758959547058
169,2015-01-01,53.45000076293945,46.57597732543945,0.08391758875821968
170,2015-04-01,54.209999084472656,47.53298950195313,0.020547334301259334
171,2015-07-01,49.97999954223633,44.09382629394531,-0.07235318552531825
172,2015-10-01,56.72000122070313,50.38209915161133,0.14261118587772642
173,2016-01-01,52.93000030517578,47.32341384887695,-0.06070976307537499
174,2016-04-01,57.040000915527344,51.38342666625977,0.08579289800072547
175,2016-07-01,69.75,63.23399353027344,0.23063013957757664
176,2016-10-01,70.8499984741211,64.57555389404297,0.02121580954913524
177,2017-01-01,75.54000091552734,69.35395050048828,0.07399698985603459
178,2017-04-01,79.18000030517578,73.15734100341797,0.05484028632086228
179,2017-07-01,81.37999725341797,75.65638732910156,0.03415988459130624
180,2017-10-01,96.69000244140624,90.4375228881836,0.19537194519723522
181,2018-01-01,109.66999816894531,103.23463439941406,0.14150223383553684
182,2018-04-01,101.43000030517578,96.0065460205078,-0.07001611834009933
183,2018-07-01,111.31999969482422,106.00212097167969,0.10411347314834919
184,2018-10-01,92.83000183105469,88.88482666015625,-0.1614806775054682
185,2019-01-01,100.68000030517578,97.23141479492188,0.0939034079087324
186,2019-04-01,117.83000183105469,114.66513061523438,0.17930126654109957
187,2019-07-01,125.01000213623048,122.45503997802734,0.0679361661299848
188,2019-10-01,117.98999786376952,116.26732635498048,-0.05053049367471645
189,2020-01-01,120.6500015258789,119.7847137451172,0.030252586865183784
