,Date,Close,Adj Close,RoR
0,1980-07-01,0.2861328125,0.13829539716243744,0.3022222752293063
1,1980-10-01,0.2890625,0.1397114396095276,0.010239259412422163
2,1981-01-01,0.3330078125,0.16095134615898132,0.15202696793344964
3,1981-04-01,0.4248046875,0.20531916618347168,0.2756598256759257
4,1981-07-01,0.3935546875,0.19021518528461456,-0.07356342410508482
5,1981-10-01,0.37109375,0.17935921251773834,-0.05707206157401514
6,1982-01-01,0.3662109375,0.1769992560148239,-0.01315770999318495
7,1982-04-01,0.4296875,0.2076790481805801,0.17333288769974675
8,1982-07-01,0.5,0.24166293442249295,0.16363656584348044
9,1982-10-01,0.78515625,0.37948617339134216,0.5703118655668414
10,1983-01-01,0.841796875,0.4068622589111328,0.07213987607279508
11,1983-04-01,1.0546875,0.509757936000824,0.25290052059649437
12,1983-07-01,1.140625,0.5512934923171997,0.08148094101728431
13,1983-10-01,1.11328125,0.5380776524543762,-0.02397242130915531
14,1984-01-01,1.1171875,0.5399653911590576,0.003508301629087743
15,1984-04-01,1.08203125,0.5229735374450684,-0.031468412591250626
16,1984-07-01,1.10546875,0.5343015193939209,0.02166071729784683
17,1984-10-01,1.3359375,0.6456934809684753,0.2084814613683126
18,1985-01-01,1.5390625,0.7438684105873108,0.1520457190795591
19,1985-04-01,1.5625,0.8701100945472717,0.16970969887038032
20,1985-07-01,1.5390625,0.9182661771774292,0.05534481548017626
21,1985-10-01,1.5546875,0.931591272354126,0.01451114666735904
22,1986-01-01,1.640625,0.9879273772239684,0.06047298481820401
23,1986-04-01,2.1015625,1.27123761177063,0.2867723286935835
24,1986-07-01,2.234375,1.3561878204345703,0.06682480747687931
25,1986-10-01,2.0546875,1.251293659210205,-0.07734486303729925
26,1987-01-01,2.234375,1.3662292957305908,0.09185344756955864
27,1987-04-01,2.2734375,1.3951900005340576,0.02119754340941728
28,1987-07-01,2.6328125,1.6216140985488892,0.16228907742182772
29,1987-10-01,1.90625,1.1776999235153198,-0.27374834458507025
30,1988-01-01,1.7890625,1.110721230506897,-0.056872461032771375
31,1988-04-01,2.1328125,1.3304489850997925,0.19782439423852458
32,1988-07-01,2.0078125,1.2586936950683594,-0.053933138989204446
33,1988-10-01,1.9921875,1.2555391788482666,-0.002506182586321331
34,1989-01-01,2.40625,1.5245652198791504,0.21427132308023014
35,1989-04-01,2.40625,1.5316537618637085,0.004649549846821248
36,1989-07-01,3.09375,1.977678656578064,0.2912047786646211
37,1989-10-01,2.703125,1.734230875968933,-0.12309774381160762
38,1990-01-01,2.5859375,1.6670577526092532,-0.03873366821597477
39,1990-04-01,2.625,1.700359582901001,0.01997641067900876
40,1990-07-01,3.125,2.0334551334381104,0.1958971231066382
41,1990-10-01,2.9609375,1.935112476348877,-0.04836234420523374
42,1991-01-01,3.5234375,2.313680410385132,0.19563097166864823
43,1991-04-01,4.09375,2.698272705078125,0.16622533214471677
44,1991-07-01,4.265625,2.822204113006592,0.04592990459979416
45,1991-10-01,4.171875,2.769379138946533,-0.01871763059822853
46,1992-01-01,4.71875,3.1447477340698238,0.1355425083710568
47,1992-04-01,4.1875,2.800410270690918,-0.10949605262399734
48,1992-07-01,4.484375,3.0110392570495605,0.07521361729139643
49,1992-10-01,5.03125,3.3905239105224614,0.12603112117666246
50,1993-01-01,4.984375,3.371232032775879,-0.005689940037499898
51,1993-04-01,4.75,3.2251944541931152,-0.043318756218187704
52,1993-07-01,4.703125,3.2055020332336426,-0.006105808886614664
53,1993-10-01,5.3125,3.634722471237183,0.13390115917990916
54,1994-01-01,4.890625,3.36023211479187,-0.07551893125746192
55,1994-04-01,5.21875,3.6014292240142822,0.07177989525207298
56,1994-07-01,4.578125,3.172572135925293,-0.11907969348095913
57,1994-10-01,5.171875,3.60063099861145,0.1349248635953591
58,1995-01-01,5.9375,4.152940750122069,0.15339248918414922
59,1995-04-01,5.875,4.126080513000488,-0.006467763143693207
60,1995-07-01,6.46875,4.561756610870361,0.1055907892483293
61,1995-10-01,7.125,5.044519901275635,0.1058283752480088
62,1996-01-01,8.71875,6.196001529693604,0.2282638687036973
63,1996-04-01,8.0,5.703274250030518,-0.07952342769796773
64,1996-07-01,7.9375,5.677289962768555,-0.004556029768658565
65,1996-10-01,9.4375,6.771677017211914,0.19276574943684519
66,1997-01-01,10.28125,7.39915132522583,0.09266158241437576
67,1997-04-01,11.5,8.299479484558105,0.12167992243418489
68,1997-07-01,14.125,10.220520973205566,0.23146529757941128
69,1997-10-01,14.0625,10.197649002075195,-0.002237847873932548
70,1998-01-01,16.5625,12.035178184509276,0.18019145217296142
71,1998-04-01,17.25,12.556564331054688,0.043321846885200146
72,1998-07-01,21.59375,15.746350288391113,0.25403333851820437
73,1998-10-01,24.34375,17.775476455688477,0.12886326863903963
74,1999-01-01,31.25,22.847509384155273,0.2853387891520429
75,1999-04-01,26.875,19.668922424316406,-0.13912181439099067
76,1999-07-01,28.3125,20.74740219116211,0.05483166507954671
77,1999-10-01,25.1875,18.481075286865234,-0.10923424934916794
78,2000-01-01,27.9375,20.525453567504886,0.11062009373949258
79,2000-04-01,28.125,20.68789291381836,0.007914044178328939
80,2000-07-01,31.1875,22.968027114868164,0.11021587411286347
81,2000-10-01,45.625,33.636608123779304,0.46449705739004993
82,2001-01-01,40.93999862670898,30.20730018615723,-0.10195165710533502
83,2001-04-01,42.77999877929688,31.591264724731445,0.0458155654442905
84,2001-07-01,33.700000762939446,24.907634735107425,-0.21156576186048331
85,2001-10-01,32.380001068115234,23.95525932312012,-0.03823628466194452
86,2002-01-01,36.27999877929688,26.86975288391113,0.12166403717358723
87,2002-04-01,37.77000045776367,28.026641845703125,0.04305543734586071
88,2002-07-01,35.33000183105469,26.24102783203125,-0.06371130810113929
89,2002-10-01,33.75,25.09182357788086,-0.04379417839523833
90,2003-01-01,29.0,21.58616065979004,-0.1397133575090636
91,2003-04-01,30.86000061035156,23.00197029113769,0.06558876558280113
92,2003-07-01,29.920000076293945,22.3278865814209,-0.029305476930230952
93,2003-10-01,34.81999969482422,26.021465301513672,0.1654244662442083
94,2004-01-01,34.549999237060554,25.85033226013184,-0.006576610479036995
95,2004-04-01,34.47999954223633,25.83019256591797,-0.0007790884082728624
96,2004-07-01,36.400001525878906,27.30306053161621,0.05702117635939113
97,2004-10-01,35.88999938964844,26.95895957946777,-0.012603017590280086
98,2005-01-01,42.61000061035156,32.05027389526367,0.18885425829539434
99,2005-04-01,43.060001373291016,32.429306030273445,0.011826174598332696
100,2005-07-01,47.86000061035156,36.08631134033203,0.11276853432030567
101,2005-10-01,45.43000030517578,34.301143646240234,-0.04946938680586608
102,2006-01-01,43.27999877929688,32.723751068115234,-0.045986588505421415
103,2006-04-01,41.93000030517578,31.749061584472656,-0.029785383760368416
104,2006-07-01,46.77999877929688,35.47910690307617,0.11748521475758354
105,2006-10-01,43.68000030517578,33.18008804321289,-0.0647992314503257
106,2007-01-01,45.29999923706055,34.47278213500977,0.03895993555271193
107,2007-04-01,43.900001525878906,33.465362548828125,-0.02922362292188002
108,2007-07-01,44.18000030517578,33.737979888916016,0.008146253897298268
109,2007-10-01,39.650001525878906,30.34326171875,-0.10062007806464095
110,2008-01-01,35.040000915527344,26.88152503967285,-0.11408584585150379
111,2008-04-01,34.84999847412109,26.80611991882324,-0.0028050908844764934
112,2008-07-01,34.34000015258789,26.483007431030273,-0.012053683590592156
113,2008-10-01,25.459999084472656,19.694467544555664,-0.2563356863511069
114,2009-01-01,27.40999984741211,21.30755615234375,0.08190567245033278
115,2009-04-01,31.43000030517578,24.5352840423584,0.1514827823020713
116,2009-07-01,31.04999923706055,24.32819175720215,-0.008440590489953983
117,2009-10-01,37.83000183105469,29.77375221252441,0.22383745202559707
118,2010-01-01,36.04999923706055,28.47264862060547,-0.043699684965189875
119,2010-04-01,35.150001525878906,27.87668800354004,-0.020930986260060715
120,2010-07-01,28.54999923706055,22.73021507263184,-0.18461565198328628
121,2010-10-01,33.880001068115234,27.14221572875977,0.19410289968792108
122,2011-01-01,40.43999862670898,32.55929183959961,0.19958120460666484
123,2011-04-01,42.72000122070313,34.53774261474609,0.06076455178734031
124,2011-07-01,39.040000915527344,31.687763214111328,-0.08251782499004273
125,2011-10-01,33.200000762939446,27.11130142211914,-0.1444236300640551
126,2012-01-01,33.360000610351555,27.42789459228516,0.011677534959930848
127,2012-04-01,35.060001373291016,29.01411056518555,0.0578322177651418
128,2012-07-01,36.36000061035156,30.29788398742676,0.044246519959899415
129,2012-10-01,35.22999954223633,29.584117889404297,-0.02355828210044861
130,2013-01-01,39.959999084472656,33.8302001953125,0.14352573640294203
131,2013-04-01,49.5099983215332,42.19184494018555,0.24716509794794633
132,2013-07-01,50.25,43.06360626220703,0.020661844089950587
133,2013-10-01,59.2400016784668,51.0939826965332,0.18647710053427866
134,2014-01-01,57.349998474121094,49.72238159179688,-0.02684467000513127
135,2014-04-01,67.90000152587889,59.43603897094727,0.1953578462692329
136,2014-07-01,68.76999664306639,60.47871398925781,0.017542807972452643
137,2014-10-01,64.22000122070311,56.78651428222656,-0.061049573701038945
138,2015-01-01,73.75,65.54188537597656,0.15418046352054957
139,2015-04-01,82.93000030517578,74.01304626464844,0.1292480501602546
140,2015-07-01,96.62999725341795,86.57884216308594,0.1697781206505943
141,2015-10-01,84.68000030517578,76.16957092285156,-0.12022881087537238
142,2016-01-01,79.72000122070312,72.02496337890625,-0.0544129039159638
143,2016-04-01,79.27999877929688,71.96354675292969,-0.0008527130469121407
144,2016-07-01,79.25,72.26726531982422,0.00422045022235048
145,2016-10-01,82.7300033569336,75.78386688232422,0.04866105763013192
146,2017-01-01,81.94000244140625,75.40604400634766,-0.004985531769753038
147,2017-04-01,86.54000091552734,79.99933624267578,0.060914112348095906
148,2017-07-01,80.66999816894531,74.90359497070312,-0.0636972943939793
149,2017-10-01,66.26999664306639,61.83781814575195,-0.1744345759380649
150,2018-01-01,75.26000213623047,70.63285064697266,0.14222740654417626
151,2018-04-01,66.44999694824219,62.7319450378418,-0.11185879568446236
152,2018-07-01,67.62000274658203,64.22728729248047,0.023837014040241165
153,2018-10-01,79.7699966430664,76.24957275390625,0.18718345376597142
154,2019-01-01,72.26000213623047,69.44403839111328,-0.08925340978312987
155,2019-04-01,53.56999969482422,51.79704666137695,-0.2541181667798082
156,2019-07-01,54.4900016784668,53.13189315795898,0.025770706683502235
157,2019-10-01,54.77999877929688,53.90372848510742,0.01452678008016408
158,2020-01-01,50.849998474121094,50.40933227539063,-0.06482661418647924
