;ABT;AME;AOS;BF-B;CHD;D;GIS;GPC;HFC;HRL;HSY;IEX;JNJ;NKE;OKE;ROL;SHW;SO;TJX;UNP;VFC;WEC
1990-04-01;0.1297229474431334;0.11330669330199493;0.8886397889690686;-0.1289204013214321;0.21284439032641733;-0.03159316047766937;0.14149792627252789;0.05043290980621822;0.13313900023796832;0.07493953446443723;0.03868584597724498;0.25000016235547884;0.12815777438108752;0.7229150667797084;-0.0041954470991028055;0.17169770688085673;0.10281176369314228;-0.03548709024230751;0.13528220521241424;0.005591406526958362;0.02005570866901335;-0.057982524170807424
1990-07-01;0.4666048182173797;-0.04255158865464622;0.4654386198074664;0.2345458011715509;0.13226995561057653;0.12213771140327255;0.36980665842867055;-0.05806994005028705;0.13749320195620887;0.14375545629335296;0.2254083191306352;0.1454549044077041;0.30545103675598106;0.4998273382738801;0.17660710731704354;0.06845325707939275;0.12639952701103904;0.13270441575714192;0.6389038503301018;0.21562372516368047;-0.12336272851533417;0.12404485636304495
1990-10-01;-0.013105922715431805;-0.11149720479367327;-0.0027304171639292844;-0.015521102893233597;-0.16256012365528755;0.08745077812760255;-0.031908565879785064;-0.02676248779469452;-0.18224250537031828;-0.09739094204047738;-0.08320080240129127;-0.26190526946482584;-0.050297144087494236;-0.21283558464231114;0.14809210429143493;0.04889940246024647;-0.1295525158809573;0.09356521099317144;-0.13958642888399375;-0.0747766485879275;-0.3231479555344352;0.06133911148339915
1991-01-01;0.11123276021923137;0.2986818153415923;0.497810685618572;0.20779831004684976;0.3983434145501581;0.0076156699808113985;0.22157230347414145;0.08258545032385585;0.43913908846565614;0.23016123381098835;0.18239039141479632;0.11828018770318414;0.2392274365800893;0.9746513657401716;-0.01916816702989757;0.3266442843474878;0.2385414407317473;0.06676172028257167;0.9605784597465078;0.3310730779187142;0.740041608205222;0.06799588757266545
1991-04-01;0.2199864451510479;0.2686116212308693;0.4359168322873199;0.17330760073194945;0.4375959820067446;0.09375400350742458;0.22698642595281002;0.0401407384457796;0.2902630946094137;0.3310124064093755;0.03337864570115187;0.29807703315518497;0.278843154045314;0.08708947192012356;0.11082811184743001;0.26084491928506065;0.17367237517331482;0.13623659857109766;1.0598776155113754;0.18652418845855465;0.3502667682858213;0.08182702094344567
1991-07-01;0.11382263453644625;0.11062597409878064;0.2009137527097765;0.09458228836627457;0.11387737359577045;0.04762961209195225;0.1581107468282856;0.12042671077061493;0.02378950922723902;-0.11381470050165796;0.06581280670147176;0.05185159576532178;0.004369687250712547;0.035494351985771964;0.01823640702044905;0.13484318565586256;0.0810726663376629;0.06772153342675072;0.5044474445072505;0.2287046461669336;0.11206927415943324;0.05996697187303165
1991-10-01;0.14159593872756224;0.13841445581765122;0.22486595773289486;-0.012684177263529444;0.05622445050506915;0.15394203052059455;0.013712029491990166;0.04888775920542327;-0.027734185706176237;0.030534644051708387;0.009368141785520664;-0.1056339775935203;0.07550682330866107;0.3942781964031038;0.1622175971571338;-0.009228391023934744;-0.016862708860771743;0.15744575969431504;-0.0859775057507136;0.19257695704016173;0.3763618280878209;0.10334870041260756
1992-01-01;0.13206256388869309;0.2948200295169185;0.3794828693933461;0.2632548258382377;-0.04944879136092786;0.0540593576492726;0.16248020137636449;0.05260850480516705;0.1213593399376028;0.13049801115535345;0.02117676166169165;0.2362209094421766;0.16764455013354398;0.452878688269694;0.18048572773469093;0.30290966599315955;0.15133121273618064;0.1534964952327334;0.5517633673410983;-0.02574558147601309;0.14025044314405394;0.057589103212533965
1992-04-01;0.06908117983165131;0.24569555797772466;0.8726510311993755;0.15490776796091635;-0.04430267520948509;0.02695578036533445;-0.06025906631928012;0.08889138283413217;-0.136395272803845;-0.11512045929776822;0.02631372034291473;0.0573246838780534;-0.09010299732416192;-0.08778743389952835;0.07318136065424206;0.08191906928030931;0.06817830867638179;0.06560839732684462;0.16431208022982416;0.22181443904089346;0.21297333664612064;0.05243371195590946
1992-07-01;-0.03833159062934029;-0.03930590480266795;0.21049153458263808;0.4190308494917893;0.18584516228200476;0.1376676488109616;0.12260470491136186;-0.0572105575686997;0.1122176470095756;0.1725883609183127;0.08769993847247427;-0.03012011069486079;0.08004643887704108;0.2521329265560715;0.1232892879736314;0.0661923199724996;0.0386122345948334;0.2191446847572833;0.6316978728866665;0.012178192909729357;0.08429055665975788;0.11682806667929532
1992-10-01;-0.0232329316349444;0.047240856142828185;0.039437707569698;0.3058359279884464;0.20538078887867492;0.001283989475228008;-0.007627348224308055;0.01667849616178393;-0.020512870104020392;0.07408035459794395;0.07241669003848186;-0.012422770330318236;0.034603807609585535;0.1622547057762655;0.15595525266653318;0.21620988177827336;-0.013425328318827508;0.023598279595676418;0.5132911119978313;0.11838467647620612;0.1265482505084397;-0.05368498144088403
1993-01-01;-0.028214502913178924;0.1656972288733384;0.4003423198685536;0.1650173561905673;-0.0546155599120325;0.07102973877706466;0.03542603702941576;0.16297421935702427;0.20985934059769706;0.16631904540401424;0.08028681207186039;0.32075501537455137;-0.10324815655846882;0.13377216179014795;0.08984656113916893;0.20282992662426289;0.06379447846874173;0.1012521623865588;0.23214895906083916;0.0930149447250827;0.12481370745952924;0.035630853163641764
1993-04-01;0.03765240332763626;0.013540657889530202;0.18781599834340185;0.3522821246661423;0.10317164745998146;0.10138957276422132;0.0134049130061751;-0.023704078197018745;0.14182770103292605;-0.07551160283876489;0.08757387938787622;0.014285553594343291;0.012229016912073766;-0.08037538218062283;0.34401732556091513;-0.0664993961115431;0.05304028733909491;0.14596047193775713;0.2962935984789787;0.0930548089622432;-0.06435058402676082;0.07370882510071115
1993-07-01;-0.07467822478689283;-0.03113936341630228;0.5012388944783749;0.2813665637215731;-0.20542779049045912;0.09406192932823004;-0.057915821706254415;0.07370541122136402;-0.029008258489335595;0.023284175791736115;-0.11107691495213004;0.07981200712798854;-0.14347332671252733;-0.09417209808548237;-0.039607072102934085;0.15865614279692836;-0.0035721759108896045;0.02957057076501972;0.02558465489843573;0.07177611115434564;-0.03409568400876447;0.02992358594734728
1993-10-01;0.1693955537788946;0.1020436117199332;0.11924213689543653;0.2961550900205551;0.1476111858854847;0.0652179962145459;0.0896142246750624;0.05247723555526557;0.03738294775932168;0.13153333656066846;0.22179684192736498;0.14347876682120395;0.18795782227866226;-0.02375965957629531;0.06603268960850486;0.02076880793795954;0.15834823744044335;0.13081415998121484;0.31321468264438895;0.031142792778068067;-0.0416156237372425;0.07592812668354165
1994-01-01;0.07023648973284374;-0.07728666424191516;0.30048796635609004;0.4746409237442072;0.12117869948782076;-0.07759513118195335;-0.036100109980065735;0.034336387827116004;0.10304923955657097;-0.032919476402103034;-0.06848172919089722;0.15589362618011282;0.030793473370481533;0.19260643670441666;-0.01570922843416027;0.25615619292255937;-0.058437738108900815;0.010919597979987265;0.06108126589536556;0.07450565605515502;0.24696036646879174;-0.05532172041793845
1994-04-01;-0.013007744780353648;0.1803505814473958;-0.13840455729991158;0.3644077439708113;-0.17589830569585466;0.0082041264198038;-0.09734278063404736;-0.0699777650756302;0.07858189437344143;-0.03834297746950676;-0.052787711525520635;0.0;0.0008206103796837971;0.2234395301231984;-0.09788580497021288;0.029832282100621863;-0.0694791326429053;-0.061787847856624036;-0.011319200078202809;-0.05958599576238509;0.14268606100448758;0.002263331061743569
1994-07-01;0.024057328711320197;0.1851770512815852;-0.005985932496115149;0.003060537677228005;0.13980961311747733;-0.11082201109877607;0.0072927173360833215;0.0055143426313442965;0.045026644717314566;0.22559337992317;-0.023321609543874397;0.029604548917842106;0.16851505898980684;0.2894441456947272;0.20054338761180768;-0.09214239648510683;0.045513160112045536;0.01801697137402208;0.03491729739511811;0.04268574442383951;0.08108071564615467;0.0226814751307907
1994-10-01;0.13422622559795094;0.1581452815140351;-0.09166295581468517;0.1954818084724725;0.03372271345668235;0.055908276246981255;0.1742084050449574;0.03350545823767954;-0.13596508150957154;0.14474432316291178;0.1466960893456359;0.1118216917678585;0.19109447161427268;0.09840584748062317;0.025591444358220642;0.03448738807986225;0.008758339116552856;0.05220144538595769;0.020448246093545244;-0.13304180371550156;0.04148219392827062;0.04749788573412185
1995-01-01;0.17356811264692187;-0.08972038600768847;-0.0533351543674315;0.07751918130558176;-0.1456317824699871;0.06416405186560466;0.05027697872552694;0.02660361642207949;0.15051448375665433;0.07159991520917867;0.06375497262068272;-0.028735600094635418;0.08782596992421914;0.3318345240293033;0.0706153117644601;0.11112846274685437;0.035848862259053565;0.0764689575952696;0.19056491304408832;0.09009855916775956;0.008862077311197616;0.08580677237762546
1995-04-01;0.1433188502993667;0.02699091638906497;0.14308338035574772;0.16499000340449266;0.10719558697981807;-0.009764194794079495;0.1220394293632986;0.07120974003389642;0.15030782261359832;0.14256783164847153;0.13215347809244254;0.20543604090838896;0.14115152837255782;0.2093009726675507;0.17773814169796898;0.23243176421677206;0.0738054169439225;0.012233334424209593;0.2868604187670664;0.1341391506583553;0.11541542278063426;0.016837045083822652
1995-07-01;0.04143077612959682;0.15545365726191782;0.20828150773770607;0.09961738964608144;0.20061694202620425;0.02954682442366187;0.11892415747715132;-0.014012297091678368;-0.09205757952582784;-0.061213710254319285;0.1549363532543256;0.3359984260424149;0.12620132039347806;0.4576524181840173;0.3028321133466651;-0.09140026445713574;0.033881402916190705;0.09280280197532548;1.029370800300938;0.3288515930151101;0.15873851664156866;0.03575744644633857
1995-10-01;0.01866646246608673;-0.004379364545031382;-0.19922111553760205;0.2056467183246088;0.036227082494392375;0.17719080018124614;0.18254795700745274;0.06221636379924124;-0.03867387579334142;-0.02030370331175464;0.06281630272690622;-0.12891515162120085;0.15764073986899832;0.37157366983688456;0.11049045779191297;-0.06690381728367915;0.04029914134302606;0.11072372438681898;1.0492174357787958;0.042269740218605835;-0.08579409970679591;0.08254458081272614
1996-01-01;0.09454705887343796;-0.016545314721689384;0.2940305828046084;0.022538466241837744;0.019093324956907656;0.13276980581589368;0.03667233448404792;0.13600129153986548;0.2245475679054215;0.11331434453075805;0.2394895779627311;0.019463244552789787;0.1973360071319204;0.2824536045427054;-0.09382236429926903;0.12421508909982375;0.12880412981280612;0.0855269620700128;1.0392647001645947;0.10272580100130588;0.1207510499701432;0.0951993577744166
1996-04-01;-0.022363429467949843;0.17169479792989914;-0.03176416525607048;0.15081851840891075;0.2163406191276827;-0.07314282158865147;0.032834335658993574;0.005967427720265764;0.2601713876713572;0.14652693307459966;0.11555122784699925;0.0466787545511831;-0.023251745710970387;0.29934973830947303;0.329920368468038;0.11431853749214085;0.11887307164120844;-0.11502143620038788;0.771596687589025;0.10150978394442284;0.19407643636742936;-0.1344576597384972
1996-07-01;0.10874079667736454;-0.014216597014604988;0.03551466889856733;-0.009246094832952072;0.008156579745874745;0.0100510811952145;0.009746585028413551;-0.031680190599697025;0.034197153063808286;-0.11581297404497864;0.1013548736905498;-0.22510997465488766;0.04935592959123125;0.20477441678395936;0.0697527507906101;0.0060372465209856275;-0.027358361300555186;0.0528074041207061;0.10639986125885616;0.04308534608288876;0.03290169801046053;0.02842174980745265
1996-10-01;0.1865483548493513;0.09242717687207852;0.26686444462683684;0.2592722271985329;0.09593630990207078;0.03798981290776742;0.09651402488176106;0.04469059892517783;0.029973442253450482;0.10682101119967052;0.20182301076738968;0.2724260223926176;0.03884418942786885;0.1756701161734125;0.07398766836724119;-0.013903914026137896;0.11943805339875414;0.0007066892002550857;0.4332293274976042;0.26407753271777284;0.2305326228545183;0.047870975004505774
1997-01-01;0.0976627437669178;0.0643099481570595;0.34930928302587944;0.0785178217393365;0.27276122447477674;0.1043288562559286;0.2694739513128653;0.019864214399224905;0.17519847768228378;0.07023350242001683;-0.11009242544152174;0.01264145020975528;0.18141280743630772;0.17387919348296774;0.16099122447205494;0.12012315228448175;0.1143714727107927;0.012023263149357769;0.05467297410335075;0.10208070921844103;0.0672346219878099;-0.005782528674852764
1997-04-01;0.14776631396726106;0.09865412845210696;0.09282902870172534;0.21653996321121988;0.05326600279374074;-0.1038596756961805;-0.055761027424309016;0.1133582527284467;-0.02400116777636813;0.07021305450626425;0.2918480226576824;0.06650715664525174;0.06175597278558815;-0.16717845065495404;0.05271999247229353;0.07580682176868901;0.0977603584225228;-0.045623585104495816;0.2625565369348946;0.09275396714375612;0.137423308468711;-0.0044323433406243725
1997-07-01;0.09602985012937283;0.2276382472775443;0.07802591870473433;0.01628693970739933;0.23093649364573654;0.1098507119086282;0.1552332930458551;0.014912731236870947;0.16810087378494876;0.21022997234484075;0.02571120116720028;0.35241479204341736;0.023654095872886357;0.1285716860873607;0.23379564179655346;0.1587317339046114;0.06340388438335197;0.10555411858874056;0.3519491693608167;0.15369138378510955;0.2981868876352014;0.054826667298418896
1997-10-01;-0.04564255515205717;-0.1118436126006255;0.20984595014133434;0.06460893607807991;0.022172720443747598;0.048141987121043166;-0.014218226482836813;-0.032861616774156784;0.021687571335649025;0.11464900925684005;0.007848654147489887;-0.03491159420320167;-0.06952012930376146;-0.23588898961471544;0.02076411030038752;0.142342880083316;-0.13162024436245734;0.07134476325152322;0.01939381344223557;-0.12180949961851745;0.03273932120837452;0.02120856366145046
1998-01-01;0.1767424796360158;0.1247410407643256;0.05229988868036558;0.1080306886651095;0.017472777841600888;0.11068828221175647;0.16277563927225114;0.06781142062646563;0.1819708344089524;0.15079709015534853;0.1615264233132494;0.003972674346029016;0.17529477366363522;-0.1306543139028307;0.038051094731174184;0.04059346308524988;0.03516349954479752;0.08476689531357343;0.1736262005667891;0.006946558029542535;-0.019829154877071348;0.12331481118751328
1998-04-01;0.05082840985928641;0.18492875603378373;0.1143937022917788;0.14852498286846708;0.16550404443086836;0.02284158218386092;-0.06484828665537293;0.09206272900271224;0.3222842779626809;0.06448120920132787;0.1580085179691294;0.10146099288024464;0.07499748554791165;0.2181672708972125;0.2319589307625229;0.0648742835759071;0.2490652801072425;0.13028045313413325;0.335190754872482;-0.0728484906116344;0.231267351618089;0.1375823607830427
1998-07-01;0.15873978658153204;-0.16512991227423313;-0.05185149730238661;0.11956993757932305;0.05244035039235518;0.06566437688696668;-0.05656630583415673;-0.02934721127554437;-0.15556218709575184;-0.008705212951657205;-0.132719321841291;-0.21554525346382547;0.08795507233672448;-0.04736629618983902;-0.12671596930775772;0.12087951277829832;-0.10224806109365034;-0.003889966335314967;0.08450641761144727;-0.21950252042258506;-0.07629040666152477;-0.043607037019109035
1998-10-01;0.1377951328377055;-0.13725111863573633;-0.22741624122176346;0.1689412978404923;0.04244824996414405;0.1675505247681184;0.22440229943915446;-0.08485266292652698;-0.3626943295393502;0.04373363622687944;0.08235877044081212;-0.08180026474077351;0.06202620547604376;0.001281512070202158;0.04397050683631711;-0.07761759818599567;-0.20672696773914268;0.1449487049970878;-0.18598771717123372;0.15725603417495754;-0.09141254125412528;0.10709013620840012
1999-01-01;-0.0042195887258747395;-0.1243463054074108;0.2187420635485294;0.10601386862739116;0.3313344662670335;-0.0027265347767582468;0.17705984537457636;0.019456561271953325;0.4588656796762459;0.1258237098671365;-0.16456050898910835;-0.10775490447554756;0.05070025463805005;0.07352898949553781;-0.10996914048472677;-0.00010021765400705686;0.022211706042858357;-0.013722509320240231;0.5787826505011651;0.09807140990284853;0.03433233637810541;-0.12946447892020066
1999-04-01;0.04925319734307397;0.2828626642395214;0.08436183472143971;0.06580284155063522;0.13420666871627532;-0.04992904092075536;-0.10412141975112392;-0.05056083541347002;0.13242347529011472;0.08915771533048797;-0.05726119192488264;0.1868504793185228;0.15224847166584207;0.38996418812724204;0.0003769303114756185;0.049292649405639814;0.22080279150871254;0.038489250476483564;0.1356417179119172;0.18353183830404865;0.2316501831903125;0.06477443971846729
1999-07-01;-0.1059540259166174;0.04307462428707012;0.18952716362432948;-0.1223479769518141;0.06334172683183141;0.10378978172215847;0.16623821097442618;0.043322633647184236;0.3242592435428633;0.11534438510922818;0.12116929442408315;0.06974713964079557;-0.060501926821407065;-0.14910034605796013;0.19994614537169397;0.04680175070910565;-0.12917958370965374;0.008462343764370437;0.0018461909699292011;-0.08047315256793812;-0.21771398383051666;-0.03737110916264797
1999-10-01;-0.05109840832358521;-0.13871324732926893;-0.14708146749236767;0.14249194329799442;0.2280532297222069;0.12323384089789995;0.08206117629707993;-0.15334198892404965;0.1702928757360495;0.13155742564299958;-0.12099955785731932;-0.11736555559338413;0.15714784810852644;0.09630053953307847;-0.04028422155189497;-0.046958571603701836;-0.16754427987209153;0.04202121222843541;-0.17177264986596735;0.04350366230721515;-0.2190181502363555;-0.0813536815216077
2000-01-01;-0.1858738440753768;0.13694728333728606;-0.16051261736182404;-0.13100924305406947;-0.14118921411772045;-0.1081174892534262;-0.2647089472916363;-0.06489866210222646;0.18711251607862167;-0.02466884787250808;-0.1498527261607617;0.1037557701091372;-0.1739452922838013;-0.16843628309099354;-0.059378968952380574;0.024041015092205083;-0.207777147681862;0.0012406276684748636;-0.3918740555012422;-0.2654574066888369;-0.10941265453689533;-0.08515609696455764
2000-04-01;0.1934282688776137;-0.04106764413783298;0.07821678331225881;0.0462339824642792;-0.17183646864473925;0.1166451054292834;0.1857279331485681;0.1015084645998394;-0.008545465421895758;-0.22247743186428284;0.08264677135647464;0.17517789018858765;-0.034461820919333315;-0.016725651857150005;0.020013885686592847;-0.03767881710170913;0.4209395678191181;0.006794701855885061;0.1957249682017315;0.07102111797305509;0.1373331162766004;0.1260577073793324
2000-07-01;0.09181589303310904;0.033143842085412205;-0.18512791695520944;-0.03339969345579692;0.015394762505390656;0.039184206148860944;-0.04052495092861563;-0.22678498564512395;0.5013156352517697;0.08456920294884741;0.026967494922830258;0.06840231795460279;0.13624708578979705;0.03261290944784588;0.11766799112973145;0.09633522566198027;-0.15899183326406438;0.013122195109465386;-0.11140162387850196;0.045159883143803516;-0.19428617590180008;-0.034745257310094084
2000-10-01;0.28524095406047323;0.06493310921541724;-0.0803934702031775;0.2881130276932197;0.1399579692613363;0.3442546263316959;0.2320606490828092;0.07648715266857323;0.3495169820007743;0.061118164425307535;0.18926931312814765;-0.01341906032804242;-0.003498789042744789;-0.06387597432501897;0.5671779724786099;0.2423405097937564;0.047952466978762966;0.24495461826879544;0.6581941624718414;0.10833965556739453;0.2920531063851373;-0.01705831089187754
2001-01-01;-0.1431880525305809;0.2469655516280133;0.2694696448064277;0.14122290024663095;0.29213419364332915;0.05929976966451182;0.01900082299665794;0.20634405252401186;0.7261122107460323;0.1722264414699479;0.10583293296284878;-0.04842702117022138;0.01782502916827365;0.4073847803036752;0.17068028099386467;0.008830702582373513;0.2463237314855032;0.024033833365543503;0.15033587392035547;0.14994467772686404;0.31940987969462536;0.09141590016785547
2001-04-01;0.04404177784838577;0.05216447765509697;0.18817480273688586;-0.034060392816406555;-0.017544569894058108;0.1302774679941021;-0.04718676763349545;0.07587668474888754;1.1903170912535954;0.09146130736767684;0.024117454943337408;0.045162319914555;0.04294958208291395;-0.21943751868711248;-0.0022128813569648174;0.09095792078439408;-0.2140621918970753;0.35390107430311313;0.020824443604206527;0.08913319682272289;0.19726802794905915;0.1158321003489537
2001-07-01;0.16672731885098974;0.14812251555218406;-0.04401696060433605;0.17912903635610058;0.07565148818108608;-0.09906246382962307;0.13092289099243518;0.231259998159874;0.010702275365062741;0.2506704847451483;0.00877965178480928;0.042243643416561734;0.12955393032177395;0.16397503623769807;-0.13001437756222564;0.09091065992615822;0.09836486641497104;0.019501056651463976;0.09811890619073094;-0.04279093649862455;-0.07610161906791629;0.025218158273438224
2001-10-01;-0.0017344505961373244;-0.1228433049537818;-0.05851466225906106;-0.08776672722022773;0.04331620347572385;0.031357192435329244;0.05741032541625257;-0.0037559307246294244;0.1803570291683258;-0.036915547458914406;0.0661072086146204;-0.09229200230063994;0.07394653275058892;0.06026900532115333;-0.03537332010067059;-0.15278393970015694;0.07100244281017816;0.03165924593165518;0.004429535773422114;-0.016492834699256647;-0.06570146739876392;0.02089302127184185
2002-01-01;0.09885454450340243;0.13347582738797534;0.646309194556921;0.1647047399533147;0.15110842874712324;-0.015774742544897625;0.09297545088781477;0.102230760719739;0.16117572685632042;0.10114591915554964;0.11431569561899972;0.18130137416606715;-0.003919277859169277;0.2354994059639352;0.022143550130134252;0.2772332744175753;0.14474453761044714;0.04604327419778794;0.23543136446858284;0.21029896169949205;0.25570991518911074;0.035372316348771936
2002-04-01;-0.057006488057404964;0.2971741442720344;0.2986741942056212;0.2612086457851039;-0.013076252418984613;0.15377843755001772;-0.10097925047282184;-0.02083198217026184;-0.10793327639658404;-0.0354393814408903;-0.025390166676103082;0.06730435548698532;0.11386778257146175;-0.0955271465654874;0.2936322240730719;0.03735592338249113;0.11491386666332312;0.16605090047877727;0.06377074033484653;-0.0725349805239113;0.10340927008850527;0.17038145553720901
2002-07-01;-0.22500346598330886;-0.14189836583475793;-0.05045620451334088;-0.1000743347968329;-0.006988762289026539;-0.08733366884141201;-0.04838170127990957;-0.10283341270077434;0.026309945457020163;-0.029293458986725408;0.1642105336539139;-0.12682013607797854;-0.17352531321862966;-0.057808729756656414;-0.1395276677235427;0.039320212027035284;-0.06075088716351682;0.027390183607775773;-0.18169009238942704;0.04636123456168192;-0.09679516553811172;-0.010181839556558173
2002-10-01;0.02696759589355852;0.08671048140587673;-0.2133891604836496;0.11870998424851785;0.2523263108836943;-0.17598266083557745;0.009409661299103077;-0.02937070904678884;0.10722593350050784;0.04293530921637147;-0.16330153611289736;-0.025789188657944804;0.12102652506723408;-0.02074166156787958;0.04516215541368842;0.1943605702286144;-0.04318485677690995;0.04439544751544335;0.16569141925765185;0.020252891083266337;-0.020924086640522817;-0.07827133373404524
2003-01-01;-0.07758112900860686;-0.011817827332812643;0.22427636721219527;-0.09103111280778756;-0.14352330211475994;0.15883903515246786;0.10114116477204774;0.008043227494601048;0.2334901749932113;-0.054630276647207515;0.0012667224149311394;-0.017403355806422383;-0.08438510974439029;-0.031011225688184787;-0.07728571668936864;0.26767855785062783;-0.020588256672441227;-0.040761272791008656;-0.09998174306161008;-0.018714113381608517;-0.014829085084795253;0.07426206255622253
2003-04-01;0.08005811502905187;0.10786035954352992;0.18718967013970786;0.29613183684691785;0.09565754637247677;0.11776790979164005;0.0159479663793779;0.09506286556803913;0.42166131450592;0.041001358510406205;0.022033941793123672;0.10305363468606707;0.055624247938484944;0.2304628070829257;0.12926215584912132;0.2765888741411395;0.052589339621941365;0.04500098367618298;0.05526492394818154;0.06089060452378894;0.15311936954974142;0.10458268563662093
2003-07-01;-0.020638720008885853;0.06057827792174221;0.152685771051346;0.06479682842493306;0.04432150732036562;0.03622170325166462;0.02923988499640107;-0.023519855888972967;0.013255746388440535;-0.035335479125581;0.12678795386314234;0.17383826244351158;-0.07709020330326229;-0.01368100477610368;0.12255065667521595;-0.21439372231870965;0.08218033866792764;-0.010696413377049872;0.01801544362142872;0.03954395170604375;-0.0036112499286477663;0.0853706532805683
2003-10-01;0.0996412340114678;0.201163695993412;-0.0253518463035572;0.1334316269126511;0.16742904230795028;0.04704308166838343;-0.010831335687800713;0.03783382601805008;-0.07647230674163125;0.15399920591779248;0.07069803896605092;0.01378405563414646;-0.02359598675775133;0.2605087409893876;-0.02867328468293932;0.10995024799993444;0.12382550905672425;0.06075610741114627;0.08692848221113741;0.04302200564558508;0.14286362615567866;0.1808395535240559
2004-01-01;0.024036725651283185;0.10386476684127416;0.015417009696676375;0.1568744644155718;0.08260914256249602;0.06416278963144435;0.02505664455745925;0.04542514850349777;0.1564000721734385;0.11175236586281696;-0.010470028731768971;0.13111999173662953;0.06647897913466923;0.118066702976414;0.16434703615607854;0.26719886204163634;0.01067740385419775;0.011674351127180295;0.1026067444222805;0.04797149048558196;0.028901652273431867;0.022956232836194624
2004-04-01;0.03452475123757928;0.03777114390379418;-0.013842812957983428;0.02403251229289395;0.14137645021752832;0.015234427258685243;0.08625056363789628;0.09556890752085248;0.2457353469640864;0.1506468305457716;0.18840891226511186;0.1416427628840977;0.015880292970691674;0.054893434182690784;-0.05902096357700975;-0.04313720192309304;0.1331033033584252;-0.0236363101722472;0.07518851560904043;-0.06682681880651728;0.1130650194127904;-0.03985596940130617
2004-07-01;-0.030933669548273424;0.17226617669638114;-0.010971529924662316;0.013117826188802998;-0.006463316255810106;0.015203322508442;-0.06802636823094244;0.061838866590467924;0.20887114413839988;-0.011590059770409923;0.09971264458615954;0.026016261317859942;0.028285829466331125;0.03403020444350068;0.02468016607249006;-0.0062059939318040965;0.06590740313661264;0.030474638767748776;-0.03741184402095935;-0.024190978257315816;0.10875462823490524;0.03832101508250287
2004-10-01;0.09808249291911413;0.07465598262664813;-0.04426721111921615;-0.01407481641880969;-0.0685524531451026;0.03419464818428549;-0.00107113980774168;0.06563924997446663;0.2643515870186752;-0.038667322458170665;0.05128626254954767;0.15632313115755908;0.06164343131744004;0.14189867301687875;0.3099644315889705;0.16131386923533522;0.062490069335351776;0.0921289929530624;0.030408637463849742;0.14143757379742286;0.10053602374786094;0.028794464660341974
2005-01-01;0.07003306510188892;0.16757286286504905;0.059236448297963276;0.10032675946169116;0.2748417941727866;0.100432290151967;0.21420595627375544;0.06860301116572501;0.2468618502706855;0.13985184989844246;0.1588082089538369;0.050114376072759134;0.1134930453422684;0.09058669149974156;0.055282205241673536;-0.04249559169410822;0.015123505478356909;0.08110967911182652;0.05171283070201069;-0.0353766797089964;0.008814619469574715;0.06025546587823712
2005-04-01;0.1046739342345364;-0.0037134532825464283;0.08989580711889235;0.17536898030510376;0.0533855798836224;0.10797823496739052;-0.05598383456995208;0.02074860767811916;0.14247690562209014;0.005475800632374159;0.0963936386721396;-0.029034019171117025;0.06533306398012093;-0.09231289283888494;0.06379456154434296;0.22184227520527272;0.03656006181206515;-0.01389820202986057;-0.08911464814047874;0.09295049471215372;0.08565745191707995;0.0446747780324222
2005-07-01;-0.0399773858085367;0.09352715000091133;-0.019511634157199302;0.07367620517592882;0.04951009705721724;-0.0015403030293535869;-0.028317823813353626;0.07522004079785535;0.3786606928749849;-0.032199694555347824;0.002926442593184897;0.17776261603383806;-0.06347751568785033;0.1173180747429324;0.2381020530858059;0.07195418829923182;0.07326515942138713;0.07401371283837631;0.048986740116892566;0.11996664710381826;0.0644905213559632;0.15299076334289008
2005-10-01;-0.06606641124686906;-0.0063786729330515685;0.2428685424101561;0.10618979852740867;-0.0605895218912421;0.04849468823353796;0.03295075095150619;-0.02440931581516053;0.23850666638950865;0.09265785662149506;-0.10662509697316737;-0.07961608583687578;-0.01589637910421224;0.029704681860464356;-0.1623077581721301;-0.07778603244304576;-0.10226829209880976;0.010649744704590082;-0.07437202725695928;0.0016436644294847266;-0.0975878230840006;-0.046841649362458576
2006-01-01;0.016050851806880095;0.014885986564770227;0.3725502191531857;0.1414278555413112;0.057266687167598425;0.010250056188497128;0.021283745319299663;-0.03461300728259786;0.28649298720852023;0.07170975916179928;-0.09498758228059627;0.15447905968584855;-0.07631171406887449;-0.008522181772234745;0.0058737595756708965;0.1446919475444479;0.2492411003698617;0.0052903130682762645;0.1987643478337707;0.2992567152499982;0.08483185934387047;0.1103219924225088
2006-04-01;0.004201875192068974;0.2032191548202416;0.12585220044608764;0.06869104524410959;0.003079268891781349;0.009675022233027176;0.02909211681383255;0.034125398129526564;0.05489309480717428;0.017972602128466568;0.04664328817873825;0.10896291182467276;0.024365676899849014;0.04137816542925278;0.19510346760196;-0.04305982363242702;-0.03173674079682587;-0.0638007073007281;-0.04573466943952845;0.045049111256628034;0.12861005207665802;-0.048408518001835744
2006-07-01;0.13422150456595672;-0.1350525550904187;-0.07771980519342164;0.00360830371621518;0.0017425087477204151;0.06862814414178049;0.06616739778390175;-0.0383447800837166;0.3167150915756845;0.14309891937917724;0.03507171231529491;-0.14080676743494966;0.07384824693701242;-0.0041120837373532495;0.15128911932145211;0.06022989868725746;-0.00163637108573909;0.061082517487357824;0.021583098802504842;-0.05581714878794238;0.15003496977365108;0.09312742824224354
2006-10-01;0.008472584818358761;0.1056174969779418;-0.15949677124242725;-0.0002445321642809462;0.11982188183005935;0.04979767480357579;0.10975067173814426;0.10214083932763103;-0.05632895079611381;-0.02815159466872837;-0.03260722741544097;0.08474295205688677;0.08379026761995445;0.19978557764595187;0.14089022123516098;0.03969774741383905;0.17634615087774336;0.08991080892113007;0.20096972949883526;0.08233761635019707;0.1592501862087587;0.1008213404102211
2007-01-01;0.13048586248100594;0.11841720694354026;0.12286369317778308;-0.07308157180982215;0.12433268748350235;0.042102463002817836;0.02012282290607177;0.051369129419751136;0.11111940543186284;0.06626371309869071;-0.03037905445579041;0.11199275832851248;-0.0033040239878186595;0.1088480564069783;0.0490665229239364;0.02309225303007457;0.17142003161951855;0.014306700636805437;0.03130183589231367;0.12934960086604635;0.02844404718381785;0.023794380984259348
2007-04-01;0.08146422259409833;0.0509020868226058;0.0205325965739233;-0.0035584438148291127;0.12665377811214767;0.11771637976009243;0.06024289446212072;0.04766412471453175;0.21118736950264447;0.02141272649864107;0.0822572168007535;0.015891958691769462;-0.033025500348956065;0.12192516005163165;0.1489723229399734;0.07571804539894142;-0.07271868464134433;0.04558369899568325;-0.0473244320017895;0.1466417115518832;0.19223702445413002;0.05891433844285119
2007-07-01;-0.09397815523311634;0.07935097073565801;0.30892948030405754;0.08886483528652303;-0.02752185668944244;-0.061341715342002175;-0.05965214034183134;-0.03003500060244628;0.06332789699710854;-0.08171289434048498;-0.15685458503317354;0.04073076641962387;-0.051758782788560435;0.06219647227942034;0.06589570134781568;0.04882264051523879;0.09797794041854338;-0.10030272347665944;0.007832284771017188;0.05540157382891299;0.0017899492335346364;-0.11103942902428086
2007-10-01;0.0915008271110893;0.20860148525135486;-0.212248430256822;0.13517977716283566;-0.02919566035054664;0.10614449955632778;0.051932961010695236;0.03903014767615888;-0.06468378809276595;0.07728567743895433;-0.058704312127444314;-0.018798917091534386;0.08443609465717289;0.18965267241137196;-0.00012606056565845307;0.29471381612548864;-0.07857882508698552;0.10248504638847347;0.05596506435012427;0.08861919694715648;0.04570398975623456;0.12835467108023774
2008-01-01;0.04156842755953548;-0.060180093336611735;-0.036391714979941814;-0.14010193089794154;0.13201900027212096;-0.05340904952740978;-0.04261635705077205;-0.09788990684575996;-0.22534479870028734;0.07969995084268312;-0.15468396805775453;-0.1155185273460054;-0.02512345729495287;-0.0613071373309048;-0.043036068430153916;-0.11538534582597247;-0.10220626492496147;0.003103152584928474;0.10716814942342588;-0.011278023361417559;-0.08186108025022275;-0.03892803578959685
2008-04-01;-0.05035238028047027;0.10524276571205148;-0.08673777705233819;0.12196123034351455;0.07400839609588196;0.018480606160344536;0.12326686410300397;-0.02427499236290198;-0.13746418038271174;0.036717284431564766;0.04180777471708561;0.17921404352836326;0.06960752863553574;0.10592132474498696;0.04379222767705225;-0.08892000075007725;-0.024959268880182097;0.035094737869019024;0.031104030476839423;0.18112631217929698;-0.006048854799108596;0.054815398189569736
2008-07-01;0.08313143798132372;-0.010996826544883886;0.3296159245065888;0.08083673710537569;-0.028594287300479426;0.027123474600781974;0.08024826941483744;-0.046812284940889536;-0.3058438721312791;-0.06485193271766677;-0.008393546747371082;0.03481120982435288;0.02776206669232546;-0.1094983860703148;-0.037838503845262036;0.08638885256517591;-0.031446507490485893;-0.03857649068010996;0.061089790919681274;0.14191904086177826;-0.004933454762221419;-0.03849000833165142
2008-10-01;-0.00814530163512763;-0.30313967427951544;-0.1801518028974955;-0.19353325149574213;0.08328115265187278;-0.1713869977302339;0.06699821171421136;-0.009887756955713443;-0.3063735002426209;-0.20198420216526167;0.020797002036269715;-0.3850793715051564;-0.09831453752127396;-0.0030790708604007053;-0.2841108669852291;0.041636337819960685;0.07527853226439038;-0.01817322752968259;-0.19560195414408876;-0.1846500047815369;-0.20673515776220291;-0.02467199122578063
2009-01-01;0.020496298250312985;-0.034752661484825836;-0.09334858379056947;0.02512943040431536;-0.09355114675529118;-0.019884751118803137;-0.11545445138645485;-0.17754908825108887;0.20878414874707615;0.07901951886780044;0.010234964055082956;-0.01953342507213285;-0.05168780425878548;-0.1994261397575127;-0.05491577308629007;-0.10038736219277644;-0.1554911231262055;-0.014014050331347444;-0.26179718709875005;-0.337009157013148;0.06691327972674965;0.03840172152187122
2009-04-01;-0.2336435005211201;0.012425788932721143;0.17673457675159082;0.05054719375259077;0.029034524655521445;-0.13067794907579053;-0.13031490518489294;0.07624153784728856;-0.0913792885264342;0.07549967682176682;-0.022181966907584283;0.1225233508707459;-0.08486406507191037;0.18746544818988065;-0.07725199303866241;0.16989627730046206;0.1953629582894508;-0.12594092807130905;0.46899445771692894;0.13757403619119174;0.11621347900441124;-0.08941314928325818
2009-07-01;0.0957777788001975;0.008509359254194805;0.3053962733837338;-0.03221535688114978;0.09116546656391884;0.13644872272441022;0.1821712317722416;0.05475694578153557;0.03043417471737755;0.17616380498699272;0.11470199617278246;0.08584365172907447;0.17320015940724698;0.09835575719976354;0.3111178066023069;0.03258299022951788;0.026182747382238;0.1033318088017341;0.3180334709039576;0.1838794533637532;0.13932515735260162;0.0942355295915167
2009-10-01;0.14504916760258169;0.08237220101076352;0.04622085346100937;0.13700447196369334;-0.02611552444696948;0.021606982737032744;0.13683844858898234;-0.0009239204576528963;0.3815524301412894;0.038179365872453526;-0.04686534762768745;0.047698697148827504;-0.0223592698415942;0.11879771087638008;0.1264017149329283;-0.0007886773001683895;-0.006485685236454593;0.007164051477712169;0.04517800533774202;-0.03272627990781524;0.13972183180588274;0.031801648509551306
2010-01-01;0.06461683479058812;0.04824448851821854;0.1056707116147332;0.07535633113549267;0.07041208092491377;0.11201529130287792;0.0976641074312266;0.08875583078492039;-0.08903578288839564;0.08393932458232801;-0.028212183166852117;-0.0033308227819120297;0.07294317811441609;0.042477444521580435;0.19554972828574366;0.10243094396137094;0.11725556295538815;0.039956631843569936;0.030576616859227995;0.10648369727436796;0.050406233389081394;0.13765573062210212
2010-04-01;-0.0187956875131516;0.19088800456583327;0.24695790844753046;0.15778295459447744;0.15923961568927825;0.12916426098671138;0.011931340349427907;0.14737155208093547;0.045398518979913864;0.07649340202064345;0.30089485952220624;0.19515895867906072;0.03073499659617175;0.2100664053305587;0.1911434269989144;0.1227346180152534;0.23931706357580104;0.09455064096449026;0.23483704660947616;0.2608337974917119;0.2403234204116796;0.09109368796680907
2010-07-01;-0.023657453266594047;0.0269329065289952;0.08319560914896658;0.10833869149399757;-0.03498228525968338;0.01639869304936016;-0.02516345259925833;0.011199380562251471;0.0008793688359859397;0.07451393049462281;0.006695931127095447;-0.038316806517451986;-0.08832684613002993;-0.015336222524398016;-0.033091582652929566;0.018241558900110727;-0.1101538418189906;0.035644222177333325;-0.09210973305332157;-0.003493275971032372;-0.051077544069479314;0.04980619322033774
2010-10-01;0.0660842813143262;0.2245357100274482;0.04879947332651434;-0.019112274083875905;0.004843711005977892;0.045781265036942055;0.10674936572873958;0.12826717397308546;0.23792725647494284;0.09133132454826087;0.060084836414921176;0.12728972623457652;0.1076108716221196;0.12273122214128207;0.09471802046768872;0.2095730129943828;0.060722921013324216;0.08539062548874425;0.12089893853398301;0.18503484933331926;0.08628827585697768;0.112767443352373
2011-01-01;-0.1046876962885082;0.135569771725625;0.17213414799668902;0.12671259415166453;0.055967381304448734;0.012745605766272098;-0.06699602779697804;0.0900588919649936;0.5114977642161453;0.09641547961441044;-0.05004289688382819;0.10378990016964032;-0.054214607611132025;0.02730514770077166;0.2085161475679523;0.10594338219102052;0.16687236449655454;0.00534181547349973;0.046014083418168636;0.0883797855992902;0.02580954576469088;0.026306025202461232
2011-04-01;0.17486886194937734;0.13147131406070536;0.0405827651530213;0.10250359875349062;0.22164232908840215;0.07779446857063828;0.11780505044693028;0.04655724191389809;0.1862249165981746;0.21508075232793952;0.2443736949083249;0.18763581693209624;0.10949241452780004;0.012270625084391177;0.21198602782728032;0.11328528079602998;-0.02456126781063666;0.05045058856061798;0.14526359744887096;0.10247076770500138;0.2502730063310366;0.053794766520447714
2011-07-01;0.0058843980442449505;-0.07486669171549147;-0.04445601456486325;0.0415633401413877;-0.013569704938988509;0.05457189164748432;-0.024391524072048656;-0.0012591738454405265;0.3083461914531652;-0.006001424360225997;-0.015959269350835262;-0.11246072604982778;-0.005600912834286844;0.11190033653205424;0.05912119406415425;-0.0824223442508235;-0.058203333219614926;0.02525785955875267;0.04628976935376865;-0.00030952514987257366;0.19557835725404105;-0.00980335438190505
2011-10-01;0.06977098830612688;-0.06786367723287075;-0.09047477719325683;0.03318525793128401;0.10458700614655934;0.0755978656673719;0.04009789794499523;0.08961194313479136;-0.17132389527470016;0.02593910363842416;0.02025484057145381;-0.14212772799619128;0.002680292296576511;0.08429069013707548;0.0632063267873597;0.15082692697212155;0.07704621632961242;0.1055583893953542;0.081836604780127;-0.01797786954419477;0.21228280561332208;0.06771773034675099
2012-01-01;0.024648698756862087;0.19176390460018614;0.1632920336172973;0.10494069231889566;0.034996823854355735;-0.020558282778487855;0.04209547940319306;0.11894325358188025;-0.017950289871803547;-0.01474988262107921;0.07385640611178525;0.1489189389498649;0.03310565054466959;0.09569877220694244;0.1123005505863042;-0.010795558484113907;0.18420477469890734;0.0662842457598823;0.17097712289573352;0.16269837027355324;-0.02731999970419322;0.05669722081505326
2012-04-01;0.16688039302386995;0.07282427436348192;0.13798436649992224;0.08066368083337687;0.13106211089847633;0.05381217641880268;-0.01623189182481663;0.02381879235973841;0.0697654823923348;0.020192334168454902;0.10399944011027892;0.07357946115427581;-0.0035648854272898743;0.09032495863582822;0.0494421981495481;0.0018035202575741038;0.2380913432626548;0.018949748117975444;0.2310600848061301;-0.0057652100265452606;0.18130579894738533;0.0929761098941851
2012-07-01;0.08770707470540734;-0.07369193601871805;0.05239084792227827;0.10059671695694276;0.14441399361304952;0.05118291846049822;0.0028209216692609658;-0.0033773417264735283;0.2394386642861765;-0.029282957370638088;0.07661174493804854;-0.11495611920242355;0.07363832478263903;-0.15433688344132626;0.05384989494966259;0.1191897082119094;0.1206674343884765;0.05941602008105979;0.06753334978868733;0.10227127218398864;0.004171032056181035;0.11497728801718353
2012-10-01;0.004035951267599697;0.1487309499071561;0.24977710185247765;0.036389925407757255;-0.11088673328789668;-0.018575856439340045;0.0444877772058851;-0.014777322917222509;0.06301525695980187;0.06918082629538193;-0.0352255229076193;0.12095184872223864;0.032411750561000166;-0.006609059294072633;0.07172401896802116;-0.03130556788378113;0.06419443507546033;-0.0171502163059886;-0.055043103850859545;0.013270676757681626;0.06971607899121951;-0.04846710927386952
2013-01-01;0.09459117281399833;0.1548823651555655;0.15933621590832867;0.019249159369015743;0.14914307727174642;0.036012046153018035;0.05504207487142746;0.095477332639411;0.3746916005655034;0.1840086407871157;0.16067256384962364;0.1788932105878722;0.05300304741132147;0.2036747530906297;0.0018526188735971906;0.09888464231074924;0.14011018367835673;-0.04573908527193432;0.0912524148513341;0.08071960834040366;-0.03381546506690796;0.03336561218587029
2013-04-01;0.09425443015495526;-0.0054250534608715605;0.10131697380507168;0.09995208861390144;0.1159736004761098;0.15152692705946966;0.2118065018470439;0.1303543907336907;-0.039298483593071386;0.2043262208366616;0.1280748679195914;0.04725081635588802;0.16222628277166967;0.1858536682335485;0.10209979288079027;-0.008160252849770476;0.13288813929935894;0.10256891839330516;0.08495639932757322;0.13729780874495998;0.23541228166011866;0.14947733959835535
2013-07-01;-0.004096633690150612;0.13842691993373046;0.10985619521798776;0.038127241567186006;0.00588443955693798;-0.028607110514459605;0.03836706388505639;0.08172123686288707;-0.06341830206403969;0.03476890120479933;0.06911896281788373;0.15157431008765812;0.10527778570911332;-0.004044696691183332;0.03926223731615314;0.057272662453398085;-0.04635970975418833;-0.06031971702080074;0.07319401854255113;0.08130367210669759;0.12786444735693056;-0.024799966289373983
2013-10-01;0.0018532562061845267;0.034887846914206065;0.2573711847216719;0.016151763792614692;0.03211389553105673;0.0854278515859159;-0.02281089063510298;-0.03179213282293316;0.02925757273288003;0.034757705745325024;0.051416566871962666;0.1638592374144144;-0.002055945568470276;0.2121024005032772;0.0758632039455435;0.09266012435764244;0.08248417807739314;-0.07720079428226234;0.17464077385600704;-0.03541428377396057;0.11264344549008867;-0.022881149917205367
2014-01-01;0.007260882194083843;0.034516668428511865;-0.08141533861037217;0.06537975487502916;-0.00017581303306090065;0.07458428931813864;-0.0399985032872316;0.05018882931649858;0.022248914824172523;0.0538458275016672;0.0067537763621230715;0.0451549085558696;-0.03803465939144781;-0.032366236948077484;0.22154191023002312;0.05054470228366231;-0.022563946430565744;0.02042601117951363;-0.051967056060325104;0.16213471316391967;0.1086653682256109;0.02264979594255861
2014-04-01;0.06264562157264307;0.06797830549855198;-0.0032254082364367477;0.17530245193003546;0.07897840118319817;0.07724901024425564;0.11260417354395652;0.06618143900451069;0.15555052077370168;0.05859431704513615;-0.02741124075981986;0.038785994437841566;0.15314627658322694;0.0075395546288575515;0.061464289168875676;0.052770857262831324;0.09350160229703926;0.1252657001956761;0.019283522050302284;0.10416343923551794;0.0500570250508896;0.14651884314152958
2014-07-01;0.09370603407956356;-0.07489407582357734;0.0051108395804310685;-0.026602151048373632;-0.061437649798220285;-0.05941974943036193;-0.0465914102600195;-0.04292874763445165;-0.09077359174941832;-0.042866549707711886;-0.07947920873315073;0.02083213989497445;-0.0049601973928218674;0.06399594225743761;0.028325457160810905;-0.051329690942310005;0.034817419150456164;-0.04447603902109548;-0.07866234763062176;0.03712364679874122;0.007335621415316992;-0.0934411774185348
2014-10-01;0.04045043605959498;0.07289491848335693;0.14949956919553284;0.07797424278088504;0.13891101835765893;0.06329875796591329;0.044105399507461424;0.17989078786270826;-0.018954009883849286;0.20109611407274405;0.09439846115949024;-0.008489895949536627;0.08411423216999442;0.2200990295726222;-0.0771799978822653;0.13513045879995292;0.11604059523552135;0.08373710886853929;0.1959012926295764;0.19015572933823965;0.10935045551799223;0.14988461195989794
2015-01-01;0.03229647738476474;-0.07987449504721249;0.11997487308464395;-0.033038714544603144;0.12706600850336394;0.08733236044622217;0.018328057094876143;-0.03724400517694086;-0.1931003671594488;-0.04236364058564264;0.0717036644528435;-0.030086337224986593;-0.06483386495352797;-0.002021889424973393;-0.24547072171228945;0.04468302250654154;0.1844367166403406;0.1065615761937101;0.047103028272473736;0.01062424797306776;0.02968596298941587;0.13191363274001022
2015-04-01;0.04257623457346698;0.09625485010434566;0.08233110120901221;0.024186745436154386;0.011229789341567743;-0.059537039499137585;0.0626991521180123;-0.026981864935320524;0.08805819885638341;0.07170114275762142;-0.09616620569771518;0.04071400295461556;-0.0024525756794278467;0.07766943361774309;0.10742877343677336;0.134636322488645;0.027201304301036015;-0.10683730130822136;-0.016129591133021506;-0.08959674169922434;0.048796829524964884;-0.11226679509916336
2015-07-01;0.09757316981802984;0.013682468497065751;0.13044522551788898;0.21160673597263613;0.0722470125215006;0.009418731688295979;0.06017940500850735;-0.0032312288241429826;0.25456558892483544;0.09895655368817648;0.016271461927896733;0.01784007895956289;0.017547940340282866;0.1721051471219304;-0.2044352982133623;0.17509428916126693;0.0014608584323067744;0.02249350770255435;0.08865030779791602;-0.07639629225769491;0.06949122959895337;0.015644428050809657
2015-10-01;-0.11192763626570472;0.03511528202238777;0.07541779842695505;-0.012539399861312304;0.004754142514991486;0.005505015128767066;0.005927834043182514;0.028135787563903142;0.021911683302084557;0.15079939736819958;-0.03909840886730268;0.01374881467420474;0.01589528132719074;0.14299759823419456;-0.08862346050132817;-0.07148156940309074;-0.03697000155424025;0.02015590172018188;0.05457936339655593;-0.0784078639170994;-0.11996187149600585;0.05713847662589695
2016-01-01;-0.15022795461921562;-0.14037139664076315;-0.08602552416946735;-0.0708432784546181;-0.01633765009467049;0.019930843877523124;-0.011989141428245384;-0.04408505455483744;-0.28116852342738463;0.19964811209590816;0.00035486664520380977;-0.0513748995010601;0.0413730343051308;-0.0488993122909926;-0.25194932413448057;0.03189798679262588;-0.0394098176100609;0.09792795604156827;-0.02100538754896789;-0.18891956184650996;-0.06712384527076974;0.0913072200466086
2016-04-01;0.03422669584899224;0.024003491331910227;0.11335004693752128;-0.006924134048452513;0.11250498803361196;0.00031108371833824894;0.09395638570418567;0.12165625844784918;0.027829746748793557;-0.0268624307853669;0.06361028604272145;0.13455956176557549;0.08092919138054656;-0.04705769705630662;0.4908648488479517;-0.019066116171684275;0.12739968899732915;0.03553699450366723;0.0709026150381885;0.219905085809376;0.013190791002962684;0.06312581718557476
2016-07-01;0.1574133043572979;-0.020175981523383225;0.21018491011830515;0.02839017140391126;0.0675984357032044;0.10232649806049646;0.1804586521836507;0.0726094906652218;-0.2773959159626696;-0.027587270464557556;0.1972505693022279;0.10079855504334603;0.12530409486251787;-0.05561345560190432;0.2599064427099753;0.05460526762879663;0.04623144133940956;0.07988209281133153;0.0850698293493826;0.07384382056876028;-0.0036039712366978545;0.12437181817308178
2016-10-01;-0.11772704677640396;-0.06053598641206684;-0.02244505069493975;-0.055648142970011576;-0.01058063701819879;-0.02705742383799409;-0.13210842760511696;-0.10817961531132413;-0.0064753308573907535;0.034894109096153064;-0.0698898430947919;-0.03346589101121169;-0.0676052246568367;-0.09085421342480997;0.09596864740916244;0.09964503775105303;-0.1807042848393977;-0.025757448632696262;-0.09173877741211624;-0.04682626292634449;-0.1259220169834966;-0.07260928839968672
2017-01-01;0.07124175524552666;0.1609064716186416;0.08211714002409297;-0.007521743897599763;-0.05917166119327572;0.02377743867538525;0.015800469720531528;0.07591739390581967;0.17433952565614808;-0.05353620111918092;0.03587264189730738;0.047108788207006654;-0.01687561558406456;0.05800833695827005;0.15232627934487405;0.1496775202977576;0.2446841964310339;-0.030284141549954288;0.023119762004911597;0.2158687589382385;-0.04282338601692938;0.006001199836757687
2017-04-01;0.05151776152276264;0.12126021764893145;0.10840983649499504;0.042593396600240266;0.09959400646198137;0.02504412883160978;-0.07239299713551621;-0.042567968480130836;-0.017623511100533288;-0.028901310527259895;0.031761910530704096;0.166300973080567;0.09745693361079506;0.050711718720278284;-0.034676609853244326;0.10655603315063747;0.104614714290995;0.0192908720452515;0.056948856951421635;0.05646881441654245;0.0702611892397777;0.034174082501568864
2017-07-01;0.13384074180935165;0.078137063633722;-0.0034803755388844305;0.048560712454999766;0.08117902589225567;0.006146926908036327;-0.024126804727816552;-0.07023569868502667;0.03789357163762176;-0.021081733516684218;-0.021346567951783548;0.11639813457574012;0.0820451750718275;0.06932446996592988;0.08754314218973243;0.12279207419122047;0.010287747793028709;-0.0262250698997437;-0.09875017479688784;-0.07528586970610407;0.14791662082022544;0.04943741188636385
2017-10-01;0.10878635177413053;0.09749002983758794;0.10837216421905517;0.1591881239578365;-0.15006999414556507;0.06129501164835593;-0.05877908514427845;0.047140904701513935;0.2966772560340221;-0.08331174604079553;0.014436685772548969;0.10372780265733283;0.0570888297142515;-0.06555515103895815;-0.02757127298692631;0.01548662537054884;0.17461544842129426;0.10213658173186076;0.0016034700033202053;0.13115715167290393;0.13581588155889418;0.07889422391773103
2018-01-01;0.1518359296345779;0.13195682819058974;0.13069664332755315;0.2202208662454296;0.08600107789192507;-0.049209004698816027;0.1372387514189933;0.18808770379229606;0.3076866991323776;0.10788431742507436;0.045312954293909684;0.1224362636542826;-0.002681032296332778;0.24470940287629075;0.09993705719198227;0.12796287255093844;0.057903711746620776;-0.12606454444855933;0.1613434932799614;0.15943953233365604;0.1729619102619975;-0.03849113917798912
2018-04-01;-0.06036056199141825;-0.08354937534611243;-0.07883023541931879;0.032906985211879125;-0.04999967738240977;-0.1193237906795856;-0.24603481047711603;-0.1446213616696928;0.2747655261295672;0.06739476307628707;-0.16105979209425245;-0.06588025044224434;-0.07880472093686446;0.005524367331000278;0.03627709607403854;-0.012265288780870246;-0.11664936274141965;0.03587271795418575;0.06521145294898771;0.006266364790115838;0.003340991551222388;0.008784111004890415
2018-07-01;0.13290006454422584;0.11668858101985265;-0.026869936832417254;-0.04763452304770671;0.21552732463935806;0.09149959704869147;0.06451216851280482;0.1102814029809438;0.2342886447626041;-0.002393506754192076;0.07585964736318157;0.15260559147516306;0.05544181418860375;0.1277207206827264;0.18538373968780567;0.13710088570792464;0.20145452824192095;0.06846973528162917;0.15680035276150328;0.12739257009114222;0.14514343074486025;0.041769136373286574
2018-10-01;0.05660499712829708;-0.1362727285454277;-0.23284018370720236;-0.12665893054538047;0.06622432463938499;0.007568462670294664;-0.03860717687725752;0.013485639330378676;-0.09152889383445677;0.21932005854849415;0.09894813457539328;-0.17166299929820458;0.06340869973924199;-0.02191091743451235;-0.05735820426510488;0.08157715991313491;-0.105477383668018;-0.061603453882593674;0.13854788307773835;-0.019282585455674555;-0.0949722664276287;0.03913582244617416
2019-01-01;0.06295425500958916;0.08887706398015162;0.0566733673265885;0.03042223859917484;0.09188369354048287;-0.005496959934791146;0.0259366756594239;0.02656294054258729;-0.16014431560506753;-0.025805306785145848;-0.003156844174993249;0.09048796987513738;-0.04330678006232312;0.09439007336840097;-0.008103435261482848;-0.05318747560839834;0.0735139884683292;0.09318279855102066;-0.09153489251901643;0.09363820297151676;0.02249161835942977;0.0760816034562691
2019-04-01;0.09521678050608888;0.2115565101042977;0.10348438876542296;0.13162634637555712;0.1641226913273058;0.12248299008840112;0.17216906837201376;0.03456684406278133;-0.14768210127115827;-0.05163333299122663;0.18444640518549688;0.13995980459819188;0.06805271340491123;0.07542716119234512;0.0726593477533151;0.041306602537780006;0.081803691039767;0.1085811051241708;0.10790181312537843;0.11875514638316037;0.1288177379707017;0.08245290135201894
2019-07-01;0.0992516325134329;0.017998674478056132;-0.13202299910583046;0.031831135230990265;0.009645592006712951;-0.03456064981212702;0.04181227334084537;-0.04566831906644983;0.05049747936926818;0.031501504303393005;0.2220916357670729;0.07730036922811151;-0.07145162118071151;-0.017767920807935926;0.04460311131195502;-0.13043371644209753;0.13094758792949238;0.06824547086055982;-0.001462957521312451;0.02175733877615796;-0.010994769364383615;0.09781119939292553
2019-10-01;-0.0364740735986531;0.0243619011929598;0.09858484732597687;0.19869174230747771;-0.07020872303497726;0.12421773439181337;-0.03360384957776947;0.06508600321463838;0.11188925819053824;0.002668521736500373;-0.027358467070914258;-0.07272296260498798;0.02157430886646692;0.04360511890842389;0.009083436328859436;0.14025328708521534;0.11799853649013928;0.1270719348566437;0.061193541414077936;-0.07485698630373397;-0.053714573660126316;0.11190041221766732
2020-01-01;0.046398074819530434;0.06154784086041719;-0.13649081754021006;0.035061343799827616;0.06473820988994254;0.050482510893487036;0.03611582236951938;-0.08108164906329407;-0.17698145097786638;0.16175470256728536;0.06201784672194275;0.05685369686576267;0.1352727012968157;0.07818290368116641;0.0864108336559397;-0.0029007129381971104;-0.02491748038281069;0.1348007909556918;0.02816027468833134;0.09030936500627296;0.01364447958630625;0.0653667595019713
