Date,Open,High,Low,Close,Adj Close,Volume
1991-06-01,3.11488676071167,3.438511371612549,3.11488676071167,3.2969255447387695,1.3706920146942139,25227600.0
1991-07-01,3.357605218887329,4.247572898864746,3.1957929134368896,4.045307636260986,1.681830644607544,27880400.0
1991-07-25,,,,,,
1991-08-01,4.085760593414307,4.4093852043151855,3.6003236770629883,4.288025856018066,1.8485424518585205,6510400.0
1991-09-01,4.288025856018066,4.530744552612305,4.247572898864746,4.368932247161865,1.8834210634231567,6637200.0
1991-10-01,4.348705291748047,4.652103424072266,3.8834950923919678,4.368932247161865,1.8834210634231567,8641600.0
1991-11-01,4.368932247161865,4.490291118621826,4.045307636260986,4.105987071990967,1.7700666189193726,6587600.0
1991-12-01,4.085760593414307,5.542071342468262,4.085760593414307,5.542071342468262,2.3891541957855225,11290000.0
1992-01-01,5.380259037017822,5.582524299621582,5.218446731567383,5.339805603027344,2.3019580841064453,7467600.0
1992-02-01,5.299352645874023,5.501617908477783,4.935275077819824,5.258899688720703,2.267080307006836,9042000.0
1992-02-24,,,,,,
1992-03-01,5.258899688720703,6.108414173126221,5.218446731567383,6.02750825881958,2.66206955909729,18217600.0
1992-04-01,5.946601867675781,6.0679612159729,5.380259037017822,5.7443366050720215,2.5370044708251953,16028400.0
1992-05-01,5.663430213928223,5.865695953369141,4.004854202270508,4.692556858062744,2.0724830627441406,43998800.0
1992-06-01,4.7330098152160645,4.813915729522705,2.669902801513672,3.11488676071167,1.375699520111084,47019200.0
1992-07-01,3.11488676071167,3.7216827869415283,2.8317151069641113,3.458737850189209,1.5275628566741943,25816400.0
1992-08-01,3.357605218887329,3.6407766342163086,2.993527412414551,3.1957929134368896,1.411432147026062,8528800.0
1992-09-01,3.2766990661621094,3.7216827869415283,3.1553397178649902,3.3980581760406494,1.5007632970809937,8178000.0
1992-09-02,,,,,,
1992-10-01,3.357605218887329,3.7216827869415283,3.23624587059021,3.6003236770629883,1.7285382747650146,12343200.0
1992-11-01,3.5194175243377686,4.207119941711426,3.3980581760406494,4.186892986297607,2.0101542472839355,8421600.0
1992-12-01,4.126213550567627,4.510517597198486,3.681229829788208,4.490291118621826,2.1558165550231934,6190400.0
1993-01-01,4.368932247161865,4.773462772369385,4.247572898864746,4.4093852043151855,2.1169729232788086,8057600.0
1993-02-01,4.368932247161865,4.894822120666504,4.207119941711426,4.652103424072266,2.233504295349121,7761200.0
1993-02-23,,,,,,
1993-03-01,4.571197509765625,4.9757280349731445,4.530744552612305,4.9757280349731445,2.536635398864746,4879600.0
1993-04-01,4.9757280349731445,5.218446731567383,4.813915729522705,5.097087383270264,2.5985045433044434,7670400.0
1993-05-01,5.137540340423584,5.218446731567383,4.611650466918945,4.894822120666504,2.495389223098755,5315200.0
1993-06-01,4.813915729522705,5.177993297576904,4.571197509765625,4.894822120666504,2.495389223098755,17410800.0
1993-07-01,4.894822120666504,5.218446731567383,4.834142208099365,5.137540340423584,2.6191279888153076,16421200.0
1993-07-19,,,,,,
1993-08-01,5.177993297576904,5.218446731567383,4.9757280349731445,5.056634426116943,3.2102019786834717,6890400.0
1993-09-01,5.137540340423584,5.339805603027344,5.016180992126465,5.198220252990723,3.300088405609131,7974000.0
1993-10-01,5.218446731567383,5.400485515594482,4.9757280349731445,5.299352645874023,3.3642914295196533,14735200.0
1993-11-01,5.380259037017822,5.420711994171143,4.9757280349731445,5.218446731567383,3.312927484512329,10697200.0
1993-11-04,,,,,,
1993-12-01,5.339805603027344,5.663430213928223,5.097087383270264,5.663430213928223,4.427780628204346,7417200.0
1994-01-01,5.582524299621582,5.906148910522461,5.582524299621582,5.764563083648682,4.50684928894043,7324000.0
1994-02-01,5.764563083648682,5.946601867675781,5.279126167297363,5.582524299621582,4.364527225494385,5964000.0
1994-02-01,,,,,,
1994-03-01,5.461164951324463,5.8125,4.875,5.0,3.9090988636016846,10930800.0
1994-03-04,,,,,,
1994-04-01,4.8125,5.375,4.375,4.4375,3.469325542449951,11486000.0
1994-05-01,4.4375,4.5625,4.0,4.46875,3.4937565326690674,10567200.0
1994-06-01,4.375,4.8125,4.1875,4.6875,3.664780378341675,8287600.0
1994-07-01,4.75,4.8125,4.125,4.375,3.4204626083374023,8730400.0
1994-08-01,4.375,4.4375,3.9375,4.3125,3.3715970516204834,8381600.0
1994-09-01,4.25,5.03125,4.1875,4.9375,3.860234498977661,10881200.0
1994-10-01,4.9375,5.4375,4.4375,4.9375,3.860234498977661,12964800.0
1994-11-01,4.9375,5.0625,4.375,4.875,3.811372756958008,7507600.0
1994-11-04,,,,,,
1994-12-01,4.6875,4.9375,4.375,4.875,3.8438639640808105,8968400.0
1995-01-01,4.8125,4.9375,4.3125,4.375,3.4496212005615234,8730400.0
1995-02-01,4.375,4.625,4.0,4.625,3.646742105484009,9730800.0
1995-03-01,4.625,4.75,4.1875,4.4375,3.498900890350342,11132400.0
1995-04-01,4.3125,4.53125,4.0,4.3125,3.400339365005493,8978000.0
1995-05-01,4.375,4.5625,4.0625,4.375,3.4496212005615234,13916400.0
1995-06-01,4.25,4.8125,4.125,4.75,3.7453019618988037,14624800.0
1995-07-01,4.8125,5.40625,4.625,4.71875,3.7206616401672363,15220800.0
1995-08-01,4.65625,4.9375,4.625,4.625,3.646742105484009,9620400.0
1995-09-01,4.625,4.84375,4.625,4.75,3.7453019618988037,10728800.0
1995-10-01,4.75,5.4375,4.6875,4.9375,3.89314341545105,11923200.0
1995-11-01,4.9375,5.25,4.90625,5.0625,3.9917049407958984,8374000.0
1995-12-01,5.0625,6.0,5.0625,5.96875,4.706268787384033,11458800.0
1996-01-01,5.8125,5.9375,5.25,5.5,4.336666584014893,13667200.0
1996-02-01,5.5,6.25,5.46875,6.125,4.829469203948975,9917600.0
1996-03-01,6.1875,6.3125,5.75,6.21875,4.903389930725098,17698400.0
1996-04-01,6.1875,6.25,5.5625,5.6875,4.484505653381348,12977200.0
1996-05-01,5.71875,7.40625,5.6875,6.9375,5.470111846923828,18767600.0
1996-06-01,6.875,7.125,6.5,7.0625,5.568674087524414,14396400.0
1996-07-01,7.015625,8.46875,6.96875,7.96875,6.283238410949707,32882400.0
1996-08-01,7.96875,8.890625,7.5,8.875,6.997801780700684,21447200.0
1996-09-01,8.6875,10.125,8.4375,9.84375,7.761650085449219,28045200.0
1996-10-01,9.8125,11.4375,9.8125,10.96875,8.648693084716797,20817200.0
1996-11-01,11.03125,12.53125,10.875,12.21875,9.634297370910645,9379200.0
1996-12-01,12.125,12.25,10.9375,11.625,9.166135787963867,10493200.0
1997-01-01,11.53125,14.84375,11.1875,14.84375,11.704070091247559,14383600.0
1997-02-01,14.96875,17.0625,14.25,16.34375,12.886797904968262,17808400.0
1997-03-01,16.375,16.4375,14.0,14.0,11.038786888122559,15713200.0
1997-04-01,14.03125,16.3125,13.75,16.3125,12.86215591430664,17778000.0
1997-05-01,16.375,18.28125,15.78125,17.9375,14.143446922302246,13599600.0
1997-06-01,18.09375,18.875,17.28125,17.6875,13.946321487426758,12897600.0
1997-07-01,17.6875,20.84375,17.3125,19.75,15.5725736618042,40314400.0
1997-08-01,19.75,19.765625,18.0,18.5,14.586968421936035,14003000.0
1997-08-29,,,,,,
1997-09-01,18.6875,22.625,18.59375,21.875,17.248098373413086,12473400.0
1997-10-01,22.0,24.8125,19.46875,19.8125,15.621859550476074,28426200.0
1997-11-01,20.125,20.9375,18.3125,18.3125,14.439123153686523,16323600.0
1997-12-01,18.34375,23.75,17.5,23.3125,18.38155174255371,17644000.0
1998-01-01,23.3125,23.46875,20.25,21.40625,16.87849998474121,16554200.0
1998-02-01,21.75,22.21875,19.6875,22.0,17.34666633605957,16508400.0
1998-03-01,21.875,27.15625,21.8125,26.21875,20.673086166381836,18219600.0
1998-04-01,26.21875,29.0,25.78125,27.59375,21.75724983215332,19982200.0
1998-05-01,27.84375,28.53125,22.8125,23.78125,18.751148223876953,17683200.0
1998-06-01,23.78125,27.53125,22.9375,26.28125,20.72235870361328,21548000.0
1998-07-01,26.5,27.6875,22.0,22.90625,18.061227798461914,23624000.0
1998-08-01,22.9375,23.46875,13.5625,13.625,10.743103981018066,69738800.0
1998-09-01,13.75,19.40625,11.5,18.53125,14.61160659790039,49090800.0
1998-10-01,18.125,21.15625,16.0,20.46875,16.139297485351562,51490400.0
1998-11-01,20.75,23.0625,20.125,22.875,18.036584854125977,18055000.0
1998-12-01,23.25,23.6875,19.75,23.6875,18.67723274230957,16312000.0
1999-01-01,24.25,24.625,16.40625,16.84375,13.28104019165039,35772000.0
1999-02-01,16.96875,20.4375,16.6875,18.59375,14.660883903503418,29499400.0
1999-03-01,18.0,20.75,17.5,18.625,14.685525894165039,26681200.0
1999-04-01,18.6875,26.1875,18.375,25.0,19.71211814880371,35059400.0
1999-05-01,25.03125,26.9375,24.5,24.84375,19.588916778564453,28666200.0
1999-06-01,24.96875,29.875,24.1875,29.0625,22.915340423583984,28242200.0
1999-07-01,29.1875,31.5625,26.84375,30.0,23.6545467376709,24166800.0
1999-08-01,29.875,32.375,26.53125,30.328125,23.91326332092285,29746200.0
1999-09-01,30.375,33.34375,29.5,29.5,23.260299682617188,27323600.0
1999-10-01,29.4375,29.4375,25.21875,28.21875,22.25005340576172,58250800.0
1999-11-01,28.34375,31.15625,27.15625,28.96875,22.84141731262207,29426000.0
1999-12-01,28.875,38.1875,28.78125,37.375,29.469619750976562,32834400.0
2000-01-01,37.375,41.6875,34.25,40.0625,31.588665008544922,43077800.0
2000-02-01,40.0625,44.71875,36.3125,41.90625,33.04243087768555,37884000.0
2000-03-01,41.90625,44.25,34.75,39.375,31.046600341796875,59843600.0
2000-04-01,39.40625,45.6875,35.5625,44.96875,35.45716857910156,34116200.0
2000-05-01,45.4375,46.25,36.0,43.625,34.397647857666016,76690000.0
2000-06-01,43.625,49.625,40.5,45.625,35.974609375,45986900.0
2000-06-02,,,,,,
2000-07-01,45.25,54.4375,45.125,53.4375,42.134639739990234,33500300.0
2000-08-01,53.4375,63.9375,51.25,63.640625,50.179664611816406,43384300.0
2000-09-01,63.75,70.25,59.625,68.515625,54.02351379394531,42613800.0
2000-10-01,68.6875,72.8125,49.5,56.5,44.54939270019531,60514100.0
2000-11-01,57.75,64.5625,49.0,51.875,40.90264129638672,38190700.0
2000-12-01,52.75,56.875,45.0,55.375,43.66233825683594,59583600.0
2001-01-01,55.625,59.959999084472656,45.875,57.630001068115234,45.440372467041016,60075500.0
2001-02-01,57.5099983215332,60.150001525878906,53.5,53.970001220703125,42.55451965332031,34794600.0
2001-03-01,54.099998474121094,59.02000045776367,41.29999923706055,49.959999084472656,39.392696380615234,73010800.0
2001-04-01,49.959999084472656,52.25,40.5,47.66999816894531,37.58707046508789,54454600.0
2001-05-01,47.91999816894531,49.400001525878906,41.470001220703125,45.400001525878906,35.79721450805664,68433500.0
2001-06-01,45.0,45.459999084472656,39.95000076293945,43.04999923706055,33.944271087646484,57942600.0
2001-07-01,44.0,44.5,33.599998474121094,38.29999923706055,30.198965072631836,62448600.0
2001-08-01,38.0,39.25,32.0,33.119998931884766,26.114612579345703,43600200.0
2001-09-01,33.400001525878906,33.400001525878906,12.0,12.819999694824219,10.108375549316406,152510300.0
2001-10-01,12.449999809265137,15.239999771118164,11.600000381469727,13.850000381469727,10.920511245727539,119397100.0
2001-11-01,13.899999618530273,17.799999237060547,12.329999923706055,16.520000457763672,13.02576732635498,79211500.0
2001-12-01,16.520000457763672,17.350000381469727,13.380000114440918,16.350000381469727,12.891725540161133,75097400.0
2002-01-01,15.5,17.920000076293945,13.3100004196167,13.550000190734863,10.683967590332031,52864000.0
2002-02-01,13.350000381469727,13.449999809265137,3.4000000953674316,5.159999847412109,4.068580150604248,189590100.0
2002-03-01,5.300000190734863,9.800000190734863,4.800000190734863,9.0,7.0963616371154785,179574000.0
2002-04-01,8.75,9.210000038146973,7.199999809265137,8.020000457763672,6.323647499084473,68562400.0
2002-05-01,8.020000457763672,8.5,5.889999866485596,6.550000190734863,5.164573669433594,50520200.0
2002-06-01,6.53000020980835,6.53000020980835,3.4700000286102295,5.420000076293945,4.273587226867676,89191100.0
2002-07-01,5.420000076293945,5.480000019073486,1.159999966621399,2.049999952316284,1.6163935661315918,90843200.0
2002-08-01,2.0,3.5899999141693115,1.600000023841858,3.0199999809265137,2.3812239170074463,64720500.0
2002-09-01,2.930000066757202,3.299999952316284,2.2699999809265137,2.509999990463257,1.97909677028656,39287700.0
2002-10-01,2.450000047683716,2.8299999237060547,0.9200000166893005,1.7699999809265137,1.3956177234649658,98242200.0
2002-11-01,1.6699999570846558,3.200000047683716,1.309999942779541,2.119999885559082,1.6715872287750244,84439000.0
2002-12-01,2.1500000953674316,3.990000009536743,2.1500000953674316,3.0199999809265137,2.3812239170074463,84716400.0
2003-01-01,3.059999942779541,4.300000190734863,2.8499999046325684,3.4700000286102295,2.7360422611236572,67534900.0
2003-02-01,3.5,3.549999952316284,2.630000114440918,3.319999933242798,2.6177690029144287,39936600.0
2003-03-01,3.4200000762939453,3.799999952316284,2.9100000858306885,3.619999885559082,2.8543143272399902,45365800.0
2003-04-01,3.7699999809265137,6.179999828338623,3.509999990463257,6.010000228881836,4.738793849945068,72295800.0
2003-05-01,6.099999904632568,8.109999656677246,5.820000171661377,7.920000076293945,6.2447991371154785,78973600.0
2003-06-01,8.010000228881836,8.489999771118164,6.0,6.349999904632568,5.006876468658447,109444100.0
2003-07-01,6.300000190734863,7.46999979019165,6.099999904632568,6.289999961853027,4.959568500518799,60899700.0
2003-08-01,6.289999961853027,6.849999904632568,5.5,6.480000019073486,5.109381675720215,37351800.0
2003-09-01,6.599999904632568,7.75,6.420000076293945,7.420000076293945,5.850556373596191,56308700.0
2003-10-01,7.429999828338623,8.970000267028809,7.420000076293945,8.75,6.899242401123047,43348400.0
2003-11-01,8.770000457763672,9.1899995803833,8.0,8.869999885559082,6.993858337402344,39168200.0
2003-12-01,8.930000305175781,9.5,7.800000190734863,9.4399995803833,7.443297863006592,51632800.0
2004-01-01,9.4399995803833,10.850000381469727,9.25,9.760000228881836,7.695611953735352,49821300.0
2004-02-01,9.699999809265137,9.869999885559082,8.0,9.0600004196167,7.143671989440918,50631900.0
2004-03-01,9.0600004196167,9.170000076293945,7.650000095367432,8.529999732971191,6.725773811340332,46383900.0
2004-04-01,8.630000114440918,9.15999984741211,7.559999942779541,8.670000076293945,6.836162567138672,54344800.0
2004-05-01,8.569999694824219,9.489999771118164,7.78000020980835,9.34000015258789,7.36444616317749,57292800.0
2004-06-01,9.239999771118164,10.239999771118164,8.949999809265137,9.930000305175781,7.829651355743408,51805100.0
2004-07-01,9.869999885559082,10.380000114440918,9.109999656677246,9.649999618530273,7.608878135681152,39128800.0
2004-08-01,9.680000305175781,10.350000381469727,9.09000015258789,10.09000015258789,7.955810070037842,38802100.0
2004-09-01,10.029999732971191,10.65999984741211,9.5,9.989999771118164,7.876962184906006,40763800.0
2004-10-01,10.0,11.649999618530273,9.989999771118164,10.899999618530273,8.594483375549316,42361100.0
2004-11-01,11.050000190734863,12.819999694824219,10.899999618530273,12.239999771118164,9.651052474975586,46888800.0
2004-12-01,12.149999618530273,13.710000038146973,12.039999961853027,13.670000076293945,10.778586387634277,43505100.0
2005-01-01,13.670000076293945,14.100000381469727,12.529999732971191,14.050000190734863,11.07820987701416,37344300.0
2005-02-01,14.050000190734863,17.040000915527344,14.039999961853027,16.739999771118164,13.199234962463379,62094700.0
2005-03-01,16.760000228881836,18.1299991607666,15.520000457763672,16.3799991607666,12.915379524230957,75697000.0
2005-04-01,16.5,17.559999465942383,15.930000305175781,16.079999923706055,12.6788330078125,48696100.0
2005-05-01,16.18000030517578,16.420000076293945,12.979999542236328,14.890000343322754,11.740538597106934,79497100.0
2005-06-01,14.890000343322754,16.690000534057617,14.3100004196167,16.3799991607666,12.915379524230957,49100500.0
2005-07-01,16.360000610351562,16.75,15.510000228881836,16.049999237060547,12.655181884765625,36456700.0
2005-08-01,16.020000457763672,16.389999389648438,14.779999732971191,15.739999771118164,12.410748481750488,34703400.0
2005-09-01,15.739999771118164,16.510000228881836,14.640000343322754,16.43000030517578,12.954805374145508,60198700.0
2005-10-01,16.299999237060547,17.25,15.100000381469727,15.890000343322754,12.529023170471191,58704000.0
2005-11-01,15.899999618530273,16.149999618530273,14.640000343322754,15.770000457763672,12.434402465820312,39701200.0
2005-12-01,15.880000114440918,16.5,15.350000381469727,15.829999923706055,12.481714248657227,38931400.0
2006-01-01,15.920000076293945,18.8799991607666,15.630000114440918,17.040000915527344,13.435779571533203,56996600.0
2006-02-01,17.1200008392334,17.829999923706055,16.68000030517578,17.299999237060547,13.64078426361084,43804900.0
2006-03-01,17.270000457763672,17.65999984741211,16.510000228881836,17.059999465942383,13.451547622680664,37918300.0
2006-04-01,17.100000381469727,17.399999618530273,16.149999618530273,16.969999313354492,13.380584716796875,40557900.0
2006-05-01,16.989999771118164,18.5,16.5,18.399999618530273,14.5081205368042,69209600.0
2006-06-01,18.479999542236328,18.850000381469727,16.65999984741211,18.450000762939453,14.547540664672852,63529000.0
2006-07-01,18.649999618530273,20.600000381469727,18.360000610351562,19.860000610351562,15.659302711486816,60112300.0
2006-08-01,19.790000915527344,21.350000381469727,18.25,21.239999771118164,16.747413635253906,59305300.0
2006-09-01,21.18000030517578,21.479999542236328,19.799999237060547,20.389999389648438,16.077198028564453,40989000.0
2006-10-01,20.399999618530273,22.110000610351562,20.020000457763672,21.989999771118164,17.338777542114258,45925800.0
2006-11-01,22.049999237060547,23.469999313354492,21.68000030517578,23.3700008392334,18.4268856048584,56725500.0
2006-12-01,23.450000762939453,23.850000381469727,21.899999618530273,22.040000915527344,17.378202438354492,61075500.0
2007-01-01,22.06999969482422,22.31999969482422,19.920000076293945,20.790000915527344,16.392595291137695,93703000.0
2007-02-01,20.729999542236328,23.100000381469727,20.5,21.31999969482422,16.810495376586914,67315000.0
2007-03-01,20.959999084472656,21.8799991607666,19.440000534057617,21.520000457763672,16.968189239501953,89965100.0
2007-04-01,21.639999389648438,23.190000534057617,21.3700008392334,21.989999771118164,17.338777542114258,69731000.0
2007-05-01,22.139999389648438,24.239999771118164,21.850000381469727,23.729999542236328,18.71074676513672,104643900.0
2007-06-01,23.729999542236328,24.040000915527344,20.540000915527344,21.8799991607666,17.252042770385742,119064000.0
2007-07-01,21.959999084472656,23.389999389648438,19.6200008392334,19.649999618530273,15.49372673034668,123968000.0
2007-08-01,19.59000015258789,20.329999923706055,16.690000534057617,18.110000610351562,14.27945613861084,157706600.0
2007-09-01,18.1299991607666,20.6200008392334,17.649999618530273,20.040000915527344,15.801233291625977,101859300.0
2007-10-01,20.139999389648438,21.75,19.780000686645508,21.40999984741211,16.881460189819336,72941900.0
2007-11-01,20.920000076293945,23.09000015258789,20.729999542236328,21.850000381469727,17.2283878326416,116958500.0
2007-12-01,21.700000762939453,22.540000915527344,20.979999542236328,21.389999389648438,16.86568832397461,73513200.0
2008-01-01,21.420000076293945,22.479999542236328,16.6299991607666,19.09000015258789,15.052175521850586,115039400.0
2008-02-01,18.950000762939453,20.299999237060547,17.899999618530273,17.979999542236328,14.17695426940918,79362700.0
2008-03-01,17.690000534057617,18.75,15.699999809265137,16.670000076293945,13.144041061401367,123622200.0
2008-04-01,16.760000228881836,18.329999923706055,16.670000076293945,17.360000610351562,13.68809700012207,104364000.0
2008-05-01,17.389999389648438,20.0,17.239999771118164,19.479999542236328,15.3596773147583,94344700.0
2008-06-01,19.239999771118164,20.799999237060547,18.479999542236328,19.209999084472656,15.146793365478516,102508600.0
2008-07-01,18.959999084472656,19.5,16.049999237060547,16.139999389648438,12.726141929626465,131904000.0
2008-08-01,16.260000228881836,16.860000610351562,14.779999732971191,15.260000228881836,12.032276153564453,111149700.0
2008-09-01,15.350000381469727,15.630000114440918,10.899999618530273,11.6899995803833,9.217388153076172,205717900.0
2008-10-01,11.59000015258789,11.739999771118164,6.300000190734863,7.96999979019165,6.284223556518555,254275800.0
2008-11-01,7.800000190734863,9.289999961853027,6.440000057220459,7.690000057220459,6.063446998596191,188607600.0
2008-12-01,7.440000057220459,8.470000267028809,5.800000190734863,8.239999771118164,6.4971137046813965,185524500.0
2009-01-01,8.239999771118164,9.479999542236328,7.579999923706055,7.909999847412109,6.23691463470459,146197200.0
2009-02-01,7.769999980926514,8.649999618530273,6.0,6.300000190734863,4.967453956604004,130896300.0
2009-03-01,6.139999866485596,7.0,4.800000190734863,5.809999942779541,4.581096172332764,184620900.0
2009-04-01,5.730000019073486,7.260000228881836,5.619999885559082,7.070000171661377,5.574587821960449,177581800.0
2009-05-01,7.090000152587891,10.010000228881836,7.019999980926514,9.989999771118164,7.876962184906006,196121400.0
2009-06-01,10.1899995803833,11.640000343322754,9.029999732971191,11.609999656677246,9.154305458068848,193507600.0
2009-07-01,11.65999984741211,13.239999771118164,10.670000076293945,12.789999961853027,10.084718704223633,174867500.0
2009-08-01,13.029999732971191,14.630000114440918,12.819999694824219,13.670000076293945,10.778586387634277,138014100.0
2009-09-01,13.640000343322754,15.369999885559082,12.789999961853027,14.819999694824219,11.685342788696289,134869200.0
2009-10-01,14.770000457763672,15.4399995803833,12.779999732971191,13.069999694824219,10.305495262145996,146203500.0
2009-11-01,13.0600004196167,14.460000038146973,12.5600004196167,12.739999771118164,10.045294761657715,166187000.0
2009-12-01,12.829999923706055,14.130000114440918,12.5,13.3100004196167,10.494732856750488,119884400.0
2010-01-01,13.380000114440918,14.239999771118164,12.470000267028809,12.630000114440918,9.958560943603516,138422600.0
2010-02-01,12.65999984741211,13.180000305175781,11.460000038146973,11.6899995803833,9.217388153076172,155218900.0
2010-03-01,11.739999771118164,12.0,10.729999542236328,11.0,8.673333168029785,214809100.0
2010-04-01,11.069999694824219,12.460000038146973,11.0600004196167,11.539999961853027,9.099112510681152,191459000.0
2010-05-01,11.640000343322754,12.100000381469727,8.9399995803833,10.270000457763672,8.097738265991211,222058400.0
2010-06-01,10.079999923706055,10.819999694824219,9.149999618530273,9.239999771118164,7.2855987548828125,185439900.0
2010-07-01,9.199999809265137,10.710000038146973,8.819999694824219,10.3100004196167,8.129279136657715,136687900.0
2010-08-01,10.460000038146973,11.399999618530273,10.029999732971191,10.239999771118164,8.074082374572754,120193000.0
2010-09-01,10.359999656677246,11.569999694824219,10.289999961853027,11.350000381469727,8.94930362701416,86202500.0
2010-10-01,11.4399995803833,12.539999961853027,11.300000190734863,11.9399995803833,9.414507865905762,96323600.0
2010-11-01,12.0600004196167,12.140000343322754,10.699999809265137,10.8100004196167,8.523521423339844,117331600.0
2010-12-01,10.949999809265137,12.460000038146973,10.869999885559082,12.180000305175781,9.603744506835938,110305500.0
2011-01-01,12.34000015258789,13.270000457763672,12.1899995803833,12.399999618530273,9.777212142944336,135406600.0
2011-02-01,12.489999771118164,12.920000076293945,11.989999771118164,12.369999885559082,9.753554344177246,83902600.0
2011-03-01,12.40999984741211,13.399999618530273,12.09000015258789,13.0,10.2503023147583,124019400.0
2011-04-01,13.0600004196167,13.5,12.420000076293945,13.239999771118164,10.439536094665527,113398400.0
2011-05-01,13.300000190734863,13.420000076293945,12.300000190734863,12.960000038146973,10.21876335144043,143400400.0
2011-06-01,12.930000305175781,13.0,12.029999732971191,12.739999771118164,10.045294761657715,131170600.0
2011-07-01,12.729999542236328,13.199999809265137,12.15999984741211,12.3100004196167,9.706246376037598,114079800.0
2011-08-01,12.390000343322754,12.430000305175781,9.220000267028809,10.859999656677246,8.562943458557129,209428000.0
2011-09-01,10.850000381469727,11.149999618530273,9.6899995803833,9.760000228881836,7.695611953735352,168814900.0
2011-10-01,9.680000305175781,11.699999809265137,9.0,11.220000267028809,8.84679889678955,136301600.0
2011-11-01,10.800000190734863,12.140000343322754,10.800000190734863,12.079999923706055,9.524895668029785,122324900.0
2011-12-01,12.010000228881836,12.239999771118164,11.430000305175781,11.84000015258789,9.335658073425293,111064900.0
2012-01-01,12.029999732971191,13.149999618530273,11.850000381469727,12.760000228881836,10.061064720153809,109505500.0
2012-02-01,12.84000015258789,14.010000228881836,12.680000305175781,13.5600004196167,10.691853523254395,83139800.0
2012-03-01,13.460000038146973,13.720000267028809,12.75,13.069999694824219,10.305495262145996,106842000.0
2012-04-01,13.0,13.25,11.970000267028809,12.520000457763672,9.871829986572266,102754700.0
2012-05-01,12.479999542236328,12.800000190734863,11.65999984741211,12.09000015258789,9.532780647277832,137113800.0
2012-06-01,11.880000114440918,12.880000114440918,11.640000343322754,12.829999923706055,10.11625862121582,107504100.0
2012-07-01,12.9399995803833,12.9399995803833,11.649999618530273,12.0600004196167,9.509124755859375,119275700.0
2012-08-01,12.119999885559082,12.34000015258789,11.319999694824219,11.390000343322754,8.980839729309082,115967900.0
2012-09-01,11.359999656677246,11.600000381469727,10.829999923706055,10.970000267028809,8.649679183959961,125913600.0
2012-10-01,10.960000038146973,11.25,10.34000015258789,10.449999809265137,8.239665985107422,99865200.0
2012-10-26,,,,,,
2012-11-01,10.489999771118164,10.800000190734863,9.520000457763672,10.670000076293945,8.44545841217041,140350700.0
2012-12-01,10.760000228881836,11.079999923706055,10.40999984741211,10.699999809265137,8.469204902648926,89392500.0
2013-01-01,10.890000343322754,11.359999656677246,10.65999984741211,10.84000015258789,8.58001708984375,134687000.0
2013-01-30,,,,,,
2013-02-01,10.930000305175781,11.800000190734863,10.800000190734863,11.619999885559082,9.231910705566406,110608400.0
2013-03-01,11.5600004196167,12.729999542236328,11.520000457763672,12.569999694824219,9.986668586730957,122002100.0
2013-04-01,12.569999694824219,13.9399995803833,12.359999656677246,13.859999656677246,11.011557579040527,127288300.0
2013-04-29,,,,,,
2013-05-01,13.859999656677246,14.0,12.069999694824219,12.199999809265137,9.721580505371094,134043200.0
2013-06-01,12.210000038146973,12.609999656677246,11.170000076293945,11.989999771118164,9.554243087768555,112291200.0
2013-07-01,12.109999656677246,12.899999618530273,11.619999885559082,12.4399995803833,9.912822723388672,84568100.0
2013-07-30,,,,,,
2013-08-01,12.529999732971191,13.380000114440918,12.380000114440918,12.710000038146973,10.160748481750488,84208800.0
2013-09-01,12.869999885559082,13.770000457763672,12.550000190734863,13.289999961853027,10.624419212341309,84767100.0
2013-10-01,13.329999923706055,14.489999771118164,13.15999984741211,14.09000015258789,11.263961791992188,80178200.0
2013-10-30,,,,,,
2013-11-01,14.079999923706055,15.300000190734863,13.609999656677246,14.569999694824219,11.6803617477417,109967800.0
2013-12-01,14.569999694824219,15.539999961853027,13.489999771118164,14.510000228881836,11.6322603225708,168918200.0
2014-01-01,14.510000228881836,14.800000190734863,13.420000076293945,14.0600004196167,11.271510124206543,120461400.0
2014-01-30,,,,,,
2014-02-01,14.0600004196167,14.9399995803833,13.569999694824219,13.649999618530273,10.982758522033691,103676800.0
2014-03-01,13.579999923706055,14.4399995803833,13.529999732971191,14.279999732971191,11.489657402038574,102973600.0
2014-04-01,14.329999923706055,14.640000343322754,14.010000228881836,14.449999809265137,11.626437187194824,104476400.0
2014-04-29,,,,,,
2014-05-01,14.460000038146973,14.770000457763672,13.420000076293945,14.100000381469727,11.384493827819824,107821400.0
2014-06-01,14.09000015258789,15.649999618530273,13.960000038146973,15.550000190734863,12.555242538452148,129681600.0
2014-07-01,15.569999694824219,15.640000343322754,14.579999923706055,14.609999656677246,11.796276092529297,90038300.0
2014-07-30,,,,,,
2014-08-01,14.520000457763672,15.210000038146973,14.010000228881836,15.180000305175781,12.297218322753906,71515200.0
2014-09-01,15.170000076293945,15.210000038146973,14.050000190734863,14.180000305175781,11.487125396728516,74229400.0
2014-10-01,14.1899995803833,14.449999809265137,12.380000114440918,14.069999694824219,11.398015975952148,125977700.0
2014-10-30,,,,,,
2014-11-01,14.149999618530273,14.25,13.010000228881836,13.869999885559082,11.278046607971191,123102900.0
2014-12-01,13.800000190734863,14.489999771118164,12.779999732971191,13.770000457763672,11.196737289428711,132381400.0
2015-01-01,13.859999656677246,13.869999885559082,12.170000076293945,12.220000267028809,9.936391830444336,118950800.0
2015-01-30,,,,,,
2015-02-01,12.239999771118164,13.010000228881836,11.529999732971191,12.970000267028809,10.631699562072754,133917600.0
2015-03-01,12.90999984741211,13.020000457763672,11.829999923706055,12.850000381469727,10.533333778381348,137959800.0
2015-04-01,12.859999656677246,13.670000076293945,12.640000343322754,13.25,10.861217498779297,103745000.0
2015-05-01,13.239999771118164,13.84000015258789,13.050000190734863,13.600000381469727,11.14811897277832,156923600.0
2015-05-01,,,,,,
2015-06-01,13.59000015258789,14.020000457763672,12.899999618530273,13.260000228881836,10.95207405090332,122469200.0
2015-07-01,13.300000190734863,13.399999618530273,12.65999984741211,12.800000190734863,10.572137832641602,116593100.0
2015-07-30,,,,,,
2015-08-01,12.819999694824219,13.210000038146973,11.149999618530273,12.0,9.989236831665039,122357000.0
2015-09-01,11.779999732971191,11.800000190734863,9.420000076293945,9.789999961853027,8.149552345275879,149772200.0
2015-10-01,9.859999656677246,11.210000038146973,9.720000267028809,10.949999809265137,9.115177154541016,136315700.0
2015-10-29,,,,,,
2015-11-01,10.979999542236328,11.09000015258789,9.449999809265137,9.989999771118164,8.39150333404541,117193900.0
2015-12-01,10.020000457763672,10.09000015258789,8.760000228881836,9.569999694824219,8.03870677947998,124431100.0
2016-01-01,9.4399995803833,9.59000015258789,8.220000267028809,9.5,7.9799089431762695,138380800.0
2016-01-29,,,,,,
2016-02-01,9.470000267028809,10.140000343322754,8.880000114440918,9.800000190734863,8.33195972442627,121665000.0
2016-03-01,9.829999923706055,11.800000190734863,9.760000228881836,11.800000190734863,10.032361030578613,131651700.0
2016-04-01,11.680000305175781,11.6899995803833,10.789999961853027,11.15999984741211,9.488232612609863,97116800.0
2016-04-28,,,,,,
2016-05-01,11.149999618530273,11.489999771118164,10.489999771118164,11.09000015258789,9.52074909210205,84235900.0
2016-06-01,11.039999961853027,12.479999542236328,10.789999961853027,12.479999542236328,10.714061737060547,129821800.0
2016-07-01,12.479999542236328,12.720000267028809,12.0,12.350000381469727,10.602455139160156,76263100.0
2016-07-28,,,,,,
2016-08-01,12.329999923706055,12.59000015258789,11.890000343322754,12.069999694824219,10.455047607421875,97091000.0
2016-09-01,12.069999694824219,13.319999694824219,11.850000381469727,12.850000381469727,11.130683898925781,109270500.0
2016-10-01,12.640000343322754,12.75,11.449999809265137,11.770000457763672,10.195188522338867,124511300.0
2016-10-28,,,,,,
2016-11-01,11.770000457763672,12.479999542236328,11.079999923706055,11.449999809265137,10.01116943359375,128091400.0
2016-12-01,11.359999656677246,12.470000267028809,10.979999542236328,11.619999885559082,10.159807205200195,99097400.0
2017-01-01,11.670000076293945,12.0600004196167,11.149999618530273,11.4399995803833,10.002425193786621,124725400.0
2017-01-30,,,,,,
2017-02-01,11.399999618530273,11.930000305175781,11.100000381469727,11.520000457763672,10.179527282714844,99948000.0
2017-03-01,11.380000114440918,11.680000305175781,10.930000305175781,11.180000305175781,9.87908935546875,123736700.0
2017-04-01,11.170000076293945,11.619999885559082,11.010000228881836,11.3100004196167,9.993961334228516,125706700.0
2017-04-27,,,,,,
2017-05-01,11.3100004196167,11.850000381469727,10.949999809265137,11.680000305175781,10.430222511291504,114172800.0
2017-06-01,11.680000305175781,12.050000190734863,11.109999656677246,11.109999656677246,9.921210289001465,105493900.0
2017-07-01,11.149999618530273,11.449999809265137,10.600000381469727,11.180000305175781,9.983721733093262,104717400.0
2017-08-01,11.0600004196167,11.65999984741211,10.920000076293945,11.039999961853027,9.858701705932617,117828300.0
2017-08-01,,,,,,
2017-09-01,11.079999923706055,11.449999809265137,11.0,11.020000457763672,9.947612762451172,84544500.0
2017-10-01,11.0600004196167,11.34000015258789,10.489999771118164,10.630000114440918,9.595564842224121,83059900.0
2017-10-31,,,,,,
2017-11-01,10.59000015258789,10.970000267028809,10.0,10.579999923706055,9.658345222473145,145832900.0
2017-11-01,,,,,,
2017-12-01,10.619999885559082,11.020000457763672,10.430000305175781,10.829999923706055,9.999448776245117,133246400.0
2018-01-01,10.869999885559082,11.949999809265137,10.640000343322754,11.5600004196167,10.673466682434082,237380100.0
2018-01-31,,,,,,
2018-02-01,11.59000015258789,11.670000076293945,9.869999885559082,10.869999885559082,10.15003490447998,177806900.0
2018-03-01,10.920000076293945,11.430000305175781,10.489999771118164,11.369999885559082,10.61691665649414,156649300.0
2018-04-01,11.380000114440918,12.449999809265137,11.1899995803833,12.239999771118164,11.429293632507324,140353800.0
2018-04-30,,,,,,
2018-05-01,12.25,12.859999656677246,11.65999984741211,12.75,12.032584190368652,143556100.0
2018-06-01,12.710000038146973,13.5600004196167,12.470000267028809,13.40999984741211,12.655447006225586,150725600.0
2018-07-01,13.050000190734863,13.579999923706055,12.550000190734863,13.359999656677246,12.608260154724121,141218100.0
2018-08-01,13.359999656677246,14.109999656677246,13.229999542236328,13.460000038146973,12.702634811401367,141952900.0
2018-08-02,,,,,,
2018-09-01,13.430000305175781,14.010000228881836,13.0,14.0,13.341004371643066,134714200.0
2018-10-01,13.989999771118164,15.390000343322754,13.880000114440918,14.579999923706055,13.89370346069336,160230300.0
2018-10-31,,,,,,
2018-11-01,14.609999656677246,16.280000686645508,14.470000267028809,15.489999771118164,14.891495704650879,129127400.0
2018-12-01,15.59000015258789,16.020000457763672,13.550000190734863,14.460000038146973,13.901293754577637,149343200.0
2019-01-01,14.270000457763672,16.420000076293945,13.970000267028809,16.389999389648438,15.756720542907715,114648400.0
2019-01-31,,,,,,
2019-02-01,16.399999618530273,17.600000381469727,16.3700008392334,17.229999542236328,16.70423698425293,98939400.0
2019-03-01,17.290000915527344,18.520000457763672,16.8799991607666,18.079999923706055,17.52829933166504,133502500.0
2019-04-01,18.1299991607666,18.309999465942383,16.889999389648438,17.1200008392334,16.597593307495117,114547700.0
2019-04-30,,,,,,
2019-05-01,17.110000610351562,17.25,15.710000038146973,15.800000190734863,15.440265655517578,161512200.0
2019-06-01,15.869999885559082,17.200000762939453,15.760000228881836,16.760000228881836,16.378406524658203,104630600.0
2019-07-01,16.81999969482422,17.799999237060547,16.65999984741211,16.790000915527344,16.407724380493164,101139100.0
2019-07-31,,,,,,
2019-08-01,16.770000457763672,17.3700008392334,14.600000381469727,15.329999923706055,15.10115909576416,115626800.0
2019-09-01,15.220000267028809,16.530000686645508,14.850000381469727,16.34000015258789,16.09608268737793,92723000.0
2019-10-01,16.219999313354492,17.229999542236328,15.430000305175781,17.049999237060547,16.795482635498047,101048200.0
2019-10-31,,,,,,
2019-11-01,17.09000015258789,19.030000686645508,17.09000015258789,18.90999984741211,18.776643753051758,130660600.0
2019-12-01,18.899999618530273,20.1200008392334,18.639999389648438,19.899999618530273,19.759660720825195,112128300.0
2020-01-01,19.969999313354492,20.709999084472656,19.739999771118164,19.860000610351562,19.71994400024414,76663600.0
2020-01-30,,,,,,
2020-02-01,19.969999313354492,21.229999542236328,15.75,16.729999542236328,16.729999542236328,79978100.0
2020-03-01,16.770000457763672,18.43000030517578,8.109999656677246,12.819999694824219,12.819999694824219,148525200.0
2020-03-26,12.930000305175781,13.680000305175781,12.699999809265137,13.489999771118164,13.489999771118164,6018237.0
