Date,Open,High,Low,Close,Adj Close,Volume
1980-03-01,0.0,0.12310606241226196,0.09469696879386902,0.11047979444265366,0.003447998547926545,19500000.0
1980-04-01,0.0,0.11679293215274811,0.09785353392362595,0.10258838534355164,0.003201712854206562,18813600.0
1980-05-01,0.0,0.1041666641831398,0.09154040366411209,0.09785353392362595,0.0030539396684616804,30489600.0
1980-06-01,0.0,0.11047979444265366,0.09627525508403778,0.10732322931289673,0.003349482314661145,21871200.0
1980-07-01,0.0,0.11047979444265366,0.09943182021379471,0.10101009905338287,0.0031524538062512875,22879200.0
1980-08-01,0.0,0.1041666641831398,0.09627525508403778,0.1041666641831398,0.0032509686425328255,23529600.0
1980-09-01,0.0,0.1041666641831398,0.09785353392362595,0.09943182021379471,0.003103198017925024,14431200.0
1980-10-01,0.0,0.10101009905338287,0.09311868995428085,0.09311868995428085,0.002906169043853879,23498400.0
1980-11-01,0.0,0.09943182021379471,0.08996212482452393,0.09154040366411209,0.0028569125570356846,20347200.0
1980-12-01,0.0,0.09627525508403778,0.08838383853435516,0.09469696879386902,0.0029554269276559353,30940800.0
1981-01-01,0.0,0.10890151560306549,0.09627525508403778,0.10101009905338287,0.0031524538062512875,18307200.0
1981-02-01,0.0,0.10258838534355164,0.09627525508403778,0.09943182021379471,0.003103198017925024,12136800.0
1981-03-01,0.0,0.11363636702299118,0.09785353392362595,0.11047979444265366,0.003447998547926545,22456800.0
1981-04-01,0.0,0.1262626200914383,0.10732322931289673,0.11994949728250504,0.003743539797142148,21153600.0
1981-05-01,0.0,0.11994949728250504,0.10732322931289673,0.11363636702299118,0.0035465105902403593,14028000.0
1981-06-01,0.0,0.11837121099233627,0.11047979444265366,0.11363636702299118,0.0035465105902403593,17532000.0
1981-07-01,0.0,0.11837121099233627,0.11047979444265366,0.11679293215274811,0.003645028453320265,19980000.0
1981-08-01,0.0,0.11679293215274811,0.08838383853435516,0.08838383853435516,0.002758398884907365,19500000.0
1981-09-01,0.0,0.09943182021379471,0.08838383853435516,0.09627525508403778,0.0030046834144741297,11788800.0
1981-10-01,0.0,0.09943182021379471,0.09154040366411209,0.09627525508403778,0.0030046834144741297,8685600.0
1981-11-01,0.0,0.09785353392362595,0.08996212482452393,0.09627525508403778,0.0030046834144741297,16166400.0
1981-12-01,0.0,0.09943182021379471,0.09311868995428085,0.09627525508403778,0.0030046834144741297,17188800.0
1982-01-01,0.0,0.09943182021379471,0.09311868995428085,0.09785353392362595,0.0030539396684616804,8517600.0
1982-02-01,0.0,0.1041666641831398,0.09154040366411209,0.09785353392362595,0.0030539396684616804,20239200.0
1982-03-01,0.0,0.10574495047330856,0.09469696879386902,0.09627525508403778,0.0030046834144741297,18355200.0
1982-04-01,0.0,0.12310606241226196,0.09469696879386902,0.1215277761220932,0.0037927967496216297,36811200.0
1982-05-01,0.0,0.12468434125185013,0.10732322931289673,0.11047979444265366,0.003447998547926545,29316000.0
1982-06-01,0.0,0.12310606241226196,0.10890151560306549,0.11837121099233627,0.0036942840088158846,23296800.0
1982-07-01,0.0,0.1341540366411209,0.11679293215274811,0.13099747896194458,0.004088339861482382,22970400.0
1982-08-01,0.0,0.14520202577114105,0.11994949728250504,0.14204545319080353,0.004433139692991972,29455200.0
1982-09-01,0.0,0.1688762605190277,0.13731060922145844,0.16256313025951385,0.005073480773717165,43132800.0
1982-10-01,0.0,0.18939393758773804,0.15782828629016876,0.17045454680919647,0.005319769494235516,35138400.0
1982-11-01,0.0,0.19412878155708313,0.17203283309936523,0.1909722238779068,0.005960109177976847,39861600.0
1982-12-01,0.0,0.20675505697727203,0.18465909361839294,0.19255051016807556,0.006009366828948259,28788000.0
1983-01-01,0.0,0.20517677068710327,0.18939393758773804,0.20517677068710327,0.006403425708413124,36081600.0
1983-02-01,0.0,0.23358586430549622,0.20517677068710327,0.20991161465644836,0.0065512023866176605,41769600.0
1983-03-01,0.0,0.2304292917251587,0.20675505697727203,0.22253787517547607,0.00694525009021163,36422400.0
1983-04-01,0.0,0.24147726595401764,0.2130681872367859,0.23989899456501007,0.007487079594284296,37778400.0
1983-05-01,0.0,0.25883838534355164,0.23358586430549622,0.25883838534355164,0.008078167214989662,53452800.0
1983-06-01,0.0,0.3046085834503174,0.25726011395454407,0.28093433380126953,0.008767766878008842,43656000.0
1983-07-01,0.0,0.2951388955116272,0.26357322931289673,0.2651515007019043,0.00827519316226244,20937600.0
1983-08-01,0.0,0.2825126349925995,0.2604166567325592,0.28093433380126953,0.008767766878008842,11784000.0
1983-09-01,0.0,0.3030303120613098,0.2651515007019043,0.3030303120613098,0.009457364678382874,17337600.0
1983-10-01,0.0,0.3030303120613098,0.28093433380126953,0.2919823229312897,0.00911256205290556,11272800.0
1983-11-01,0.0,0.2998737394809723,0.27619948983192444,0.2904040515422821,0.00906330905854702,24240000.0
1983-12-01,0.0,0.30492424964904785,0.2651515007019043,0.3030303120613098,0.009457364678382874,28900800.0
1983-12-14,,,,,,
1984-01-01,0.0,0.3030303120613098,0.27272728085517883,0.280303031206131,0.008748063817620277,17685600.0
1984-02-01,0.0,0.27840909361839294,0.2291666716337204,0.26325756311416626,0.008216088637709618,35690400.0
1984-03-01,0.0,0.2613636255264282,0.25,0.2537878751754761,0.007920545525848866,16898400.0
1984-04-01,0.0,0.2708333432674408,0.2348484843969345,0.26893940567970276,0.008393410593271255,18518400.0
1984-05-01,0.0,0.28787878155708313,0.24621212482452393,0.25,0.007802329491823912,28413600.0
1984-06-01,0.0,0.27462121844291687,0.24621212482452393,0.2651515007019043,0.00827519316226244,19910400.0
1984-07-01,0.5189399719238281,0.54544997215271,0.24621212482452393,0.5189399719238281,0.016195762902498245,20715600.0
1984-08-01,0.2594696879386902,0.342803031206131,0.25757575035095215,0.3390151560306549,0.010580428875982761,68594400.0
1984-08-09,,,,,,
1984-09-01,0.3390151560306549,0.3598484992980957,0.3162878751754761,0.3276515007019043,0.010302472859621048,25483200.0
1984-10-01,0.32575756311416626,0.3645833432674408,0.3219696879386902,0.36250001192092896,0.011398223228752613,20181600.0
1984-10-22,,,,,,
1984-11-01,0.3645833432674408,0.4166666567325592,0.36250001192092896,0.3895833194255829,0.012343375012278557,38892000.0
1984-12-01,0.38749998807907104,0.4020833373069763,0.3583333194255829,0.38749998807907104,0.01227736659348011,30290400.0
1985-01-01,0.38749998807907104,0.675000011920929,0.3812499940395355,0.4437499940395355,0.014059560373425484,161611200.0
1985-02-01,0.4416666626930237,0.5,0.41874998807907104,0.4791666567325592,0.015181688591837883,63777600.0
1985-02-08,,,,,,
1985-03-01,0.47708332538604736,0.4854166805744171,0.41874998807907104,0.44999998807907104,0.016643162816762924,51722400.0
1985-04-01,0.44999998807907104,0.4854166805744171,0.42500001192092896,0.4645833373069763,0.01718251407146454,27542400.0
1985-05-01,0.46666666865348816,0.5395833253860474,0.45625001192092896,0.5375000238418579,0.019879324361681938,50536800.0
1985-05-09,,,,,,
1985-06-01,0.5395833253860474,0.625,0.5,0.6031249761581421,0.0262917410582304,38810400.0
1985-06-04,,,,,,
1985-07-01,0.609375,0.6343749761581421,0.5406249761581421,0.546875,0.02383965626358986,52207200.0
1985-08-01,0.550000011920929,0.6156250238418579,0.5406249761581421,0.612500011920929,0.026700414717197418,46864800.0
1985-08-09,,,,,,
1985-09-01,0.606249988079071,0.609375,0.5375000238418579,0.590624988079071,0.02947862446308136,26168000.0
1985-10-01,0.59375,0.653124988079071,0.574999988079071,0.621874988079071,0.031038330867886543,42140000.0
1985-11-01,0.625,0.746874988079071,0.625,0.737500011920929,0.036809273064136505,81978400.0
1985-11-08,,,,,,
1985-12-01,0.731249988079071,0.778124988079071,0.690625011920929,0.690625011920929,0.038564275950193405,57124800.0
1986-01-01,0.690625011920929,0.909375011920929,0.690625011920929,0.8999999761581421,0.05025568604469299,70221600.0
1986-02-01,0.9281250238418579,0.9937499761581421,0.890625,0.96875,0.05409465730190277,46516800.0
1986-02-03,,,,,,
1986-02-04,,,,,,
1986-03-01,1.0208333730697632,1.037500023841858,0.9041666388511658,0.9541666507720947,0.058665014803409576,54481600.0
1986-03-03,,,,,,
1986-04-01,0.9583333134651184,1.0833333730697632,0.8791666626930237,0.9958333373069763,0.06122678145766258,43548000.0
1986-05-01,0.9958333373069763,1.1583333015441895,0.9708333611488342,1.100000023841858,0.06763127446174622,34661600.0
1986-05-09,,,,,,
1986-06-01,1.0958333015441895,1.1124999523162842,0.9958333373069763,1.1041666269302368,0.07366570085287094,29460000.0
1986-07-01,1.1041666269302368,1.2000000476837158,1.0583332777023315,1.1666666269302368,0.07783550024032593,44148800.0
1986-08-01,1.149999976158142,1.2458332777023315,1.0416666269302368,1.2166666984558105,0.08117128908634186,44963200.0
1986-08-11,,,,,,
1986-09-01,1.2208333015441895,1.2333333492279053,0.8333333134651184,0.8583333492279053,0.061874426901340485,62531200.0
1986-10-01,0.875,0.9833333492279053,0.8500000238418579,0.8708333373069763,0.06277554482221603,52238400.0
1986-11-01,0.862500011920929,0.9291666746139526,0.7583333253860474,0.9041666388511658,0.06517841666936874,68724800.0
1986-11-10,,,,,,
1986-12-01,0.8999999761581421,0.9166666865348816,0.7875000238418579,0.8666666746139526,0.0696844831109047,58319200.0
1987-01-01,0.8666666746139526,1.100000023841858,0.8583333492279053,1.0541666746139526,0.08476047217845917,64834400.0
1987-02-01,1.0499999523162842,1.100000023841858,0.925000011920929,0.9416666626930237,0.07571481913328171,43652000.0
1987-02-03,,,,,,
1987-02-09,,,,,,
1987-03-01,0.9333333373069763,0.9916666746139526,0.8333333134651184,0.8583333492279053,0.07211293280124664,69208000.0
1987-04-01,0.8500000238418579,0.9166666865348816,0.7916666865348816,0.8083333373069763,0.06791216880083084,39756800.0
1987-05-01,0.800000011920929,0.8416666388511658,0.6666666865348816,0.800000011920929,0.06721203029155731,67149600.0
1987-05-11,,,,,,
1987-06-01,0.800000011920929,0.949999988079071,0.7749999761581421,0.8666666746139526,0.07734137028455734,79949600.0
1987-07-01,0.8666666746139526,0.949999988079071,0.7916666865348816,0.9333333373069763,0.0832907110452652,74732800.0
1987-08-01,0.9333333373069763,1.2333333492279053,0.8999999761581421,1.1666666269302368,0.10411334782838821,115148000.0
1987-08-10,,,,,,
1987-09-01,1.1666666269302368,1.1749999523162842,1.0333333015441895,1.1166666746139526,0.10428141802549362,47741600.0
1987-10-01,1.1166666746139526,1.1583333015441895,0.6583333611488342,0.875,0.08171306550502777,86698400.0
1987-11-01,0.8666666746139526,0.9583333134651184,0.7416666746139526,0.8999999761581421,0.08404774218797684,40850400.0
1987-11-09,,,,,,
1987-12-01,0.949999988079071,1.0583332777023315,0.8833333253860474,0.9416666626930237,0.09320200979709625,60717600.0
1988-01-01,0.9416666626930237,0.9833333492279053,0.875,0.949999988079071,0.09402681142091751,18980000.0
1988-02-01,0.9416666626930237,0.9583333134651184,0.875,0.925000011920929,0.09155245125293732,28214400.0
1988-02-08,,,,,,
1988-03-01,0.949999988079071,1.1333333253860474,0.9333333373069763,1.0833333730697632,0.10769351571798325,62008000.0
1988-04-01,1.0666667222976685,1.1083333492279053,0.9916666746139526,1.0083333253860474,0.10023780167102814,27669600.0
1988-05-01,1.0083333253860474,1.0083333253860474,0.8916666507720947,0.9333333373069763,0.09278209507465363,22569600.0
1988-05-09,,,,,,
1988-06-01,0.9583333134651184,0.9833333492279053,0.8666666746139526,0.8916666507720947,0.08900830894708633,39003200.0
1988-07-01,0.8999999761581421,0.8999999761581421,0.8166666626930237,0.875,0.08734458684921265,36764000.0
1988-08-01,0.875,0.9083333611488342,0.7916666865348816,0.7916666865348816,0.07902613282203674,50877600.0
1988-08-08,,,,,,
1988-09-01,0.7833333611488342,0.8999999761581421,0.7666666507720947,0.8833333253860474,0.08858142048120499,23915200.0
1988-10-01,0.8916666507720947,0.949999988079071,0.8166666626930237,0.9083333611488342,0.09108849614858627,38292000.0
1988-11-01,0.9083333611488342,0.925000011920929,0.8583333492279053,0.8833333253860474,0.08858142048120499,26918400.0
1988-11-14,,,,,,
1988-12-01,0.8916666507720947,0.925000011920929,0.8500000238418579,0.9166666865348816,0.09240356087684631,21235200.0
1989-01-01,0.9166666865348816,0.9916666746139526,0.8916666507720947,0.9916666746139526,0.09996387362480164,33332000.0
1989-02-01,0.9916666746139526,1.100000023841858,0.9583333134651184,1.0333333015441895,0.10416405647993088,52964800.0
1989-02-13,,,,,,
1989-03-01,1.0333333015441895,1.1333333253860474,1.0333333015441895,1.1333333253860474,0.12072934210300446,41866400.0
1989-04-01,1.1333333253860474,1.274999976158142,1.0833333730697632,1.2583333253860474,0.13404500484466553,73114400.0
1989-05-01,1.2416666746139526,1.2416666746139526,0.9750000238418579,1.0583332777023315,0.1127399355173111,110046400.0
1989-05-15,,,,,,
1989-06-01,1.0583332777023315,1.1583333015441895,1.0,1.0666667222976685,0.11927267163991928,54698400.0
1989-07-01,1.0583332777023315,1.0833333730697632,1.0,1.0416666269302368,0.11647715419530869,47253600.0
1989-08-01,1.0499999523162842,1.274999976158142,1.0,1.1749999523162842,0.13138623535633087,140854400.0
1989-08-14,,,,,,
1989-09-01,1.1749999523162842,1.2916666269302368,1.1333333253860474,1.1916667222976685,0.1406279355287552,110360000.0
1989-10-01,1.1916667222976685,1.5,1.0916666984558105,1.2583333253860474,0.14849519729614258,217868000.0
1989-11-01,1.2666666507720947,1.4333332777023315,1.1666666269302368,1.2000000476837158,0.14161133766174316,106872800.0
1989-11-13,,,,,,
1989-12-01,1.2083333730697632,1.2416666746139526,1.0916666984558105,1.2000000476837158,0.14887015521526337,51766400.0
1990-01-01,1.1916667222976685,1.1916667222976685,1.0166666507720947,1.0583332777023315,0.13129521906375885,56957600.0
1990-02-01,1.0583332777023315,1.0833333730697632,0.9666666388511658,1.0,0.1240585669875145,41176000.0
1990-02-12,,,,,,
1990-03-01,1.024999976158142,1.0333333015441895,0.9666666388511658,0.9833333492279053,0.12993547320365906,49444800.0
1990-04-01,0.9666666388511658,0.9916666746139526,0.8916666507720947,0.925000011920929,0.12222746759653091,45108800.0
1990-05-01,0.925000011920929,1.0416666269302368,0.9166666865348816,1.0083333253860474,0.13323892652988434,56457600.0
1990-05-14,,,,,,
1990-06-01,1.0166666507720947,1.100000023841858,0.9833333492279053,1.0583332777023315,0.14927195012569427,47844000.0
1990-07-01,1.0666667222976685,1.1666666269302368,1.0583332777023315,1.1083333492279053,0.15632414817810059,49764800.0
1990-08-01,1.1083333492279053,1.1166666746139526,0.8999999761581421,0.949999988079071,0.13399219512939453,44934400.0
1990-08-13,,,,,,
1990-09-01,0.9333333373069763,1.0499999523162842,0.8083333373069763,0.8916666507720947,0.1339550018310547,27256800.0
1990-10-01,0.8916666507720947,1.0083333253860474,0.8333333134651184,0.9916666746139526,0.14897796511650085,36830400.0
1990-11-01,0.9916666746139526,1.1416666507720947,0.9666666388511658,1.125,0.16900861263275146,31192800.0
1990-11-09,,,,,,
1990-12-01,1.1333333253860474,1.2833333015441895,1.1166666746139526,1.274999976158142,0.20681554079055786,47746400.0
1991-01-01,1.2666666507720947,1.4500000476837158,1.1916667222976685,1.375,0.22303633391857147,79563200.0
1991-02-01,1.3833333253860474,1.6833332777023315,1.3833333253860474,1.5666667222976685,0.25412634015083313,91954400.0
1991-02-11,,,,,,
1991-03-01,1.5583332777023315,1.5833333730697632,1.3916666507720947,1.5416666269302368,0.2621173560619354,45803200.0
1991-04-01,1.5333333015441895,1.7999999523162842,1.5083333253860474,1.6749999523162842,0.2847871482372284,47706400.0
1991-05-01,1.6749999523162842,1.6749999523162842,1.4249999523162842,1.5333333015441895,0.2607005536556244,42766400.0
1991-05-13,,,,,,
1991-06-01,1.524999976158142,1.5750000476837158,1.350000023841858,1.4500000476837158,0.2588188350200653,31670400.0
1991-07-01,1.4666666984558105,1.6333333253860474,1.3833333253860474,1.625,0.2900558114051819,41452800.0
1991-08-01,1.6333333253860474,1.649999976158142,1.4833333492279053,1.6083333492279053,0.2870805859565735,46935200.0
1991-08-12,,,,,,
1991-09-01,1.5916666984558105,1.649999976158142,1.5,1.649999976158142,0.3083958327770233,38615200.0
1991-10-01,1.649999976158142,1.8666666746139526,1.5499999523162842,1.850000023841858,0.34577709436416626,41750400.0
1991-11-01,1.8416666984558105,1.9916666746139526,1.7083333730697632,1.7833333015441895,0.33331671357154846,45116800.0
1991-11-08,,,,,,
1991-12-01,1.7833333015441895,2.075000047683716,1.7583333253860474,1.9916666746139526,0.3883357644081116,35978400.0
1992-01-01,2.0,2.191666603088379,1.9416667222976685,1.9666666984558105,0.383461058139801,44908000.0
1992-02-01,1.9583333730697632,2.125,1.9416667222976685,2.0,0.38996049761772156,36588800.0
1992-02-10,,,,,,
1992-03-01,1.9916666746139526,1.9916666746139526,1.7916666269302368,1.8333333730697632,0.37243548035621643,42702400.0
1992-04-01,1.8166667222976685,1.9249999523162842,1.600000023841858,1.899999976158142,0.38597872853279114,63473600.0
1992-05-01,1.8833333253860474,1.9416667222976685,1.8333333730697632,1.9249999523162842,0.391057550907135,23151200.0
1992-05-11,,,,,,
1992-06-01,1.9166666269302368,2.0250000953674316,1.8083332777023315,2.0166666507720947,0.4299018979072571,36850400.0
1992-07-01,2.0,2.2666666507720947,2.0,2.2249999046325684,0.4743131697177887,38352000.0
1992-08-01,2.2166666984558105,2.2166666984558105,2.058333396911621,2.183333396911621,0.46543100476264954,31224000.0
1992-08-10,,,,,,
1992-09-01,2.174999952316284,2.2333333492279053,1.9166666269302368,2.0999999046325684,0.46621692180633545,64744800.0
1992-10-01,2.0916666984558105,2.116666555404663,1.9500000476837158,1.9833333492279053,0.4403159022331238,44536000.0
1992-11-01,2.0,2.125,1.9416667222976685,2.1083333492279053,0.4680672287940979,58443200.0
1992-11-06,,,,,,
1992-12-01,2.1083333492279053,2.325000047683716,2.0916666984558105,2.299999952316284,0.5341755151748657,43786400.0
1993-01-01,2.316666603088379,2.383333444595337,2.200000047683716,2.241666555404663,0.5206276774406433,38505600.0
1993-02-01,2.258333444595337,2.433333396911621,2.2333333492279053,2.3333332538604736,0.5419172644615173,41336800.0
1993-02-08,,,,,,
1993-03-01,2.3499999046325684,2.4583332538604736,2.258333444595337,2.4000000953674316,0.5786668062210083,70124800.0
1993-04-01,2.4000000953674316,2.6500000953674316,2.299999952316284,2.5,0.6027777194976807,46192000.0
1993-05-01,2.508333444595337,2.683333396911621,2.424999952316284,2.633333444595337,0.6349260807037354,36084800.0
1993-05-10,,,,,,
1993-06-01,2.6416666507720947,2.6770832538604736,2.3229167461395264,2.3645832538604736,0.5928284525871277,57459200.0
1993-06-15,,,,,,
1993-07-01,2.3645832538604736,2.5416667461395264,2.3229167461395264,2.46875,0.6189444661140442,24431200.0
1993-08-01,2.46875,2.8333332538604736,2.4583332538604736,2.75,0.6894569993019104,37632000.0
1993-08-09,,,,,,
1993-09-01,2.7708332538604736,2.7916667461395264,2.5104167461395264,2.6875,0.7015591859817505,34027200.0
1993-10-01,2.6875,2.7291667461395264,2.5208332538604736,2.625,0.6852431893348694,27356800.0
1993-11-01,2.625,2.625,2.0625,2.25,0.5873516798019409,63953600.0
1993-11-05,,,,,,
1993-12-01,2.25,2.4895832538604736,2.2083332538604736,2.375,0.6462101340293884,60667200.0
1994-01-01,2.375,2.40625,2.1041667461395264,2.3229167461395264,0.6320384740829468,71305600.0
1994-02-01,2.46875,2.5520832538604736,2.2708332538604736,2.46875,0.6717185378074646,70880000.0
1994-02-14,,,,,,
1994-03-01,2.46875,2.65625,2.4166667461395264,2.5625,0.7269840836524963,72710400.0
1994-04-01,2.5,2.5416667461395264,2.4166667461395264,2.53125,0.7181186079978943,40108000.0
1994-05-01,2.53125,2.8229167461395264,2.5208332538604736,2.7916667461395264,0.7919992804527283,39240000.0
1994-05-16,,,,,,
1994-06-01,2.78125,2.90625,2.6979167461395264,2.8125,0.8345336318016052,41460000.0
1994-07-01,2.7916667461395264,2.9166667461395264,2.7083332538604736,2.90625,0.8623512983322144,39676000.0
1994-08-01,2.90625,3.0104167461395264,2.84375,2.9895832538604736,0.8870783448219299,42475200.0
1994-08-15,,,,,,
1994-09-01,2.96875,3.0,2.7291667461395264,2.84375,0.8785041570663452,46021600.0
1994-10-01,2.84375,2.8645832538604736,2.6354167461395264,2.84375,0.8785041570663452,33846400.0
1994-11-01,2.84375,2.9583332538604736,2.7708332538604736,2.8229167461395264,0.8720685839653015,30309600.0
1994-11-14,,,,,,
1994-12-01,2.8229167461395264,2.8541667461395264,2.6666667461395264,2.6666667461395264,0.8583166003227234,24039200.0
1995-01-01,2.6666667461395264,2.9166667461395264,2.65625,2.8854167461395264,0.9287254214286804,42487200.0
1995-02-01,2.90625,3.1458332538604736,2.875,3.1354167461395264,1.0091922283172607,34363200.0
1995-02-13,,,,,,
1995-03-01,3.1354167461395264,3.5625,3.0208332538604736,3.4166667461395264,1.141955852508545,56242400.0
1995-04-01,3.3229167461395264,3.4479167461395264,3.25,3.4479167461395264,1.1524004936218262,35408000.0
1995-05-01,3.4479167461395264,3.625,3.2916667461395264,3.5,1.1698083877563477,52890400.0
1995-05-15,,,,,,
1995-06-01,3.4791667461395264,3.7291667461395264,3.4791667461395264,3.6458332538604736,1.268081784248352,41400000.0
1995-07-01,3.6354167461395264,3.65625,3.40625,3.5208332538604736,1.224604845046997,40784800.0
1995-08-01,3.53125,3.5625,3.2708332538604736,3.40625,1.1847507953643799,93388000.0
1995-08-16,,,,,,
1995-09-01,3.3854167461395264,3.4791667461395264,3.0416667461395264,3.4583332538604736,1.249056339263916,82937600.0
1995-10-01,3.4895832538604736,3.6770832538604736,3.2916667461395264,3.3958332538604736,1.2264833450317383,44767200.0
1995-11-01,3.40625,3.5625,3.3854167461395264,3.3958332538604736,1.2264833450317383,49172800.0
1995-11-15,,,,,,
1995-12-01,3.4375,3.6354167461395264,3.3854167461395264,3.625,1.3601523637771606,51044000.0
1996-01-01,3.6041667461395264,3.9895832538604736,3.6041667461395264,3.96875,1.4891321659088135,43351200.0
1996-02-01,3.9791667461395264,4.125,3.8645832538604736,3.8645832538604736,1.450047254562378,54060800.0
1996-02-14,,,,,,
1996-03-01,3.8854167461395264,4.109375,3.7708332538604736,3.90625,1.5155308246612549,42081600.0
1996-03-18,,,,,,
1996-04-01,3.890625,4.109375,3.625,3.90625,1.5155308246612549,47683200.0
1996-05-01,3.890625,4.0,3.65625,3.765625,1.4609721899032593,47156800.0
1996-05-15,,,,,,
1996-06-01,3.78125,3.78125,3.625,3.734375,1.4862983226776123,52320000.0
1996-07-01,3.734375,4.0625,3.53125,4.015625,1.59823739528656,47782400.0
1996-08-01,4.03125,4.5625,4.03125,4.296875,1.7101759910583496,51774400.0
1996-08-14,,,,,,
1996-09-01,4.296875,4.671875,4.109375,4.4375,1.80854332447052,27678400.0
1996-10-01,4.46875,5.0625,4.46875,5.03125,2.0505313873291016,38351200.0
1996-11-01,5.078125,5.5,5.03125,5.21875,2.126948833465576,38825600.0
1996-11-13,,,,,,
1996-12-01,5.234375,5.421875,5.015625,5.34375,2.219550609588623,34205600.0
1997-01-01,5.3125,5.4375,4.96875,4.96875,2.0637929439544678,39826400.0
1997-02-01,5.015625,5.3125,4.984375,5.046875,2.0962421894073486,47017600.0
1997-02-18,,,,,,
1997-03-01,5.109375,5.234375,4.6875,4.6875,1.9852440357208252,30292800.0
1997-04-01,4.8125,5.4375,4.796875,5.375,2.276413679122925,32656800.0
1997-05-01,5.375,6.375,5.375,6.375,2.6999316215515137,42639200.0
1997-05-20,,,,,,
1997-06-01,6.328125,6.421875,5.90625,5.90625,2.55090069770813,41380800.0
1997-07-01,6.0625,7.0546875,6.0625,6.96875,3.0097930431365967,34424000.0
1997-08-01,6.875,7.0078125,6.484375,6.8828125,2.9726762771606445,40637600.0
1997-08-19,,,,,,
1997-09-01,6.890625,7.234375,6.6953125,6.78125,2.981269598007202,33830400.0
1997-10-01,6.78125,7.0390625,5.8125,6.359375,2.79580020904541,44844000.0
1997-11-01,6.359375,6.4375,5.53125,5.765625,2.5347671508789062,52310400.0
1997-11-18,,,,,,
1997-12-01,5.8125,6.546875,5.8125,6.390625,2.8651278018951416,49915200.0
1998-01-01,6.375,6.8046875,5.671875,6.8046875,3.0507652759552,39476000.0
1998-02-01,6.8046875,7.7734375,6.7265625,7.6796875,3.443056583404541,48901600.0
1998-02-17,,,,,,
1998-03-01,7.7109375,8.328125,7.6328125,7.90625,3.599985122680664,23066400.0
1998-04-01,7.921875,8.40625,7.375,8.125,3.6995904445648193,47434400.0
1998-05-01,8.140625,8.625,7.78125,7.9921875,3.639117479324341,46155200.0
1998-05-19,,,,,,
1998-06-01,7.9921875,8.359375,7.078125,7.578125,3.506143093109131,36362400.0
1998-06-09,,,,,,
1998-07-01,7.8125,9.5625,7.8125,8.59375,3.9760401248931885,54440800.0
1998-08-01,8.65625,8.71875,6.28125,6.28125,2.9061214923858643,30396400.0
1998-08-18,,,,,,
1998-09-01,6.4375,8.25,6.28125,7.140625,3.331334114074707,37467200.0
1998-10-01,6.921875,9.75,6.375,9.53125,4.446637153625488,68911600.0
1998-11-01,9.59375,9.984375,9.03125,9.21875,4.300847053527832,36420000.0
1998-11-17,,,,,,
1998-12-01,9.21875,11.328125,9.171875,10.96875,5.151345252990723,37556800.0
1999-01-01,10.984375,11.171875,9.75,10.71875,5.033936977386475,46240400.0
1999-02-01,10.875,12.625,10.828125,10.9453125,5.140341281890869,60159600.0
1999-02-16,,,,,,
1999-03-01,11.015625,13.625,11.015625,13.609375,6.425193786621094,57963600.0
1999-04-01,13.484375,14.1875,12.28125,13.5625,6.403062343597412,66526400.0
1999-05-01,13.578125,13.671875,11.828125,12.75,6.019467830657959,105733600.0
1999-05-18,,,,,,
1999-06-01,12.734375,12.734375,11.125,11.96875,5.6838579177856445,76814800.0
1999-07-01,11.921875,11.9375,10.96875,11.59375,5.505774021148682,44767200.0
1999-08-01,11.625,12.34375,10.921875,11.234375,5.335107803344727,45127200.0
1999-08-17,,,,,,
1999-09-01,11.5,11.796875,10.203125,10.46875,5.005215644836426,52506400.0
1999-10-01,10.46875,13.078125,10.46875,12.78125,6.110847473144531,45649200.0
1999-11-01,12.765625,13.5625,11.875,11.96875,5.722383499145508,48448800.0
1999-11-16,,,,,,
1999-12-01,11.96875,12.609375,10.875,11.796875,5.672504901885986,45212400.0
2000-01-01,11.734375,11.78125,9.375,10.859375,5.221712112426758,103931200.0
2000-02-01,10.96875,11.265625,8.640625,9.140625,4.395253658294678,69428400.0
2000-02-15,,,,,,
2000-03-01,9.140625,11.65625,8.390625,11.390625,5.519551753997803,87797600.0
2000-04-01,11.5,12.671875,10.9375,12.203125,5.913261413574219,62557200.0
2000-05-01,12.140625,13.109375,11.25,12.921875,6.261549472808838,55715200.0
2000-05-16,,,,,,
2000-06-01,12.859375,13.484375,11.40625,11.484375,5.604013919830322,50081600.0
2000-07-01,11.421875,13.578125,11.265625,12.984375,6.33596658706665,62753600.0
2000-08-01,13.046875,14.734375,12.984375,13.50390625,6.589481353759766,60359600.0
2000-08-15,,,,,,
2000-09-01,13.5625,16.875,13.21875,16.15625,7.929583549499512,82392800.0
2000-10-01,15.96875,18.734375,14.59375,18.265625,8.96487808227539,93400000.0
2000-11-01,17.9375,18.484375,16.1875,17.59375,8.63511848449707,73545200.0
2000-11-14,,,,,,
2000-12-01,17.53125,18.375,16.53125,18.046875,8.900629043579102,70576400.0
2001-01-01,18.046875,18.046875,13.9375,14.744999885559082,7.272161960601807,102986800.0
2001-02-01,14.952500343322754,16.1875,14.225000381469727,15.039999961853027,7.417653560638428,78298000.0
2001-02-13,,,,,,
2001-03-01,15.037500381469727,15.725000381469727,11.6899995803833,13.770000457763672,6.827988624572754,99300000.0
2001-03-19,,,,,,
2001-04-01,13.850000381469727,16.100000381469727,13.399999618530273,15.899999618530273,7.884169101715088,73010200.0
2001-05-01,15.704999923706055,16.600000381469727,15.0,16.21500015258789,8.040367126464844,56897600.0
2001-05-15,,,,,,
2001-06-01,16.075000762939453,17.6200008392334,15.25,15.744999885559082,7.833054065704346,60496600.0
2001-07-01,15.795000076293945,16.299999237060547,13.399999618530273,14.789999961853027,7.357941150665283,96164000.0
2001-08-01,15.020000457763672,15.149999618530273,13.25,13.760000228881836,6.845524787902832,69149000.0
2001-08-14,,,,,,
2001-09-01,13.890000343322754,13.890000343322754,11.5,13.5,6.741258144378662,61988000.0
2001-10-01,13.619999885559082,14.649999618530273,12.140000343322754,12.229999542236328,6.10707950592041,112517400.0
2001-11-01,12.375,13.899999618530273,12.145000457763672,13.699999809265137,6.841125965118408,62539800.0
2001-11-13,,,,,,
2001-12-01,13.550000190734863,13.574999809265137,11.944999694824219,12.279999732971191,6.156654357910156,78595000.0
2002-01-01,12.104999542236328,13.28499984741211,11.550000190734863,13.0600004196167,6.5477118492126465,125207800.0
2002-02-01,12.75,13.149999618530273,12.125,12.850000381469727,6.442427158355713,82845400.0
2002-02-12,,,,,,
2002-03-01,12.975000381469727,14.859999656677246,12.720000267028809,14.75,7.4240593910217285,81263800.0
2002-04-01,14.550000190734863,15.295000076293945,14.074999809265137,14.949999809265137,7.524725914001465,68142800.0
2002-05-01,14.954999923706055,16.200000762939453,14.470000267028809,16.079999923706055,8.093482971191406,54088200.0
2002-05-14,,,,,,
2002-06-01,16.014999389648438,16.575000762939453,14.649999618530273,16.0,8.086000442504883,74253800.0
2002-07-01,15.994999885559082,16.079999923706055,12.119999885559082,15.704999923706055,7.936912536621094,109317800.0
2002-08-01,15.425000190734863,16.149999618530273,14.550000190734863,15.305000305175781,7.7347612380981445,73697200.0
2002-08-13,,,,,,
2002-09-01,15.0,15.494999885559082,14.135000228881836,15.345000267028809,7.784968376159668,64109800.0
2002-10-01,15.324999809265137,16.725000381469727,14.399999618530273,15.220000267028809,7.721552848815918,108688000.0
2002-11-01,15.324999809265137,16.40999984741211,15.104999542236328,15.425000190734863,7.825555324554443,55754800.0
2002-11-12,,,,,,
2002-12-01,15.515000343322754,15.625,14.390000343322754,15.0600004196167,7.670468330383301,60554600.0
2003-01-01,15.260000228881836,16.25,15.175000190734863,16.19499969482422,8.248560905456543,58901200.0
2003-02-01,16.200000762939453,16.200000762939453,15.130000114440918,15.625,7.958241939544678,57809800.0
2003-02-12,,,,,,
2003-03-01,15.850000381469727,16.75,14.78499984741211,16.024999618530273,8.198559761047363,72090200.0
2003-04-01,16.040000915527344,17.78499984741211,14.0,16.354999542236328,8.367390632629395,111956600.0
2003-05-01,16.3700008392334,16.799999237060547,15.75,16.454999923706055,8.418551445007324,73034600.0
2003-05-13,,,,,,
2003-06-01,16.5,16.549999237060547,15.260000228881836,15.375,7.899254322052002,91393400.0
2003-07-01,15.300000190734863,16.229999542236328,14.949999809265137,16.040000915527344,8.240909576416016,126670000.0
2003-08-01,15.885000228881836,16.3700008392334,15.494999885559082,16.0049991607666,8.222929954528809,69666200.0
2003-08-12,,,,,,
2003-09-01,16.079999923706055,16.229999542236328,14.914999961853027,16.149999618530273,8.339935302734375,98492400.0
2003-10-01,16.149999618530273,18.270000457763672,16.065000534057617,18.239999771118164,9.419221878051758,91568600.0
2003-11-01,18.209999084472656,18.454999923706055,17.46500015258789,17.985000610351562,9.287542343139648,55013600.0
2003-11-10,,,,,,
2003-12-01,18.040000915527344,18.344999313354492,17.219999313354492,18.09000015258789,9.384519577026367,52647600.0
2004-01-01,18.094999313354492,18.639999389648438,17.309999465942383,18.440000534057617,9.566083908081055,68313600.0
2004-02-01,18.399999618530273,20.75,18.25,20.30500030517578,10.533591270446777,74162800.0
2004-02-11,,,,,,
2004-03-01,20.30500030517578,20.545000076293945,19.584999084472656,20.06999969482422,10.46060562133789,63327600.0
2004-04-01,20.094999313354492,21.299999237060547,20.045000076293945,21.114999771118164,11.005265235900879,63995400.0
2004-05-01,21.190000534057617,21.2450008392334,19.364999771118164,20.299999237060547,10.580485343933105,58455400.0
2004-05-12,,,,,,
2004-06-01,20.325000762939453,20.780000686645508,20.049999237060547,20.405000686645508,10.686626434326172,49938600.0
2004-07-01,20.405000686645508,20.985000610351562,18.5,19.81999969482422,10.38024616241455,75746400.0
2004-08-01,19.770000457763672,20.084999084472656,18.934999465942383,20.049999237060547,10.500704765319824,54245400.0
2004-08-11,,,,,,
2004-09-01,20.100000381469727,20.309999465942383,19.100000381469727,19.604999542236328,10.318462371826172,48118200.0
2004-10-01,19.604999542236328,20.3700008392334,16.924999237060547,17.940000534057617,9.442143440246582,96238800.0
2004-11-01,17.940000534057617,19.094999313354492,17.899999618530273,18.809999465942383,9.90003776550293,87455400.0
2004-11-09,,,,,,
2004-12-01,18.809999465942383,20.274999618530273,18.760000228881836,19.920000076293945,10.538004875183105,71170600.0
2005-01-01,20.06999969482422,20.209999084472656,19.434999465942383,19.7549991607666,10.450718879699707,55139600.0
2005-02-01,19.7549991607666,19.825000762939453,18.625,19.165000915527344,10.138598442077637,73770000.0
2005-02-16,,,,,,
2005-03-01,19.25,19.895000457763672,18.43000030517578,18.6299991607666,9.910563468933105,74089400.0
2005-04-01,18.7450008392334,20.43000030517578,17.75,20.325000762939453,10.812247276306152,87167200.0
2005-05-01,20.290000915527344,20.959999084472656,19.344999313354492,20.774999618530273,11.051631927490234,73534600.0
2005-05-18,,,,,,
2005-06-01,20.774999618530273,22.075000762939453,20.670000076293945,21.639999389648438,11.574691772460938,81540200.0
2005-07-01,21.825000762939453,23.165000915527344,21.610000610351562,22.549999237060547,12.061430931091309,72700600.0
2005-08-01,22.524999618530273,22.53499984741211,21.360000610351562,21.610000610351562,11.558647155761719,59325000.0
2005-08-17,,,,,,
2005-09-01,21.690000534057617,23.09000015258789,21.524999618530273,22.649999618530273,12.176369667053223,54634800.0
2005-10-01,22.649999618530273,24.0,22.190000534057617,23.889999389648438,12.84298038482666,68544400.0
2005-11-01,23.954999923706055,24.825000762939453,23.700000762939453,24.0,12.902109146118164,70603000.0
2005-11-16,,,,,,
2005-12-01,24.079999923706055,24.2450008392334,23.155000686645508,23.209999084472656,12.533348083496094,51376400.0
2006-01-01,23.325000762939453,24.700000762939453,23.125,23.475000381469727,12.676447868347168,69029200.0
2006-02-01,23.40999984741211,24.06999969482422,23.059999465942383,23.125,12.487452507019043,68941200.0
2006-02-15,,,,,,
2006-03-01,23.225000381469727,23.700000762939453,22.360000610351562,22.565000534057617,12.252058029174805,69434000.0
2006-04-01,22.600000381469727,23.985000610351562,22.200000762939453,23.770000457763672,12.906336784362793,62502800.0
2006-05-01,23.770000457763672,24.645000457763672,23.0,23.399999618530273,12.705437660217285,74208400.0
2006-05-17,,,,,,
2006-06-01,23.399999618530273,23.770000457763672,22.600000381469727,23.174999237060547,12.65101432800293,64790800.0
2006-07-01,23.350000381469727,23.424999237060547,20.815000534057617,22.06999969482422,12.047807693481445,78165000.0
2006-08-01,21.93000030517578,22.559999465942383,21.204999923706055,22.53499984741211,12.301650047302246,89531200.0
2006-08-16,,,,,,
2006-09-01,22.71500015258789,23.155000686645508,21.9950008392334,22.8799991607666,12.565642356872559,82513400.0
2006-10-01,22.799999237060547,22.975000381469727,21.25,22.459999084472656,12.334977149963379,79281000.0
2006-11-01,22.520000457763672,22.690000534057617,21.860000610351562,22.06999969482422,12.120794296264648,77891400.0
2006-11-15,,,,,,
2006-12-01,22.059999465942383,23.100000381469727,21.670000076293945,23.0,12.722932815551758,69076200.0
2007-01-01,23.010000228881836,24.354999542236328,22.75,23.80500030517578,13.168233871459961,84972400.0
2007-02-01,23.799999237060547,24.684999465942383,23.43000030517578,23.6200008392334,13.065900802612305,76727600.0
2007-02-14,,,,,,
2007-03-01,23.25,24.329999923706055,22.59000015258789,23.530000686645508,13.117568016052246,79343000.0
2007-04-01,23.604999542236328,27.0,23.5,25.670000076293945,14.31058406829834,71242800.0
2007-05-01,25.725000381469727,26.594999313354492,25.540000915527344,26.43000030517578,14.734267234802246,82824400.0
2007-05-16,,,,,,
2007-06-01,26.434999465942383,26.975000381469727,25.540000915527344,25.700000762939453,14.440927505493164,88123400.0
2007-07-01,25.774999618530273,28.475000381469727,25.229999542236328,26.059999465942383,14.643217086791992,110990600.0
2007-08-01,26.010000228881836,28.719999313354492,25.094999313354492,26.655000686645508,14.977543830871582,145865600.0
2007-08-15,,,,,,
2007-09-01,26.645000457763672,28.68000030517578,26.229999542236328,28.520000457763672,16.151416778564453,73518800.0
2007-10-01,28.719999313354492,31.469999313354492,28.1200008392334,31.389999389648438,17.77674674987793,100059000.0
2007-11-01,31.2450008392334,31.625,28.295000076293945,31.31999969482422,17.73710823059082,127387200.0
2007-11-14,,,,,,
2007-12-01,31.700000762939453,31.954999923706055,29.635000228881836,31.315000534057617,17.858413696289062,73169800.0
2008-01-01,31.235000610351562,33.5,28.375,30.545000076293945,17.419296264648438,161098200.0
2008-02-01,30.735000610351562,32.5,29.135000228881836,31.204999923706055,17.795690536499023,123698000.0
2008-02-15,,,,,,
2008-03-01,31.229999542236328,32.64500045776367,29.905000686645508,32.474998474121094,18.66402244567871,161761600.0
2008-04-01,32.685001373291016,34.404998779296875,32.25,33.334999084472656,19.15827751159668,133770000.0
2008-05-01,33.35499954223633,34.11000061035156,32.505001068115234,33.564998626708984,19.290462493896484,100037200.0
2008-05-19,,,,,,
2008-06-01,33.5,33.8849983215332,31.260000228881836,31.399999618530273,18.175504684448242,115030400.0
2008-07-01,31.25,31.815000534057617,26.450000762939453,27.80500030517578,16.094585418701172,202456400.0
2008-08-01,27.875,28.94499969482422,26.584999084472656,28.350000381469727,16.41005516052246,149970600.0
2008-08-18,,,,,,
2008-09-01,28.764999389648438,34.0,25.625,29.375,17.152212142944336,200330800.0
2008-10-01,28.854999542236328,30.364999771118164,16.135000228881836,22.139999389648438,12.927657127380371,247391800.0
2008-11-01,22.014999389648438,24.68000030517578,14.84000015258789,23.149999618530273,13.517403602600098,188660600.0
2008-11-17,,,,,,
2008-12-01,22.385000228881836,23.940000534057617,19.905000686645508,22.920000076293945,13.538680076599121,188655600.0
2009-01-01,23.174999237060547,23.479999542236328,9.675000190734863,11.604999542236328,6.854991436004639,464203800.0
2009-02-01,11.40999984741211,12.600000381469727,7.519999980926514,8.380000114440918,4.950007438659668,524862400.0
2009-02-13,,,,,,
2009-03-01,7.855000019073486,11.460000038146973,5.414999961853027,9.680000305175781,5.866633415222168,599259200.0
2009-04-01,9.3100004196167,15.225000381469727,8.625,14.444999694824219,8.754491806030273,453725600.0
2009-05-01,14.489999771118164,18.829999923706055,14.300000190734863,17.75,10.757515907287598,339313000.0
2009-05-18,,,,,,
2009-06-01,18.084999084472656,18.864999771118164,14.414999961853027,15.545000076293945,9.58822250366211,225762000.0
2009-07-01,15.614999771118164,19.200000762939453,14.085000038146973,18.93000030517578,11.676104545593262,212156000.0
2009-08-01,19.209999084472656,21.3700008392334,19.024999618530273,20.309999465942383,12.527295112609863,170492800.0
2009-08-17,,,,,,
2009-09-01,20.184999465942383,22.03499984741211,18.8700008392334,21.3700008392334,13.358970642089844,169464200.0
2009-10-01,21.219999313354492,23.309999465942383,19.90999984741211,20.7450008392334,12.968262672424316,186535400.0
2009-11-01,20.860000610351562,23.094999313354492,20.03499984741211,23.014999389648438,14.387300491333008,144448400.0
2009-11-16,,,,,,
2009-12-01,23.014999389648438,23.875,22.5,23.125,14.63971996307373,123624800.0
2010-01-01,23.25,26.079999923706055,23.25,24.21500015258789,15.329764366149902,130716800.0
2010-02-01,24.295000076293945,25.950000762939453,22.889999389648438,24.725000381469727,15.652631759643555,156009000.0
2010-02-11,,,,,,
2010-03-01,24.829999923706055,27.600000381469727,24.764999389648438,27.145000457763672,17.391389846801758,121135800.0
2010-04-01,27.364999771118164,28.280000686645508,24.364999771118164,25.479999542236328,16.32465362548828,154609200.0
2010-05-01,25.700000762939453,25.8700008392334,20.15999984741211,22.149999618530273,14.191170692443848,287178200.0
2010-05-17,,,,,,
2010-06-01,21.815000534057617,23.100000381469727,19.954999923706055,21.334999084472656,13.837835311889648,218720400.0
2010-07-01,21.575000762939453,25.920000076293945,20.774999618530273,24.594999313354492,15.952268600463867,213339800.0
2010-08-01,25.030000686645508,25.799999237060547,22.174999237060547,23.625,15.323129653930664,158725200.0
2010-08-16,,,,,,
2010-09-01,24.020000457763672,26.940000534057617,24.0,25.854999542236328,16.968460083007812,128310200.0
2010-10-01,26.21500015258789,28.489999771118164,25.459999084472656,27.94499969482422,18.340118408203125,122337800.0
2010-11-01,28.139999389648438,29.155000686645508,25.44499969482422,25.75,16.899553298950195,131760200.0
2010-11-15,,,,,,
2010-12-01,26.389999389648438,28.7450008392334,26.114999771118164,28.21500015258789,18.72287368774414,111549600.0
2011-01-01,28.489999771118164,29.420000076293945,27.399999618530273,28.790000915527344,19.10443115234375,131510600.0
2011-02-01,28.94499969482422,29.7450008392334,28.0,29.43000030517578,19.529115676879883,122799600.0
2011-02-11,,,,,,
2011-03-01,29.524999618530273,29.770000457763672,24.0,26.389999389648438,17.699201583862305,241432600.0
2011-04-01,26.65999984741211,28.69499969482422,25.625,28.094999313354492,18.84270668029785,129945600.0
2011-05-01,28.270000457763672,28.325000762939453,23.75,23.895000457763672,16.025861740112305,190100400.0
2011-05-16,,,,,,
2011-06-01,23.920000076293945,23.920000076293945,22.075000762939453,23.34000015258789,15.829449653625488,187008000.0
2011-07-01,23.389999389648438,23.75,22.030000686645508,23.030000686645508,15.619200706481934,146996000.0
2011-08-01,23.399999618530273,23.44499969482422,17.170000076293945,18.860000610351562,12.791064262390137,264017400.0
2011-08-15,,,,,,
2011-09-01,18.905000686645508,18.9950008392334,15.625,17.475000381469727,12.045235633850098,222986200.0
2011-10-01,17.25,23.989999771118164,16.3700008392334,22.545000076293945,15.539908409118652,224703800.0
2011-11-01,21.489999771118164,23.270000457763672,19.46500015258789,21.719999313354492,14.971245765686035,159972400.0
2011-11-14,,,,,,
2011-12-01,21.674999237060547,22.780000686645508,19.78499984741211,21.6299991607666,15.131787300109863,147709000.0
2012-01-01,22.239999771118164,24.795000076293945,21.149999618530273,24.114999771118164,16.870227813720703,170413400.0
2012-02-01,24.094999313354492,25.165000915527344,23.075000762939453,23.625,16.527441024780273,141347000.0
2012-02-13,,,,,,
2012-03-01,23.684999465942383,24.110000610351562,22.184999465942383,22.9950008392334,16.309429168701172,141193400.0
2012-04-01,22.950000762939453,23.290000915527344,20.260000228881836,22.520000457763672,15.972530364990234,161618000.0
2012-05-01,22.485000610351562,23.079999923706055,19.420000076293945,20.040000915527344,14.213565826416016,166081800.0
2012-05-14,,,,,,
2012-06-01,19.59000015258789,21.405000686645508,19.065000534057617,21.295000076293945,15.33714485168457,133389200.0
2012-07-01,21.440000534057617,22.135000228881836,20.485000610351562,21.889999389648438,15.765676498413086,115309800.0
2012-08-01,22.065000534057617,23.459999084472656,21.19499969482422,23.09000015258789,16.62994384765625,121534600.0
2012-08-13,,,,,,
2012-09-01,23.1299991607666,25.1200008392334,22.899999618530273,23.940000534057617,17.493898391723633,99067200.0
2012-10-01,24.09000015258789,25.229999542236328,23.625,24.889999389648438,18.18809700012207,99818600.0
2012-11-01,24.979999542236328,26.56999969482422,24.540000915527344,26.4950008392334,19.360937118530273,123594600.0
2012-11-09,,,,,,
2012-12-01,26.59000015258789,27.46500015258789,25.93000030517578,26.559999465942383,19.685585021972656,100851800.0
2013-01-01,27.19499969482422,27.219999313354492,25.524999618530273,26.530000686645508,19.663347244262695,137717600.0
2013-02-01,26.774999618530273,27.03499984741211,24.084999084472656,24.975000381469727,18.510828018188477,172385800.0
2013-02-13,,,,,,
2013-03-01,25.045000076293945,26.2450008392334,24.78499984741211,26.010000228881836,19.554462432861328,129708400.0
2013-04-01,26.030000686645508,27.354999542236328,24.270000457763672,27.219999313354492,20.464149475097656,155780200.0
2013-05-01,27.145000457763672,28.479999542236328,26.7549991607666,27.844999313354492,20.93402862548828,125934200.0
2013-05-20,,,,,,
2013-06-01,27.920000076293945,29.375,27.385000228881836,29.059999465942383,22.12787437438965,113360200.0
2013-07-01,29.264999389648438,31.274999618530273,28.040000915527344,30.84000015258789,23.483266830444336,97801200.0
2013-08-01,31.19499969482422,31.815000534057617,28.68000030517578,28.895000457763672,22.002239227294922,79930200.0
2013-08-19,,,,,,
2013-09-01,29.260000228881836,31.5,28.809999465942383,30.9950008392334,23.877370834350586,75543200.0
2013-10-01,31.30500030517578,33.5,30.979999542236328,32.4900016784668,25.02906608581543,94460600.0
2013-11-01,32.584999084472656,33.7599983215332,32.11000061035156,33.185001373291016,25.564468383789062,74209600.0
2013-11-18,,,,,,
2013-12-01,33.17499923706055,33.810001373291016,32.564998626708984,33.400001525878906,26.01538848876953,79074000.0
2014-01-01,33.314998626708984,33.345001220703125,30.670000076293945,31.389999389648438,24.44979476928711,89773400.0
2014-02-01,31.43000030517578,32.2400016784668,30.225000381469727,32.040000915527344,24.956077575683594,74859200.0
2014-02-12,,,,,,
2014-03-01,31.684999465942383,33.005001068115234,31.049999237060547,31.520000457763672,24.845643997192383,78084800.0
2014-04-01,31.735000610351562,32.23500061035156,30.299999237060547,31.360000610351562,24.719520568847656,81967600.0
2014-05-01,31.344999313354492,31.954999923706055,30.434999465942383,30.614999771118164,24.13227653503418,72037600.0
2014-05-19,,,,,,
2014-06-01,30.75,31.760000228881836,30.600000381469727,31.125,24.833290100097656,69318000.0
2014-07-01,31.1299991607666,32.099998474121094,29.81999969482422,29.8700008392334,23.831979751586914,70516600.0
2014-08-01,29.635000228881836,30.81999969482422,29.25,30.6200008392334,24.430370330810547,81666000.0
2014-08-18,,,,,,
2014-09-01,30.809999465942383,30.8799991607666,28.850000381469727,29.125,23.527265548706055,99177600.0
2014-10-01,29.0049991607666,30.510000228881836,27.4950008392334,29.864999771118164,24.125036239624023,121036200.0
2014-11-01,29.93000030517578,30.149999618530273,29.21500015258789,29.864999771118164,24.125036239624023,78397400.0
2014-11-17,,,,,,
2014-12-01,29.790000915527344,31.229999542236328,28.524999618530273,30.545000076293945,25.003158569335938,90667800.0
2015-01-01,30.75,30.80500030517578,28.454999923706055,28.540000915527344,23.361936569213867,82653800.0
2015-02-01,28.450000762939453,31.3700008392334,28.204999923706055,31.125,25.477935791015625,80293200.0
2015-02-12,,,,,,
2015-03-01,31.094999313354492,32.310001373291016,30.524999618530273,32.005001068115234,26.532995223999023,94111200.0
2015-04-01,31.934999465942383,32.54999923706055,31.06999969482422,31.520000457763672,26.130916595458984,68178400.0
2015-05-01,31.709999084472656,32.529998779296875,30.815000534057617,31.110000610351562,25.791017532348633,90917800.0
2015-05-18,,,,,,
2015-06-01,31.25,31.915000915527344,30.65999984741211,31.100000381469727,26.10249900817871,87549600.0
2015-07-01,31.524999618530273,32.33000183105469,30.114999771118164,32.025001525878906,26.878864288330078,101600200.0
2015-08-01,31.969999313354492,32.494998931884766,25.704999923706055,29.299999237060547,24.591745376586914,99525800.0
2015-08-17,,,,,,
2015-09-01,28.604999542236328,29.540000915527344,28.094999313354492,29.065000534057617,24.691909790039062,89074000.0
2015-10-01,29.06999969482422,32.595001220703125,28.389999389648438,31.875,27.079118728637695,105507000.0
2015-11-01,31.96500015258789,33.1150016784668,31.135000228881836,32.619998931884766,27.71202278137207,88127600.0
2015-11-16,,,,,,
2015-12-01,32.7400016784668,33.26499938964844,29.045000076293945,29.950000762939453,25.778106689453125,92904000.0
2016-01-01,29.395000457763672,29.815000534057617,27.28499984741211,28.979999542236328,24.943225860595703,98427800.0
2016-02-01,28.68000030517578,30.385000228881836,27.6200008392334,29.760000228881836,25.614578247070312,104639400.0
2016-02-11,,,,,,
2016-03-01,29.959999084472656,32.165000915527344,29.65999984741211,31.56999969482422,27.565628051757812,97823200.0
2016-04-01,31.5,34.79999923706055,31.295000076293945,34.48500061035156,30.11088752746582,101037800.0
2016-05-01,34.23500061035156,35.04499816894531,34.0099983215332,34.72999954223633,30.32480239868164,94002600.0
2016-05-16,,,,,,
2016-06-01,34.505001068115234,36.084999084472656,33.564998626708984,36.08000183105469,31.883190155029297,91776000.0
2016-07-01,36.095001220703125,37.06999969482422,35.5099983215332,36.13999938964844,31.93621063232422,72503000.0
2016-08-01,35.95500183105469,37.25,35.57500076293945,37.09000015258789,32.77570724487305,76000600.0
2016-08-22,,,,,,
2016-09-01,37.13999938964844,37.18000030517578,35.6349983215332,35.935001373291016,32.11640548706055,68253400.0
2016-10-01,35.810001373291016,36.099998474121094,34.11000061035156,34.435001373291016,30.77581214904785,69936000.0
2016-11-01,34.59000015258789,36.974998474121094,33.959999084472656,35.689998626708984,31.897443771362305,77412200.0
2016-11-14,,,,,,
2016-12-01,35.7599983215332,70.1500015258789,33.75,69.05999755859375,62.461219787597656,109082600.0
2017-01-01,35.04499816894531,35.3849983215332,34.41999816894531,34.994998931884766,31.651182174682617,97485200.0
2017-02-01,34.5,36.290000915527344,33.25,36.17499923706055,32.71843338012695,86541000.0
2017-02-13,,,,,,
2017-03-01,36.5,36.665000915527344,35.31999969482422,36.209999084472656,33.157569885253906,86660400.0
2017-04-01,36.380001068115234,38.439998626708984,36.040000915527344,37.439998626708984,34.28388214111328,84817000.0
2017-05-01,37.529998779296875,37.70000076293945,36.404998779296875,37.689998626708984,34.51280212402344,69679000.0
2017-05-22,,,,,,
2017-06-01,37.81999969482422,39.93000030517578,37.275001525878906,38.84000015258789,35.98480224609375,76271600.0
2017-07-01,39.05500030517578,39.95500183105469,38.310001373291016,39.875,36.94371795654297,56280200.0
2017-08-01,40.04499816894531,41.349998474121094,39.58000183105469,41.275001525878906,38.24080276489258,71562200.0
2017-08-21,,,,,,
2017-09-01,41.275001525878906,42.255001068115234,39.875,40.69499969482422,38.11398696899414,66504800.0
2017-10-01,40.7599983215332,42.849998474121094,40.70500183105469,41.94499969482422,39.284706115722656,62935400.0
2017-11-01,42.06999969482422,44.04999923706055,41.5,43.81999969482422,41.04078674316406,64110000.0
2017-11-14,,,,,,
2017-12-01,43.959999084472656,44.904998779296875,42.6150016784668,43.88999938964844,41.54940414428711,64163000.0
2018-01-01,44.18000030517578,45.8650016784668,41.849998474121094,44.099998474121094,41.748207092285156,118444000.0
2018-02-01,44.290000915527344,45.630001068115234,41.40999984741211,44.439998626708984,42.070072174072266,88401600.0
2018-02-20,,,,,,
2018-03-01,44.505001068115234,45.880001068115234,43.154998779296875,43.7599983215332,41.91254806518555,97659100.0
2018-03-16,,,,,,
2018-03-19,,,,,,
2018-04-01,43.849998474121094,46.189998626708984,42.41999816894531,45.56999969482422,43.64614486694336,70451800.0
2018-05-01,45.25,45.849998474121094,44.060001373291016,45.060001373291016,43.157676696777344,71711600.0
2018-05-22,,,,,,
2018-06-01,45.5,46.0,43.0099983215332,43.02000045776367,41.439300537109375,61992900.0
2018-07-01,42.849998474121094,46.70000076293945,42.130001068115234,46.540000915527344,44.82996368408203,63245000.0
2018-08-01,46.63999938964844,47.150001525878906,46.02000045776367,46.2400016784668,44.540985107421875,59459800.0
2018-08-21,,,,,,
2018-09-01,46.09000015258789,48.189998626708984,45.79999923706055,47.06999969482422,45.593894958496094,49985300.0
2018-10-01,47.2400016784668,47.63999938964844,41.45000076293945,43.06999969482422,41.71933364868164,84071400.0
2018-11-01,43.0099983215332,45.91999816894531,42.61000061035156,45.7400016784668,44.305606842041016,69000300.0
2018-11-20,,,,,,
2018-12-01,46.130001068115234,46.380001068115234,41.880001068115234,45.560001373291016,44.3856086730957,85256800.0
2019-01-01,44.59000015258789,48.36000061035156,44.279998779296875,47.70000076293945,46.47043991088867,82877700.0
2019-02-01,47.79999923706055,49.54999923706055,47.38999938964844,49.13999938964844,47.873321533203125,61211300.0
2019-02-19,,,,,,
2019-03-01,49.40999984741211,50.65999984741211,48.18000030517578,50.0,48.97951126098633,60086500.0
2019-04-01,50.310001373291016,50.459999084472656,48.290000915527344,50.380001068115234,49.35175704956055,70233800.0
2019-05-01,50.5099983215332,52.45000076293945,49.720001220703125,51.29999923706055,50.25297927856445,63431400.0
2019-05-21,,,,,,
2019-06-01,51.2599983215332,55.66999816894531,51.13999938964844,54.810001373291016,53.97071075439453,60902800.0
2019-07-01,55.4900016784668,57.18000030517578,52.2400016784668,52.63999938964844,51.83393859863281,66875700.0
2019-08-01,52.58000183105469,53.380001068115234,48.13999938964844,50.18000030517578,49.4116096496582,79022700.0
2019-08-20,,,,,,
2019-09-01,49.75,53.06999969482422,49.599998474121094,52.31999969482422,51.78425216674805,68676800.0
2019-10-01,52.54999923706055,53.88999938964844,50.43000030517578,53.15999984741211,52.61564636230469,65659900.0
2019-11-01,53.4900016784668,55.06999969482422,52.59000015258789,54.84000015258789,54.278446197509766,46300600.0
2019-11-19,,,,,,
2019-12-01,54.720001220703125,54.83000183105469,51.290000915527344,52.900001525878906,52.61952590942383,64059500.0
2020-01-01,53.040000915527344,53.459999084472656,51.52000045776367,51.56999969482422,51.296573638916016,63904300.0
2020-02-01,51.849998474121094,53.380001068115234,41.91999816894531,42.849998474121094,42.622806549072266,68415700.0
2020-02-18,,,,,,
2020-03-01,43.119998931884766,45.650001525878906,23.06999969482422,36.72999954223633,36.72999954223633,128835900.0
2020-03-26,29.450000762939453,41.209999084472656,35.34000015258789,36.029998779296875,36.029998779296875,6301069.0
