Date,Open,High,Low,Close,Adj Close,Volume
2001-01-01,18.125,18.1875,13.4375,13.5,13.5,2025000
2001-02-01,13.125,14.5625,7.125,7.5,7.5,12337000
2001-03-01,7.484375,10.5,6.125,7.25,7.25,7244800
2001-04-01,7.296875,9.399999618530273,5.349999904632568,8.75,8.75,3155600
2001-05-01,9.0,12.449999809265137,7.900000095367432,10.0,10.0,7957700
2001-06-01,10.0,10.529999732971191,7.599999904632568,7.840000152587891,7.840000152587891,5532100
2001-07-01,8.020000457763672,8.100000381469727,6.5,7.460000038146973,7.460000038146973,6629800
2001-08-01,7.5,8.25,6.480000019073486,6.599999904632568,6.599999904632568,4726300
2001-09-01,6.730000019073486,7.25,2.180000066757202,2.180000066757202,2.180000066757202,7072000
2001-10-01,2.430000066757202,5.789999961853027,2.140000104904175,4.360000133514404,4.360000133514404,7439200
2001-11-01,4.349999904632568,5.5,2.950000047683716,4.0,4.0,4217600
2001-12-01,4.0,5.159999847412109,3.5999999046325684,4.5,4.5,2439200
2002-01-01,4.5,6.25,4.0,4.880000114440918,4.880000114440918,9522800
2002-02-01,4.889999866485596,5.579999923706055,4.099999904632568,4.25,4.25,3194500
2002-03-01,4.25,5.400000095367432,4.03000020980835,5.300000190734863,5.300000190734863,3407000
2002-04-01,5.340000152587891,5.519999980926514,3.3299999237060547,3.8499999046325684,3.8499999046325684,4833000
2002-05-01,3.8299999237060547,4.079999923706055,3.509999990463257,3.8499999046325684,3.8499999046325684,2635800
2002-06-01,3.859999895095825,4.150000095367432,3.0899999141693115,3.9200000762939453,3.9200000762939453,5225100
2002-07-01,3.9200000762939453,3.9200000762939453,1.5299999713897705,2.3499999046325684,2.3499999046325684,5747800
2002-08-01,2.3499999046325684,3.740000009536743,2.180000066757202,3.0,3.0,1872800
2002-09-01,2.950000047683716,3.4000000953674316,2.5199999809265137,2.75,2.75,2081300
2002-10-01,2.799999952316284,3.0799999237060547,1.659999966621399,1.7699999809265137,1.7699999809265137,2765000
2002-11-01,2.0199999809265137,3.619999885559082,1.2599999904632568,3.5899999141693115,3.5899999141693115,7927800
2002-12-01,3.490000009536743,3.509999990463257,2.380000114440918,2.759999990463257,2.759999990463257,3148300
2003-01-01,2.950000047683716,3.3499999046325684,2.5399999618530273,3.299999952316284,3.299999952316284,2232000
2003-02-01,3.299999952316284,4.989999771118164,3.109999895095825,4.710000038146973,4.710000038146973,4309400
2003-03-01,4.650000095367432,6.239999771118164,4.099999904632568,6.050000190734863,6.050000190734863,5050500
2003-04-01,6.130000114440918,7.659999847412109,5.53000020980835,7.519999980926514,7.519999980926514,8055100
2003-05-01,7.659999847412109,11.399999618530273,6.800000190734863,10.130000114440918,10.130000114440918,10898000
2003-06-01,10.170000076293945,12.6899995803833,9.25,12.600000381469727,12.600000381469727,8403500
2003-07-01,13.039999961853027,14.770000457763672,9.9399995803833,13.0,13.0,11289400
2003-08-01,12.84000015258789,13.0,10.149999618530273,11.069999694824219,11.069999694824219,6526600
2003-09-01,11.0,14.25,10.850000381469727,12.510000228881836,12.510000228881836,7122200
2003-10-01,12.5,16.270000457763672,12.489999771118164,15.40999984741211,15.40999984741211,12589100
2003-11-01,15.220000267028809,18.010000228881836,15.100000381469727,17.940000534057617,17.940000534057617,11978300
2003-12-01,18.040000915527344,18.969999313354492,15.520000457763672,16.510000228881836,16.510000228881836,8255100
2004-01-01,16.739999771118164,21.899999618530273,16.469999313354492,20.75,20.75,14226400
2004-02-01,21.0,21.799999237060547,19.1200008392334,19.670000076293945,19.670000076293945,9179000
2004-03-01,19.6200008392334,20.229999542236328,17.450000762939453,19.010000228881836,19.010000228881836,7151500
2004-04-01,19.219999313354492,22.809999465942383,17.31999969482422,17.360000610351562,17.360000610351562,11377600
2004-05-01,17.670000076293945,20.190000534057617,17.25,19.059999465942383,19.059999465942383,8240900
2004-06-01,19.0,19.299999237060547,17.299999237060547,19.0,19.0,11333000
2004-07-01,18.90999984741211,19.149999618530273,15.229999542236328,17.18000030517578,17.18000030517578,17804300
2004-08-01,17.34000015258789,17.350000381469727,13.600000381469727,15.319999694824219,15.319999694824219,12438700
2004-09-01,15.199999809265137,16.75,14.539999961853027,15.279999732971191,15.279999732971191,8828400
2004-10-01,15.430000305175781,16.34000015258789,8.850000381469727,10.380000114440918,10.380000114440918,33137400
2004-11-01,10.529999732971191,11.489999771118164,10.100000381469727,10.569999694824219,10.569999694824219,16938000
2004-12-01,11.0600004196167,12.0,10.25,10.75,10.75,15754000
2005-01-01,10.869999885559082,10.869999885559082,7.78000020980835,8.65999984741211,8.65999984741211,25401200
2005-02-01,8.65999984741211,8.890000343322754,7.340000152587891,7.570000171661377,7.570000171661377,19786900
2005-03-01,7.570000171661377,8.010000228881836,5.840000152587891,6.239999771118164,6.239999771118164,19672500
2005-04-01,6.260000228881836,8.84000015258789,5.75,8.420000076293945,8.420000076293945,38179900
2005-05-01,8.420000076293945,8.899999618530273,6.960000038146973,7.269999980926514,7.269999980926514,18094100
2005-06-01,7.300000190734863,7.760000228881836,6.920000076293945,7.369999885559082,7.369999885559082,10626000
2005-07-01,7.349999904632568,8.40999984741211,5.630000114440918,6.519999980926514,6.519999980926514,18686600
2005-08-01,6.53000020980835,6.960000038146973,6.059999942779541,6.809999942779541,6.809999942779541,17164700
2005-09-01,6.829999923706055,7.440000057220459,6.199999809265137,6.71999979019165,6.71999979019165,10208600
2005-10-01,6.71999979019165,7.690000057220459,6.309999942779541,7.380000114440918,7.380000114440918,14426400
2005-11-01,7.300000190734863,7.300000190734863,6.199999809265137,6.920000076293945,6.920000076293945,13681100
2005-12-01,6.920000076293945,7.130000114440918,6.269999980926514,6.46999979019165,6.46999979019165,10094000
2006-01-01,6.349999904632568,8.6899995803833,5.960000038146973,8.180000305175781,8.180000305175781,22400300
2006-02-01,8.0600004196167,8.5600004196167,7.75,8.15999984741211,8.15999984741211,12355700
2006-03-01,8.109999656677246,9.449999809265137,7.96999979019165,9.170000076293945,9.170000076293945,11808000
2006-04-01,9.149999618530273,9.75,8.199999809265137,8.789999961853027,8.789999961853027,11249900
2006-05-01,8.789999961853027,9.399999618530273,6.980000019073486,7.389999866485596,7.389999866485596,10104600
2006-06-01,7.429999828338623,8.149999618530273,7.019999980926514,7.389999866485596,7.389999866485596,9540500
2006-07-01,7.420000076293945,7.679999828338623,6.150000095367432,6.760000228881836,6.760000228881836,7092200
2006-08-01,6.610000133514404,6.880000114440918,5.619999885559082,6.25,6.25,9568500
2006-09-01,6.260000228881836,13.34000015258789,6.059999942779541,11.380000114440918,11.380000114440918,36251500
2006-10-01,11.300000190734863,15.329999923706055,11.0,13.859999656677246,13.859999656677246,36899700
2006-11-01,13.779999732971191,13.850000381469727,12.550000190734863,13.119999885559082,13.119999885559082,13892400
2006-12-01,13.050000190734863,14.34000015258789,12.779999732971191,13.970000267028809,13.970000267028809,13489900
2007-01-01,13.970000267028809,17.010000228881836,13.069999694824219,16.559999465942383,16.559999465942383,20594400
2007-02-01,16.030000686645508,17.950000762939453,15.899999618530273,16.420000076293945,16.420000076293945,15797300
2007-03-01,16.079999923706055,16.969999313354492,15.720000267028809,15.859999656677246,15.859999656677246,12944800
2007-04-01,15.880000114440918,24.280000686645508,15.449999809265137,22.65999984741211,22.65999984741211,25872600
2007-05-01,22.700000762939453,24.190000534057617,21.989999771118164,22.790000915527344,22.790000915527344,18799900
2007-06-01,22.989999771118164,25.290000915527344,21.790000915527344,24.15999984741211,24.15999984741211,18722400
2007-07-01,24.229999542236328,29.709999084472656,24.09000015258789,26.100000381469727,26.100000381469727,24039700
2007-08-01,25.959999084472656,28.34000015258789,21.549999237060547,22.729999542236328,22.729999542236328,34055100
2007-09-01,22.649999618530273,26.239999771118164,22.600000381469727,25.329999923706055,25.329999923706055,16158200
2007-10-01,25.219999313354492,29.299999237060547,18.0,20.700000762939453,20.700000762939453,41610800
2007-11-01,20.479999542236328,20.690000534057617,14.619999885559082,16.889999389648438,16.889999389648438,24770800
2007-12-01,16.81999969482422,19.8799991607666,16.239999771118164,16.68000030517578,16.68000030517578,12629100
2008-01-01,16.68000030517578,17.219999313354492,10.800000190734863,11.779999732971191,11.779999732971191,42594000
2008-02-01,11.59000015258789,13.619999885559082,11.569999694824219,12.350000381469727,12.350000381469727,26020800
2008-03-01,12.380000114440918,12.899999618530273,10.34000015258789,11.109999656677246,11.109999656677246,14429700
2008-04-01,11.229999542236328,12.789999961853027,9.649999618530273,12.279999732971191,12.279999732971191,27405500
2008-05-01,12.170000076293945,13.420000076293945,11.979999542236328,13.170000076293945,13.170000076293945,17764800
2008-06-01,13.199999809265137,13.449999809265137,10.470000267028809,10.489999771118164,10.489999771118164,16044400
2008-07-01,10.380000114440918,12.239999771118164,9.020000457763672,10.010000228881836,10.010000228881836,24632200
2008-08-01,9.9399995803833,13.1899995803833,9.90999984741211,13.039999961853027,13.039999961853027,15733300
2008-09-01,13.180000305175781,13.739999771118164,10.449999809265137,10.829999923706055,10.829999923706055,18052000
2008-10-01,10.75,10.880000114440918,4.880000114440918,6.929999828338623,6.929999828338623,25855800
2008-11-01,6.900000095367432,7.510000228881836,5.670000076293945,7.0,7.0,11861100
2008-12-01,6.789999961853027,8.8100004196167,6.630000114440918,8.75,8.75,12507600
2009-01-01,8.520000457763672,9.670000076293945,7.480000019073486,7.880000114440918,7.880000114440918,12237500
2009-02-01,7.710000038146973,9.1899995803833,6.849999904632568,6.849999904632568,6.849999904632568,9778000
2009-03-01,6.809999942779541,8.369999885559082,6.099999904632568,7.929999828338623,7.929999828338623,11709500
2009-04-01,7.829999923706055,12.829999923706055,7.619999885559082,12.40999984741211,12.40999984741211,18300900
2009-05-01,12.569999694824219,12.710000038146973,11.069999694824219,11.829999923706055,11.829999923706055,10430500
2009-06-01,12.079999923706055,12.90999984741211,9.430000305175781,10.600000381469727,10.600000381469727,22054500
2009-07-01,10.720000267028809,12.069999694824219,9.149999618530273,10.90999984741211,10.90999984741211,18147700
2009-08-01,10.880000114440918,14.0,9.75,13.399999618530273,13.399999618530273,22095200
2009-09-01,13.260000228881836,14.90999984741211,12.699999809265137,14.220000267028809,14.220000267028809,9651900
2009-10-01,14.680000305175781,18.850000381469727,14.180000305175781,15.720000267028809,15.720000267028809,20867100
2009-11-01,15.869999885559082,17.389999389648438,15.380000114440918,16.360000610351562,16.360000610351562,9797000
2009-12-01,16.520000457763672,18.229999542236328,16.5,17.81999969482422,17.81999969482422,9443100
2010-01-01,18.049999237060547,19.25,16.110000610351562,18.75,18.75,12681100
2010-02-01,18.729999542236328,18.75,16.93000030517578,18.100000381469727,18.100000381469727,10057900
2010-03-01,18.15999984741211,20.0,18.079999923706055,19.34000015258789,19.34000015258789,10783100
2010-04-01,19.440000534057617,20.559999465942383,16.420000076293945,17.0,17.0,36040300
2010-05-01,17.0,17.90999984741211,14.729999542236328,14.920000076293945,14.920000076293945,25102100
2010-06-01,14.850000381469727,15.369999885559082,13.180000305175781,14.869999885559082,14.869999885559082,23995300
2010-07-01,14.890000343322754,18.5,13.899999618530273,17.350000381469727,17.350000381469727,20981900
2010-08-01,17.469999313354492,18.280000686645508,15.710000038146973,15.989999771118164,15.989999771118164,12648000
2010-09-01,16.239999771118164,19.950000762939453,16.170000076293945,19.579999923706055,19.579999923706055,12554600
2010-10-01,19.770000457763672,21.399999618530273,16.25,17.020000457763672,17.020000457763672,37360400
2010-11-01,17.020000457763672,18.670000076293945,16.649999618530273,17.489999771118164,17.489999771118164,17453700
2010-12-01,17.84000015258789,20.649999618530273,17.18000030517578,19.540000915527344,19.540000915527344,12384000
2011-01-01,19.75,21.200000762939453,19.229999542236328,20.829999923706055,20.829999923706055,16798000
2011-02-01,20.510000228881836,22.239999771118164,19.100000381469727,20.850000381469727,20.850000381469727,17491300
2011-03-01,20.829999923706055,22.049999237060547,19.559999465942383,20.479999542236328,20.479999542236328,13200700
2011-04-01,20.579999923706055,25.940000534057617,20.40999984741211,24.139999389648438,24.139999389648438,14684700
2011-05-01,24.139999389648438,24.799999237060547,22.360000610351562,24.5,24.5,10979600
2011-06-01,24.420000076293945,24.760000228881836,21.649999618530273,22.799999237060547,22.799999237060547,13789500
2011-07-01,22.799999237060547,24.15999984741211,21.520000457763672,21.989999771118164,21.989999771118164,8176500
2011-08-01,22.260000228881836,22.530000686645508,16.239999771118164,19.100000381469727,19.100000381469727,18688200
2011-09-01,19.149999618530273,19.350000381469727,14.649999618530273,15.170000076293945,15.170000076293945,11142100
2011-10-01,15.0,24.0,14.25,23.030000686645508,23.030000686645508,17281900
2011-11-01,21.8799991607666,24.989999771118164,21.200000762939453,24.5,24.5,13670800
2011-12-01,24.3700008392334,25.579999923706055,23.1299991607666,23.729999542236328,23.729999542236328,13581300
2012-01-01,24.239999771118164,25.75,22.389999389648438,23.559999465942383,23.559999465942383,16329600
2012-02-01,23.579999923706055,27.75,23.399999618530273,25.610000610351562,25.610000610351562,14079800
2012-03-01,25.940000534057617,28.690000534057617,25.079999923706055,27.549999237060547,27.549999237060547,11810300
2012-04-01,27.399999618530273,34.290000915527344,26.059999465942383,31.709999084472656,31.709999084472656,19099600
2012-05-01,31.579999923706055,32.900001525878906,28.860000610351562,31.229999542236328,31.229999542236328,19273300
2012-06-01,30.420000076293945,35.150001525878906,28.6200008392334,33.459999084472656,33.459999084472656,26883900
2012-07-01,34.25,36.099998474121094,30.020000457763672,33.959999084472656,33.959999084472656,35322800
2012-08-01,34.08000183105469,35.77000045776367,32.130001068115234,33.95000076293945,33.95000076293945,17038600
2012-09-01,33.91999816894531,39.81999969482422,33.709999084472656,36.970001220703125,36.970001220703125,19139700
2012-10-01,37.16999816894531,39.38999938964844,25.329999923706055,26.56999969482422,26.56999969482422,51958500
2012-11-01,26.549999237060547,27.59000015258789,24.770000457763672,27.389999389648438,27.389999389648438,25394600
2012-12-01,27.56999969482422,28.56999969482422,23.450000762939453,27.75,27.75,22937900
2013-01-01,28.56999969482422,32.79999923706055,25.610000610351562,31.360000610351562,31.360000610351562,29935900
2013-02-01,31.440000534057617,33.15999984741211,30.950000762939453,31.440000534057617,31.440000534057617,17875100
2013-03-01,31.18000030517578,33.70000076293945,30.670000076293945,33.5099983215332,33.5099983215332,10126500
2013-04-01,33.400001525878906,33.84000015258789,29.530000686645508,33.119998931884766,33.119998931884766,23537000
2013-05-01,32.880001068115234,38.7400016784668,32.150001525878906,35.75,35.75,23519000
2013-06-01,36.029998779296875,37.380001068115234,33.84000015258789,37.040000915527344,37.040000915527344,12491200
2013-07-01,37.0099983215332,44.43000030517578,36.91999816894531,43.040000915527344,43.040000915527344,18526100
2013-08-01,43.22999954223633,45.0,42.34000015258789,43.54999923706055,43.54999923706055,9802400
2013-09-01,44.33000183105469,49.08000183105469,43.66999816894531,48.099998474121094,48.099998474121094,11533100
2013-10-01,48.0,60.0,41.83000183105469,57.060001373291016,57.060001373291016,36165200
2013-11-01,56.959999084472656,59.79999923706055,51.81999969482422,54.63999938964844,54.63999938964844,20694400
2013-12-01,54.79999923706055,58.5,52.7400016784668,57.13999938964844,57.13999938964844,13089000
2014-01-01,57.060001373291016,65.0999984741211,53.7599983215332,59.41999816894531,59.41999816894531,40949800
2014-02-01,59.08000183105469,59.720001220703125,51.72999954223633,52.33000183105469,52.33000183105469,19910300
2014-03-01,53.290000915527344,55.959999084472656,50.369998931884766,51.790000915527344,51.790000915527344,16521100
2014-04-01,51.880001068115234,57.5,48.130001068115234,50.38999938964844,50.38999938964844,24200300
2014-05-01,50.349998474121094,55.41999816894531,47.220001220703125,54.61000061035156,54.61000061035156,19145100
2014-06-01,54.75,56.75,50.310001373291016,56.040000915527344,56.040000915527344,28787900
2014-07-01,56.33000183105469,57.790000915527344,51.290000915527344,54.209999084472656,54.209999084472656,20368800
2014-08-01,54.0,56.88999938964844,53.099998474121094,54.459999084472656,54.459999084472656,10429000
2014-09-01,54.459999084472656,55.90999984741211,51.65999984741211,51.68000030517578,51.68000030517578,11702600
2014-10-01,51.810001373291016,53.22999954223633,43.27000045776367,52.619998931884766,52.619998931884766,23649500
2014-11-01,52.77000045776367,57.709999084472656,51.63999938964844,56.900001525878906,56.900001525878906,11280500
2014-12-01,56.7400016784668,57.720001220703125,54.0099983215332,55.90999984741211,55.90999984741211,10369800
2015-01-01,57.2400016784668,64.75,51.77000045776367,53.04999923706055,53.04999923706055,24639000
2015-02-01,53.0,58.15999984741211,52.02000045776367,57.349998474121094,57.349998474121094,15054700
2015-03-01,57.959999084472656,58.52000045776367,52.13999938964844,53.790000915527344,53.790000915527344,16676300
2015-04-01,53.66999816894531,61.2400016784668,51.650001525878906,58.84000015258789,58.84000015258789,25901800
2015-05-01,58.7400016784668,61.41999816894531,57.88999938964844,60.66999816894531,60.66999816894531,10976900
2015-06-01,61.08000183105469,64.98999786376953,59.560001373291016,62.709999084472656,62.709999084472656,18363900
2015-07-01,63.18000030517578,66.52999877929688,58.86000061035156,62.70000076293945,62.70000076293945,22087000
2015-08-01,62.47999954223633,63.060001373291016,52.0099983215332,56.599998474121094,56.599998474121094,12188900
2015-09-01,55.619998931884766,59.470001220703125,53.56999969482422,56.7599983215332,56.7599983215332,12465600
2015-10-01,56.58000183105469,68.4800033569336,54.689998626708984,65.45999908447266,65.45999908447266,22414700
2015-11-01,65.76000213623047,68.0,63.04999923706055,66.73999786376953,66.73999786376953,10907700
2015-12-01,66.86000061035156,68.41999816894531,63.189998626708984,65.8499984741211,65.8499984741211,8189200
2016-01-01,64.98999786376953,69.36000061035156,57.310001373291016,66.13999938964844,66.13999938964844,13841100
2016-02-01,66.11000061035156,68.02999877929688,57.5099983215332,66.02999877929688,66.02999877929688,13069400
2016-03-01,66.26000213623047,73.55000305175781,65.7699966430664,72.69000244140625,72.69000244140625,18403000
2016-04-01,72.56999969482422,75.73999786376953,70.02999877929688,72.19000244140625,72.19000244140625,12457900
2016-05-01,72.55999755859375,79.79000091552734,72.38999938964844,78.83000183105469,78.83000183105469,17424100
2016-06-01,78.91999816894531,81.9800033569336,77.06999969482422,80.55000305175781,80.55000305175781,13618900
2016-07-01,80.73999786376953,89.58000183105469,80.30000305175781,89.1500015258789,89.1500015258789,13085100
2016-08-01,89.48999786376953,96.12999725341797,88.6500015258789,92.9000015258789,92.9000015258789,17380400
2016-09-01,93.19999694824219,96.9000015258789,91.0199966430664,93.75,93.75,15528500
2016-10-01,92.04000091552734,92.30000305175781,83.2699966430664,85.91999816894531,85.91999816894531,16495200
2016-11-01,85.86000061035156,98.62000274658203,83.7699966430664,93.05000305175781,93.05000305175781,26339000
2016-12-01,93.12000274658203,102.0999984741211,91.45999908447266,96.12999725341797,96.12999725341797,17333100
2017-01-01,96.48999786376953,98.81999969482422,88.55999755859375,91.69000244140625,91.69000244140625,18340700
2017-02-01,97.0,103.83000183105469,92.61000061035156,102.76000213623047,102.76000213623047,18529400
2017-03-01,103.7699966430664,115.19999694824219,102.0199966430664,114.70999908447266,114.70999908447266,14725800
2017-04-01,115.12999725341797,145.24000549316406,113.4000015258789,134.6199951171875,134.6199951171875,15905300
2017-05-01,135.38999938964844,146.0,131.32000732421875,145.1999969482422,145.1999969482422,24486400
2017-06-01,146.36000061035156,154.85000610351562,139.0,150.1199951171875,150.1199951171875,39073100
2017-07-01,151.05999755859375,173.7899932861328,148.9499969482422,167.22999572753906,167.22999572753906,17145500
2017-08-01,167.41000366210938,179.75999450683594,165.17999267578125,176.74000549316406,176.74000549316406,21086900
2017-09-01,176.80999755859375,190.0399932861328,173.8800048828125,186.27000427246094,186.27000427246094,16509800
2017-10-01,187.16000366210938,243.27000427246094,184.6699981689453,238.97999572753906,238.97999572753906,24999000
2017-11-01,243.0,266.4100036621094,232.30999755859375,254.9199981689453,254.9199981689453,30606500
2017-12-01,259.3500061035156,261.0,212.86000061035156,222.19000244140625,222.19000244140625,23689300
2018-01-01,222.61000061035156,287.32000732421875,220.36000061035156,262.0,262.0,27964800
2018-02-01,261.5899963378906,268.3999938964844,219.11000061035156,262.5199890136719,262.5199890136719,24029100
2018-03-01,255.0,277.32000732421875,241.02999877929688,251.1300048828125,251.1300048828125,18465100
2018-04-01,251.0,280.2300109863281,234.39999389648438,249.85000610351562,249.85000610351562,22297200
2018-05-01,249.2100067138672,338.5,244.39999389648438,331.95001220703125,331.95001220703125,22467100
2018-06-01,333.1700134277344,371.54998779296875,325.2799987792969,342.1400146484375,342.1400146484375,20469900
2018-07-01,334.8999938964844,385.0,332.010009765625,356.6499938964844,356.6499938964844,16842400
2018-08-01,356.6499938964844,392.69000244140625,342.29998779296875,386.489990234375,386.489990234375,15280700
2018-09-01,386.6400146484375,398.8800048828125,365.20001220703125,391.2200012207031,391.2200012207031,11538700
2018-10-01,393.3599853515625,397.8500061035156,203.1199951171875,221.1999969482422,221.1999969482422,41000500
2018-11-01,222.27000427246094,248.5,188.57000732421875,229.88999938964844,229.88999938964844,30910800
2018-12-01,234.39999389648438,235.9199981689453,190.75,209.42999267578125,209.42999267578125,21462700
2019-01-01,205.32000732421875,249.24000549316406,177.92999267578125,248.9499969482422,248.9499969482422,38000900
2019-02-01,248.0800018310547,263.6400146484375,234.22999572753906,258.9700012207031,258.9700012207031,20896000
2019-03-01,261.239990234375,284.6099853515625,224.5800018310547,284.3299865722656,284.3299865722656,32185300
2019-04-01,287.44000244140625,325.3699951171875,271.6600036621094,324.67999267578125,324.67999267578125,25376300
2019-05-01,325.260009765625,334.6400146484375,272.6000061035156,284.3500061035156,284.3500061035156,20799400
2019-06-01,282.8599853515625,319.1700134277344,263.70001220703125,273.70001220703125,273.70001220703125,20408700
2019-07-01,280.6400146484375,290.7799987792969,189.60000610351562,209.0800018310547,209.0800018310547,35295300
2019-08-01,209.08999633789062,209.99000549316406,172.11000061035156,183.11000061035156,183.11000061035156,26423700
2019-09-01,182.22999572753906,188.16000366210938,169.83999633789062,180.9199981689453,180.9199981689453,27242900
2019-10-01,181.22000122070312,257.6300048828125,175.52000427246094,252.2899932861328,252.2899932861328,27084000
2019-11-01,254.30999755859375,281.57000732421875,253.02000427246094,277.3399963378906,277.3399963378906,12660100
2019-12-01,276.5400085449219,280.67999267578125,257.42999267578125,279.0400085449219,279.0400085449219,12317300
2020-01-01,281.20001220703125,301.6499938964844,248.35000610351562,257.1000061035156,257.1000061035156,19759700
2020-02-01,257.5,277.67999267578125,211.00999450683594,218.35000610351562,218.35000610351562,16642600
2020-03-01,218.91000366210938,238.67999267578125,127.87999725341797,183.67999267578125,183.67999267578125,26337100
2020-03-26,182.89999389648438,200.47000122070312,182.5,190.6649932861328,190.6649932861328,910464
