Date,Open,High,Low,Close,Adj Close,Volume
1980-03-01,0.0,4.104995250701904,3.815911293029785,4.018270015716553,0.8255693912506104,3175000.0
1980-04-01,0.0,4.394079685211182,3.7291860580444336,4.394079685211182,0.9027814865112305,6258000.0
1980-05-01,0.0,4.480804920196533,3.873728036880493,4.3362627029418945,0.8909018039703369,9380400.0
1980-06-01,0.0,4.712072372436523,4.235083103179932,4.480804920196533,0.9205995202064514,4731800.0
1980-07-01,0.0,5.20351505279541,4.4518961906433105,5.20351505279541,1.0690829753875732,6984600.0
1980-08-01,0.0,5.637141704559326,5.030064582824707,5.319149017333984,1.0928398370742798,9228100.0
1980-09-01,0.0,6.128584861755371,5.160152435302734,5.680504322052002,1.1670825481414795,6636100.0
1980-10-01,0.0,6.273126602172852,5.680504322052002,5.723866939544678,1.175991177558899,8313800.0
1980-11-01,0.0,6.1574931144714355,5.521507740020752,5.59377908706665,1.1492640972137451,10080100.0
1980-12-01,0.0,5.59377908706665,4.668709754943848,4.784343242645264,0.9829617142677307,9641500.0
1981-01-01,0.0,5.2179694175720215,4.422987937927246,5.087881565093994,1.045325517654419,13164400.0
1981-02-01,0.0,5.13124418258667,4.784343242645264,4.9433393478393555,1.0156285762786865,6071700.0
1981-03-01,0.0,5.651595592498779,4.712072372436523,5.174606800079346,1.0631437301635742,9100900.0
1981-04-01,0.0,5.4925994873046875,4.972248077392578,5.304694652557373,1.089870810508728,6798900.0
1981-05-01,0.0,5.420328617095947,4.885522842407227,5.087881565093994,1.045325517654419,5426600.0
1981-06-01,0.0,5.20351505279541,4.480804920196533,4.553075790405273,0.9354477524757385,7449300.0
1981-07-01,0.0,4.726526260375977,4.249537467956543,4.30735445022583,0.8849630951881409,10266700.0
1981-08-01,0.0,4.639801025390625,4.162812232971191,4.177266597747803,0.8582361936569214,6382100.0
1981-09-01,0.0,4.4518961906433105,3.931544780731201,4.0616326332092285,0.8344791531562805,7715600.0
1981-10-01,0.0,4.538621425628662,4.0038161277771,4.538621425628662,0.9324777126312256,5055500.0
1981-11-01,0.0,4.654255390167236,4.2206292152404785,4.2206292152404785,0.8671445846557617,4916200.0
1981-12-01,0.0,4.509713172912598,4.2206292152404785,4.350717067718506,0.8938720226287842,6948600.0
1982-01-01,0.0,4.3362627029418945,3.758094310760498,4.0616326332092285,0.8344791531562805,6724500.0
1982-02-01,0.0,4.0616326332092285,3.584643840789795,3.642460584640503,0.748357892036438,8936700.0
1982-03-01,0.0,4.177266597747803,3.6135523319244385,4.047178745269775,0.831508457660675,8918300.0
1982-04-01,0.0,4.321808338165283,3.9459991455078125,4.07608699798584,0.837448239326477,4568900.0
1982-05-01,0.0,4.191720485687256,3.6135523319244385,3.642460584640503,0.748357892036438,5344400.0
1982-06-01,0.0,3.6135523319244385,3.0064754486083984,3.5123727321624756,0.7216310501098633,10036400.0
1982-07-01,0.0,3.6858232021331787,3.0787465572357178,3.1221091747283936,0.641449511051178,8371200.0
1982-08-01,0.0,3.4979186058044434,2.7318456172943115,3.2232885360717773,0.6622375249862671,13968900.0
1982-09-01,0.0,3.5123727321624756,3.09320068359375,3.1076550483703613,0.6384801268577576,29255000.0
1982-10-01,0.0,4.0038161277771,3.049838066101074,3.743640184402466,0.7691460251808167,22497600.0
1982-11-01,0.0,4.755434989929199,3.7147316932678223,4.2206292152404785,0.8671445846557617,13184800.0
1982-12-01,0.0,4.365170955657959,3.584643840789795,4.206174850463867,0.8641758561134338,17457500.0
1983-01-01,0.0,5.319149017333984,3.931544780731201,4.842160224914551,0.9948405623435974,34193300.0
1983-02-01,0.0,5.20351505279541,4.856614112854004,5.13124418258667,1.0542343854904175,13126400.0
1983-03-01,0.0,5.564870357513428,4.697618007659912,4.726526260375977,0.9710837006568909,16167400.0
1983-04-01,4.96875,5.515620231628418,4.422987937927246,5.359379768371582,1.1011059284210205,33211700.0
1983-05-01,4.885522842407227,5.420328617095947,4.697618007659912,5.261332035064697,1.080960750579834,21386200.0
1983-06-01,5.261332035064697,5.8828630447387695,4.9433393478393555,5.521507740020752,1.1344152688980103,21144000.0
1983-06-29,,,,,,
1983-07-01,5.4925994873046875,5.781683444976807,5.290240287780762,5.3769659996032715,1.1106902360916138,9108800.0
1983-08-01,5.348057270050049,5.637141704559326,4.769888877868652,5.622687339782715,1.161448359489441,13513800.0
1983-09-01,5.6082329750061035,5.897317409515381,5.463691234588623,5.507053852081299,1.1375627517700195,12825700.0
1983-09-29,,,,,,
1983-10-01,5.507053852081299,5.637141704559326,4.842160224914551,4.871068477630615,1.0114312171936035,12247900.0
1983-11-01,4.914431095123291,5.261332035064697,4.813251495361328,5.246877670288086,1.0894646644592285,13023500.0
1983-12-01,5.2179694175720215,5.521507740020752,5.116789817810059,5.160152435302734,1.071456789970398,7566200.0
1983-12-29,,,,,,
1984-01-01,5.160152435302734,5.36251163482666,5.13124418258667,5.20351505279541,1.086513876914978,12886200.0
1984-02-01,5.20351505279541,5.20351505279541,4.2206292152404785,4.524167537689209,0.9446641802787781,12912200.0
1984-03-01,4.538621425628662,5.319149017333984,4.394079685211182,5.319149017333984,1.1106581687927246,16667900.0
1984-03-30,,,,,,
1984-04-01,5.275786399841309,5.463691234588623,5.1023359298706055,5.36251163482666,1.1259511709213257,9880000.0
1984-05-01,5.348057270050049,5.36251163482666,4.553075790405273,4.712072372436523,0.989380419254303,9748000.0
1984-06-01,4.740980625152588,5.087881565093994,4.712072372436523,4.769888877868652,1.0015196800231934,8440100.0
1984-06-28,,,,,,
1984-07-01,4.769888877868652,4.914431095123291,4.466350555419922,4.697618007659912,0.992396891117096,13302100.0
1984-08-01,4.769888877868652,5.59377908706665,4.769888877868652,5.550416469573975,1.1725554466247559,13341200.0
1984-09-01,5.535962104797363,5.535962104797363,4.986701965332031,5.05897331237793,1.0687350034713745,9362100.0
1984-09-28,,,,,,
1984-10-01,5.030064582824707,5.261332035064697,4.856614112854004,5.116789817810059,1.0883067846298218,16723200.0
1984-11-01,5.13124418258667,5.290240287780762,5.116789817810059,5.20351505279541,1.106752872467041,14956900.0
1984-12-01,5.174606800079346,5.4925994873046875,5.145698547363281,5.319149017333984,1.1313470602035522,15839500.0
1984-12-28,,,,,,
1985-01-01,5.319149017333984,5.59377908706665,5.145698547363281,5.550416469573975,1.1881402730941772,19891000.0
1985-02-01,5.550416469573975,5.897317409515381,5.535962104797363,5.709412574768066,1.2221755981445312,13209800.0
1985-03-01,5.709412574768066,5.752775192260742,5.564870357513428,5.59377908706665,1.1974225044250488,8543500.0
1985-03-29,,,,,,
1985-04-01,5.622687339782715,5.694958209991455,5.420328617095947,5.637141704559326,1.2142353057861328,14168800.0
1985-05-01,5.6082329750061035,6.1864013671875,5.4925994873046875,6.099676132202148,1.3138645887374878,17790500.0
1985-06-01,6.11413049697876,6.446577072143555,6.012950897216797,6.432123184204102,1.3854739665985107,10087000.0
1985-06-27,,,,,,
1985-07-01,6.403214454650879,6.591119289398193,6.171947479248047,6.4899396896362305,1.4056650400161743,16560000.0
1985-08-01,6.518848419189453,6.591119289398193,6.11413049697876,6.143038749694824,1.3305288553237915,13475800.0
1985-09-01,6.1864013671875,6.229763984680176,5.969588279724121,6.070767879486084,1.3148757219314575,10389600.0
1985-09-30,,,,,,
1985-10-01,6.070767879486084,6.41766881942749,6.0418596267700195,6.330943584442139,1.3810055255889893,13663500.0
1985-11-01,6.302035331726074,7.227104663848877,6.229763984680176,7.16928768157959,1.563878059387207,24573200.0
1985-12-01,7.125925064086914,7.891998291015625,6.9235663414001465,7.415009021759033,1.6174795627593994,14951200.0
1985-12-27,,,,,,
1986-01-01,7.415009021759033,8.383440971374512,7.212650299072266,8.238899230957031,1.8922808170318604,13696600.0
1986-02-01,8.267807960510254,9.308510780334473,7.935360908508301,9.308510780334473,2.1379446983337402,17750700.0
1986-03-01,9.308510780334473,9.554232597351074,8.860429763793945,9.221785545349121,2.118025064468384,20561300.0
1986-03-31,,,,,,
1986-04-01,9.221785545349121,9.640957832336426,8.75925064086914,9.207330703735352,2.2031991481781006,13026300.0
1986-05-01,9.163968086242676,9.308510780334473,8.61470890045166,9.265148162841797,2.217034339904785,15070500.0
1986-06-01,9.265148162841797,9.366327285766602,7.545097351074219,8.09435749053955,1.9368785619735718,21634800.0
1986-06-06,,,,,,
1986-06-27,,,,,,
1986-07-01,8.123265266418457,8.29671573638916,6.995837211608887,7.776364326477051,1.9074167013168335,30664700.0
1986-08-01,7.747456073760986,7.978723526000977,6.735661506652832,7.602913856506348,1.864872694015503,16453000.0
1986-09-01,7.602913856506348,8.527983665466309,7.342738151550293,7.602913856506348,1.864872694015503,20066400.0
1986-09-29,,,,,,
1986-10-01,7.602913856506348,8.470166206359863,7.545097351074219,8.238899230957031,2.072634696960449,10791100.0
1986-11-01,8.267807960510254,8.788159370422363,7.689639091491699,8.441258430480957,2.123542547225952,15273800.0
1986-12-01,8.412349700927734,8.990517616271973,7.978723526000977,8.123265266418457,2.043546676635742,18293900.0
1986-12-26,,,,,,
1987-01-01,8.15217399597168,9.915587425231934,8.15217399597168,9.79995346069336,2.5269017219543457,21144900.0
1987-02-01,9.771045684814453,11.216465950012207,9.713228225708008,10.72502326965332,2.7654294967651367,14318400.0
1987-03-01,10.638298034667969,10.956290245056152,10.002312660217285,10.349213600158691,2.6685290336608887,12926000.0
1987-03-30,,,,,,
1987-04-01,10.291397094726562,11.216465950012207,9.163968086242676,9.59759521484375,2.523077964782715,18792100.0
1987-05-01,9.684320449829102,10.78283977508545,9.626502990722656,10.175763130187988,2.6750688552856445,14689300.0
1987-06-01,10.26248836517334,11.621184349060059,9.828862190246582,10.8695650100708,2.8574612140655518,15746000.0
1987-06-26,,,,,,
1987-07-01,10.898473739624023,11.650092124938965,10.840657234191895,11.650092124938965,3.1306779384613037,9499100.0
1987-08-01,11.650092124938965,12.459527969360352,10.985198974609375,11.563366889953613,3.107372522354126,15159000.0
1987-09-01,11.476641654968262,11.563366889953613,10.551572799682617,11.332099914550781,3.0452232360839844,15404400.0
1987-09-28,,,,,,
1987-10-01,11.274283409118652,12.083719253540039,6.706752777099609,7.863089561462402,2.161182403564453,23885900.0
1987-11-01,7.9209065437316895,8.61470890045166,7.342738151550293,7.805273056030273,2.145292043685913,17038800.0
1987-12-01,7.834181308746338,9.59759521484375,7.082562446594238,9.424144744873047,2.590240478515625,16436200.0
1987-12-28,,,,,,
1988-01-01,9.481961250305176,9.684320449829102,8.441258430480957,9.539777755737305,2.6932499408721924,17789800.0
1988-02-01,9.510869979858398,11.303191184997559,9.424144744873047,11.10083293914795,3.1339638233184814,23293800.0
1988-03-01,11.043015480041504,11.216465950012207,10.233579635620117,10.378122329711914,2.929929733276367,21400300.0
1988-03-28,,,,,,
1988-04-01,10.378122329711914,11.418825149536133,10.11794662475586,11.1875581741333,3.232199192047119,15253000.0
1988-05-01,11.1875581741333,11.621184349060059,10.060129165649414,10.522664070129395,3.0401060581207275,13146700.0
1988-06-01,10.638298034667969,12.343894958496094,10.493755340576172,11.70790958404541,3.382533073425293,20650300.0
1988-06-28,,,,,,
1988-07-01,11.679000854492188,12.083719253540039,10.204671859741211,10.696114540100098,3.1721043586730957,15480600.0
1988-08-01,10.696114540100098,11.043015480041504,9.366327285766602,9.626502990722656,2.8548941612243652,17168200.0
1988-09-01,9.59759521484375,10.060129165649414,9.337419509887695,9.684320449829102,2.872041940689087,16180100.0
1988-09-27,,,,,,
1988-10-01,9.655411720275879,10.11794662475586,9.510869979858398,9.626502990722656,2.9484658241271973,18949600.0
1988-11-01,9.59759521484375,9.771045684814453,8.730341911315918,9.019426345825195,2.7625272274017334,13613900.0
1988-12-01,8.961609840393066,9.655411720275879,8.932701110839844,9.539777755737305,2.921903133392334,18642300.0
1988-12-29,,,,,,
1989-01-01,9.568686485290527,10.811748504638672,9.337419509887695,10.811748504638672,3.419009208679199,18617600.0
1989-02-01,10.8695650100708,11.158649444580078,10.175763130187988,10.435938835144043,3.300166368484497,9942200.0
1989-03-01,10.378122329711914,10.609389305114746,9.453052520751953,9.915587425231934,3.1356160640716553,15155700.0
1989-03-30,,,,,,
1989-04-01,9.915587425231934,10.089037895202637,9.27960205078125,9.915587425231934,3.2355475425720215,23285700.0
1989-05-01,9.857770919799805,10.031221389770508,9.424144744873047,9.828862190246582,3.2072484493255615,21948900.0
1989-06-01,9.857770919799805,10.320304870605469,9.250694274902344,9.27960205078125,3.028020143508911,15227700.0
1989-06-28,,,,,,
1989-07-01,9.250694274902344,10.580480575561523,9.250694274902344,10.464847564697266,3.5356156826019287,14816800.0
1989-08-01,10.40703010559082,11.274283409118652,10.320304870605469,11.129740715026855,3.7602527141571045,15714400.0
1989-09-01,11.10083293914795,11.24537467956543,10.435938835144043,10.580480575561523,3.5746822357177734,9978000.0
1989-09-29,,,,,,
1989-10-01,10.609389305114746,10.927382469177246,10.060129165649414,10.175763130187988,3.5480048656463623,12202600.0
1989-11-01,10.11794662475586,10.493755340576172,10.060129165649414,10.493755340576172,3.658878803253174,9682000.0
1989-12-01,10.493755340576172,11.129740715026855,10.378122329711914,11.10083293914795,3.8705506324768066,8674600.0
1989-12-29,,,,,,
1990-01-01,11.10083293914795,11.621184349060059,10.638298034667969,10.78283977508545,3.874559164047241,15997100.0
1990-02-01,10.840657234191895,10.8695650100708,10.146854400634766,10.464847564697266,3.7602953910827637,9835600.0
1990-03-01,10.40703010559082,12.314986228942871,10.40703010559082,12.083719253540039,4.341999053955078,18159600.0
1990-03-30,,,,,,
1990-04-01,11.996993064880371,12.083719253540039,11.505550384521484,11.939176559448242,4.409919738769531,18568500.0
1990-05-01,11.939176559448242,13.413505554199219,11.91026782989502,13.124422073364258,4.847708225250244,20960100.0
1990-06-01,13.124422073364258,13.268963813781738,12.661887168884277,13.066604614257812,4.826351642608643,17047500.0
1990-06-28,,,,,,
1990-07-01,13.095513343811035,14.107308387756348,12.430620193481445,12.575161933898926,4.778557777404785,11112200.0
1990-08-01,12.661887168884277,12.777521133422852,9.944496154785156,10.464847564697266,3.976635694503784,16931500.0
1990-09-01,10.435938835144043,10.609389305114746,9.944496154785156,10.378122329711914,3.943681478500366,7959900.0
1990-09-28,,,,,,
1990-10-01,10.522664070129395,11.447733879089355,9.915587425231934,11.1875581741333,4.407647609710693,10484500.0
1990-11-01,11.158649444580078,12.430620193481445,11.071924209594727,12.401711463928223,4.8859944343566895,12894600.0
1990-12-01,12.459527969360352,13.268963813781738,12.141535758972168,12.661887168884277,4.988498210906982,12682600.0
1990-12-28,,,,,,
1991-01-01,12.719703674316406,13.8760404586792,11.85245132446289,13.644773483276367,5.527692794799805,14565200.0
1991-02-01,13.615864753723145,14.974560737609863,13.35568904876709,14.858926773071289,6.019564151763916,15463900.0
1991-03-01,14.858926773071289,16.10198974609375,14.078399658203125,15.668362617492676,6.347475051879883,13352800.0
1991-04-01,15.581637382507324,16.275440216064453,14.251850128173828,14.425300598144531,5.843893527984619,9009600.0
1991-04-01,,,,,,
1991-05-01,14.454209327697754,16.535615921020508,14.454209327697754,16.39107322692871,6.796411514282227,10148600.0
1991-06-01,16.39107322692871,17.14269256591797,15.523820877075195,15.581637382507324,6.4607834815979,8277000.0
1991-06-28,,,,,,
1991-07-01,15.581637382507324,16.217622756958008,14.136216163635254,15.46600341796875,6.574397087097168,12393400.0
1991-08-01,15.46600341796875,16.1887149810791,14.28075885772705,15.899629592895508,6.758727550506592,12459400.0
1991-09-01,15.899629592895508,15.92853832244873,14.540934562683105,15.523820877075195,6.598974227905273,9784900.0
1991-09-30,,,,,,
1991-10-01,15.494912147521973,16.82469940185547,15.090194702148438,15.870721817016602,6.9226484298706055,8620400.0
1991-11-01,15.92853832244873,16.766881942749023,14.714385032653809,15.003469467163086,6.544360160827637,9544100.0
1991-12-01,14.80111026763916,17.084875106811523,14.80111026763916,17.084875106811523,7.452247142791748,11132400.0
1991-12-27,,,,,,
1992-01-01,17.027057647705078,19.28191566467285,16.853607177734375,18.299028396606445,8.174657821655273,13718800.0
1992-02-01,18.32793617248535,20.178075790405273,18.009944915771484,19.773357391357422,8.833274841308594,12181100.0
1992-03-01,19.773357391357422,21.5656795501709,19.368640899658203,19.59990692138672,8.75578784942627,11144800.0
1992-03-10,,,,,,
1992-03-30,,,,,,
1992-04-01,19.426456451416016,22.89546775817871,18.67483901977539,21.68131446838379,9.783995628356934,12608200.0
1992-05-01,21.5656795501709,22.49074935913086,20.698427200317383,21.796947479248047,9.836174964904785,9971000.0
1992-06-01,21.68131446838379,21.7391300201416,18.79047203063965,19.657724380493164,8.87082290649414,9278500.0
1992-06-26,,,,,,
1992-07-01,19.71554183959961,20.29370880126953,18.385753631591797,19.657724380493164,8.967767715454102,12018900.0
1992-08-01,19.657724380493164,19.888992309570312,18.617021560668945,19.542091369628906,8.915010452270508,9416600.0
1992-09-01,19.426456451416016,21.854764938354492,19.426456451416016,20.52497673034668,9.363401412963867,7583700.0
1992-09-28,,,,,,
1992-10-01,20.81406021118164,22.028215408325195,19.59990692138672,21.912580490112305,10.103463172912598,8312100.0
1992-11-01,21.796947479248047,22.664199829101562,21.04532814025879,22.028215408325195,10.156773567199707,8275500.0
1992-12-01,22.028215408325195,22.722017288208008,20.871877670288086,21.623497009277344,9.970166206359863,9008000.0
1992-12-28,,,,,,
1993-01-01,21.623497009277344,22.2016658782959,19.657724380493164,20.29370880126953,9.452810287475586,12703200.0
1993-02-01,20.351526260375977,22.432931900024414,19.137372970581055,20.351526260375977,9.479743957519531,12345500.0
1993-03-01,20.29370880126953,21.392229080200195,19.657724380493164,20.409343719482422,9.50667667388916,7897900.0
1993-03-29,,,,,,
1993-04-01,20.351526260375977,20.756244659423828,18.67483901977539,20.23589324951172,9.525097846984863,13856800.0
1993-05-01,20.23589324951172,20.756244659423828,19.59990692138672,19.773357391357422,9.307376861572266,8905500.0
1993-06-01,19.773357391357422,20.29370880126953,17.345050811767578,18.15448570251465,8.545370101928711,15679400.0
1993-06-28,,,,,,
1993-07-01,18.732654571533203,19.831174850463867,17.865402221679688,18.617021560668945,8.874457359313965,15713000.0
1993-08-01,18.617021560668945,20.756244659423828,18.501388549804688,20.120258331298828,9.591031074523926,11491300.0
1993-09-01,20.120258331298828,20.23589324951172,17.345050811767578,17.923219680786133,8.543729782104492,14451500.0
1993-09-28,,,,,,
1993-10-01,17.865402221679688,19.657724380493164,17.63413429260254,19.310823440551758,9.324846267700195,13103700.0
1993-11-01,19.426456451416016,20.698427200317383,19.1951904296875,20.409343719482422,9.855297088623047,8547800.0
1993-12-01,20.582794189453125,21.276596069335938,20.409343719482422,20.467159271240234,9.883216857910156,6754200.0
1993-12-28,,,,,,
1994-01-01,20.467159271240234,22.953283309936523,20.467159271240234,22.953283309936523,11.204845428466797,10449400.0
1994-02-01,22.953283309936523,23.126733779907227,21.507863998413086,22.028215408325195,10.753265380859375,9706100.0
1994-03-01,22.086030960083008,22.722017288208008,20.409343719482422,20.640609741210938,10.075896263122559,9601700.0
1994-03-28,,,,,,
1994-04-01,20.351526260375977,21.334413528442383,19.59990692138672,20.00462532043457,9.867119789123535,8776500.0
1994-05-01,20.120258331298828,20.120258331298828,17.923219680786133,19.542091369628906,9.638982772827148,16248200.0
1994-06-01,19.368640899658203,20.178075790405273,19.1951904296875,19.59990692138672,9.667497634887695,9149300.0
1994-06-28,,,,,,
1994-07-01,19.59990692138672,22.25948143005371,19.1951904296875,22.2016658782959,11.089835166931152,12033400.0
1994-08-01,22.028215408325195,23.30018424987793,21.912580490112305,23.01110076904297,11.494138717651367,11894000.0
1994-09-01,22.953283309936523,22.953283309936523,21.218778610229492,21.623497009277344,10.801032066345215,8670600.0
1994-09-27,,,,,,
1994-10-01,21.5656795501709,22.25948143005371,20.409343719482422,22.086030960083008,11.157816886901855,8343900.0
1994-11-01,21.97039794921875,22.143848419189453,19.946807861328125,20.52497673034668,10.36917495727539,9570400.0
1994-12-01,20.640609741210938,21.334413528442383,20.20698356628418,20.640609741210938,10.427594184875488,11371100.0
1994-12-27,,,,,,
1995-01-01,20.52497673034668,21.68131446838379,20.29370880126953,20.640609741210938,10.551800727844238,9826600.0
1995-02-01,20.640609741210938,22.77983283996582,20.467159271240234,22.77983283996582,11.645397186279297,8687600.0
1995-03-01,22.722017288208008,24.167438507080078,21.7391300201416,24.109621047973633,12.325215339660645,13218100.0
1995-03-28,,,,,,
1995-04-01,24.051803588867188,24.109621047973633,22.953283309936523,23.30018424987793,12.039596557617188,8436000.0
1995-05-01,23.126733779907227,25.092506408691406,23.068918228149414,24.572154998779297,12.696846961975098,12099800.0
1995-06-01,24.45652198791504,26.075393676757812,24.051803588867188,25.78630828857422,13.324222564697266,11358200.0
1995-06-29,,,,,,
1995-07-01,25.728492736816406,27.578630447387695,25.612857818603516,25.90194320678711,13.521230697631836,12255800.0
1995-08-01,25.844125747680664,25.959758758544922,23.82053565979004,24.803422927856445,12.947787284851074,14685800.0
1995-09-01,24.919055938720703,26.364477157592773,23.993986129760742,24.109621047973633,12.585606575012207,10076300.0
1995-09-28,,,,,,
1995-10-01,24.22525405883789,24.572154998779297,23.01110076904297,23.878353118896484,12.600441932678223,11908600.0
1995-11-01,23.993986129760742,27.173913955688477,23.93617057800293,25.67067527770996,13.546241760253906,11869200.0
1995-12-01,25.612857818603516,26.595745086669922,23.589269638061523,24.398704528808594,12.875029563903809,12641900.0
1995-12-28,,,,,,
1996-01-01,24.34088897705078,25.67067527770996,23.30018424987793,24.687789916992188,13.168909072875977,21049200.0
1996-02-01,24.687789916992188,25.381591796875,23.878353118896484,24.629972457885742,13.138070106506348,18907300.0
1996-03-01,24.86124038696289,26.827011108398438,24.601064682006836,25.26595687866211,13.477319717407227,15932900.0
1996-03-28,,,,,,
1996-04-01,25.381591796875,27.462997436523438,25.15032386779785,26.42229461669922,14.24239444732666,15158600.0
1996-05-01,26.48011016845703,28.15679931640625,25.959758758544922,27.520814895629883,14.834519386291504,13503600.0
1996-06-01,27.405179977416992,27.694265365600586,25.612857818603516,26.653560638427734,14.367044448852539,8559300.0
1996-06-27,,,,,,
1996-07-01,26.71137809753418,26.942646026611328,23.93617057800293,24.687789916992188,13.448956489562988,11506000.0
1996-08-01,24.572154998779297,25.959758758544922,24.572154998779297,25.323774337768555,13.795419692993164,8311400.0
1996-09-01,25.092506408691406,27.173913955688477,24.86124038696289,26.942646026611328,14.677323341369629,11219700.0
1996-09-27,,,,,,
1996-10-01,26.942646026611328,28.734968185424805,26.827011108398438,27.7520809173584,15.275876998901367,12956700.0
1996-11-01,29.139684677124023,32.3774299621582,28.908418655395508,32.14616012573242,17.69455337524414,15862300.0
1996-12-01,32.14616012573242,32.66651153564453,30.41165542602539,31.97270965576172,17.59908676147461,9884100.0
1996-12-30,,,,,,
1997-01-01,31.97270965576172,33.64939880371094,31.04764175415039,33.01341247558594,18.327880859375,11337300.0
1997-02-01,33.01341247558594,35.90425491333008,33.01341247558594,34.28538513183594,19.034038543701172,13133000.0
1997-03-01,34.28538513183594,34.574466705322266,30.758556365966797,31.394542694091797,17.42914390563965,13715600.0
1997-03-27,,,,,,
1997-04-01,31.394542694091797,33.53376388549805,30.700740814208984,33.18686294555664,18.585479736328125,10287500.0
1997-05-01,33.12904739379883,35.96207046508789,32.49306106567383,35.96207046508789,20.139673233032227,7760000.0
1997-06-01,36.07770538330078,39.60453414916992,35.49953842163086,37.5809440612793,21.046281814575195,9804100.0
1997-06-27,,,,,,
1997-07-01,38.27474594116211,41.45466995239258,38.2169303894043,40.78977966308594,23.019487380981445,8568700.0
1997-08-01,40.500694274902344,40.73196029663086,36.829322814941406,37.725486755371094,21.2901668548584,8967700.0
1997-09-01,37.81221008300781,41.078861236572266,37.69657897949219,38.36146926879883,21.649078369140625,8463500.0
1997-09-29,,,,,,
1997-10-01,38.0723876953125,38.53491973876953,33.38922119140625,35.15263748168945,19.99396514892578,15502600.0
1997-11-01,35.49953842163086,37.06059265136719,34.48774337768555,35.47063064575195,20.174842834472656,13687300.0
1997-12-01,35.49953842163086,38.0723876953125,34.690101623535156,38.043479919433594,21.638208389282227,12822800.0
1997-12-30,,,,,,
1998-01-01,38.043479919433594,39.05527114868164,35.008094787597656,37.089500427246094,21.269262313842773,14390600.0
1998-02-01,37.725486755371094,40.58741760253906,37.725486755371094,38.824005126953125,22.26392364501953,9723500.0
1998-03-01,38.708370208740234,38.91073226928711,37.55203628540039,38.33256149291992,21.982114791870117,14759000.0
1998-03-30,,,,,,
1998-04-01,38.2169303894043,41.31013107299805,37.75439453125,40.21160888671875,23.243511199951172,14208000.0
1998-05-01,40.32724380493164,41.94611358642578,38.939640045166016,40.240516662597656,23.260225296020508,10058300.0
1998-06-01,40.182701110839844,41.10776901245117,35.67298889160156,37.002777099609375,21.38871192932129,15847500.0
1998-06-16,,,,,,
1998-06-29,,,,,,
1998-07-01,36.829322814941406,37.118408203125,32.08834457397461,32.3774299621582,18.802881240844727,16670200.0
1998-08-01,32.60869598388672,33.24468231201172,28.214616775512695,28.272432327270508,16.418941497802734,16497400.0
1998-09-01,28.619333267211914,31.799259185791016,27.520814895629883,27.520814895629883,15.982447624206543,11747000.0
1998-09-29,,,,,,
1998-10-01,27.289546966552734,35.15263748168945,26.827011108398438,34.92136764526367,20.40192985534668,13502500.0
1998-11-01,35.615169525146484,38.15911102294922,34.22756576538086,35.26826858520508,20.60460662841797,10505300.0
1998-12-01,35.615169525146484,37.23404312133789,32.319610595703125,37.002777099609375,21.617935180664062,9806500.0
1998-12-30,,,,,,
1999-01-01,36.771507263183594,38.2169303894043,30.700740814208984,31.105457305908203,18.258899688720703,12620400.0
1999-02-01,31.105457305908203,32.72433090209961,28.67715072631836,29.717853546142578,17.44437026977539,17770500.0
1999-03-01,29.60222053527832,33.071231842041016,27.983348846435547,31.683626174926758,18.598283767700195,18817000.0
1999-03-30,,,,,,
1999-04-01,31.5679931640625,44.287696838378906,30.989824295043945,43.4782600402832,25.655710220336914,25501200.0
1999-05-01,43.4782600402832,45.55966567993164,37.75439453125,37.9278450012207,22.380521774291992,14544200.0
1999-06-01,39.31544876098633,42.90009307861328,36.887142181396484,37.23404312133789,21.971118927001953,15025300.0
1999-06-29,,,,,,
1999-07-01,37.34967803955078,40.240516662597656,30.006938934326172,30.9320068359375,18.339038848876953,23309700.0
1999-08-01,31.16327476501465,34.40101623535156,30.296022415161133,31.45235824584961,18.64754867553711,16249800.0
1999-09-01,31.625808715820312,32.78214645385742,25.612857818603516,27.058279037475586,16.042381286621094,17498300.0
1999-09-29,,,,,,
1999-10-01,26.595745086669922,29.83348846435547,24.803422927856445,25.439407348632812,15.182299613952637,18220700.0
1999-11-01,25.555042266845703,31.33672523498535,23.762720108032227,29.949121475219727,17.873701095581055,21205400.0
1999-12-01,29.60222053527832,31.33672523498535,26.364477157592773,31.04764175415039,18.5293025970459,15014300.0
1999-12-31,,,,,,
2000-01-01,30.816373825073242,34.22756576538086,26.364477157592773,27.405179977416992,16.452110290527344,19884500.0
2000-02-01,27.405179977416992,28.734968185424805,23.70490264892578,23.82053565979004,14.300149917602539,13959700.0
2000-03-01,23.82053565979004,28.041166305541992,21.276596069335938,26.306659698486328,15.792643547058105,27152100.0
2000-03-30,,,,,,
2000-04-01,26.537927627563477,30.52729034423828,25.497224807739258,28.734968185424805,17.369277954101562,16562600.0
2000-05-01,28.503700256347656,36.135520935058594,28.041166305541992,32.0305290222168,19.36132049560547,21306600.0
2000-06-01,32.0305290222168,34.97918701171875,28.330249786376953,28.503700256347656,17.22947883605957,17419700.0
2000-06-29,,,,,,
2000-07-01,28.5615177154541,31.45235824584961,27.058279037475586,30.874191284179688,18.77823829650879,21457900.0
2000-08-01,30.874191284179688,35.210453033447266,30.353839874267578,33.60603713989258,20.439804077148438,12500700.0
2000-09-01,33.591583251953125,36.19334030151367,30.238204956054688,33.30249786376953,20.25518035888672,17625700.0
2000-09-28,,,,,,
2000-10-01,33.53376388549805,36.71369171142578,28.214616775512695,34.51665115356445,21.123157501220703,20960400.0
2000-11-01,34.97918701171875,34.97918701171875,29.949121475219727,31.85707664489746,19.49557876586914,17446400.0
2000-12-01,32.78214645385742,39.08418273925781,32.14616012573242,37.9278450012207,23.210712432861328,17296100.0
2000-12-28,,,,,,
2001-01-01,37.5809440612793,39.257633209228516,32.3774299621582,34.93986892700195,21.486923217773438,21826400.0
2001-02-01,34.45883560180664,37.55781555175781,34.329322814941406,37.51156234741211,23.068435668945312,24135000.0
2001-03-01,37.280296325683594,40.19426345825195,33.67252731323242,35.52266311645508,21.845317840576172,27470900.0
2001-03-29,,,,,,
2001-04-01,36.07770538330078,40.749305725097656,35.13413619995117,39.768733978271484,24.586437225341797,21598000.0
2001-05-01,39.31544876098633,43.95929718017578,38.52914047241211,43.26549530029297,26.748260498046875,23921200.0
2001-06-01,43.339500427246094,45.050880432128906,40.70305252075195,42.321922302246094,26.164913177490234,19227500.0
2001-06-28,,,,,,
2001-07-01,42.414432525634766,45.328399658203125,37.160037994384766,37.77058410644531,23.462589263916016,27437800.0
2001-08-01,38.390380859375,40.28676986694336,37.576316833496094,39.22294235229492,24.364778518676758,17545900.0
2001-09-01,39.36170196533203,40.00925064086914,29.83348846435547,35.689178466796875,22.169660568237305,14916100.0
2001-09-27,,,,,,
2001-10-01,35.689178466796875,38.01110076904297,33.44125747680664,37.03977966308594,23.144271850585938,21138900.0
2001-11-01,37.132286071777344,42.8769645690918,36.75300598144531,42.29417037963867,26.42746925354004,14116000.0
2001-12-01,42.29417037963867,44.48658752441406,41.258094787597656,43.39500427246094,27.115331649780273,18476000.0
2001-12-28,,,,,,
2002-01-01,43.4782600402832,44.394081115722656,40.055503845214844,42.78445816040039,26.857398986816406,33947200.0
2002-02-01,42.78445816040039,45.79093551635742,42.0721549987793,44.86586380004883,28.163969039916992,24090700.0
2002-03-01,45.09713363647461,49.50971221923828,45.0046272277832,47.77983474731445,29.99318504333496,21973500.0
2002-03-27,,,,,,
2002-04-01,47.64107131958008,47.77058410644531,42.64569854736328,44.4495849609375,28.022274017333984,24409500.0
2002-05-01,44.4495849609375,48.6401481628418,43.57076644897461,46.39223098754883,29.24696922302246,17180500.0
2002-06-01,46.71600341796875,46.9102668762207,42.173912048339844,46.68825149536133,29.433582305908203,17507400.0
2002-06-27,,,,,,
2002-07-01,46.53099060058594,47.789085388183594,37.18778991699219,40.93431854248047,25.925403594970703,26497100.0
2002-08-01,40.93431854248047,45.23589324951172,37.65032196044922,43.39500427246094,27.483856201171875,21248700.0
2002-09-01,43.16373825073242,43.46900939941406,37.002777099609375,38.86216354370117,24.61302947998047,18990100.0
2002-09-27,,,,,,
2002-10-01,39.87049102783203,43.01572799682617,37.317298889160156,40.888065338134766,26.03325843811035,27728000.0
2002-11-01,40.51803970336914,41.665122985839844,37.35430145263672,40.90656661987305,26.0450382232666,25520100.0
2002-12-01,41.48936080932617,41.544864654541016,38.79740905761719,39.546714782714844,25.179231643676758,17417800.0
2002-12-30,,,,,,
2003-01-01,39.50046157836914,40.888065338134766,36.37372970581055,38.3441276550293,24.544811248779297,23080200.0
2003-02-01,38.35337829589844,38.7326545715332,34.19981384277344,35.855690002441406,22.951908111572266,20917800.0
2003-03-01,36.40148162841797,40.00925064086914,34.24606704711914,38.32562255859375,24.532960891723633,23557000.0
2003-03-28,,,,,,
2003-04-01,38.71415328979492,40.67530059814453,37.668827056884766,39.84273910522461,25.643938064575195,24660100.0
2003-05-01,39.84273910522461,40.93431854248047,38.6401481628418,40.32377243041992,25.953548431396484,22950000.0
2003-06-01,40.51803970336914,40.83256149291992,37.70582962036133,38.482887268066406,24.768699645996094,29327800.0
2003-06-27,,,,,,
2003-07-01,38.1313591003418,43.857540130615234,37.465309143066406,42.997222900390625,27.840646743774414,33481400.0
2003-08-01,42.78445816040039,44.162811279296875,40.84181213378906,43.77428436279297,28.343795776367188,17945800.0
2003-09-01,43.77428436279297,45.12488555908203,41.16558837890625,41.72063064575195,27.014062881469727,25051300.0
2003-09-29,,,,,,
2003-10-01,41.81313705444336,44.84736251831055,40.81406021118164,42.00740051269531,27.350448608398438,26062600.0
2003-11-01,42.044403076171875,44.60684585571289,41.073081970214844,44.34782791137695,28.874279022216797,21938300.0
2003-12-01,44.4958381652832,49.09343338012695,44.4958381652832,48.87141418457031,31.819507598876953,21546500.0
2003-12-30,,,,,,
2004-01-01,48.86216354370117,51.248844146728516,44.4033317565918,46.17021179199219,30.202295303344727,30318800.0
2004-02-01,46.17021179199219,47.73358154296875,44.4033317565918,44.62534713745117,29.191726684570312,19113000.0
2004-03-01,45.0046272277832,46.99352264404297,43.209991455078125,46.364479064941406,30.329381942749023,25341300.0
2004-03-30,,,,,,
2004-04-01,46.364479064941406,49.21369171142578,45.88344192504883,46.07770538330078,30.292709350585938,19906000.0
2004-05-01,46.16096115112305,47.06753158569336,43.93154525756836,46.22571563720703,30.390024185180664,20531900.0
2004-06-01,45.994449615478516,48.7326545715332,44.72710418701172,48.51988983154297,31.898283004760742,22898600.0
2004-06-29,,,,,,
2004-07-01,48.122108459472656,48.251617431640625,44.7918586730957,47.87234115600586,31.664287567138672,19994200.0
2004-08-01,47.881591796875,49.01017761230469,45.467159271240234,48.455135345458984,32.049774169921875,19320400.0
2004-09-01,49.02867889404297,51.58186721801758,48.122108459472656,50.30527114868164,33.27352523803711,24978900.0
2004-09-29,,,,,,
2004-10-01,50.074005126953125,51.21184158325195,47.964847564697266,49.1951904296875,32.72793960571289,21669900.0
2004-11-01,49.05643081665039,53.071231842041016,48.29787063598633,52.96022033691406,35.232696533203125,23041600.0
2004-12-01,53.191490173339844,54.74560546875,51.92414474487305,53.62627029418945,35.6757926940918,19060000.0
2004-12-30,,,,,,
2005-01-01,53.885292053222656,54.56984329223633,51.79463577270508,54.4958381652832,36.4491081237793,19059200.0
2005-02-01,54.4958381652832,58.54764175415039,54.26456832885742,57.9278450012207,38.74457931518555,18128600.0
2005-03-01,58.00185012817383,60.878814697265625,57.40055465698242,58.54764175415039,39.15913772583008,24832500.0
2005-03-30,,,,,,
2005-04-01,58.71415328979492,59.259944915771484,51.369102478027344,54.329322814941406,36.54047393798828,28396000.0
2005-05-01,54.42183303833008,56.75300598144531,52.96022033691406,55.7169303894043,37.47373962402344,23387900.0
2005-06-01,55.72618103027344,58.122108459472656,54.671600341796875,55.78168487548828,37.51729202270508,23450800.0
2005-06-29,,,,,,
2005-07-01,55.73543167114258,56.40148162841797,53.14523696899414,55.28214645385742,37.395057678222656,27199300.0
2005-08-01,55.28214645385742,56.98427200317383,50.78630828857422,51.248844146728516,34.66676712036133,21554200.0
2005-09-01,51.248844146728516,52.96022033691406,49.30619812011719,51.00832748413086,34.50407028198242,31229300.0
2005-09-29,,,,,,
2005-10-01,50.95281982421875,53.45050811767578,49.02867889404297,52.95096969604492,36.04623031616211,27089700.0
2005-11-01,52.867713928222656,56.0129508972168,51.97039794921875,54.73635482788086,37.261627197265625,19928200.0
2005-12-01,55.13413619995117,57.25254440307617,54.44033432006836,54.75485610961914,37.27421569824219,18122000.0
2005-12-29,,,,,,
2006-01-01,54.949119567871094,57.816837310791016,53.663272857666016,57.06753158569336,39.07306671142578,25328900.0
2006-02-01,57.0767822265625,60.03700256347656,55.966697692871094,59.35245132446289,40.63749694824219,22150400.0
2006-03-01,59.35245132446289,62.997222900390625,57.87234115600586,62.15541076660156,42.556640625,31143700.0
2006-03-30,,,,,,
2006-04-01,62.47918701171875,64.3293228149414,60.54579162597656,63.3857536315918,43.639095306396484,25081200.0
2006-05-01,62.81221008300781,64.0610580444336,57.99259948730469,59.99074935913086,41.301734924316406,30184600.0
2006-06-01,59.85198974609375,62.331172943115234,54.74560546875,59.130435943603516,40.70944595336914,33877300.0
2006-06-29,,,,,,
2006-07-01,59.48196029663086,60.12950897216797,56.355228424072266,59.139686584472656,40.9588508605957,25073600.0
2006-08-01,58.751155853271484,61.97964859008789,58.270118713378906,61.32284927368164,42.470855712890625,21485300.0
2006-09-01,61.6558723449707,63.348751068115234,59.777984619140625,61.396854400634766,42.522117614746094,22093200.0
2006-09-28,,,,,,
2006-10-01,61.748382568359375,64.82886505126953,61.230342864990234,64.4495849609375,44.88035583496094,19686300.0
2006-11-01,64.63459777832031,66.54023742675781,63.59851837158203,63.95929718017578,44.53893280029297,17449200.0
2006-12-01,64.19981384277344,67.02127838134766,63.60776901245117,65.01387786865234,45.27330780029297,16578500.0
2006-12-28,,,,,,
2007-01-01,65.06938171386719,69.38020324707031,63.44125747680664,69.06568145751953,48.34184265136719,27564200.0
2007-02-01,69.02867889404297,72.73820495605469,67.85383605957031,69.20443725585938,48.43895721435547,21425900.0
2007-03-01,68.53839111328125,70.69380187988281,65.78168487548828,68.41812896728516,47.88859939575195,25047500.0
2007-03-29,,,,,,
2007-04-01,68.64939880371094,73.08048248291016,67.80758666992188,70.76780700683594,49.80976104736328,22509600.0
2007-05-01,70.90657043457031,73.45050811767578,70.04625701904297,72.14616394042969,50.7799072265625,26302000.0
2007-06-01,72.37742614746094,76.54023742675781,71.08232879638672,74.34782409667969,52.32954025268555,28345600.0
2007-06-28,,,,,,
2007-07-01,74.74560546875,84.12580871582031,74.3570785522461,79.89823913574219,56.521034240722656,37823300.0
2007-08-01,80.61054229736328,84.82886505126953,71.47086334228516,83.26549530029297,58.903079986572266,42452600.0
2007-09-01,83.644775390625,91.12858581542969,80.84181213378906,90.43478393554688,63.974735260009766,24468200.0
2007-09-27,,,,,,
2007-10-01,90.65679931640625,91.95189666748047,87.02127838134766,90.51803588867188,64.30552673339844,27957100.0
2007-11-01,89.77798461914062,93.58001708984375,85.15263366699219,91.6188735961914,65.08757019042969,32850500.0
2007-12-01,92.01665496826172,97.15078735351562,89.64847564697266,91.23959350585938,64.81814575195312,31941000.0
2007-12-28,,,,,,
2008-01-01,91.35985565185547,91.39685821533203,74.68085479736328,82.95097351074219,59.170780181884766,51407800.0
2008-02-01,83.77428436279297,89.17668914794922,81.47086334228516,84.48658752441406,60.266170501708984,27564100.0
2008-03-01,84.55133819580078,88.5938949584961,78.1776123046875,85.10638427734375,60.7082633972168,34904400.0
2008-03-28,,,,,,
2008-04-01,86.355224609375,94.98612213134766,85.29139709472656,91.05458068847656,65.28643035888672,28575400.0
2008-05-01,91.27659606933594,95.48566436767578,89.01017761230469,94.28307342529297,67.60126495361328,25697700.0
2008-06-01,93.72802734375,98.11286163330078,90.24977111816406,91.45236206054688,65.57161712646484,39518300.0
2008-06-27,,,,,,
2008-07-01,90.35152435302734,92.63644409179688,87.11378479003906,88.07585906982422,63.457088470458984,43640900.0
2008-08-01,88.53839111328125,89.82423400878906,79.7039794921875,84.96762084960938,61.21766662597656,38655700.0
2008-09-01,86.355224609375,86.355224609375,60.17576217651367,63.358001708984375,45.648311614990234,64963000.0
2008-09-29,,,,,,
2008-10-01,62.91396713256836,63.376502990722656,42.858463287353516,53.77428436279297,39.00313949584961,80660900.0
2008-11-01,53.55226516723633,56.8177604675293,38.35337829589844,44.181312561035156,32.04523468017578,49488700.0
2008-12-01,43.209991455078125,50.39778137207031,39.777984619140625,46.503238677978516,33.72935104370117,59682500.0
2008-12-30,,,,,,
2009-01-01,46.54024124145508,55.171138763427734,46.16096115112305,46.53099060058594,34.08776092529297,59004700.0
2009-02-01,45.5504150390625,52.710453033447266,42.14616012573242,42.78445816040039,31.343124389648438,51847700.0
2009-03-01,41.97039794921875,55.689178466796875,40.18501281738281,52.035152435302734,38.12001037597656,60971600.0
2009-03-30,,,,,,
2009-04-01,51.378353118896484,62.839962005615234,50.62904739379883,60.96207046508789,45.03244400024414,38922600.0
2009-05-01,60.860313415527344,62.80295944213867,55.13413619995117,59.925994873046875,44.267112731933594,42343700.0
2009-06-01,60.65679931640625,64.69010162353516,56.76225662231445,59.7502326965332,44.13726043701172,38085400.0
2009-06-29,,,,,,
2009-07-01,60.03700256347656,69.9074935913086,55.985198974609375,69.01017761230469,51.36079406738281,34522900.0
2009-08-01,69.38020324707031,71.69287872314453,66.79000854492188,69.407958984375,51.6568603515625,24881000.0
2009-09-01,69.00092315673828,74.56059265136719,67.4653091430664,71.76688385009766,53.41249084472656,34031100.0
2009-09-29,,,,,,
2009-10-01,71.85013580322266,78.10360717773438,68.23311614990234,71.35060119628906,53.43354034423828,39374100.0
2009-11-01,72.15541076660156,79.03792572021484,71.44310760498047,76.71600341796875,57.45161819458008,22858600.0
2009-12-01,77.54856872558594,78.1776123046875,73.58927154541016,74.98612213134766,56.156131744384766,26051100.0
2009-12-30,,,,,,
2010-01-01,75.95744323730469,77.52081298828125,70.22201538085938,70.26827239990234,52.934425354003906,26637600.0
2010-02-01,70.90657043457031,71.8223876953125,60.17576217651367,63.44125747680664,47.791526794433594,61951500.0
2010-03-01,63.644771575927734,69.8797378540039,62.94171905517578,68.40888214111328,51.53372573852539,46970200.0
2010-03-30,,,,,,
2010-04-01,68.86216735839844,74.22756958007812,67.70582580566406,71.02682495117188,53.890052795410156,30779200.0
2010-05-01,71.50786590576172,71.56336975097656,59.63922119140625,63.885292053222656,48.4715576171875,45067200.0
2010-06-01,63.1822395324707,67.47456359863281,59.777984619140625,59.9537467956543,45.48859786987305,40330600.0
2010-06-29,,,,,,
2010-07-01,59.7039794921875,68.44588470458984,59.32469940185547,67.14153289794922,51.34335708618164,32827900.0
2010-08-01,68.06660461425781,72.00740051269531,67.35430145263672,68.4828872680664,52.36909484863281,33899500.0
2010-09-01,69.35245513916016,78.10360717773438,68.49213409423828,76.61424255371094,58.5871696472168,36315600.0
2010-09-29,,,,,,
2010-10-01,76.9842758178711,80.01850128173828,74.8381118774414,78.60314178466797,60.48964309692383,26580300.0
2010-11-01,79.09342956542969,81.1100845336914,76.6512451171875,79.75948333740234,61.37953567504883,19891300.0
2010-12-01,81.3043441772461,84.5420913696289,79.57447052001953,84.13506317138672,64.74679565429688,24035300.0
2010-12-30,,,,,,
2011-01-01,84.68085479736328,84.8381118774414,79.13043212890625,80.7123031616211,62.47544479370117,33073800.0
2011-02-01,81.8131332397461,87.881591796875,81.28584289550781,85.10638427734375,65.8766860961914,31292000.0
2011-03-01,85.53191375732422,85.56891632080078,76.9842758178711,83.42276000976562,64.5734634399414,39813300.0
2011-03-30,,,,,,
2011-04-01,83.74652862548828,88.8066635131836,82.49768829345703,88.36262512207031,68.87548828125,23063700.0
2011-05-01,88.8066635131836,88.8066635131836,82.56243896484375,87.96484375,68.56546020507812,21561700.0
2011-06-01,87.81683349609375,88.74190521240234,82.56243896484375,88.41812896728516,68.91877746582031,30806500.0
2011-06-29,,,,,,
2011-07-01,88.31637573242188,90.65679931640625,81.17483520507812,82.08140563964844,64.40531158447266,25334400.0
2011-08-01,83.2284927368164,83.35800170898438,68.9916763305664,75.73542785644531,59.42592239379883,46500200.0
2011-09-01,75.52266693115234,76.91027069091797,69.41720581054688,70.64754486083984,55.43372344970703,36390900.0
2011-09-29,,,,,,
2011-10-01,70.2127685546875,83.4412612915039,66.84551239013672,79.68547821044922,63.025543212890625,33057500.0
2011-11-01,76.76226043701172,81.18408966064453,70.8973159790039,77.47456359863281,61.276851654052734,23369200.0
2011-12-01,77.43756103515625,80.13876342773438,74.0333023071289,78.8066635131836,62.33043670654297,22744400.0
2011-12-29,,,,,,
2012-01-01,80.12950897216797,85.31914520263672,79.1859359741211,81.4338607788086,64.88712310791016,23809100.0
2012-02-01,82.3219223022461,85.51341247558594,81.88713836669922,83.47826385498047,66.5160903930664,17069900.0
2012-03-01,83.87603759765625,85.5504150390625,81.54486846923828,84.92137145996094,67.66598510742188,21446900.0
2012-03-29,,,,,,
2012-04-01,84.9491195678711,85.83718872070312,75.4671630859375,79.08418273925781,63.49694061279297,31757300.0
2012-05-01,78.46438598632812,80.34227752685547,71.76688385009766,73.11748504638672,58.70623779296875,27639500.0
2012-06-01,71.95189666748047,75.59667205810547,70.40702819824219,74.68085479736328,59.96150207519531,31991600.0
2012-06-28,,,,,,
2012-07-01,73.95929718017578,75.8556900024414,71.42460632324219,74.40332794189453,60.278865814208984,25554600.0
2012-08-01,74.77336120605469,78.78816223144531,73.4412612915039,76.39222717285156,61.89018630981445,19371000.0
2012-09-01,76.28121948242188,79.3987045288086,75.07862854003906,76.50323486328125,61.98012161254883,17934600.0
2012-09-27,,,,,,
2012-10-01,76.34597778320312,79.50971221923828,71.02682495117188,71.72062683105469,58.59276580810547,28153900.0
2012-11-01,72.22016906738281,77.09528350830078,71.23033905029297,76.72525787353516,62.68134307861328,33126800.0
2012-12-01,76.96577453613281,79.84273529052734,75.07862854003906,77.72432708740234,63.49754333496094,20374700.0
2012-12-28,,,,,,
2013-01-01,79.05642700195312,83.24699401855469,78.66790008544922,80.87881469726562,66.61811828613281,22219200.0
2013-02-01,81.54486846923828,82.45143127441406,77.84458923339844,79.87049102783203,65.78760528564453,20078600.0
2013-03-01,79.41720581054688,83.57077026367188,78.92691802978516,80.592041015625,66.38191986083984,20251700.0
2013-03-27,,,,,,
2013-04-01,80.19426727294922,80.77706146240234,77.74282836914062,80.44403076171875,66.8435287475586,25886900.0
2013-05-01,80.19426727294922,88.94541931152344,79.21369171142578,87.33580017089844,72.57013702392578,30233500.0
2013-06-01,87.31729888916016,89.84273529052734,84.46808624267578,84.70860290527344,70.38712310791016,39418200.0
2013-06-27,,,,,,
2013-07-01,84.6530990600586,101.73912811279297,83.36725616455078,100.4995346069336,84.18038940429688,69189800.0
2013-08-01,101.28584289550781,102.68270111083984,92.28491973876953,94.48658752441406,79.14383697509766,34064300.0
2013-09-01,95.5596694946289,106.1517105102539,94.38482666015625,98.58464050292969,82.5764389038086,23573400.0
2013-09-27,,,,,,
2013-10-01,97.79833221435547,103.56151580810547,94.56983947753906,100.84181213378906,85.06181335449219,30835800.0
2013-11-01,100.78630828857422,103.24699401855469,99.38020324707031,100.67530059814453,84.92135620117188,19829700.0
2013-12-01,100.78630828857422,105.44866180419922,97.81683349609375,103.40425872802734,87.22325134277344,20829000.0
2013-12-30,,,,,,
2014-01-01,103.20073699951172,104.73635864257812,96.03145599365234,97.26179504394531,82.60088348388672,25966100.0
2014-02-01,97.56707000732422,113.08048248291016,95.03237915039062,112.22941589355469,95.31233215332031,33683900.0
2014-03-01,111.55411529541016,115.07862854003906,108.49213409423828,110.1202621459961,93.52112579345703,27242100.0
2014-03-28,,,,,,
2014-04-01,110.01850128173828,113.70952606201172,105.71692657470703,108.71415710449219,92.98041534423828,26166500.0
2014-05-01,108.76040649414062,111.79463195800781,107.5763168334961,110.98057556152344,94.91883087158203,15491600.0
2014-06-01,111.0083236694336,121.62812042236328,110.37928009033203,118.982421875,101.7625961303711,32919700.0
2014-06-27,,,,,,
2014-07-01,118.6864013671875,126.6512451171875,117.72432708740234,122.06290435791016,105.07616424560547,28386100.0
2014-08-01,121.609619140625,125.3746566772461,120.88806915283203,123.2284927368164,106.07955169677734,25037000.0
2014-09-01,123.19149017333984,127.15078735351562,117.31729888916016,120.42552947998047,103.66664123535156,50132400.0
2014-09-29,,,,,,
2014-10-01,119.74098205566406,125.88343811035156,109.34320068359375,124.56983947753906,107.90061950683594,57278900.0
2014-11-01,124.52359008789062,135.48565673828125,123.09898376464844,133.052734375,115.2484130859375,25190500.0
2014-12-01,132.8677215576172,138.39962768554688,125.26364135742188,133.42276000976562,115.56890869140625,26291400.0
2014-12-30,,,,,,
2015-01-01,132.64569091796875,137.83534240722656,126.79926300048828,134.69935607910156,117.33305358886719,27233500.0
2015-02-01,133.55226135253906,145.91119384765625,131.24884033203125,144.44033813476562,125.8181381225586,18277500.0
2015-03-01,144.44033813476562,146.34597778320312,137.7520751953125,139.94448852539062,121.90196228027344,22420700.0
2015-03-30,,,,,,
2015-04-01,139.58372497558594,142.39593505859375,131.609619140625,132.68270874023438,116.24272918701172,25575100.0
2015-05-01,132.97872924804688,138.1776123046875,132.7567138671875,135.76318359375,118.9415283203125,19650400.0
2015-06-01,136.58648681640625,137.91859436035156,126.4477310180664,126.57723999023438,110.89379119873047,23361200.0
2015-06-29,,,,,,
2015-07-01,126.7715072631836,133.31175231933594,118.76966094970703,131.83163452148438,116.21334075927734,34974600.0
2015-08-01,131.5263671875,141.3699951171875,115.63367462158203,140.64999389648438,123.98698425292969,34385700.0
2015-09-01,126.43848419189453,130.89732360839844,114.39408111572266,118.02035522460938,104.03829956054688,30562200.0
2015-09-29,,,,,,
2015-10-01,118.06660461425781,131.61886596679688,117.1600341796875,128.56614685058594,114.1325912475586,32156900.0
2015-11-01,128.46438598632812,133.052734375,124.12580871582031,126.63274383544922,112.41624450683594,22952500.0
2015-12-01,126.49398803710938,129.01942443847656,118.22386932373047,120.36077880859375,106.8484115600586,37925200.0
2015-12-30,,,,,,
2016-01-01,118.60314178466797,119.59297180175781,106.04995727539062,117.21553802490234,104.74482727050781,39919900.0
2016-02-01,116.04070281982422,126.73450469970703,115.65217590332031,122.54393768310547,109.50633239746094,37095400.0
2016-03-01,123.75578308105469,136.13320922851562,122.0259017944336,133.25624084472656,119.07893371582031,65307000.0
2016-03-30,,,,,,
2016-04-01,132.74745178222656,140.75856018066406,130.9158172607422,134.9583740234375,121.37803649902344,22555900.0
2016-05-01,133.9685516357422,136.0592041015625,129.96299743652344,131.95188903808594,118.674072265625,23884800.0
2016-06-01,131.5078582763672,136.1702117919922,124.09806060791016,131.3968505859375,118.17488861083984,24157600.0
2016-06-29,,,,,,
2016-07-01,130.9990692138672,141.24884033203125,127.02127838134766,138.22386169433594,125.16603088378906,21704700.0
2016-08-01,136.6790008544922,145.70767211914062,136.09620666503906,143.95928955078125,130.35964965820312,22532500.0
2016-09-01,144.4310760498047,146.01295471191406,134.0240478515625,139.07493591308594,125.93669128417969,47932500.0
2016-09-29,,,,,,
2016-10-01,139.83999633789062,141.07000732421875,129.0,133.4199981689453,121.570556640625,34879900.0
2016-10-03,,,,,,
2016-10-06,,,,,,
2016-11-01,133.74000549316406,145.25999450683594,131.1199951171875,144.4600067138672,132.46168518066406,31775300.0
2016-12-01,144.4199981689453,150.4499969482422,143.22999572753906,149.5500030517578,137.12893676757812,23340500.0
2016-12-29,,,,,,
2017-01-01,143.55999755859375,149.4600067138672,137.0500030517578,139.75999450683594,128.916015625,34703600.0
2017-02-01,139.32000732421875,143.1199951171875,137.4600067138672,140.47000122070312,129.57093811035156,25787700.0
2017-03-01,142.1300048828125,144.05999755859375,133.6300048828125,135.2899932861328,124.7928466796875,33590400.0
2017-03-30,,,,,,
2017-04-01,135.6999969482422,142.4499969482422,134.08999633789062,140.5,130.50503540039062,22773500.0
2017-05-01,141.5500030517578,147.66000366210938,140.00999450683594,144.05999755859375,133.81173706054688,29691000.0
2017-06-01,144.4600067138672,147.5,140.77999877929688,143.05999755859375,132.88291931152344,26504500.0
2017-06-29,,,,,,
2017-07-01,143.72999572753906,146.5500030517578,141.8800048828125,142.14999389648438,132.90936279296875,20233400.0
2017-08-01,148.0,149.63999938964844,143.80999755859375,145.3699951171875,135.92005920410156,32648800.0
2017-09-01,145.66000366210938,152.25999450683594,143.7899932861328,151.22000122070312,141.3897705078125,36069600.0
2017-10-01,151.0399932861328,162.86000061035156,150.5500030517578,159.42999267578125,149.06607055664062,22041300.0
2017-10-06,,,,,,
2017-10-09,,,,,,
2017-11-01,159.69000244140625,164.64999389648438,158.1699981689453,163.0399932861328,154.34840393066406,17357100.0
2017-12-01,163.2899932861328,164.77999877929688,159.89999389648438,164.0800018310547,155.33294677734375,17538700.0
2017-12-29,,,,,,
2018-01-01,164.8800048828125,175.1699981689453,162.69000244140625,168.3699951171875,160.31944274902344,25310500.0
2018-02-01,167.2100067138672,168.3000030517578,152.7100067138672,160.7899932861328,153.10186767578125,23282600.0
2018-03-01,160.69000244140625,172.38999938964844,157.14999389648438,159.02999877929688,151.426025390625,25322500.0
2018-03-29,,,,,,
2018-04-01,158.9499969482422,169.14999389648438,155.1999969482422,162.2899932861328,155.6123046875,18549000.0
2018-05-01,161.44000244140625,170.2899932861328,159.07000732421875,161.41000366210938,154.7685089111328,20466600.0
2018-06-01,162.72999572753906,169.47000122070312,154.6699981689453,155.72999572753906,149.32223510742188,21974200.0
2018-06-29,,,,,,
2018-07-01,155.07000732421875,165.08999633789062,153.00999450683594,164.1699981689453,158.5325927734375,23045700.0
2018-08-01,163.92999267578125,169.0,157.00999450683594,166.2899932861328,160.57977294921875,22022100.0
2018-09-01,166.11000061035156,171.66000366210938,163.4199981689453,167.0500030517578,161.31370544433594,15295200.0
2018-09-28,,,,,,
2018-10-01,168.07000732421875,171.5500030517578,148.44000244140625,154.35000610351562,150.02911376953125,26642900.0
2018-11-01,155.25,165.49000549316406,151.85000610351562,160.8699951171875,156.3665771484375,23561300.0
2018-12-01,163.75999450683594,167.0,149.63999938964844,160.0500030517578,155.56951904296875,28132600.0
2018-12-31,,,,,,
2019-01-01,157.38999938964844,165.52000427246094,153.6300048828125,164.38999938964844,160.88934326171875,28308600.0
2019-02-01,165.0,182.25,163.52999877929688,181.17999267578125,177.32179260253906,21989900.0
2019-03-01,182.4600067138672,191.16000366210938,178.0,190.9600067138672,186.89353942871094,21928200.0
2019-03-29,,,,,,
2019-04-01,192.14999389648438,206.07000732421875,189.14999389648438,205.7899932861328,202.64381408691406,21982800.0
2019-05-01,206.72000122070312,210.14999389648438,199.4600067138672,203.58999633789062,200.47744750976562,27712200.0
2019-06-01,204.17999267578125,226.64999389648438,203.50999450683594,226.3699951171875,222.9091796875,24997300.0
2019-06-28,,,,,,
2019-07-01,227.50999450683594,232.47000122070312,219.5800018310547,228.27000427246094,225.95286560058594,22484200.0
2019-08-01,226.25999450683594,232.17999267578125,217.61000061035156,225.9199981689453,223.626708984375,19318900.0
2019-09-01,223.97000122070312,229.5,210.3699951171875,221.86000061035156,219.60794067382812,19570700.0
2019-09-30,,,,,,
2019-10-01,222.52999877929688,223.0,206.6999969482422,213.25999450683594,212.2087860107422,19103400.0
2019-11-01,214.7100067138672,241.89999389648438,212.82000732421875,236.3300018310547,235.16506958007812,21728100.0
2019-12-01,236.0,237.30999755859375,227.97999572753906,234.99000549316406,233.83168029785156,19917400.0
2019-12-31,,,,,,
2020-01-01,235.25,244.61000061035156,224.91000366210938,238.7100067138672,238.7100067138672,26787300.0
2020-02-01,239.88999938964844,257.010009765625,213.80999755859375,219.61000061035156,219.61000061035156,22887400.0
2020-03-01,221.08999633789062,237.44000244140625,167.42999267578125,191.14999389648438,191.14999389648438,35605600.0
2020-03-26,192.97999572753906,201.52000427246094,190.0,197.98069763183594,197.98069763183594,641595.0
