Date,Open,High,Low,Close,Adj Close,Volume
1973-02-01,4.625,4.640625,4.625,4.625,0.3561519980430603,412000.0
1973-03-01,4.65625,4.921875,4.59375,4.71875,0.3633714020252228,1501600.0
1973-04-01,4.6875,4.8125,4.46875,4.46875,0.3441199064254761,1284800.0
1973-05-01,4.4375,4.9375,4.4375,4.796875,0.3693874180316925,1791200.0
1973-06-01,0.0,4.859375,4.265625,4.28125,0.3296815752983093,1454400.0
1973-07-01,0.0,5.046875,4.28125,4.84375,0.3729970157146454,1516000.0
1973-08-01,0.0,4.875,4.640625,4.78125,0.36818432807922363,1034400.0
1973-09-01,0.0,5.03125,4.765625,4.90625,0.3778100311756134,1420000.0
1973-10-01,0.0,5.3125,4.90625,4.90625,0.3778100311756134,2000000.0
1973-11-01,0.0,5.125,4.296875,4.296875,0.33088454604148865,1872000.0
1973-12-01,0.0,5.0,4.15625,4.9375,0.3802163004875183,2768000.0
1974-01-01,0.0,5.03125,4.265625,4.34375,0.3344941735267639,2633600.0
1974-02-01,0.0,4.34375,3.96875,3.984375,0.30682021379470825,2266400.0
1974-03-01,0.0,4.78125,4.0,4.09375,0.3152428865432739,3456800.0
1974-04-01,0.0,4.328125,3.8125,3.8125,0.293584942817688,2522400.0
1974-05-01,0.0,3.953125,2.96875,2.96875,0.2286112755537033,3863200.0
1974-06-01,0.0,3.421875,2.5,2.5,0.19251468777656555,3696800.0
1974-07-01,0.0,2.390625,1.8125,1.8125,0.1395731121301651,4366400.0
1974-08-01,0.0,2.0,1.5,1.609375,0.12393132597208023,2392800.0
1974-09-01,0.0,1.59375,0.96875,0.96875,0.07459940761327744,4315200.0
1974-10-01,0.0,1.46875,0.9375,1.296875,0.09986700117588043,4054400.0
1974-11-01,0.0,1.265625,0.953125,1.015625,0.07820910215377808,3449600.0
1974-12-01,0.0,1.03125,0.828125,0.9375,0.07219301164150238,4972800.0
1975-01-01,0.0,1.40625,0.953125,1.359375,0.10467984527349472,5208800.0
1975-02-01,0.0,1.765625,1.34375,1.5,0.11550876498222351,5877600.0
1975-03-01,0.0,1.5625,1.125,1.421875,0.10949274897575378,5137600.0
1975-04-01,0.0,1.65625,1.328125,1.53125,0.11791525036096573,4332000.0
1975-05-01,0.0,1.75,1.515625,1.59375,0.12272816151380539,4076800.0
1975-06-01,0.0,1.671875,1.34375,1.625,0.12513454258441925,5459200.0
1975-07-01,0.0,1.625,1.359375,1.421875,0.10949274897575378,3306400.0
1975-08-01,0.0,1.453125,1.1875,1.375,0.1058831438422203,3627200.0
1975-09-01,0.0,1.390625,1.203125,1.203125,0.09264770150184631,2361600.0
1975-10-01,0.0,1.234375,1.03125,1.03125,0.0794122964143753,3412800.0
1975-11-01,0.0,1.171875,1.0,1.0625,0.08181873708963394,5154400.0
1975-12-01,0.0,1.265625,1.0,1.21875,0.09385092556476593,3579200.0
1976-01-01,0.0,1.40625,1.15625,1.359375,0.10467984527349472,5099200.0
1976-02-01,0.0,1.609375,1.390625,1.453125,0.11189915984869003,5406400.0
1976-03-01,0.0,1.578125,1.390625,1.53125,0.11791525036096573,3820000.0
1976-04-01,0.0,1.59375,1.4375,1.453125,0.11189915984869003,3039200.0
1976-05-01,0.0,1.484375,1.21875,1.21875,0.09385092556476593,2862400.0
1976-06-01,0.0,1.375,1.234375,1.328125,0.1022733747959137,2709600.0
1976-07-01,0.0,1.46875,1.28125,1.296875,0.09986700117588043,3873600.0
1976-08-01,0.0,1.359375,1.265625,1.265625,0.09746057540178299,3413600.0
1976-09-01,0.0,1.40625,1.234375,1.3125,0.10107022523880005,4017600.0
1976-10-01,0.0,1.3125,1.203125,1.265625,0.09746057540178299,2688000.0
1976-11-01,0.0,1.328125,1.21875,1.265625,0.09746057540178299,3046400.0
1976-12-01,0.0,1.5625,1.28125,1.515625,0.1167120411992073,4635200.0
1977-01-01,0.0,1.640625,1.421875,1.421875,0.10949274897575378,5212800.0
1977-02-01,0.0,1.484375,1.34375,1.359375,0.10467984527349472,2217600.0
1977-03-01,0.0,1.53125,1.390625,1.484375,0.11430563777685165,4404000.0
1977-04-01,0.0,1.53125,1.46875,1.484375,0.11430563777685165,2131200.0
1977-05-01,0.0,1.5625,1.453125,1.453125,0.11189915984869003,3328000.0
1977-06-01,0.0,1.515625,1.375,1.375,0.1058831438422203,2634400.0
1977-07-01,0.0,1.53125,1.375,1.4375,0.11069589853286743,2876800.0
1977-08-01,0.0,1.484375,1.3125,1.3125,0.10107022523880005,2235200.0
1977-09-01,0.0,1.421875,1.3125,1.359375,0.10467984527349472,3172000.0
1977-10-01,0.0,1.421875,1.296875,1.3125,0.10107022523880005,2279200.0
1977-11-01,0.0,1.40625,1.28125,1.359375,0.10467984527349472,2113600.0
1977-12-01,0.0,1.46875,1.34375,1.421875,0.10949274897575378,4283200.0
1978-01-01,0.0,1.515625,1.40625,1.46875,0.11310241371393204,2965600.0
1978-02-01,0.0,1.53125,1.453125,1.453125,0.11189915984869003,2484800.0
1978-03-01,0.0,1.5,1.40625,1.421875,0.10949274897575378,4535200.0
1978-04-01,0.0,1.703125,1.40625,1.625,0.12513454258441925,6913600.0
1978-05-01,0.0,1.8125,1.640625,1.671875,0.12874412536621094,5048800.0
1978-06-01,0.0,1.71875,1.609375,1.625,0.12513454258441925,3425600.0
1978-07-01,0.0,1.84375,1.609375,1.796875,0.13836993277072906,3861600.0
1978-08-01,0.0,1.953125,1.796875,1.890625,0.14558927714824677,5422400.0
1978-09-01,0.0,2.125,1.875,1.890625,0.14558927714824677,3778400.0
1978-10-01,0.0,1.953125,1.484375,1.484375,0.11430563777685165,2952000.0
1978-11-01,0.0,1.71875,1.5625,1.5625,0.12032168358564377,3866400.0
1978-12-01,0.0,1.640625,1.421875,1.5,0.11550876498222351,2961600.0
1979-01-01,0.0,1.6875,1.5,1.59375,0.12272816151380539,3960000.0
1979-02-01,0.0,1.625,1.46875,1.46875,0.11310241371393204,2589600.0
1979-03-01,0.0,1.5625,1.46875,1.5,0.11550876498222351,5362400.0
1979-04-01,0.0,1.6875,1.5,1.59375,0.12272816151380539,4168000.0
1979-05-01,0.0,1.625,1.5,1.5,0.11550876498222351,4410400.0
1979-06-01,0.0,1.734375,1.515625,1.71875,0.13235382735729218,3672800.0
1979-07-01,0.0,1.828125,1.6875,1.828125,0.1407763808965683,1976800.0
1979-08-01,0.0,2.078125,1.84375,1.90625,0.146792471408844,2685600.0
1979-09-01,0.0,1.90625,1.734375,1.796875,0.13836993277072906,1723200.0
1979-10-01,0.0,1.796875,1.46875,1.46875,0.11310241371393204,2716800.0
1979-11-01,0.0,1.84375,1.390625,1.8125,0.1395731121301651,2879200.0
1979-12-01,0.0,1.828125,1.703125,1.703125,0.13115063309669495,2103200.0
1980-01-01,0.0,1.921875,1.640625,1.75,0.1347602754831314,6313600.0
1980-02-01,0.0,1.734375,1.390625,1.53125,0.11791525036096573,4003200.0
1980-03-01,1.40625,1.515625,1.25,1.421875,0.10949274897575378,5453600.0
1980-04-01,0.0,1.765625,1.4375,1.6875,0.1299474537372589,2337600.0
1980-05-01,0.0,1.953125,1.6875,1.796875,0.13836993277072906,3105600.0
1980-06-01,0.0,1.859375,1.71875,1.84375,0.14197953045368195,1451200.0
1980-07-01,0.0,2.078125,1.796875,1.9375,0.14919881522655487,6484000.0
1980-08-01,0.0,2.046875,1.859375,1.890625,0.14558927714824677,3739200.0
1980-09-01,0.0,1.984375,1.625,1.65625,0.12754099071025848,14896000.0
1980-10-01,0.0,1.703125,1.59375,1.640625,0.12633779644966125,4038400.0
1980-11-01,0.0,1.71875,1.578125,1.640625,0.12633779644966125,3329600.0
1980-12-01,0.0,1.75,1.546875,1.6875,0.1299474537372589,3233600.0
1981-01-01,0.0,1.8125,1.625,1.6875,0.1299474537372589,2208000.0
1981-02-01,0.0,1.90625,1.65625,1.859375,0.14318282902240753,2394400.0
1981-03-01,0.0,2.078125,1.8125,2.0625,0.1588245928287506,4615200.0
1981-04-01,0.0,2.078125,1.96875,2.03125,0.15641820430755615,3710400.0
1981-05-01,0.0,2.03125,1.859375,1.90625,0.146792471408844,2242400.0
1981-06-01,0.0,2.25,1.8125,2.046875,0.15762144327163696,15236800.0
1981-07-01,0.0,2.0625,1.75,1.8125,0.1395731121301651,2173600.0
1981-08-01,0.0,1.875,1.65625,1.6875,0.1299474537372589,1584000.0
1981-09-01,0.0,1.875,1.640625,1.6875,0.1299474537372589,3009600.0
1981-10-01,0.0,1.84375,1.6875,1.796875,0.13836993277072906,13644000.0
1981-11-01,0.0,2.046875,1.828125,1.90625,0.146792471408844,4279200.0
1981-12-01,0.0,2.015625,1.828125,1.859375,0.14318282902240753,4111200.0
1982-01-01,0.0,1.90625,1.765625,1.875,0.14438602328300476,1964000.0
1982-02-01,0.0,1.9375,1.734375,1.828125,0.1407763808965683,2323200.0
1982-03-01,0.0,1.8125,1.671875,1.71875,0.13235382735729218,4431200.0
1982-04-01,0.0,1.78125,1.671875,1.765625,0.13596345484256744,2908800.0
1982-05-01,0.0,1.765625,1.640625,1.65625,0.12754099071025848,1776000.0
1982-06-01,0.0,1.671875,1.546875,1.59375,0.12272816151380539,3296800.0
1982-07-01,0.0,1.609375,1.5,1.5,0.11550876498222351,2762400.0
1982-08-01,0.0,1.71875,1.46875,1.65625,0.12754099071025848,3127200.0
1982-09-01,0.0,1.859375,1.5625,1.84375,0.14197953045368195,3980800.0
1982-10-01,0.0,2.515625,1.828125,2.4375,0.18770185112953186,24062400.0
1982-11-01,0.0,2.578125,2.265625,2.3125,0.17807599902153015,20708800.0
1982-12-01,0.0,2.5,2.21875,2.34375,0.18048252165317535,9427200.0
1983-01-01,0.0,2.453125,2.3125,2.4375,0.18770185112953186,6043200.0
1983-02-01,0.0,2.921875,2.421875,2.71875,0.20935969054698944,11777600.0
1983-03-01,0.0,2.984375,2.65625,2.9375,0.22620482742786407,12060800.0
1983-04-01,0.0,3.515625,2.875,3.25,0.2502690851688385,7646400.0
1983-05-01,0.0,3.4375,3.09375,3.28125,0.2526755928993225,10089600.0
1983-06-01,0.0,3.734375,3.15625,3.28125,0.2526755928993225,21296800.0
1983-07-01,0.0,3.484375,3.21875,3.25,0.2502690851688385,5900800.0
1983-08-01,0.0,3.515625,3.046875,3.359375,0.25869157910346985,6536000.0
1983-09-01,0.0,3.40625,3.125,3.25,0.2502690851688385,8031200.0
1983-10-01,0.0,3.296875,2.828125,2.984375,0.22981438040733337,7780800.0
1983-11-01,0.0,3.15625,2.859375,3.15625,0.2430497258901596,7934400.0
1983-12-01,0.0,3.46875,3.015625,3.421875,0.26350435614585876,5889600.0
1984-01-01,0.0,3.5,3.296875,3.46875,0.26711416244506836,7315200.0
1984-02-01,0.0,3.59375,3.125,3.203125,0.24665938317775726,5342400.0
1984-03-01,0.0,3.265625,3.015625,3.15625,0.2430497258901596,4627200.0
1984-04-01,0.0,3.203125,2.875,3.125,0.24064336717128754,5236800.0
1984-05-01,0.0,3.25,2.90625,2.90625,0.22379831969738007,6595200.0
1984-06-01,0.0,3.15625,2.90625,3.0,0.23101752996444702,4435200.0
1984-07-01,0.0,3.140625,3.0,3.109375,0.23944024741649628,3391200.0
1984-08-01,0.0,3.625,3.109375,3.59375,0.27673986554145813,9017600.0
1984-09-01,0.0,3.90625,3.546875,3.71875,0.28636565804481506,9134400.0
1984-10-01,0.0,4.21875,3.59375,4.140625,0.31885260343551636,10358400.0
1984-11-01,0.0,4.40625,3.890625,3.9375,0.3032105565071106,7548000.0
1984-12-01,0.0,4.5625,3.890625,4.484375,0.34532320499420166,8802400.0
1985-01-01,0.0,4.96875,4.328125,4.6875,0.3609650433063507,8536000.0
1985-02-01,0.0,4.75,4.40625,4.46875,0.3441199064254761,13904800.0
1985-03-01,0.0,4.734375,4.296875,4.59375,0.353745698928833,7308800.0
1985-04-01,0.0,5.03125,4.4375,4.96875,0.38262295722961426,13404800.0
1985-05-01,0.0,5.375,4.8125,5.1875,0.39946800470352173,13924800.0
1985-06-01,0.0,5.515625,5.125,5.4375,0.4187193810939789,8670400.0
1985-07-01,0.0,5.546875,4.9375,5.15625,0.39706161618232727,7009600.0
1985-08-01,0.0,5.25,4.625,4.71875,0.3633714020252228,19220000.0
1985-09-01,0.0,4.734375,4.234375,4.390625,0.33810389041900635,6800800.0
1985-10-01,0.0,4.90625,4.34375,4.890625,0.3766067922115326,10732800.0
1985-11-01,0.0,5.296875,4.890625,5.203125,0.40067121386528015,13826400.0
1985-12-01,0.0,5.890625,5.03125,5.65625,0.43556466698646545,10688000.0
1986-01-01,0.0,5.65625,5.0,5.40625,0.4163129925727844,16060000.0
1986-02-01,0.0,6.421875,5.375,6.421875,0.4945221543312073,19519200.0
1986-03-01,0.0,6.5,6.109375,6.1875,0.4764738380908966,13998400.0
1986-03-03,,,,,,
1986-04-01,0.0,6.9375,6.0,6.6875,0.5473657250404358,13957600.0
1986-05-01,6.84375,6.9375,6.328125,6.9375,0.5678281784057617,59842400.0
1986-06-01,6.90625,6.9375,6.46875,6.75,0.5524817109107971,6739200.0
1986-06-02,,,,,,
1986-07-01,6.78125,6.84375,5.71875,5.953125,0.515494167804718,15153600.0
1986-08-01,5.9375,6.40625,5.828125,6.375,0.5520254373550415,38368000.0
1986-08-29,,,,,,
1986-09-01,6.34375,6.375,5.25,5.65625,0.5207518935203552,13922400.0
1986-10-01,5.65625,5.8125,5.421875,5.53125,0.5092436671257019,5120000.0
1986-11-01,5.5,5.609375,5.125,5.4375,0.5006123781204224,14712800.0
1986-11-21,,,,,,
1986-12-01,5.5,6.1875,5.25,5.375,0.49485844373703003,14648800.0
1986-12-01,,,,,,
1987-01-01,5.4375,6.1875,5.28125,6.0,0.5745909810066223,12422000.0
1987-02-01,6.0625,6.34375,5.9375,6.21875,0.5955394506454468,13261600.0
1987-03-01,6.15625,6.71875,6.09375,6.3125,0.6045176386833191,12605200.0
1987-03-02,,,,,,
1987-04-01,6.25,6.53125,5.3125,5.90625,0.5853806734085083,10643600.0
1987-05-01,5.90625,6.25,5.5,5.875,0.5822834968566895,11889600.0
1987-06-01,5.875,6.625,5.71875,6.46875,0.6411311030387878,10421200.0
1987-06-01,,,,,,
1987-07-01,6.46875,6.5,5.9375,6.21875,0.6392012238502502,19757200.0
1987-08-01,6.15625,7.28125,6.15625,6.8125,0.7002307176589966,20234800.0
1987-08-31,,,,,,
1987-09-01,6.75,6.875,5.9375,6.09375,0.6459963321685791,26963600.0
1987-10-01,6.125,6.1875,4.21875,4.59375,0.48698127269744873,21427600.0
1987-11-01,4.59375,5.03125,4.40625,4.4375,0.4704175889492035,28000400.0
1987-11-30,,,,,,
1987-12-01,4.375,4.59375,3.875,4.3125,0.4805909991264343,25496800.0
1988-01-01,4.40625,5.25,4.375,5.21875,0.5815846920013428,15186800.0
1988-02-01,5.25,5.625,4.9375,5.5625,0.6198928356170654,11366400.0
1988-02-29,,,,,,
1988-03-01,5.5,5.5625,4.71875,4.9375,0.5748397707939148,7880400.0
1988-04-01,4.9375,5.28125,4.875,5.15625,0.6003075838088989,9736800.0
1988-05-01,5.21875,5.46875,5.03125,5.4375,0.6330516338348389,6911600.0
1988-05-27,,,,,,
1988-06-01,5.40625,6.25,5.21875,6.0625,0.7373684048652649,12384000.0
1988-07-01,6.125,6.3125,5.71875,5.84375,0.7107623219490051,10819600.0
1988-08-01,6.0,7.28125,6.0,6.6875,0.8133859038352966,38579200.0
1988-08-29,,,,,,
1988-09-01,6.6875,7.1875,6.65625,7.03125,0.885655403137207,38247600.0
1988-10-01,7.0,7.25,7.0,7.125,0.8974640965461731,14870400.0
1988-11-01,7.09375,7.21875,6.4375,6.71875,0.8462929129600525,15098000.0
1988-11-28,,,,,,
1988-12-01,6.65625,7.09375,6.65625,6.8125,0.891588568687439,10244800.0
1989-01-01,6.84375,7.53125,6.75,7.5,0.981565535068512,15280400.0
1989-02-01,7.46875,8.46875,7.4375,8.28125,1.0838110446929932,14021600.0
1989-02-27,,,,,,
1989-03-01,8.21875,9.3125,8.15625,8.875,1.198837399482727,17059600.0
1989-04-01,8.875,9.4375,8.375,9.09375,1.2283858060836792,23174000.0
1989-05-01,9.09375,11.8125,9.0625,11.71875,1.5829713344573975,43550000.0
1989-05-26,,,,,,
1989-06-01,11.625,12.125,11.21875,11.3125,1.5637348890304565,26173600.0
1989-07-01,11.375,13.375,11.34375,13.375,1.8488374948501587,30782000.0
1989-08-01,13.4375,13.75,12.8125,13.03125,1.8013194799423218,19514800.0
1989-08-28,,,,,,
1989-09-01,12.96875,13.15625,12.375,13.125,1.8563082218170166,17655200.0
1989-10-01,13.0625,13.09375,11.4375,11.8125,1.6706781387329102,25742800.0
1989-11-01,11.8125,12.5625,11.0625,11.71875,1.65741765499115,41890800.0
1989-11-27,,,,,,
1989-12-01,11.75,11.75,10.34375,11.5625,1.6781657934188843,31175600.0
1990-01-01,11.5,11.8125,10.125,10.5,1.5239561796188354,29362000.0
1990-02-01,10.5625,11.28125,10.1875,11.125,1.6146680116653442,23070800.0
1990-02-26,,,,,,
1990-03-01,11.03125,11.625,9.46875,9.6875,1.4522384405136108,44566800.0
1990-04-01,9.625,9.6875,8.46875,9.5,1.4241303205490112,26170000.0
1990-05-01,9.5,10.0625,9.1875,9.6875,1.4522384405136108,31929600.0
1990-05-25,,,,,,
1990-06-01,9.75,11.0625,9.125,9.375,1.4593344926834106,29720000.0
1990-07-01,9.375,9.625,8.40625,8.96875,1.3960967063903809,24861600.0
1990-08-01,8.90625,8.90625,7.5,8.15625,1.2696216106414795,21148000.0
1990-08-31,,,,,,
1990-09-01,8.21875,8.28125,4.5,5.34375,0.8688201904296875,33396000.0
1990-10-01,5.5,5.625,4.21875,4.3125,0.7011528015136719,48433200.0
1990-11-01,4.34375,6.5,4.3125,6.0,0.9755174517631531,59247600.0
1990-12-01,5.96875,6.875,5.625,5.71875,0.9297899603843689,38002000.0
1990-12-03,,,,,,
1991-01-01,5.75,7.28125,5.375,7.03125,1.218313455581665,24684000.0
1991-02-01,7.0625,8.34375,6.90625,7.3125,1.267046332359314,27748000.0
1991-03-01,7.34375,8.875,7.21875,8.65625,1.4998785257339478,39592000.0
1991-03-04,,,,,,
1991-04-01,8.59375,10.09375,8.5625,9.21875,1.679160237312317,21466000.0
1991-05-01,9.1875,10.65625,8.8125,10.53125,1.9182275533676147,43013200.0
1991-06-01,10.40625,10.6875,8.875,8.9375,1.6279315948486328,22597200.0
1991-06-03,,,,,,
1991-07-01,9.0,9.6875,8.46875,8.6875,1.6400142908096313,50280400.0
1991-08-01,8.6875,9.9375,8.625,9.65625,1.82289457321167,53550800.0
1991-08-30,,,,,,
1991-09-01,9.65625,9.6875,8.8125,8.90625,1.746758222579956,20295600.0
1991-10-01,8.90625,9.59375,8.25,9.34375,1.832564353942871,44764800.0
1991-11-01,9.34375,9.78125,8.46875,8.59375,1.6854685544967651,30668000.0
1991-12-01,8.5,10.25,8.40625,10.15625,1.9919170141220093,34679600.0
1991-12-02,,,,,,
1992-01-01,10.09375,11.625,9.90625,10.96875,2.248059034347534,55056400.0
1992-02-01,10.84375,12.03125,10.8125,11.875,2.4337971210479736,45323200.0
1992-03-01,11.71875,12.0,10.96875,11.375,2.3313212394714355,44088800.0
1992-03-02,,,,,,
1992-04-01,11.1875,12.46875,10.78125,11.9375,2.525289535522461,44208000.0
1992-05-01,11.875,12.4375,11.5,11.625,2.4591827392578125,32222400.0
1992-06-01,11.53125,11.90625,11.0625,11.90625,2.518677234649658,47566400.0
1992-06-01,,,,,,
1992-07-01,11.9375,12.5,10.9375,11.5,2.512714147567749,45088000.0
1992-08-01,11.46875,11.84375,10.6875,10.71875,2.342013120651245,102938800.0
1992-08-31,,,,,,
1992-09-01,10.6875,11.28125,10.59375,11.09375,2.507827043533325,51326400.0
1992-10-01,11.0625,11.8125,10.40625,11.5625,2.613793134689331,37852800.0
1992-11-01,11.53125,12.75,11.53125,12.59375,2.8469130992889404,36338000.0
1992-11-30,,,,,,
1992-12-01,12.59375,13.34375,12.375,12.84375,2.998427391052246,197306000.0
1993-01-01,12.90625,13.625,12.375,13.4375,3.137040376663208,39634000.0
1993-02-01,13.40625,14.0625,12.375,13.375,3.1224493980407715,36221200.0
1993-03-01,13.25,14.5,13.25,13.65625,3.1881089210510254,41526400.0
1993-03-01,,,,,,
1993-04-01,13.65625,14.46875,11.5625,12.40625,2.985579490661621,62078800.0
1993-05-01,12.375,12.8125,11.25,11.78125,2.835172414779663,66038800.0
1993-05-28,,,,,,
1993-06-01,11.75,12.53125,11.3125,12.40625,3.0879788398742676,61176800.0
1993-07-01,12.375,13.09375,12.0625,12.59375,3.1346495151519775,43714400.0
1993-08-01,12.53125,13.40625,12.5,12.875,3.2046525478363037,45858400.0
1993-08-30,,,,,,
1993-09-01,12.8125,13.28125,12.15625,12.875,3.313263177871704,65716800.0
1993-10-01,12.875,13.3125,11.5,11.65625,2.9996299743652344,73272400.0
1993-11-01,11.65625,12.0,11.125,11.78125,3.0317957401275635,92148800.0
1993-11-29,,,,,,
1993-12-01,11.84375,12.53125,11.65625,12.25,3.268643379211426,47354000.0
1994-01-01,12.21875,12.71875,11.9375,12.6875,3.3853814601898193,57266400.0
1994-02-01,12.625,12.6875,11.84375,12.21875,3.260305166244507,43970000.0
1994-02-28,,,,,,
1994-03-01,12.15625,12.1875,11.09375,11.4375,3.171552896499634,76752800.0
1994-04-01,11.1875,13.34375,11.125,13.0625,3.622156858444214,97227600.0
1994-05-01,13.25,14.0,12.8125,13.84375,3.8387885093688965,62238400.0
1994-05-27,,,,,,
1994-06-01,13.8125,14.34375,12.6875,12.84375,3.6830532550811768,54066000.0
1994-07-01,12.8125,13.96875,12.8125,13.9375,3.996696710586548,34476400.0
1994-08-01,13.9375,14.0,13.59375,13.9375,3.996696710586548,51088000.0
1994-08-29,,,,,,
1994-09-01,13.875,13.90625,11.78125,12.25,3.6340930461883545,77440000.0
1994-10-01,12.25,12.6875,11.625,12.375,3.6711738109588623,64630000.0
1994-11-01,12.34375,12.5,10.90625,11.21875,3.3281619548797607,68194800.0
1994-11-28,,,,,,
1994-12-01,11.21875,11.78125,10.84375,11.28125,3.4996960163116455,72864400.0
1995-01-01,11.28125,12.21875,11.15625,11.65625,3.61602783203125,59385200.0
1995-02-01,11.6875,12.90625,11.5,12.46875,3.8680825233459473,51532000.0
1995-02-27,,,,,,
1995-03-01,12.5,12.9375,12.09375,12.6875,4.097006320953369,66351200.0
1995-04-01,12.6875,13.28125,12.40625,12.5,4.036461353302002,62359600.0
1995-05-01,12.5,14.1875,12.40625,14.15625,4.571289539337158,57930400.0
1995-05-26,,,,,,
1995-05-29,,,,,,
1995-05-30,,,,,,
1995-06-01,14.09375,14.4375,13.375,13.40625,4.70219612121582,63038400.0
1995-07-01,13.4375,14.375,13.4375,14.03125,4.921415328979492,46767600.0
1995-08-01,14.0,15.59375,13.84375,15.34375,5.381770133972168,59695600.0
1995-08-25,,,,,,
1995-08-30,,,,,,
1995-09-01,15.25,17.21875,15.03125,16.8125,6.148852348327637,76944800.0
1995-10-01,16.8125,18.25,16.0,16.4375,6.01170539855957,78438400.0
1995-11-01,16.46875,18.46875,16.40625,17.875,6.5374436378479,57288800.0
1995-11-29,,,,,,
1995-12-01,17.9375,18.6875,16.96875,17.40625,6.578345775604248,52530400.0
1996-01-01,17.34375,17.59375,16.09375,17.46875,6.601963043212891,91330000.0
1996-02-01,17.5,19.0625,17.0,18.4375,6.968081951141357,81660400.0
1996-02-28,,,,,,
1996-03-01,18.625,20.34375,17.75,20.03125,7.812065124511719,75536800.0
1996-04-01,20.21875,20.6875,18.6875,19.96875,7.787693977355957,65572000.0
1996-05-01,19.875,20.6875,18.9375,20.28125,7.909559726715088,59375200.0
1996-06-01,20.1875,21.15625,19.5625,20.65625,8.055810928344727,61731600.0
1996-06-05,,,,,,
1996-07-01,20.6875,21.5,19.09375,21.5,8.623029708862305,70578000.0
1996-08-01,21.46875,23.53125,21.15625,21.28125,8.535294532775879,123847600.0
1996-09-01,21.0,21.78125,20.5,21.71875,8.710762977600098,134464400.0
1996-09-04,,,,,,
1996-10-01,21.84375,23.6875,21.5625,23.5625,9.718656539916992,65729200.0
1996-11-01,23.59375,26.3125,23.1875,25.90625,10.685364723205566,76538000.0
1996-12-01,25.84375,25.84375,22.875,24.4375,10.079560279846191,78013200.0
1996-12-04,,,,,,
1997-01-01,24.5,27.53125,24.0,27.03125,11.45171070098877,124540000.0
1997-02-01,27.0,31.34375,26.75,30.0,12.70941162109375,131017200.0
1997-02-28,,,,,,
1997-03-01,29.6875,32.5,27.375,27.75,11.756211280822754,110858000.0
1997-03-05,,,,,,
1997-04-01,27.5,30.5,27.0,30.1875,12.925895690917969,96128200.0
1997-05-01,30.1875,31.875,28.5625,29.4375,12.604753494262695,77847400.0
1997-06-01,29.6875,35.0,29.0625,32.28125,13.822412490844727,99737400.0
1997-06-04,,,,,,
1997-07-01,32.5,35.84375,32.3125,35.59375,15.410650253295898,68115800.0
1997-08-01,35.46875,35.59375,28.78125,29.875,12.934669494628906,92224800.0
1997-09-01,29.625,32.28125,28.3125,30.9375,13.394682884216309,144554400.0
1997-09-03,,,,,,
1997-10-01,31.3125,33.1875,27.5,29.90625,13.095303535461426,94930400.0
1997-11-01,30.875,31.375,29.0,30.03125,13.150040626525879,58662800.0
1997-12-01,30.125,32.375,29.0625,30.40625,13.314241409301758,98633400.0
1997-12-03,,,,,,
1998-01-01,30.5,31.5,28.125,29.9375,13.272510528564453,115439800.0
1998-02-01,30.625,34.46875,30.53125,34.25,15.184423446655273,84141000.0
1998-03-01,34.25,37.5625,33.78125,36.46875,16.168075561523438,94336000.0
1998-03-04,,,,,,
1998-04-01,36.46875,42.5,36.03125,38.0,17.034746170043945,134567200.0
1998-05-01,38.25,39.46875,36.25,37.75,16.922670364379883,79622200.0
1998-06-01,37.5625,39.875,36.875,38.34375,17.188838958740234,100962400.0
1998-06-03,,,,,,
1998-07-01,38.5,44.21875,38.5,39.875,18.0575008392334,98487600.0
1998-08-01,40.1875,40.21875,28.5,28.75,13.019506454467773,125600200.0
1998-09-01,29.0,30.5,23.9375,26.75,12.11380672454834,261433200.0
1998-09-02,,,,,,
1998-10-01,26.0,29.21875,22.0,28.75,13.19428825378418,410016800.0
1998-11-01,28.71875,33.3125,27.5,32.59375,14.958304405212402,189343800.0
1998-12-01,32.40625,32.90625,27.5,30.0625,13.796632766723633,195069600.0
1998-12-02,,,,,,
1999-01-01,29.875,35.46875,29.75,33.4375,15.560775756835938,221660600.0
1999-02-01,33.3125,33.8125,29.78125,32.65625,15.197206497192383,155783200.0
1999-03-01,32.65625,37.25,32.5,35.3125,16.4333553314209,182440800.0
1999-03-03,,,,,,
1999-04-01,35.25,38.0625,34.40625,35.78125,16.875659942626953,150540600.0
1999-05-01,35.59375,36.4375,30.75,32.34375,15.254425048828125,147007400.0
1999-06-01,32.4375,37.4375,30.9375,36.65625,17.288345336914062,156008600.0
1999-06-02,,,,,,
1999-07-01,36.65625,38.1875,33.1875,33.1875,15.877846717834473,157298800.0
1999-08-01,33.625,33.78125,29.53125,30.25,14.472472190856934,171248400.0
1999-09-01,30.1875,31.53125,26.625,27.84375,13.321250915527344,203572000.0
1999-09-01,,,,,,
1999-10-01,27.78125,32.84375,24.03125,32.21875,15.647136688232422,230882400.0
1999-11-01,32.25,33.75,28.15625,29.3046875,14.231916427612305,193441200.0
1999-12-01,28.5625,29.5,23.8125,25.09375,12.186860084533691,294272800.0
1999-12-01,,,,,,
2000-01-01,25.125,25.28125,22.25,24.21875,11.966079711914062,303396200.0
2000-02-01,24.0625,24.5,21.5,23.0,11.363914489746094,253425200.0
2000-03-01,23.0,27.59375,21.15625,26.21875,12.954242706298828,294090800.0
2000-03-01,,,,,,
2000-04-01,26.03125,28.28125,24.0625,24.5,12.374043464660645,214824600.0
2000-05-01,24.53125,28.0625,23.15625,27.71875,13.999711990356445,237612800.0
2000-05-31,,,,,,
2000-06-01,27.75,30.5,21.4921875,21.5,11.060173034667969,267202600.0
2000-07-01,21.875,24.5625,21.8125,23.6875,12.185479164123535,178845200.0
2000-08-01,23.84375,27.5,23.34375,26.7890625,13.781011581420898,204065200.0
2000-08-30,,,,,,
2000-09-01,26.78125,28.8125,25.9375,26.1875,13.741660118103027,175083400.0
2000-10-01,26.3125,27.375,20.125,24.03125,12.610182762145996,242468000.0
2000-11-01,23.78125,25.6875,19.0,19.96875,10.478424072265625,281294800.0
2000-11-29,,,,,,
2000-12-01,20.0,23.625,18.15625,22.9375,12.378575325012207,290764800.0
2001-01-01,22.65625,27.969999313354492,22.5,26.90999984741211,14.52238941192627,295892200.0
2001-02-01,26.950000762939453,27.475000381469727,22.825000762939453,25.350000381469727,13.680506706237793,215146800.0
2001-02-28,,,,,,
2001-03-01,24.424999237060547,27.3799991607666,23.774999618530273,27.375,15.102216720581055,312427600.0
2001-04-01,27.225000381469727,28.7450008392334,24.325000762939453,28.0,15.447019577026367,264257600.0
2001-05-01,27.875,30.0,26.725000381469727,29.625,16.343494415283203,227113600.0
2001-05-30,,,,,,
2001-06-01,29.75,31.09000015258789,28.56999969482422,30.014999389648438,16.87577247619629,241929000.0
2001-07-01,30.014999389648438,32.349998474121094,27.594999313354492,31.809999465942383,17.885009765625,222548200.0
2001-08-01,31.864999771118164,32.77000045776367,29.8799991607666,30.75,17.289026260375977,209557200.0
2001-09-01,30.375,31.395000457763672,25.125,29.200000762939453,16.417551040649414,279514600.0
2001-09-05,,,,,,
2001-10-01,29.225000381469727,30.68000030517578,26.049999237060547,29.4950008392334,16.888948440551758,332432400.0
2001-11-01,29.600000381469727,32.494998931884766,29.174999237060547,30.690000534057617,17.573209762573242,213736200.0
2001-12-01,30.5,32.08000183105469,30.200000762939453,31.475000381469727,18.022701263427734,170019200.0
2001-12-05,,,,,,
2002-01-01,31.155000686645508,32.16999816894531,29.53499984741211,31.514999389648438,18.399784088134766,260426400.0
2002-02-01,31.274999618530273,32.369998931884766,28.7549991607666,31.975000381469727,18.668350219726562,256190800.0
2002-02-27,,,,,,
2002-03-01,32.025001525878906,34.80500030517578,32.025001525878906,34.0099983215332,20.238086700439453,243705400.0
2002-04-01,33.525001525878906,36.5,33.42499923706055,36.2400016784668,21.56507682800293,267962000.0
2002-05-01,36.02000045776367,38.54499816894531,35.7599983215332,37.904998779296875,22.555864334106445,236541400.0
2002-06-01,37.8849983215332,38.125,33.40999984741211,35.18000030517578,20.934310913085938,289688000.0
2002-06-05,,,,,,
2002-07-01,35.18000030517578,36.349998474121094,27.55500030517578,33.25,20.110193252563477,370910200.0
2002-08-01,33.125,36.04499816894531,30.899999618530273,35.040000915527344,21.192811965942383,255299800.0
2002-09-01,34.349998474121094,35.0,30.700000762939453,31.899999618530273,19.29368782043457,259013800.0
2002-09-04,,,,,,
2002-10-01,31.905000686645508,35.599998474121094,26.975000381469727,34.900001525878906,21.49233627319336,399481200.0
2002-11-01,34.599998474121094,36.0,33.125,35.040000915527344,21.57854652404785,218116600.0
2002-12-01,35.04499816894531,35.650001525878906,33.54999923706055,34.78499984741211,21.421518325805664,196414200.0
2002-12-04,,,,,,
2003-01-01,34.95500183105469,36.25,34.04999923706055,35.025001525878906,21.975196838378906,226455400.0
2003-02-01,35.025001525878906,35.255001068115234,33.275001525878906,34.619998931884766,21.72109603881836,210926000.0
2003-03-01,34.724998474121094,35.25,32.130001068115234,33.41999816894531,20.96820640563965,257149600.0
2003-03-05,,,,,,
2003-04-01,33.724998474121094,37.404998779296875,33.599998474121094,37.025001525878906,23.67535400390625,243217200.0
2003-05-01,37.025001525878906,37.625,36.02000045776367,37.099998474121094,23.72332000732422,216019000.0
2003-06-01,37.349998474121094,40.0,37.005001068115234,39.51499938964844,25.267568588256836,265832400.0
2003-06-04,,,,,,
2003-07-01,39.45000076293945,42.45000076293945,39.279998779296875,41.28499984741211,26.853391647338867,245882600.0
2003-08-01,41.279998779296875,41.279998779296875,38.60499954223633,39.625,25.773649215698242,197720000.0
2003-09-01,39.625,40.0,37.290000915527344,39.02000045776367,25.380138397216797,276734400.0
2003-09-03,,,,,,
2003-10-01,39.224998474121094,41.375,36.224998474121094,37.8650016784668,25.13519859313965,438175800.0
2003-11-01,37.875,38.48500061035156,36.86000061035156,37.71500015258789,25.035625457763672,276405600.0
2003-12-01,37.32500076293945,40.26499938964844,37.32500076293945,40.21500015258789,26.695140838623047,258239400.0
2003-12-03,,,,,,
2004-01-01,39.875,41.474998474121094,38.79999923706055,40.72999954223633,27.613719940185547,286629000.0
2004-02-01,40.72999954223633,41.42499923706055,40.35499954223633,40.959999084472656,27.769657135009766,173625000.0
2004-03-01,41.06999969482422,41.5,39.0,40.4900016784668,27.451013565063477,293859800.0
2004-03-03,,,,,,
2004-04-01,40.724998474121094,41.09000015258789,39.54499816894531,40.244998931884766,27.82453155517578,273736600.0
2004-05-01,40.1150016784668,41.67499923706055,38.505001068115234,41.564998626708984,28.737154006958008,248866200.0
2004-06-01,41.400001525878906,42.84000015258789,41.07500076293945,42.310001373291016,29.25221824645996,231440400.0
2004-06-02,,,,,,
2004-07-01,42.314998626708984,42.85499954223633,41.76499938964844,42.505001068115234,29.964399337768555,194684000.0
2004-08-01,42.400001525878906,44.9900016784668,41.70000076293945,44.97999954223633,31.70917510986328,198202300.0
2004-08-30,,,,,,
2004-09-01,44.45000076293945,44.810001373291016,43.04999923706055,43.33000183105469,30.545988082885742,173874800.0
2004-09-01,,,,,,
2004-10-01,43.529998779296875,45.689998626708984,42.939998626708984,44.790000915527344,31.894306182861328,190469300.0
2004-11-01,44.91999816894531,47.470001220703125,44.61000061035156,46.27000045776367,32.94820785522461,175773900.0
2004-12-01,45.79999923706055,47.220001220703125,45.20000076293945,46.9900016784668,33.46091842651367,169836700.0
2004-12-01,,,,,,
2005-01-01,46.65999984741211,46.95000076293945,44.400001525878906,46.369998931884766,33.34370803833008,205274600.0
2005-02-01,46.36000061035156,47.09000015258789,45.15999984741211,46.650001525878906,33.54505920410156,145901700.0
2005-03-01,46.650001525878906,47.20000076293945,43.400001525878906,44.099998474121094,31.711393356323242,234087600.0
2005-03-02,,,,,,
2005-04-01,44.41999816894531,45.79999923706055,43.470001220703125,45.040000915527344,32.69987869262695,208204800.0
2005-05-01,44.83000183105469,46.79999923706055,44.72999954223633,46.31999969482422,33.62917709350586,160564500.0
2005-06-01,45.970001220703125,47.439998626708984,45.560001373291016,45.61000061035156,33.11370849609375,214426700.0
2005-06-01,,,,,,
2005-07-01,45.61000061035156,46.04999923706055,43.599998474121094,43.599998474121094,31.964956283569336,332510500.0
2005-08-01,43.77000045776367,44.150001525878906,42.45000076293945,43.029998779296875,31.547046661376953,265820600.0
2005-08-31,,,,,,
2005-09-01,43.040000915527344,43.689998626708984,41.130001068115234,42.099998474121094,31.227521896362305,282956200.0
2005-10-01,42.470001220703125,44.09000015258789,41.380001068115234,43.7400016784668,32.4439811706543,275395800.0
2005-11-01,43.75,47.150001525878906,43.27000045776367,45.88999938964844,34.03873825073242,264563100.0
2005-11-30,,,,,,
2005-12-01,46.0,47.25,45.41999816894531,46.150001525878906,34.601409912109375,243161500.0
2006-01-01,46.91999816894531,47.2400016784668,43.4900016784668,44.22999954223633,33.16187286376953,310721300.0
2006-02-01,44.099998474121094,46.04999923706055,42.91999816894531,45.849998474121094,34.37648010253906,265429500.0
2006-03-01,45.349998474121094,47.13999938964844,44.900001525878906,45.540000915527344,34.14405822753906,290541900.0
2006-03-01,,,,,,
2006-04-01,45.849998474121094,49.97999954223633,45.2599983215332,49.91999816894531,37.84065628051758,260058600.0
2006-05-01,49.84000015258789,50.5,47.900001525878906,48.400001525878906,36.68844985961914,325148600.0
2006-05-31,,,,,,
2006-06-01,48.400001525878906,49.47999954223633,45.86000061035156,48.099998474121094,36.83928680419922,309481300.0
2006-07-01,48.189998626708984,51.900001525878906,47.59000015258789,51.529998779296875,39.46628952026367,241464800.0
2006-08-01,51.34000015258789,52.75,50.70000076293945,51.470001220703125,39.42033386230469,248484800.0
2006-08-30,,,,,,
2006-09-01,51.83000183105469,54.0,50.79999923706055,53.56999969482422,41.47285842895508,231381700.0
2006-10-01,53.529998779296875,54.869998931884766,52.75,53.869998931884766,41.70510482788086,240512800.0
2006-11-01,54.150001525878906,55.08000183105469,53.220001220703125,53.849998474121094,41.68962097167969,217510900.0
2006-11-29,,,,,,
2006-12-01,53.83000183105469,54.04999923706055,51.31999969482422,53.38999938964844,41.764469146728516,285404800.0
2007-01-01,53.400001525878906,54.18000030517578,51.349998474121094,52.58000183105469,41.130836486816406,307421400.0
2007-02-01,52.7599983215332,54.209999084472656,49.0,50.83000183105469,39.761898040771484,270187400.0
2007-02-28,,,,,,
2007-03-01,50.25,52.150001525878906,48.36000061035156,51.02000045776367,40.355369567871094,380801500.0
2007-04-01,51.20000076293945,52.20000076293945,50.060001373291016,50.900001525878906,40.26046371459961,321763700.0
2007-05-01,51.0,51.900001525878906,50.470001220703125,50.709999084472656,40.11018371582031,320333400.0
2007-05-30,,,,,,
2007-06-01,50.75,50.9900016784668,48.54999923706055,48.88999938964844,39.09834289550781,396038600.0
2007-07-01,49.150001525878906,50.20000076293945,46.900001525878906,47.41999816894531,37.92273712158203,524912600.0
2007-08-01,47.29999923706055,52.779998779296875,46.52000045776367,50.68000030517578,40.52983093261719,831819900.0
2007-09-01,50.619998931884766,51.93000030517578,48.599998474121094,50.27000045776367,40.20194625854492,430843600.0
2007-09-05,,,,,,
2007-10-01,50.040000915527344,52.959999084472656,46.45000076293945,48.279998779296875,39.100406646728516,536301700.0
2007-11-01,46.75,47.0,41.72999954223633,46.130001068115234,37.359195709228516,770417600.0
2007-12-01,46.25,47.0,40.61000061035156,41.2599983215332,33.415138244628906,590402900.0
2007-12-05,,,,,,
2008-01-01,41.529998779296875,44.5,33.119998931884766,44.150001525878906,36.27490234375,1200792800.0
2008-02-01,44.119998931884766,45.08000183105469,39.540000915527344,39.7400016784668,32.651527404785156,786919400.0
2008-03-01,39.7400016784668,43.459999084472656,34.25,37.90999984741211,31.147953033447266,1054992300.0
2008-03-05,,,,,,
2008-04-01,39.2599983215332,41.5,35.27000045776367,37.540000915527344,31.361515045166016,808565100.0
2008-05-01,37.65999984741211,40.650001525878906,33.25,34.0099983215332,28.412494659423828,795643500.0
2008-06-01,33.84000015258789,33.939998626708984,22.440000534057617,23.8700008392334,19.941381454467773,1417669000.0
2008-06-04,,,,,,
2008-07-01,23.309999465942383,34.5,18.440000534057617,32.900001525878906,28.023616790771484,2644243500.0
2008-08-01,33.20000076293945,34.20000076293945,27.719999313354492,31.139999389648438,26.524478912353516,1256310000.0
2008-09-01,32.72999954223633,39.5,25.0,35.0,29.812362670898438,2328965200.0
2008-09-03,,,,,,
2008-10-01,34.56999969482422,38.5,18.989999771118164,24.170000076293945,20.99944496154785,2885754700.0
2008-11-01,23.969999313354492,24.6200008392334,10.010000228881836,16.25,14.118364334106445,2438921300.0
2008-12-01,15.59000015258789,18.0,12.65999984741211,14.079999923706055,12.233024597167969,2275215800.0
2008-12-03,,,,,,
2009-01-01,13.920000076293945,14.8100004196167,5.050000190734863,6.579999923706055,5.84705924987793,4879579500.0
2009-02-01,6.199999809265137,7.050000190734863,2.5299999713897705,3.950000047683716,3.51001238822937,9211714400.0
2009-03-01,3.609999895095825,8.569999694824219,3.0,6.820000171661377,6.060326099395752,10208210600.0
2009-03-04,,,,,,
2009-04-01,6.449999809265137,11.579999923706055,6.440000057220459,8.930000305175781,7.957095623016357,11001088500.0
2009-05-01,8.789999961853027,15.069999694824219,8.550000190734863,11.270000457763672,10.042157173156738,11183198200.0
2009-06-01,11.40999984741211,13.930000305175781,11.100000381469727,13.199999809265137,11.761885643005371,7715563500.0
2009-06-03,,,,,,
2009-07-01,13.270000457763672,14.789999961853027,11.270000457763672,14.789999961853027,13.190220832824707,6735174000.0
2009-08-01,15.239999771118164,18.25,14.819999694824219,17.59000015258789,15.68735122680664,6102172300.0
2009-09-01,17.700000762939453,18.079999923706055,16.020000457763672,16.920000076293945,15.089823722839355,3743850000.0
2009-09-02,,,,,,
2009-10-01,16.959999084472656,19.100000381469727,14.5,14.579999923706055,13.010833740234375,4605123600.0
2009-11-01,14.850000381469727,16.6200008392334,14.119999885559082,15.850000381469727,14.14415454864502,3148442200.0
2009-12-01,16.040000915527344,16.739999771118164,14.829999923706055,15.0600004196167,13.439179420471191,5124809800.0
2009-12-02,,,,,,
2010-01-01,15.239999771118164,17.190000534057617,14.680000305175781,15.180000305175781,13.554789543151855,4592014200.0
2010-02-01,15.260000228881836,16.84000015258789,14.25,16.65999984741211,14.876338958740234,4083459900.0
2010-03-01,16.739999771118164,18.350000381469727,16.030000686645508,17.850000381469727,15.93893814086914,3801296800.0
2010-03-03,,,,,,
2010-04-01,18.020000457763672,19.860000610351562,17.40999984741211,17.829999923706055,15.930747032165527,4365611500.0
2010-05-01,17.8799991607666,18.149999618530273,14.800000190734863,15.739999771118164,14.063376426696777,4577665100.0
2010-06-01,15.579999923706055,16.100000381469727,14.300000190734863,14.369999885559082,12.83930778503418,2981601400.0
2010-06-02,,,,,,
2010-07-01,14.319999694824219,15.720000267028809,13.300000190734863,14.039999961853027,12.552589416503906,3560000600.0
2010-08-01,14.380000114440918,14.470000267028809,12.180000305175781,12.460000038146973,11.139979362487793,3010148900.0
2010-09-01,12.640000343322754,14.0600004196167,12.600000381469727,13.100000381469727,11.712176322937012,2967673000.0
2010-09-01,,,,,,
2010-10-01,13.220000267028809,13.65999984741211,11.029999732971191,11.449999809265137,10.245199203491211,5735593000.0
2010-11-01,11.5,12.739999771118164,10.90999984741211,10.949999809265137,9.797813415527344,3930562800.0
2010-12-01,11.170000076293945,13.489999771118164,10.970000267028809,13.34000015258789,11.936331748962402,4011807900.0
2010-12-01,,,,,,
2011-01-01,13.850000381469727,15.3100004196167,13.399999618530273,13.729999542236328,12.29652214050293,4651422300.0
2011-02-01,13.899999618530273,14.949999809265137,13.789999961853027,14.289999961853027,12.798055648803711,2791930400.0
2011-03-01,14.319999694824219,14.699999809265137,13.15999984741211,13.329999923706055,11.938284873962402,3277514600.0
2011-03-02,,,,,,
2011-04-01,13.449999809265137,13.880000114440918,12.149999618530273,12.279999732971191,11.005809783935547,2527300900.0
2011-05-01,12.359999656677246,12.710000038146973,11.289999961853027,11.75,10.530804634094238,2552522700.0
2011-06-01,11.710000038146973,11.739999771118164,10.399999618530273,10.960000038146973,9.822776794433594,3728992400.0
2011-06-01,,,,,,
2011-07-01,10.979999542236328,11.140000343322754,9.399999618530273,9.710000038146973,8.709893226623535,3304704200.0
2011-08-01,10.039999961853027,10.050000190734863,6.010000228881836,8.170000076293945,7.328506946563721,8796781400.0
2011-08-31,,,,,,
2011-09-01,8.180000305175781,8.180000305175781,6.0,6.119999885559082,5.4964213371276855,5435305600.0
2011-10-01,6.079999923706055,7.429999828338623,5.130000114440918,6.829999923706055,6.134078502655029,5937891600.0
2011-11-01,6.380000114440918,6.980000019073486,5.03000020980835,5.440000057220459,4.885708332061768,5670137400.0
2011-11-30,,,,,,
2011-12-01,5.369999885559082,5.949999809265137,4.920000076293945,5.559999942779541,5.003330230712891,4971016200.0
2012-01-01,5.75,7.5,5.619999885559082,7.130000114440918,6.416139602661133,6068763900.0
2012-02-01,7.25,8.350000381469727,7.210000038146973,7.96999979019165,7.172039031982422,5963971300.0
2012-02-29,,,,,,
2012-03-01,8.09000015258789,10.100000381469727,7.659999847412109,9.569999694824219,8.622465133666992,6820535600.0
2012-04-01,9.539999961853027,9.779999732971191,7.949999809265137,8.109999656677246,7.307021617889404,4327576600.0
2012-05-01,8.109999656677246,8.399999618530273,6.71999979019165,7.349999904632568,6.622269153594971,4223024800.0
2012-05-30,,,,,,
2012-06-01,7.119999885559082,8.220000267028809,6.849999904632568,8.180000305175781,7.380008220672607,4061071900.0
2012-07-01,8.199999809265137,8.210000038146973,6.900000095367432,7.340000152587891,6.6221604347229,2814377800.0
2012-08-01,7.349999904632568,8.399999618530273,7.099999904632568,7.989999771118164,7.208591938018799,2311106700.0
2012-09-01,8.0,9.789999961853027,7.929999828338623,8.829999923706055,7.966442584991455,3169072100.0
2012-09-05,,,,,,
2012-10-01,8.869999885559082,9.649999618530273,8.850000381469727,9.319999694824219,8.419041633605957,2981868800.0
2012-11-01,9.34000015258789,9.970000267028809,8.920000076293945,9.859999656677246,8.906844139099121,3166055300.0
2012-12-01,9.930000305175781,11.6899995803833,9.770000457763672,11.609999656677246,10.487672805786133,3505653600.0
2012-12-05,,,,,,
2013-01-01,12.050000190734863,12.199999809265137,11.020000457763672,11.319999694824219,10.236035346984863,3342902200.0
2013-02-01,11.40999984741211,12.420000076293945,10.979999542236328,11.229999542236328,10.154651641845703,3261268700.0
2013-02-27,,,,,,
2013-03-01,11.130000114440918,12.9399995803833,11.020000457763672,12.180000305175781,11.023591041564941,3198847600.0
2013-04-01,12.149999618530273,12.539999961853027,11.229999542236328,12.3100004196167,11.141247749328613,2917832000.0
2013-05-01,12.199999809265137,13.989999771118164,12.050000190734863,13.65999984741211,12.363073348999023,2929147100.0
2013-06-01,13.6899995803833,13.729999542236328,12.130000114440918,12.859999656677246,11.63902759552002,2590843100.0
2013-06-05,,,,,,
2013-07-01,12.949999809265137,15.029999732971191,12.729999542236328,14.600000381469727,13.223724365234375,2461055900.0
2013-08-01,14.850000381469727,14.970000267028809,13.979999542236328,14.119999885559082,12.788972854614258,1933732700.0
2013-09-01,14.300000190734863,14.829999923706055,13.600000381469727,13.800000190734863,12.499138832092285,1715010800.0
2013-09-04,,,,,,
2013-10-01,13.850000381469727,14.720000267028809,13.680000305175781,13.970000267028809,12.66200065612793,2047949700.0
2013-11-01,14.0,15.979999542236328,13.800000190734863,15.819999694824219,14.338780403137207,2059558200.0
2013-12-01,15.84000015258789,15.970000267028809,15.0600004196167,15.569999694824219,14.112189292907715,1661429900.0
2013-12-04,,,,,,
2014-01-01,15.6899995803833,17.420000076293945,15.680000305175781,16.75,15.191482543945312,2581396100.0
2014-02-01,16.770000457763672,16.920000076293945,16.1299991607666,16.530000686645508,14.991952896118164,2055235400.0
2014-03-01,16.299999237060547,18.030000686645508,16.190000534057617,17.200000762939453,15.59961223602295,2337288800.0
2014-03-05,,,,,,
2014-04-01,17.280000686645508,17.399999618530273,14.859999656677246,15.140000343322754,13.73949909210205,2245029800.0
2014-05-01,15.140000343322754,15.3100004196167,14.369999885559082,15.140000343322754,13.73949909210205,1462446400.0
2014-06-01,15.15999984741211,15.9399995803833,15.050000190734863,15.369999885559082,13.948222160339355,1256220000.0
2014-06-20,,,,,,
2014-07-01,15.380000114440918,16.229999542236328,15.130000114440918,15.25,13.848230361938477,1499782500.0
2014-08-01,15.180000305175781,16.459999084472656,14.84000015258789,16.09000015258789,14.611015319824219,1445234500.0
2014-09-01,16.139999389648438,17.200000762939453,15.899999618530273,17.049999237060547,15.482770919799805,1789337700.0
2014-09-03,,,,,,
2014-10-01,17.06999969482422,17.40999984741211,15.430000305175781,17.15999984741211,15.630701065063477,2208123000.0
2014-11-01,17.18000030517578,17.459999084472656,16.829999923706055,17.040000915527344,15.521392822265625,942013300.0
2014-12-01,16.920000076293945,18.209999084472656,16.59000015258789,17.889999389648438,16.295637130737305,1712060700.0
2014-12-03,,,,,,
2015-01-01,17.989999771118164,18.030000686645508,14.970000267028809,15.149999618530273,13.840180397033691,2211366600.0
2015-02-01,15.270000457763672,16.790000915527344,15.119999885559082,15.8100004196167,14.443120956420898,1910757200.0
2015-03-01,15.789999961853027,16.6200008392334,15.260000228881836,15.390000343322754,14.059431076049805,1855236900.0
2015-03-04,,,,,,
2015-04-01,15.420000076293945,16.049999237060547,15.25,15.930000305175781,14.598250389099121,1464221900.0
2015-05-01,16.0,16.850000381469727,15.920000076293945,16.5,15.120596885681152,1403264600.0
2015-06-01,16.579999923706055,17.719999313354492,16.469999313354492,17.020000457763672,15.597126007080078,1659993000.0
2015-06-03,,,,,,
2015-07-01,17.25,18.479999542236328,16.219999313354492,17.8799991607666,16.434377670288086,1904433600.0
2015-08-01,17.90999984741211,18.06999969482422,14.600000381469727,16.440000534057617,15.110798835754395,2325559300.0
2015-09-01,15.949999809265137,16.479999542236328,15.25,15.579999923706055,14.320333480834961,1777912500.0
2015-09-02,,,,,,
2015-10-01,15.520000457763672,17.440000534057617,14.630000114440918,16.780000686645508,15.472969055175781,1848594500.0
2015-11-01,16.899999618530273,18.09000015258789,16.8700008392334,17.43000030517578,16.072336196899414,1439390500.0
2015-12-01,17.520000457763672,17.889999389648438,16.5,16.829999923706055,15.519071578979492,1771496200.0
2015-12-02,,,,,,
2016-01-01,16.450000762939453,16.59000015258789,12.9399995803833,14.140000343322754,13.075311660766602,2648604300.0
2016-02-01,14.050000190734863,14.09000015258789,10.989999771118164,12.520000457763672,11.577291488647461,3571160300.0
2016-03-01,12.640000343322754,14.029999732971191,12.619999885559082,13.520000457763672,12.501996040344238,2415683100.0
2016-03-02,,,,,,
2016-04-01,13.470000267028809,15.300000190734863,12.75,14.5600004196167,13.514920234680176,2023974200.0
2016-05-01,14.579999923706055,15.149999618530273,13.800000190734863,14.789999961853027,13.728413581848145,1742193700.0
2016-06-01,14.600000381469727,14.979999542236328,12.050000190734863,13.270000457763672,12.317510604858398,2285807400.0
2016-06-01,,,,,,
2016-07-01,13.1899995803833,14.699999809265137,12.449999809265137,14.489999771118164,13.49556827545166,1701679800.0
2016-08-01,14.520000457763672,16.239999771118164,14.09000015258789,16.139999389648438,15.032331466674805,1813474400.0
2016-08-31,,,,,,
2016-09-01,16.149999618530273,16.149999618530273,14.8100004196167,15.649999618530273,14.643795013427734,1825500700.0
2016-10-01,15.59000015258789,17.100000381469727,15.5,16.5,15.439146041870117,1723132300.0
2016-11-01,16.559999465942383,21.190000534057617,16.280000686645508,21.1200008392334,19.76210594177246,3121614500.0
2016-11-30,,,,,,
2016-12-01,21.420000076293945,23.389999389648438,21.020000457763672,23.09000015258789,21.685604095458984,2754257500.0
2017-01-01,22.600000381469727,23.549999237060547,22.010000228881836,22.639999389648438,21.262969970703125,1917358300.0
2017-02-01,22.969999313354492,24.950000762939453,22.450000762939453,24.68000030517578,23.178895950317383,1866619200.0
2017-03-01,25.3700008392334,25.799999237060547,22.15999984741211,23.59000015258789,22.15519142150879,2336311300.0
2017-03-01,,,,,,
2017-04-01,23.649999618530273,24.350000381469727,22.260000228881836,23.34000015258789,21.98721694946289,1824451100.0
2017-05-01,23.520000457763672,24.309999465942383,22.09000015258789,22.40999984741211,21.111114501953125,1637101600.0
2017-05-31,,,,,,
2017-06-01,22.479999542236328,24.670000076293945,22.06999969482422,24.260000228881836,22.928953170776367,1768824400.0
2017-07-01,24.459999084472656,25.110000610351562,23.610000610351562,24.1200008392334,22.79663848876953,1385076400.0
2017-08-01,24.290000915527344,25.350000381469727,23.1200008392334,23.889999389648438,22.579252243041992,1354317600.0
2017-08-30,,,,,,
2017-09-01,23.899999618530273,25.639999389648438,22.75,25.34000015258789,24.072200775146484,1481992500.0
2017-10-01,25.459999084472656,27.979999542236328,25.1200008392334,27.389999389648438,26.019638061523438,1380163100.0
2017-11-01,27.639999389648438,28.719999313354492,25.809999465942383,28.170000076293945,26.76061248779297,1350989400.0
2017-11-30,,,,,,
2017-12-01,28.25,30.030000686645508,27.5,29.520000457763672,28.16257095336914,1494582400.0
2018-01-01,29.75,32.45000076293945,29.610000610351562,32.0,30.528532028198242,1413714500.0
2018-02-01,32.0,32.849998474121094,29.1299991607666,32.099998474121094,30.62393569946289,1705884000.0
2018-03-01,32.06999969482422,33.04999923706055,29.010000228881836,29.989999771118164,28.610960006713867,1488464200.0
2018-03-01,,,,,,
2018-04-01,29.799999237060547,31.170000076293945,28.75,29.920000076293945,28.65128517150879,1471183500.0
2018-05-01,29.920000076293945,31.360000610351562,28.43000030517578,29.040000915527344,27.808603286743164,1414580700.0
2018-05-31,,,,,,
2018-06-01,29.489999771118164,30.40999984741211,28.010000228881836,28.190000534057617,27.10494041442871,1377574500.0
2018-07-01,28.079999923706055,31.450000762939453,27.6299991607666,30.8799991607666,29.691396713256836,1313220000.0
2018-08-01,31.219999313354492,31.90999984741211,30.15999984741211,30.93000030517578,29.73947525024414,1076260100.0
2018-09-01,30.90999984741211,31.3700008392334,29.420000076293945,29.459999084472656,28.3260555267334,1036676400.0
2018-09-06,,,,,,
2018-10-01,29.68000030517578,30.790000915527344,25.8799991607666,27.5,26.569316864013672,1818210500.0
2018-11-01,27.770000457763672,29.1200008392334,26.780000686645508,28.399999618530273,27.43885612487793,1119395300.0
2018-12-01,28.989999771118164,29.040000915527344,22.65999984741211,24.639999389648438,23.806106567382812,1812967100.0
2018-12-06,,,,,,
2019-01-01,24.079999923706055,29.719999313354492,24.010000228881836,28.469999313354492,27.66020965576172,1644923700.0
2019-02-01,28.600000381469727,29.670000076293945,27.860000610351562,29.079999923706055,28.25286102294922,972624100.0
2019-02-28,,,,,,
2019-03-01,29.329999923706055,30.139999389648438,26.610000610351562,27.59000015258789,26.94209861755371,1240842800.0
2019-04-01,27.899999618530273,31.170000076293945,27.850000381469727,30.579999923706055,29.861881256103516,1226771800.0
2019-05-01,30.559999465942383,30.889999389648438,26.479999542236328,26.600000381469727,25.975345611572266,1063985700.0
2019-06-01,26.59000015258789,29.270000457763672,26.399999618530273,29.0,28.318986892700195,987150900.0
2019-06-06,,,,,,
2019-07-01,29.479999542236328,31.059999465942383,28.860000610351562,30.68000030517578,30.12141990661621,964147300.0
2019-08-01,30.549999237060547,31.06999969482422,26.209999084472656,27.510000228881836,27.00913429260254,1356622400.0
2019-09-01,27.209999084472656,30.31999969482422,26.610000610351562,29.170000076293945,28.6389102935791,1202361900.0
2019-09-05,,,,,,
2019-10-01,29.440000534057617,32.22999954223633,27.15999984741211,31.270000457763672,30.903024673461914,1206828400.0
2019-11-01,31.700000762939453,33.599998474121094,31.3700008392334,33.31999969482422,32.9289665222168,847433200.0
2019-12-01,33.45000076293945,35.720001220703125,32.54999923706055,35.220001220703125,34.806671142578125,941699200.0
2019-12-05,,,,,,
2020-01-01,35.349998474121094,35.66999816894531,32.470001220703125,32.83000183105469,32.621849060058594,995093800.0
2020-02-01,33.0,35.45000076293945,27.700000762939453,28.5,28.31930160522461,1073079500.0
2020-03-01,28.350000381469727,29.75,17.950000762939453,21.100000381469727,20.96622085571289,2443046100.0
2020-03-05,,,,,,
2020-03-26,21.309999465942383,22.56999969482422,21.200000762939453,22.209999084472656,22.209999084472656,66104560.0
