Date,Open,High,Low,Close,Adj Close,Volume
2010-06-01,32.79999923706055,34.18000030517578,30.760000228881836,32.54999923706055,28.020036697387695,28870100.0
2010-07-01,32.25,32.5,26.0,26.600000381469727,22.898090362548828,13851900.0
2010-08-01,27.139999389648438,27.6299991607666,20.25,20.90999984741211,17.999969482421875,10172500.0
2010-09-01,21.059999465942383,22.850000381469727,19.600000381469727,20.200000762939453,17.38878631591797,7127800.0
2010-09-01,,,,,,
2010-10-01,20.25,24.979999542236328,19.829999923706055,24.010000228881836,20.76786231994629,6876000.0
2010-11-01,24.030000686645508,25.299999237060547,23.100000381469727,23.790000915527344,20.57757568359375,5917800.0
2010-12-01,23.950000762939453,25.15999984741211,21.780000686645508,22.860000610351562,19.773149490356445,8010100.0
2010-12-01,,,,,,
2011-01-01,23.020000457763672,24.459999084472656,22.43000030517578,23.010000228881836,19.986913681030273,6384500.0
2011-02-01,23.079999923706055,29.770000457763672,22.719999313354492,29.59000015258789,25.702421188354492,22753900.0
2011-03-01,29.59000015258789,29.59000015258789,26.899999618530273,28.969999313354492,25.16387367248535,12094000.0
2011-03-02,,,,,,
2011-04-01,29.25,29.399999618530273,26.540000915527344,26.81999969482422,23.380237579345703,5844400.0
2011-05-01,26.81999969482422,28.469999313354492,25.510000228881836,26.31999969482422,22.94436264038086,9507400.0
2011-06-01,26.200000762939453,26.209999084472656,23.329999923706055,24.600000381469727,21.444957733154297,17227500.0
2011-06-01,,,,,,
2011-07-01,24.530000686645508,25.1299991607666,22.530000686645508,23.040000915527344,20.161632537841797,6669900.0
2011-08-01,23.190000534057617,25.299999237060547,21.549999237060547,25.25,22.095542907714844,14143500.0
2011-08-31,,,,,,
2011-09-01,25.270000457763672,27.6200008392334,23.139999389648438,24.469999313354492,21.51643943786621,20665700.0
2011-10-01,24.229999542236328,26.5,23.579999923706055,26.1299991607666,22.976070404052734,13049000.0
2011-11-01,25.510000228881836,28.149999618530273,24.920000076293945,26.920000076293945,23.670717239379883,15368300.0
2011-11-30,,,,,,
2011-12-01,26.770000457763672,27.440000534057617,25.110000610351562,25.860000610351562,22.842683792114258,11395100.0
2012-01-01,26.1200008392334,26.219999313354492,24.440000534057617,25.59000015258789,22.604190826416016,7831400.0
2012-02-01,25.729999542236328,28.459999084472656,25.280000686645508,27.56999969482422,24.353166580200195,34564400.0
2012-02-29,,,,,,
2012-03-01,27.610000610351562,29.559999465942383,26.799999237060547,28.420000076293945,25.212434768676758,15986800.0
2012-04-01,28.510000228881836,28.65999984741211,25.90999984741211,26.440000534057617,23.455900192260742,12637000.0
2012-05-01,26.309999465942383,26.93000030517578,24.559999465942383,25.25,22.400203704833984,10242500.0
2012-05-30,,,,,,
2012-06-01,24.90999984741211,28.1200008392334,24.799999237060547,27.68000030517578,24.671463012695312,13508300.0
2012-07-01,27.770000457763672,28.860000610351562,27.399999618530273,28.5,25.402334213256836,7452700.0
2012-08-01,28.6299991607666,29.149999618530273,27.6200008392334,28.440000534057617,25.34885597229004,7577100.0
2012-08-29,,,,,,
2012-09-01,28.389999389648438,30.389999389648438,28.229999542236328,29.399999618530273,26.341236114501953,10746700.0
2012-10-01,29.479999542236328,30.079999923706055,28.559999465942383,29.469999313354492,26.40395164489746,7391900.0
2012-11-01,29.59000015258789,30.950000762939453,29.110000610351562,29.979999542236328,26.860889434814453,8378600.0
2012-11-28,,,,,,
2012-12-01,30.079999923706055,30.790000915527344,29.110000610351562,29.459999084472656,26.529748916625977,11764900.0
2013-01-01,29.739999771118164,33.91999816894531,29.739999771118164,33.880001068115234,30.510114669799805,9252300.0
2013-02-01,34.0,36.189998626708984,33.63999938964844,35.91999816894531,32.34720993041992,8836000.0
2013-02-27,,,,,,
2013-03-01,35.84000015258789,36.9900016784668,35.220001220703125,36.939998626708984,33.40626525878906,8569000.0
2013-04-01,36.88999938964844,37.54999923706055,35.7599983215332,37.529998779296875,33.9398307800293,9256300.0
2013-05-01,37.47999954223633,41.0,37.11000061035156,40.13999938964844,36.30015182495117,9682800.0
2013-05-29,,,,,,
2013-06-01,40.439998626708984,47.130001068115234,39.72999954223633,46.63999938964844,42.33427047729492,14485300.0
2013-07-01,46.7599983215332,50.869998931884766,46.29999923706055,50.099998474121094,45.47483825683594,15173400.0
2013-08-01,50.63999938964844,51.119998931884766,45.70000076293945,45.88999938964844,41.653507232666016,13070700.0
2013-08-28,,,,,,
2013-09-01,46.29999923706055,46.650001525878906,44.439998626708984,45.22999954223633,41.21407699584961,11033700.0
2013-10-01,45.20000076293945,51.0,44.86000061035156,48.43000030517578,44.12995147705078,13335700.0
2013-11-01,50.11000061035156,54.790000915527344,48.25,52.279998779296875,47.63811111450195,9147000.0
2013-11-26,,,,,,
2013-12-01,52.470001220703125,53.849998474121094,50.15999984741211,51.959999084472656,47.50546646118164,11653700.0
2013-12-31,,,,,,
2014-01-01,51.88999938964844,52.45000076293945,48.220001220703125,52.02000045776367,48.01993179321289,14161700.0
2014-02-01,52.099998474121094,57.2599983215332,49.0,54.029998779296875,49.8753662109375,12910200.0
2014-02-26,,,,,,
2014-03-01,53.29999923706055,59.279998779296875,53.0,56.599998474121094,52.42294692993164,13680200.0
2014-04-01,56.720001220703125,56.97999954223633,49.29999923706055,53.36000061035156,49.422054290771484,13957700.0
2014-05-01,53.349998474121094,53.72999954223633,48.16999816894531,50.68000030517578,46.93983840942383,12217300.0
2014-05-28,,,,,,
2014-06-01,50.70000076293945,51.59000015258789,46.84000015258789,49.209999084472656,45.74030685424805,18459600.0
2014-07-01,49.08000183105469,49.7599983215332,46.52000045776367,48.470001220703125,45.0524787902832,15911400.0
2014-08-01,48.470001220703125,54.15999984741211,47.02000045776367,53.029998779296875,49.29096603393555,14126800.0
2014-08-27,,,,,,
2014-09-01,53.16999816894531,56.36000061035156,52.5099983215332,53.529998779296875,49.95035934448242,11608800.0
2014-10-01,53.61000061035156,59.099998474121094,52.900001525878906,58.939998626708984,54.998573303222656,15297500.0
2014-11-01,59.25,63.27000045776367,58.689998626708984,59.90999984741211,55.903717041015625,11879400.0
2014-11-25,,,,,,
2014-12-01,59.81999969482422,65.38999938964844,59.2400016784668,63.41999816894531,59.38902282714844,12510700.0
2015-01-01,63.880001068115234,68.0,62.810001373291016,64.47000122070312,60.37228775024414,11957100.0
2015-02-01,64.44999694824219,65.86000061035156,59.380001068115234,60.029998779296875,56.2144889831543,14214200.0
2015-02-25,,,,,,
2015-03-01,59.849998474121094,61.15999984741211,56.56999969482422,57.40999984741211,53.941707611083984,17341000.0
2015-04-01,57.11000061035156,58.810001373291016,55.2599983215332,56.27000045776367,52.87059020996094,14601900.0
2015-05-01,56.790000915527344,59.61000061035156,55.040000915527344,58.52000045776367,54.98466110229492,12719500.0
2015-05-27,,,,,,
2015-06-01,58.72999954223633,59.63999938964844,56.41999816894531,57.220001220703125,53.955867767333984,11641600.0
2015-07-01,57.40999984741211,62.75,57.40999984741211,61.97999954223633,58.44431686401367,12116300.0
2015-08-01,61.91999816894531,64.5999984741211,58.25,63.2599983215332,59.651302337646484,11949900.0
2015-09-01,62.650001525878906,67.22000122070312,62.2599983215332,67.08000183105469,63.25337600708008,11449200.0
2015-09-02,,,,,,
2015-10-01,67.33000183105469,69.43000030517578,64.12999725341797,67.04000091552734,63.44887161254883,15701800.0
2015-11-01,67.43000030517578,72.52999877929688,67.43000030517578,72.20999908447266,68.34192657470703,10868100.0
2015-12-01,71.25,71.25,63.650001525878906,64.9000015258789,61.42349624633789,15420900.0
2015-12-02,,,,,,
2016-01-01,64.55000305175781,66.86000061035156,61.0,66.62000274658203,63.25791549682617,15579400.0
2016-02-01,66.29000091552734,66.62000274658203,58.43000030517578,62.5,59.345829010009766,13303700.0
2016-03-01,62.709999084472656,67.41000366210938,62.029998779296875,65.33000183105469,62.033023834228516,10096000.0
2016-03-02,,,,,,
2016-04-01,65.0999984741211,66.94999694824219,61.220001220703125,61.959999084472656,59.04759979248047,9206000.0
2016-05-01,61.58000183105469,64.9000015258789,61.43000030517578,63.650001525878906,60.658164978027344,8184600.0
2016-06-01,63.08000183105469,66.62000274658203,62.189998626708984,66.62000274658203,63.488563537597656,11534900.0
2016-06-01,,,,,,
2016-07-01,66.7699966430664,69.4800033569336,65.62999725341797,68.80000305175781,65.80387115478516,7191400.0
2016-08-01,68.80000305175781,69.44000244140625,66.43000030517578,68.69000244140625,65.69866943359375,7977000.0
2016-08-31,,,,,,
2016-09-01,68.73999786376953,71.05000305175781,64.62000274658203,64.8499984741211,62.25116729736328,17632400.0
2016-10-01,64.91000366210938,68.43000030517578,61.58000183105469,63.209999084472656,60.676902770996094,19339200.0
2016-11-01,63.0099983215332,69.44999694824219,62.58000183105469,68.9000015258789,66.13888549804688,20461100.0
2016-11-30,,,,,,
2016-12-01,69.22000122070312,77.29000091552734,68.41000366210938,73.88999938964844,71.18759155273438,16597800.0
2017-01-01,73.68000030517578,79.76000213623047,72.54000091552734,79.62000274658203,76.70801544189453,13205100.0
2017-02-01,79.76000213623047,81.36000061035156,76.75,78.05000305175781,75.19544219970703,36755000.0
2017-03-01,78.66999816894531,81.31999969482422,77.68000030517578,81.06999969482422,78.10498809814453,28467600.0
2017-03-01,,,,,,
2017-04-01,81.02999877929688,84.62999725341797,80.0,82.41000366210938,79.65111541748047,18745300.0
2017-05-01,82.62000274658203,86.88999938964844,82.0999984741211,86.37000274658203,83.47854614257812,32255300.0
2017-05-31,,,,,,
2017-06-01,86.77999877929688,91.80000305175781,86.0999984741211,91.4000015258789,88.59577178955078,23228000.0
2017-07-01,91.83000183105469,94.69999694824219,91.12000274658203,94.52999877929688,91.62972259521484,14761300.0
2017-08-01,94.80999755859375,101.3499984741211,92.19999694824219,100.88999938964844,97.79459381103516,19723600.0
2017-08-30,,,,,,
2017-09-01,100.61000061035156,108.26000213623047,100.5199966430664,107.62999725341797,104.60929107666016,27616100.0
2017-10-01,107.91999816894531,113.37999725341797,107.4800033569336,113.05999755859375,109.88688659667969,17366800.0
2017-11-01,113.69000244140625,125.04000091552734,109.83999633789062,123.43000030517578,119.96585845947266,20793200.0
2017-11-30,,,,,,
2017-12-01,124.41999816894531,128.32000732421875,121.2699966430664,124.58999633789062,121.36425018310547,25379100.0
2018-01-01,124.87999725341797,138.5399932861328,120.3499984741211,134.38999938964844,130.9105224609375,18836800.0
2018-02-01,134.1699981689453,136.94000244140625,96.80999755859375,112.01000213623047,109.10997009277344,48600700.0
2018-03-01,111.62999725341797,124.55999755859375,110.69999694824219,114.0999984741211,111.14586639404297,28404200.0
2018-03-01,,,,,,
2018-04-01,114.08000183105469,115.12999725341797,104.33000183105469,106.77999877929688,104.26670837402344,20562900.0
2018-05-01,106.38999938964844,109.55000305175781,97.2300033569336,97.55999755859375,95.26373291015625,28671700.0
2018-05-31,,,,,,
2018-06-01,98.8499984741211,107.66999816894531,97.55000305175781,104.06999969482422,101.89834594726562,24453600.0
2018-07-01,103.37999725341797,106.16999816894531,94.0,97.12999725341797,95.1031723022461,13545000.0
2018-08-01,97.06999969482422,103.97000122070312,91.0999984741211,100.80000305175781,98.69657897949219,19887900.0
2018-08-30,,,,,,
2018-09-01,100.66000366210938,109.12000274658203,95.56999969482422,95.95999908447266,94.24752044677734,16520900.0
2018-10-01,95.5,114.5999984741211,93.76000213623047,112.8499984741211,110.83609008789062,21477100.0
2018-11-01,113.66999816894531,115.11000061035156,104.54000091552734,107.62000274658203,105.69943237304688,17033900.0
2018-11-29,,,,,,
2018-12-01,107.72000122070312,109.25,87.87000274658203,97.83000183105469,96.3653335571289,16879100.0
2019-01-01,95.94000244140625,99.47000122070312,89.54000091552734,93.2699966430664,91.87360382080078,15615000.0
2019-02-01,92.9000015258789,99.43000030517578,92.1500015258789,95.91000366210938,94.47409057617188,16571100.0
2019-02-28,,,,,,
2019-03-01,96.1500015258789,98.36000061035156,89.52999877929688,95.44000244140625,94.32167053222656,17955100.0
2019-04-01,95.44999694824219,102.4800033569336,94.02999877929688,101.61000061035156,100.41938781738281,11390300.0
2019-05-01,101.2300033569336,109.66999816894531,99.80999755859375,108.54000091552734,107.2681884765625,16810800.0
2019-05-30,,,,,,
2019-06-01,108.25,112.91000366210938,103.45999908447266,103.62999725341797,102.71253967285156,14580100.0
2019-07-01,104.68000030517578,115.91999816894531,104.25,109.30999755859375,108.3422622680664,11159900.0
2019-08-01,109.11000061035156,122.87999725341797,108.0999984741211,119.16000366210938,118.10505676269531,14511300.0
2019-08-29,,,,,,
2019-09-01,117.12000274658203,120.3499984741211,109.19999694824219,114.91000366210938,114.23550415039062,14390700.0
2019-10-01,115.27999877929688,118.44999694824219,112.19000244140625,115.1500015258789,114.47409057617188,12394100.0
2019-11-01,119.47000122070312,124.87999725341797,112.44999694824219,118.9000015258789,118.20208740234375,15347000.0
2019-11-26,,,,,,
2019-12-01,118.04000091552734,121.8499984741211,114.13999938964844,120.0,119.6436538696289,12736400.0
2020-01-01,119.69999694824219,124.19000244140625,114.44999694824219,123.22000122070312,122.85409545898438,13107000.0
2020-02-01,124.0,127.93000030517578,111.86000061035156,114.0,113.66146850585938,16519600.0
2020-02-28,,,,,,
2020-03-01,112.41999816894531,121.08999633789062,72.01000213623047,80.0,80.0,27833200.0
2020-03-26,79.05999755859375,90.97000122070312,78.94000244140625,90.05000305175781,90.05000305175781,578293.0
