Date,Open,High,Low,Close,Adj Close,Volume
1973-05-01,0.0,2.0286457538604736,1.7682291269302368,1.7890625,0.007187455426901579,22737600.0
1973-05-30,,,,,,
1973-06-01,0.0,1.8671875,1.4765625,1.75,0.007030523382127285,18107200.0
1973-07-01,0.0,2.1953125,1.6484375,2.171875,0.008725382387638092,19148800.0
1973-07-19,,,,,,
1973-08-01,0.0,2.15625,1.8515625,2.0546875,0.008289159275591373,16833600.0
1973-09-01,0.0,2.125,1.9453125,2.03125,0.008194612339138985,16550400.0
1973-10-01,0.0,2.1953125,1.9140625,1.9140625,0.007721845526248217,14398400.0
1973-10-18,,,,,,
1973-11-01,0.0,2.0625,1.6953125,1.6953125,0.0068670311011374,12844800.0
1973-12-01,0.0,1.8359375,1.3125,1.5546875,0.006297415588051081,14214400.0
1974-01-01,0.0,1.6640625,1.2890625,1.578125,0.006392351351678371,14403200.0
1974-01-21,,,,,,
1974-02-01,0.0,1.609375,1.453125,1.5234375,0.006207681726664305,10745600.0
1974-03-01,0.0,1.8515625,1.5,1.5625,0.006366850808262825,9692800.0
1974-04-01,0.0,1.75,1.546875,1.6171875,0.006589691154658794,7356800.0
1974-04-19,,,,,,
1974-05-01,0.0,1.7265625,1.578125,1.6328125,0.006689525209367275,10913600.0
1974-06-01,0.0,1.890625,1.640625,1.7109375,0.007009598892182112,10643200.0
1974-07-01,0.0,1.734375,1.4453125,1.4765625,0.006049380637705326,9123200.0
1974-07-19,,,,,,
1974-08-01,0.0,1.53125,1.203125,1.3203125,0.005440504290163517,7987200.0
1974-09-01,0.0,1.3671875,1.0078125,1.046875,0.004313770681619644,7640000.0
1974-10-01,0.0,1.609375,0.984375,1.5625,0.0064384667202830315,13465600.0
1974-10-21,,,,,,
1974-11-01,0.0,1.6171875,1.3359375,1.546875,0.0064195734448730946,7771200.0
1974-12-01,0.0,1.5546875,1.2421875,1.5078125,0.006257462780922651,9404800.0
1975-01-01,0.0,1.6171875,1.375,1.5859375,0.0065816850401461124,16065600.0
1975-01-20,,,,,,
1975-02-01,0.0,1.7734375,1.5625,1.7578125,0.007346492726355791,16990400.0
1975-03-01,0.0,1.890625,1.7109375,1.7890625,0.007477100472897291,18200000.0
1975-04-01,0.0,1.9296875,1.6875,1.7109375,0.007150590885430574,15920000.0
1975-04-21,,,,,,
1975-05-01,0.0,2.078125,1.71875,2.0390625,0.00857012253254652,13488000.0
1975-06-01,0.0,2.1796875,1.8515625,2.0078125,0.008438782766461372,12310400.0
1975-07-01,0.0,2.0546875,1.75,1.765625,0.0074208686128258705,12404800.0
1975-07-21,,,,,,
1975-08-01,0.0,1.8203125,1.609375,1.6875,0.007132448721677065,10920000.0
1975-09-01,0.0,1.7265625,1.5234375,1.640625,0.006934323348104954,12060800.0
1975-10-01,0.0,1.9296875,1.65625,1.8046875,0.007627763319760561,12553600.0
1975-10-20,,,,,,
1975-11-01,0.0,1.859375,1.703125,1.7578125,0.007476809900254011,13628800.0
1975-12-01,0.0,1.8671875,1.6484375,1.796875,0.007642961572855711,14961600.0
1976-01-01,0.0,1.953125,1.7109375,1.7421875,0.007410354912281036,26222400.0
1976-01-19,,,,,,
1976-02-01,0.0,1.8671875,1.6484375,1.7890625,0.007656681351363659,44147200.0
1976-03-01,0.0,1.828125,1.6953125,1.7265625,0.0073891980573534966,29796800.0
1976-04-01,0.0,1.75,1.5390625,1.609375,0.006887669209390879,25166400.0
1976-04-20,,,,,,
1976-05-01,0.0,1.625,1.4609375,1.5,0.006464669015258551,24984000.0
1976-06-01,0.0,1.71875,1.4609375,1.671875,0.0072054145857691765,28800000.0
1976-07-01,0.0,1.828125,1.6640625,1.7109375,0.007373766973614693,21662400.0
1976-07-20,,,,,,
1976-08-01,0.0,1.8125,1.6796875,1.734375,0.007534776348620653,15326400.0
1976-09-01,0.0,1.8125,1.6875,1.703125,0.007399017456918955,15107200.0
1976-10-01,0.0,1.71875,1.53125,1.6640625,0.007229316048324108,20534400.0
1976-10-19,,,,,,
1976-11-01,0.0,1.703125,1.53125,1.671875,0.0073274169117212296,21187200.0
1976-12-01,0.0,1.734375,1.625,1.71875,0.007532856427133083,23606400.0
1977-01-01,1.7109375,1.7265625,1.4609375,1.4921875,0.006539894267916679,29425600.0
1977-01-19,,,,,,
1977-02-01,1.4921875,1.609375,1.46875,1.5859375,0.007013753987848759,18187200.0
1977-03-01,1.5859375,1.609375,1.5234375,1.5546875,0.006875553634017706,16334400.0
1977-04-01,1.5546875,1.59375,1.4921875,1.53125,0.006771897431463003,15131200.0
1977-04-19,,,,,,
1977-05-01,1.53125,1.609375,1.4921875,1.5234375,0.006796273402869701,16108800.0
1977-06-01,1.5234375,1.59375,1.5078125,1.546875,0.006900831125676632,18580800.0
1977-07-01,1.546875,1.6328125,1.515625,1.609375,0.007179650943726301,15540800.0
1977-07-19,,,,,,
1977-08-01,1.609375,1.6328125,1.5078125,1.5546875,0.007003705482929945,22030400.0
1977-09-01,1.5546875,1.5546875,1.4296875,1.5234375,0.006862925831228495,23614400.0
1977-10-01,1.5234375,1.5234375,1.2734375,1.359375,0.0061238412745296955,18224000.0
1977-10-19,,,,,,
1977-11-01,1.3515625,1.515625,1.3359375,1.4765625,0.006724480539560318,15302400.0
1977-12-01,1.4765625,1.484375,1.3046875,1.3515625,0.006155209615826607,16107200.0
1978-01-01,1.3515625,1.359375,1.21875,1.2421875,0.00565710524097085,17118400.0
1978-01-19,,,,,,
1978-02-01,1.2421875,1.2734375,1.1875,1.2265625,0.005652860272675753,14641600.0
1978-03-01,1.2265625,1.2890625,1.203125,1.265625,0.005832890048623085,19827200.0
1978-04-01,1.25,1.359375,1.2421875,1.296875,0.005976911634206772,30097600.0
1978-04-19,,,,,,
1978-05-01,1.296875,1.4296875,1.25,1.34375,0.006266692187637091,35859200.0
1978-06-01,1.34375,1.453125,1.28125,1.3046875,0.006084522232413292,25598400.0
1978-07-01,1.296875,1.3125,1.25,1.3125,0.006120956968516111,19692800.0
1978-07-19,,,,,,
1978-08-01,1.3046875,1.34375,1.2578125,1.2890625,0.006086820736527443,37296000.0
1978-09-01,1.2890625,1.34375,1.2578125,1.2734375,0.006013042759150267,26748800.0
1978-10-01,1.2734375,1.296875,1.0625,1.0703125,0.005053907632827759,24059200.0
1978-10-19,,,,,,
1978-11-01,1.0703125,1.140625,1.0546875,1.078125,0.0051586986519396305,29081600.0
1978-12-01,1.078125,1.09375,1.0,1.0390625,0.004971785005182028,27361600.0
1979-01-01,1.0390625,1.2265625,1.03125,1.1875,0.005682040937244892,31065600.0
1979-01-19,,,,,,
1979-02-01,1.1796875,1.1875,1.046875,1.0625,0.005158236250281334,16179200.0
1979-03-01,1.0625,1.109375,1.0390625,1.0390625,0.00504444632679224,25828800.0
1979-04-01,1.0390625,1.171875,1.03125,1.140625,0.005537512246519327,30454400.0
1979-04-19,,,,,,
1979-05-01,1.140625,1.15625,1.015625,1.015625,0.00500577362254262,19907200.0
1979-06-01,1.015625,1.046875,0.9921875,0.9921875,0.004890253767371178,20302400.0
1979-07-01,0.9921875,1.0625,0.984375,1.03125,0.0050827874802052975,23740800.0
1979-07-19,,,,,,
1979-08-01,1.03125,1.171875,1.0078125,1.1328125,0.0056777289137244225,61126400.0
1979-09-01,1.1328125,1.1328125,1.015625,1.0234375,0.00512953195720911,20681600.0
1979-10-01,1.0234375,1.0625,0.890625,0.890625,0.0044638714753091335,25049600.0
1979-10-19,,,,,,
1979-11-01,0.890625,0.9375,0.859375,0.9375,0.00477948971092701,39401600.0
1979-12-01,0.9375,0.953125,0.890625,0.8984375,0.004580341745167971,27844800.0
1980-01-01,0.8984375,0.9296875,0.828125,0.859375,0.004381196573376656,51156800.0
1980-01-21,,,,,,
1980-02-01,0.859375,0.9296875,0.78125,0.828125,0.004305691923946142,71206400.0
1980-03-01,0.828125,0.84375,0.6875,0.7265625,0.003777635982260108,39067200.0
1980-04-01,0.7265625,0.828125,0.703125,0.7890625,0.0041025918908417225,50683200.0
1980-04-21,,,,,,
1980-05-01,0.7890625,0.9375,0.765625,0.9140625,0.00485745957121253,101891200.0
1980-06-01,0.9140625,0.921875,0.8203125,0.875,0.0046498761512339115,46430400.0
1980-07-01,0.875,0.9921875,0.875,0.9296875,0.004940494429320097,73214400.0
1980-07-21,,,,,,
1980-08-01,0.9296875,1.0,0.890625,0.9609375,0.005194942466914654,57699200.0
1980-09-01,0.9609375,1.1015625,0.9375,0.9921875,0.005363883450627327,69544000.0
1980-10-01,0.9921875,1.046875,0.875,0.90625,0.004899292718619108,40281600.0
1980-10-21,,,,,,
1980-11-01,0.90625,0.96875,0.84375,0.859375,0.004730657208710909,63928000.0
1980-12-01,0.859375,0.9296875,0.796875,0.9140625,0.005031697917729616,63720000.0
1981-01-01,0.9140625,1.0078125,0.890625,0.9140625,0.005031697917729616,41524800.0
1981-01-20,,,,,,
1981-02-01,0.9140625,0.984375,0.8828125,0.984375,0.005520958919078112,33947200.0
1981-03-01,0.984375,1.0859375,0.96875,1.0,0.005608590319752693,54483200.0
1981-04-01,1.0078125,1.1484375,0.9765625,1.109375,0.006222032941877842,84992000.0
1981-04-20,,,,,,
1981-05-01,1.109375,1.125,0.984375,1.0859375,0.006190337706357241,54270400.0
1981-06-01,1.0859375,1.140625,1.0390625,1.0625,0.006056734826415777,40678400.0
1981-07-01,1.0625,1.0703125,0.9453125,0.96875,0.005522312130779028,31008000.0
1981-07-20,,,,,,
1981-08-01,0.9609375,0.9921875,0.890625,0.890625,0.005164611153304577,37105600.0
1981-09-01,0.890625,1.03125,0.8671875,0.953125,0.0055270385928452015,56748800.0
1981-10-01,0.953125,1.0078125,0.9140625,0.953125,0.0055270385928452015,36270400.0
1981-10-20,,,,,,
1981-11-01,0.9609375,1.0,0.9375,0.9765625,0.00577564537525177,53440000.0
1981-12-01,0.9765625,1.0625,0.9453125,1.046875,0.006191491149365902,47897600.0
1982-01-01,1.046875,1.078125,1.0,1.0625,0.006283899303525686,51022400.0
1982-01-19,,,,,,
1982-02-01,1.046875,1.140625,1.03125,1.109375,0.006680785212665796,76697600.0
1982-03-01,1.109375,1.21875,1.0546875,1.140625,0.0068689812906086445,86768000.0
1982-04-01,1.1640625,1.1953125,1.1328125,1.1484375,0.006916026584804058,45560000.0
1982-04-20,,,,,,
1982-05-01,1.1484375,1.1796875,1.0625,1.09375,0.006692362483590841,26776000.0
1982-06-01,1.0859375,1.109375,1.0234375,1.0546875,0.006453349720686674,43792000.0
1982-07-01,1.0703125,1.140625,1.0390625,1.0546875,0.006453349720686674,54432000.0
1982-07-20,,,,,,
1982-08-01,1.0546875,1.171875,1.0,1.15625,0.00719469552859664,76238400.0
1982-09-01,1.171875,1.234375,1.125,1.1953125,0.007437757216393948,71803200.0
1982-10-01,1.21875,1.34375,1.1796875,1.2578125,0.007826660759747028,104979200.0
1982-10-19,,,,,,
1982-11-01,1.2578125,1.4140625,1.234375,1.296875,0.008185974322259426,96761600.0
1982-12-01,1.3203125,1.3984375,1.1875,1.2265625,0.007742158602923155,60894400.0
1983-01-01,1.21875,1.328125,1.1953125,1.234375,0.007791473995894194,91542400.0
1983-01-19,,,,,,
1983-02-01,1.234375,1.28125,1.1875,1.2578125,0.008053779602050781,76385600.0
1983-03-01,1.2734375,1.4609375,1.234375,1.4140625,0.00905425101518631,116740800.0
1983-04-01,1.421875,1.5859375,1.3828125,1.546875,0.0099046491086483,66915200.0
1983-04-19,,,,,,
1983-05-01,1.515625,1.5546875,1.375,1.4453125,0.009382796473801136,67059200.0
1983-06-01,1.4296875,1.484375,1.3515625,1.4453125,0.009382796473801136,84076800.0
1983-07-01,1.4453125,1.453125,1.3203125,1.34375,0.008723467588424683,77054400.0
1983-07-19,,,,,,
1983-08-01,1.328125,1.375,1.2578125,1.34375,0.00885003712028265,63044800.0
1983-09-01,1.328125,1.4921875,1.3046875,1.46875,0.009673301130533218,84628800.0
1983-10-01,1.46875,1.5546875,1.4140625,1.453125,0.00957038626074791,79017600.0
1983-10-19,,,,,,
1983-11-01,1.4375,1.5078125,1.421875,1.4765625,0.009853440336883068,47632000.0
1983-12-01,1.4609375,1.4765625,1.3203125,1.34375,0.008967157453298569,47800000.0
1984-01-01,1.34375,1.4375,1.3125,1.3359375,0.008915026672184467,61800000.0
1984-01-19,,,,,,
1984-02-01,1.3359375,1.5078125,1.296875,1.453125,0.009835385717451572,72153600.0
1984-03-01,1.4453125,1.515625,1.3828125,1.4140625,0.00957099162042141,85057600.0
1984-04-01,1.4296875,1.65625,1.3515625,1.5703125,0.010628561489284039,184667200.0
1984-04-18,,,,,,
1984-05-01,1.5546875,1.6328125,1.34375,1.3671875,0.009382163174450397,119942400.0
1984-06-01,1.375,1.5546875,1.375,1.4375,0.009864673018455505,101451200.0
1984-07-01,1.453125,1.53125,1.28125,1.3203125,0.009060483425855637,91305600.0
1984-07-19,,,,,,
1984-08-01,1.328125,1.5234375,1.296875,1.46875,0.010219019837677479,125977600.0
1984-09-01,1.4765625,1.578125,1.4609375,1.4765625,0.010273372754454613,93632000.0
1984-10-01,1.4765625,1.640625,1.453125,1.4609375,0.010164666920900345,168700800.0
1984-10-19,,,,,,
1984-11-01,1.46875,1.625,1.4609375,1.53125,0.010789934545755386,94744000.0
1984-12-01,1.5234375,1.6015625,1.4765625,1.5546875,0.01095509435981512,50139200.0
1985-01-01,1.546875,1.6328125,1.4921875,1.5390625,0.010844994336366653,81347200.0
1985-01-18,,,,,,
1985-02-01,1.53125,1.5859375,1.4140625,1.484375,0.01059806440025568,104452800.0
1985-03-01,1.46875,1.5625,1.421875,1.5546875,0.011100075207650661,77144000.0
1985-04-01,1.546875,1.625,1.4453125,1.5703125,0.011211634613573551,68880000.0
1985-04-19,,,,,,
1985-05-01,1.578125,1.5859375,1.5,1.5859375,0.011470010504126549,72120000.0
1985-06-01,1.59375,1.7109375,1.578125,1.6640625,0.01203503180295229,90097600.0
1985-07-01,1.65625,1.8046875,1.6328125,1.7421875,0.012600056827068329,105385600.0
1985-07-19,,,,,,
1985-08-01,1.75,1.7578125,1.625,1.640625,0.012005863711237907,124161600.0
1985-09-01,1.640625,1.6875,1.6015625,1.671875,0.012234552763402462,43624000.0
1985-10-01,1.65625,2.0859375,1.625,1.8828125,0.013778159394860268,181956800.0
1985-10-21,,,,,,
1985-11-01,1.8828125,1.953125,1.84375,1.859375,0.013759399764239788,102969600.0
1985-12-01,1.8671875,2.0625,1.828125,2.046875,0.015146908350288868,95752000.0
1986-01-01,2.0390625,2.09375,1.8984375,2.046875,0.015146908350288868,89132800.0
1986-01-17,,,,,,
1986-02-01,2.03125,2.2109375,2.0,2.1875,0.019566670060157776,78012800.0
1986-03-01,2.1875,2.453125,2.15625,2.328125,0.020824525505304337,84876800.0
1986-04-01,2.3359375,2.5546875,2.2578125,2.34375,0.020964283496141434,125790400.0
1986-04-21,,,,,,
1986-05-01,2.34375,2.5546875,2.2734375,2.484375,0.025878779590129852,79219200.0
1986-06-01,2.484375,2.71875,2.4296875,2.65625,0.027669137343764305,73043200.0
1986-07-01,2.6640625,2.6875,2.4140625,2.515625,0.0262043084949255,88827200.0
1986-07-21,,,,,,
1986-08-01,2.515625,2.578125,2.46875,2.4921875,0.030121738091111183,52470400.0
1986-09-01,2.484375,2.5,2.2265625,2.2890625,0.02766667678952217,76276800.0
1986-10-01,2.296875,2.4609375,2.2890625,2.4140625,0.029177485033869743,60022400.0
1986-10-20,,,,,,
1986-11-01,2.421875,2.9375,2.4140625,2.765625,0.03892700374126434,110051200.0
1986-12-01,2.765625,2.84375,2.5546875,2.5546875,0.035957951098680496,126134400.0
1987-01-01,2.5703125,2.984375,2.5703125,2.8828125,0.04057641327381134,108640000.0
1987-01-20,,,,,,
1987-02-01,2.875,2.9765625,2.828125,2.890625,0.046143338084220886,70884800.0
1987-03-01,2.90625,3.0546875,2.765625,2.8984375,0.046268031001091,101385600.0
1987-04-01,2.8671875,3.0078125,2.5234375,2.71875,0.04339965805411339,90838400.0
1987-04-20,,,,,,
1987-05-01,2.7265625,2.8125,2.375,2.7890625,0.05076275393366814,84577600.0
1987-06-01,2.8125,3.2265625,2.78125,2.9375,0.053464408963918686,103172800.0
1987-07-01,2.9609375,3.265625,2.9375,3.1640625,0.05758799612522125,86196800.0
1987-07-20,,,,,,
1987-08-01,3.125,3.2890625,3.03125,3.1171875,0.06358436495065689,77822400.0
1987-09-01,3.1171875,3.2109375,2.90625,3.203125,0.06533726304769516,82260800.0
1987-10-01,3.203125,3.234375,1.75,2.5859375,0.052747905254364014,138092800.0
1987-10-20,,,,,,
1987-11-01,2.625,2.703125,2.2578125,2.34375,0.05738818272948265,57835200.0
1987-12-01,2.328125,2.484375,2.1484375,2.453125,0.06006629392504692,61918400.0
1988-01-01,2.453125,2.7265625,2.40625,2.6796875,0.06561382859945297,51908800.0
1988-01-19,,,,,,
1988-02-01,2.6875,2.7890625,2.484375,2.765625,0.07876662164926529,48563200.0
1988-03-01,2.765625,2.8359375,2.609375,2.6796875,0.07631909102201462,51747200.0
1988-04-01,2.6640625,2.765625,2.484375,2.75,0.07832165062427521,69940800.0
1988-04-19,,,,,,
1988-05-01,2.7578125,2.765625,2.53125,2.734375,0.09137214720249176,56011200.0
1988-06-01,2.7421875,2.859375,2.6796875,2.734375,0.09137214720249176,58356800.0
1988-07-01,2.734375,2.7734375,2.5546875,2.7421875,0.09163320809602737,54593600.0
1988-07-19,,,,,,
1988-08-01,2.7421875,2.7421875,2.5625,2.65625,0.1033945232629776,47036800.0
1988-09-01,2.640625,2.890625,2.609375,2.8046875,0.10917247086763382,74166400.0
1988-10-01,2.7890625,3.09375,2.7578125,2.875,0.11190932244062424,104011200.0
1988-10-18,,,,,,
1988-11-01,2.890625,2.9296875,2.640625,2.7421875,0.11062989383935928,52318400.0
1988-12-01,2.7578125,2.9375,2.7421875,2.9375,0.11850959807634354,38632000.0
1989-01-01,2.9296875,2.9296875,2.765625,2.921875,0.1178792417049408,70059200.0
1989-01-19,,,,,,
1989-02-01,2.8984375,2.9609375,2.7578125,2.78125,0.12849488854408264,57334400.0
1989-03-01,2.78125,3.0078125,2.765625,2.9921875,0.13824023306369781,66913600.0
1989-04-01,2.9921875,3.1484375,2.9140625,3.1015625,0.14329348504543304,79944000.0
1989-04-19,,,,,,
1989-05-01,3.078125,3.296875,3.0390625,3.1640625,0.16617757081985474,89000000.0
1989-06-01,3.1796875,3.34375,3.0859375,3.2265625,0.16946017742156982,72204800.0
1989-07-01,3.2109375,3.703125,3.1875,3.6484375,0.1916172355413437,74721600.0
1989-07-19,,,,,,
1989-08-01,3.640625,3.7421875,3.5,3.6953125,0.21775837242603302,70080000.0
1989-09-01,3.6875,3.8046875,3.6171875,3.765625,0.2219018042087555,60945600.0
1989-10-01,3.765625,4.0390625,3.609375,3.8515625,0.22696585953235626,104804800.0
1989-10-19,,,,,,
1989-11-01,3.8515625,3.953125,3.703125,3.859375,0.2568010687828064,40481600.0
1989-12-01,3.875,4.0546875,3.7734375,3.96875,0.26407885551452637,64713600.0
1990-01-01,3.96875,4.0,3.296875,3.3984375,0.22613053023815155,79588800.0
1990-01-19,,,,,,
1990-02-01,3.3984375,3.703125,3.3984375,3.546875,0.26769763231277466,50200000.0
1990-03-01,3.5546875,3.8046875,3.390625,3.71875,0.2806696891784668,59036800.0
1990-04-01,3.703125,3.71875,3.5078125,3.5234375,0.2659285366535187,53528000.0
1990-04-19,,,,,,
1990-05-01,3.546875,4.0859375,3.5,4.0390625,0.3490749001502991,87068800.0
1990-06-01,4.0625,4.3203125,3.9140625,4.2734375,0.3693307340145111,87294400.0
1990-07-01,4.265625,4.625,4.2265625,4.375,0.37810808420181274,78656000.0
1990-07-19,,,,,,
1990-08-01,4.375,4.4375,3.71875,4.09375,0.3924066126346588,76376000.0
1990-09-01,4.0703125,4.09375,3.546875,3.71875,0.3564608693122864,44385600.0
1990-10-01,3.75,4.234375,3.640625,4.1796875,0.4006441533565521,70795200.0
1990-10-19,,,,,,
1990-11-01,4.1796875,4.4609375,4.1015625,4.4140625,0.4760979115962982,64249600.0
1990-12-01,4.4453125,4.71875,4.4296875,4.609375,0.4971640110015869,50883200.0
1991-01-01,4.59375,4.59375,4.203125,4.375,0.47188466787338257,75328000.0
1991-01-18,,,,,,
1991-02-01,4.375,4.8359375,4.359375,4.609375,0.5525659918785095,90264000.0
1991-03-01,4.6015625,4.8359375,4.578125,4.7734375,0.5722334980964661,69897600.0
1991-04-01,4.7734375,5.328125,4.765625,4.96875,0.5956474542617798,64019200.0
1991-04-19,,,,,,
1991-05-01,4.9765625,5.15625,4.703125,5.15625,0.6870208382606506,47448800.0
1991-05-16,,,,,,
1991-06-01,5.15625,5.15625,4.546875,4.59375,0.6120733022689819,43737600.0
1991-07-01,4.625,5.03125,4.453125,5.015625,0.6682834625244141,51104800.0
1991-07-19,,,,,,
1991-08-01,5.015625,5.171875,4.71875,5.140625,0.7242098450660706,43281600.0
1991-09-01,5.140625,5.390625,4.859375,5.390625,0.7594299912452698,50880000.0
1991-10-01,5.40625,5.546875,5.03125,5.21875,0.7352163791656494,47643200.0
1991-10-21,,,,,,
1991-11-01,5.15625,5.34375,5.0,5.28125,0.7832357287406921,71280000.0
1991-12-01,5.15625,6.140625,5.125,6.109375,0.9060506224632263,70068800.0
1992-01-01,6.0625,6.34375,5.71875,5.890625,0.873609185218811,64354400.0
1992-01-21,,,,,,
1992-02-01,5.890625,6.09375,5.71875,5.890625,0.9152565002441406,47416800.0
1992-03-01,5.8125,6.25,5.640625,6.171875,0.9589558243751526,54272800.0
1992-04-01,6.109375,6.34375,5.703125,6.25,0.9710946083068848,52272000.0
1992-04-21,,,,,,
1992-05-01,6.21875,6.65625,6.078125,6.625,1.0755770206451416,55899200.0
1992-06-01,6.59375,6.6875,6.0625,6.46875,1.050209641456604,61382400.0
1992-07-01,6.5,6.734375,6.28125,6.5625,1.065429449081421,59055200.0
1992-07-21,,,,,,
1992-08-01,6.53125,7.03125,6.484375,6.96875,1.1876192092895508,50040000.0
1992-09-01,6.96875,7.25,6.875,7.1875,1.2248984575271606,39799200.0
1992-10-01,7.234375,7.578125,6.78125,7.46875,1.2728301286697388,52971200.0
1992-10-20,,,,,,
1992-11-01,7.453125,7.5625,7.046875,7.390625,1.315777063369751,47961600.0
1992-12-01,7.390625,7.5,6.953125,6.96875,1.240668535232544,64328800.0
1993-01-01,6.96875,7.1875,6.78125,7.078125,1.2601408958435059,69836800.0
1993-01-19,,,,,,
1993-02-01,7.078125,7.796875,7.046875,7.796875,1.4521249532699585,68204800.0
1993-03-01,7.78125,8.40625,7.703125,8.265625,1.539427399635315,77825600.0
1993-04-01,8.28125,8.296875,7.171875,7.46875,1.391013741493225,113966400.0
1993-04-20,,,,,,
1993-05-01,7.484375,7.8125,7.21875,7.3125,1.423022985458374,46831200.0
1993-06-01,7.28125,7.34375,6.578125,7.28125,1.41694176197052,117164800.0
1993-07-01,7.25,7.375,6.015625,6.421875,1.2497060298919678,144031200.0
1993-07-20,,,,,,
1993-08-01,6.421875,6.515625,5.84375,6.5,1.3375935554504395,119710400.0
1993-09-01,6.46875,6.75,6.375,6.578125,1.3536713123321533,79342400.0
1993-10-01,6.5625,7.4375,6.5625,7.34375,1.511223554611206,81828800.0
1993-10-19,,,,,,
1993-11-01,7.28125,7.421875,7.0,7.40625,1.603899359703064,65376800.0
1993-12-01,7.4375,7.84375,7.390625,7.796875,1.688492774963379,60430400.0
1994-01-01,7.75,7.78125,7.3125,7.453125,1.6140496730804443,70404800.0
1994-01-19,,,,,,
1994-02-01,7.484375,8.171875,7.421875,8.140625,1.8516291379928589,69876000.0
1994-03-01,8.109375,8.171875,6.953125,7.234375,1.645498275756836,78568000.0
1994-04-01,7.0,7.375,6.953125,7.328125,1.666820764541626,53901600.0
1994-04-19,,,,,,
1994-05-01,7.296875,7.4375,6.953125,7.15625,1.714548110961914,56628800.0
1994-06-01,7.1875,7.28125,6.40625,6.53125,1.5648053884506226,71436000.0
1994-07-01,6.59375,6.75,6.1875,6.671875,1.5984973907470703,96260000.0
1994-07-19,,,,,,
1994-08-01,6.671875,7.3125,6.46875,7.15625,1.827089548110962,83477600.0
1994-09-01,7.171875,7.328125,6.703125,7.25,1.8510246276855469,67257600.0
1994-10-01,7.25,7.671875,7.125,7.59375,1.9387892484664917,58300000.0
1994-10-19,,,,,,
1994-11-01,7.59375,7.84375,7.421875,7.515625,2.0281200408935547,54062400.0
1994-12-01,7.484375,8.09375,7.3125,7.921875,2.137747287750244,77401600.0
1995-01-01,7.890625,7.921875,7.25,7.859375,2.120882511138916,79829600.0
1995-01-19,,,,,,
1995-02-01,7.8125,8.171875,7.6875,8.0625,2.304347038269043,69836800.0
1995-03-01,8.0625,8.515625,7.8125,8.25,2.3579373359680176,103494400.0
1995-04-01,8.15625,8.8125,8.109375,8.78125,2.509772777557373,61076800.0
1995-04-19,,,,,,
1995-05-01,8.75,9.625,8.546875,9.625,2.8895397186279297,65112800.0
1995-06-01,9.59375,9.671875,9.125,9.140625,2.744124412536621,82704000.0
1995-07-01,9.125,9.203125,8.28125,8.75,2.62685489654541,144052800.0
1995-07-21,,,,,,
1995-08-01,8.796875,8.9375,8.296875,8.5,2.7032217979431152,75972800.0
1995-09-01,8.546875,9.125,8.03125,8.328125,2.648560047149658,142460000.0
1995-10-01,8.34375,8.984375,8.25,8.65625,2.752913475036621,81039200.0
1995-10-23,,,,,,
1995-11-01,8.65625,9.3125,8.53125,9.15625,3.0765953063964844,76043200.0
1995-12-01,9.171875,9.609375,8.609375,8.78125,2.950592279434204,70160000.0
1996-01-01,8.75,9.25,8.609375,9.25,3.1080973148345947,66082400.0
1996-01-23,,,,,,
1996-02-01,9.234375,10.015625,8.84375,9.78125,3.4693667888641357,85631200.0
1996-03-01,10.0,10.5,9.71875,9.734375,3.452742576599121,78908000.0
1996-04-01,9.734375,9.921875,9.25,9.578125,3.397320032119751,54076000.0
1996-04-23,,,,,,
1996-05-01,9.546875,10.078125,9.296875,9.84375,3.669569969177246,64093600.0
1996-06-01,9.78125,10.71875,9.75,10.59375,3.949155330657959,65494400.0
1996-07-01,10.609375,10.640625,9.734375,9.8125,3.6579196453094482,69980000.0
1996-07-23,,,,,,
1996-08-01,9.875,10.515625,9.8125,10.15625,3.969180107116699,44175200.0
1996-09-01,10.078125,11.21875,10.015625,10.859375,4.243969917297363,62865600.0
1996-10-01,10.90625,11.546875,10.671875,11.515625,4.500441551208496,58769600.0
1996-10-23,,,,,,
1996-11-01,11.5,12.0625,11.40625,11.578125,4.7198872566223145,48056800.0
1996-12-01,11.625,11.75,10.8125,11.53125,4.700778007507324,63328000.0
1997-01-01,11.53125,12.15625,11.25,12.09375,4.930084228515625,72531200.0
1997-01-23,,,,,,
1997-02-01,12.15625,13.65625,11.984375,12.9375,5.488739967346191,83182400.0
1997-03-01,12.75,14.25,12.40625,12.453125,5.283240795135498,79275200.0
1997-04-01,12.375,14.109375,12.3125,13.875,5.886473178863525,78724000.0
1997-04-23,,,,,,
1997-05-01,13.84375,15.625,13.609375,15.5,6.851833343505859,82945200.0
1997-05-16,,,,,,
1997-06-01,15.5,16.75,15.03125,16.3125,7.211002349853516,54536000.0
1997-07-01,16.203125,19.671875,15.96875,18.9375,8.37139892578125,75860400.0
1997-07-23,,,,,,
1997-08-01,18.984375,19.09375,15.53125,15.65625,7.025966644287109,98286400.0
1997-09-01,15.625,17.609375,15.265625,17.421875,7.8183135986328125,92491600.0
1997-10-01,17.3125,18.71875,16.0625,16.1875,7.264371395111084,81740400.0
1997-10-23,,,,,,
1997-11-01,16.25,16.828125,15.4375,16.703125,7.608486652374268,98791200.0
1997-12-01,16.78125,18.5625,16.4375,18.375,8.37004566192627,76446400.0
1998-01-01,18.625,18.734375,16.8125,18.3125,8.341575622558594,84223600.0
1998-01-23,,,,,,
1998-02-01,18.5,20.453125,18.3125,20.296875,9.394306182861328,66372000.0
1998-03-01,20.234375,22.21875,19.65625,21.6875,10.037949562072754,67212000.0
1998-04-01,21.625,22.875,20.375,22.421875,10.37785530090332,69944000.0
1998-04-23,,,,,,
1998-05-01,22.375,22.75,21.21875,21.75,10.192140579223633,49564800.0
1998-06-01,21.75,23.03125,21.234375,22.0,10.309293746948242,55627200.0
1998-07-01,22.0625,24.71875,21.9375,23.0625,10.807185173034668,62059600.0
1998-07-23,,,,,,
1998-08-01,23.1875,23.328125,17.96875,18.03125,8.548504829406738,82920000.0
1998-09-01,18.03125,19.25,16.265625,17.1875,8.148484230041504,128043600.0
1998-10-01,17.140625,22.5,16.78125,22.09375,10.474509239196777,114240800.0
1998-10-23,,,,,,
1998-11-01,22.1875,23.75,21.375,21.40625,10.2786283493042,71052400.0
1998-12-01,21.40625,23.5,20.1875,23.21875,11.148926734924316,69974400.0
1999-01-01,23.25,23.4375,18.28125,20.109375,9.655903816223145,147716000.0
1999-01-22,,,,,,
1999-02-01,20.15625,22.21875,19.9375,21.21875,10.335521697998047,70582000.0
1999-03-01,21.15625,23.796875,20.734375,23.0,11.203164100646973,100570800.0
1999-04-01,23.28125,26.0,22.65625,25.609375,12.47416877746582,90805200.0
1999-04-22,,,,,,
1999-05-01,25.671875,25.9375,22.75,24.96875,12.296886444091797,72674800.0
1999-06-01,24.90625,26.4375,24.046875,24.625,12.127593994140625,76813600.0
1999-07-01,24.625,26.21875,23.0625,24.6875,12.15837574005127,52436600.0
1999-07-01,,,,,,
1999-07-22,,,,,,
1999-08-01,24.25,28.125,23.28125,26.75,13.25693416595459,52514000.0
1999-09-01,27.125,29.4375,22.15625,22.875,11.336535453796387,59653800.0
1999-10-01,23.0,30.34375,22.53125,30.25,14.991483688354492,62187200.0
1999-10-22,,,,,,
1999-11-01,30.25,31.4375,26.625,27.875,13.890233039855957,53262200.0
1999-12-01,26.9375,32.5,26.75,32.5,16.194887161254883,47832200.0
2000-01-01,32.0,33.375,28.875,29.625,14.762261390686035,62950400.0
2000-01-24,,,,,,
2000-02-01,29.625,30.875,23.9375,26.09375,13.069775581359863,83967000.0
2000-03-01,26.125,29.1875,20.25,28.1875,14.118488311767578,138456000.0
2000-04-01,28.3125,32.625,26.40625,28.5625,14.306313514709473,88695800.0
2000-04-24,,,,,,
2000-05-01,28.0,30.375,25.78125,26.3125,13.252419471740723,61242400.0
2000-06-01,27.0625,29.9921875,26.0,29.9375,15.078170776367188,67957600.0
2000-07-01,29.8125,30.125,25.5,27.84375,14.023639678955078,83998400.0
2000-07-24,,,,,,
2000-08-01,27.8125,28.875,25.28125,25.46875,12.899218559265137,64761400.0
2000-09-01,25.8125,28.3125,21.25,23.600000381469727,11.952743530273438,158440400.0
2000-10-01,23.625,29.5,23.100000381469727,29.3799991607666,14.88015365600586,95174000.0
2000-10-24,,,,,,
2000-11-01,29.450000762939453,30.399999618530273,27.875,29.375,14.973100662231445,66233200.0
2000-12-01,29.875,32.845001220703125,27.719999313354492,32.275001525878906,16.451297760009766,70128400.0
2001-01-01,31.674999237060547,32.375,27.75,30.040000915527344,15.312064170837402,75754600.0
2001-01-24,,,,,,
2001-02-01,30.040000915527344,30.875,27.905000686645508,29.524999618530273,15.132122039794922,73665200.0
2001-03-01,29.399999618530273,30.149999618530273,24.25,27.6299991607666,14.160900115966797,79920200.0
2001-04-01,27.700000762939453,28.450000762939453,25.299999237060547,27.924999237060547,14.312089920043945,78267400.0
2001-04-24,,,,,,
2001-05-01,28.25,29.530000686645508,27.600000381469727,28.31999969482422,14.601259231567383,60841800.0
2001-06-01,28.375,30.5,28.09000015258789,29.4950008392334,15.207063674926758,65557800.0
2001-07-01,29.4950008392334,30.225000381469727,26.600000381469727,27.100000381469727,13.972246170043945,84768800.0
2001-07-24,,,,,,
2001-08-01,27.174999237060547,28.200000762939453,26.139999389648438,27.075000762939453,14.051921844482422,65543000.0
2001-09-01,27.125,29.25,25.764999389648438,29.125,15.115869522094727,72778800.0
2001-10-01,28.875,29.825000762939453,27.700000762939453,28.760000228881836,14.926434516906738,67285600.0
2001-10-24,,,,,,
2001-11-01,28.635000228881836,29.68000030517578,28.125,29.18000030517578,15.237836837768555,55407200.0
2001-12-01,29.024999618530273,29.399999618530273,27.924999237060547,28.875,15.078567504882812,53115800.0
2002-01-01,28.625,28.875,27.450000762939453,28.575000762939453,14.921904563903809,63805800.0
2002-01-23,,,,,,
2002-02-01,28.575000762939453,28.75,26.7450008392334,27.989999771118164,14.709734916687012,74398400.0
2002-03-01,28.100000381469727,28.825000762939453,26.665000915527344,28.575000762939453,15.017171859741211,68976400.0
2002-04-01,28.450000762939453,29.43000030517578,26.5049991607666,26.5049991607666,13.929308891296387,117805000.0
2002-04-24,,,,,,
2002-05-01,26.6299991607666,27.924999237060547,25.649999618530273,27.100000381469727,14.335665702819824,88039800.0
2002-06-01,26.975000381469727,27.954999923706055,22.950000762939453,25.024999618530273,13.23801040649414,111762400.0
2002-07-01,25.125,26.25,22.024999618530273,25.674999237060547,13.5818510055542,118675800.0
2002-07-24,,,,,,
2002-08-01,25.649999618530273,27.575000762939453,25.385000228881836,27.274999618530273,14.539131164550781,79930600.0
2002-09-01,26.774999618530273,28.625,26.25,26.975000381469727,14.379215240478516,89201200.0
2002-10-01,27.0,28.9950008392334,26.565000534057617,27.489999771118164,14.653739929199219,99564400.0
2002-10-23,,,,,,
2002-11-01,27.614999771118164,27.614999771118164,25.25,25.69499969482422,13.784544944763184,87281600.0
2002-12-01,25.700000762939453,27.06999969482422,25.5,26.21500015258789,14.063514709472656,63493600.0
2003-01-01,26.260000228881836,27.309999465942383,24.75,25.454999923706055,13.65579605102539,71017000.0
2003-01-30,,,,,,
2003-02-01,25.625,26.1299991607666,24.625,25.155000686645508,13.591134071350098,56865600.0
2003-03-01,25.299999237060547,27.875,24.375,27.219999313354492,14.706841468811035,70396800.0
2003-04-01,27.25,28.864999771118164,27.0,28.584999084472656,15.444350242614746,79364400.0
2003-04-23,,,,,,
2003-05-01,28.424999237060547,29.885000228881836,28.114999771118164,29.809999465942383,16.242273330688477,75285800.0
2003-06-01,29.924999237060547,30.4950008392334,28.75,28.975000381469727,15.787311553955078,75293000.0
2003-07-01,28.975000381469727,29.299999237060547,27.299999237060547,27.299999237060547,14.874671936035156,77384000.0
2003-07-23,,,,,,
2003-08-01,27.040000915527344,28.125,26.475000381469727,27.639999389648438,15.18873119354248,61118800.0
2003-09-01,27.75,28.549999237060547,27.25,27.94499969482422,15.356330871582031,70772800.0
2003-10-01,27.94499969482422,29.360000610351562,25.2549991607666,26.594999313354492,14.614487648010254,138804600.0
2003-10-22,,,,,,
2003-11-01,26.625,26.864999771118164,25.375,26.25,14.546098709106445,92933400.0
2003-12-01,26.299999237060547,27.0,24.280000686645508,25.024999618530273,13.867278099060059,152600800.0
2004-01-01,24.975000381469727,26.125,24.709999084472656,25.635000228881836,14.205299377441406,129575200.0
2004-01-22,,,,,,
2004-02-01,25.639999389648438,28.520000457763672,24.940000534057617,27.725000381469727,15.50813102722168,113007800.0
2004-03-01,27.825000762939453,28.625,26.325000762939453,27.549999237060547,15.410239219665527,90577800.0
2004-04-01,27.575000762939453,29.239999771118164,26.635000228881836,28.940000534057617,16.18775177001953,87022600.0
2004-04-22,,,,,,
2004-05-01,28.94499969482422,29.5,27.575000762939453,28.600000381469727,16.135250091552734,69311400.0
2004-06-01,28.639999389648438,29.520000457763672,28.280000686645508,29.225000381469727,16.48786163330078,53207800.0
2004-07-01,29.299999237060547,29.485000610351562,26.104999542236328,26.600000381469727,15.006914138793945,78576200.0
2004-07-22,,,,,,
2004-08-01,26.604999542236328,27.049999237060547,25.594999313354492,27.0,15.36669635772705,57819600.0
2004-09-01,26.954999923706055,27.625,22.510000228881836,22.59000015258789,12.856790542602539,186569400.0
2004-10-01,22.600000381469727,23.09000015258789,21.44499969482422,22.309999465942383,12.697440147399902,185284000.0
2004-10-21,,,,,,
2004-11-01,22.309999465942383,24.450000762939453,22.18000030517578,22.9950008392334,13.227296829223633,108852400.0
2004-12-01,23.110000610351562,25.739999771118164,23.065000534057617,25.579999923706055,14.714252471923828,134781200.0
2005-01-01,25.454999923706055,26.459999084472656,24.2450008392334,26.270000457763672,15.111160278320312,111903800.0
2005-01-24,,,,,,
2005-02-01,26.270000457763672,27.71500015258789,26.040000915527344,26.459999084472656,15.36859130859375,97360400.0
2005-03-01,26.459999084472656,26.780000686645508,25.274999618530273,26.084999084472656,15.150774955749512,74029600.0
2005-04-01,26.149999618530273,27.174999237060547,24.25,24.895000457763672,14.459593772888184,83017200.0
2005-04-22,,,,,,
2005-05-01,24.96500015258789,25.579999923706055,24.125,24.985000610351562,14.675565719604492,85968000.0
2005-06-01,24.9950008392334,25.7450008392334,24.274999618530273,24.954999923706055,14.657937049865723,92109000.0
2005-07-01,25.06999969482422,26.739999771118164,24.524999618530273,26.469999313354492,15.54781436920166,80183400.0
2005-07-22,,,,,,
2005-08-01,26.575000762939453,26.895000457763672,25.924999237060547,26.25,15.593017578125,74303400.0
2005-09-01,26.274999618530273,27.149999618530273,25.594999313354492,26.395000457763672,15.679152488708496,72377200.0
2005-10-01,26.489999771118164,26.700000762939453,25.68000030517578,26.479999542236328,15.729641914367676,79170600.0
2005-10-24,,,,,,
2005-11-01,26.625,27.485000610351562,25.594999313354492,27.260000228881836,16.375518798828125,80628800.0
2005-12-01,27.350000381469727,28.575000762939453,27.25,27.424999237060547,16.474632263183594,68183200.0
2006-01-01,27.489999771118164,28.049999237060547,26.704999923706055,27.44499969482422,16.486658096313477,94911400.0
2006-01-24,,,,,,
2006-02-01,27.399999618530273,27.8700008392334,26.780000686645508,27.239999771118164,16.54143524169922,59357200.0
2006-03-01,27.34000015258789,29.204999923706055,27.010000228881836,28.549999237060547,17.336933135986328,99373200.0
2006-04-01,28.75,29.8700008392334,28.0,29.559999465942383,17.950252532958984,73300400.0
2006-04-20,,,,,,
2006-05-01,29.625,31.05500030517578,29.139999389648438,30.170000076293945,18.528968811035156,119301000.0
2006-06-01,30.110000610351562,31.15999984741211,29.229999542236328,29.950000762939453,18.393857955932617,108856200.0
2006-07-01,29.635000228881836,31.579999923706055,29.31999969482422,29.65999984741211,18.215757369995117,74851200.0
2006-07-24,,,,,,
2006-08-01,29.559999465942383,30.225000381469727,29.0049991607666,29.93000030517578,18.573083877563477,79443200.0
2006-09-01,30.15999984741211,31.450000762939453,29.989999771118164,31.049999237060547,19.268096923828125,73793000.0
2006-10-01,31.149999618530273,32.03499984741211,29.674999237060547,31.985000610351562,19.848316192626953,107908800.0
2006-10-20,,,,,,
2006-11-01,32.11000061035156,33.540000915527344,31.65999984741211,32.525001525878906,20.40018081665039,77092000.0
2006-12-01,32.599998474121094,33.2400016784668,32.08000183105469,32.619998931884766,20.459768295288086,56059400.0
2007-01-01,32.974998474121094,34.279998779296875,32.505001068115234,34.150001525878906,21.419403076171875,81190200.0
2007-01-24,,,,,,
2007-02-01,34.119998931884766,34.5,33.334999084472656,33.70500183105469,21.346290588378906,74835800.0
2007-03-01,33.18000030517578,33.84000015258789,32.42499923706055,33.39500045776367,21.149967193603516,86396000.0
2007-04-01,33.35499954223633,34.494998931884766,32.70500183105469,33.869998931884766,21.45079231262207,84710400.0
2007-04-20,,,,,,
2007-05-01,33.92499923706055,34.375,33.064998626708984,33.47999954223633,21.434131622314453,104719600.0
2007-06-01,33.474998474121094,33.89500045776367,32.08000183105469,32.42499923706055,20.758708953857422,114116000.0
2007-07-01,32.61000061035156,35.08000183105469,32.43000030517578,33.0,21.1268310546875,128308000.0
2007-07-19,,,,,,
2007-08-01,33.380001068115234,34.79999923706055,31.875,33.15999984741211,21.457294464111328,126958400.0
2007-09-01,33.125,35.95500183105469,32.5,35.65999984741211,23.07500648498535,88968800.0
2007-10-01,35.849998474121094,38.19499969482422,35.564998626708984,38.1349983215332,24.676536560058594,125709800.0
2007-10-24,,,,,,
2007-11-01,37.814998626708984,40.5,36.92499923706055,40.040000915527344,26.166580200195312,140758800.0
2007-12-01,40.0,40.6349983215332,38.744998931884766,38.97999954223633,25.47385025024414,93052800.0
2008-01-01,39.0,40.9900016784668,36.0,38.25,24.996795654296875,158575000.0
2008-01-23,,,,,,
2008-02-01,38.435001373291016,38.849998474121094,36.94499969482422,38.04499816894531,25.10397720336914,103374400.0
2008-03-01,38.07500076293945,39.25,37.279998779296875,38.95500183105469,25.704444885253906,102297000.0
2008-04-01,39.150001525878906,39.70000076293945,35.20500183105469,35.349998474121094,23.3256778717041,128422800.0
2008-04-22,,,,,,
2008-05-01,35.939998626708984,37.25,35.35499954223633,37.18000030517578,24.789234161376953,170976000.0
2008-06-01,37.0,37.58000183105469,34.005001068115234,34.54999923706055,23.03571319580078,146758200.0
2008-07-01,34.21500015258789,37.665000915527344,33.10499954223633,37.1349983215332,24.75922966003418,153583400.0
2008-07-22,,,,,,
2008-08-01,37.400001525878906,39.47999954223633,36.88999938964844,38.01499938964844,25.64507293701172,105799800.0
2008-09-01,38.290000915527344,40.244998931884766,36.439998626708984,37.67499923706055,25.41569709777832,156786200.0
2008-10-01,37.459999084472656,38.81999969482422,27.18000030517578,31.3799991607666,21.1690673828125,250330600.0
2008-10-22,,,,,,
2008-11-01,32.290000915527344,33.2599983215332,29.30500030517578,32.53499984741211,22.231077194213867,156157400.0
2008-12-01,31.790000915527344,34.44499969482422,28.565000534057617,34.27000045776367,23.416603088378906,161127000.0
2009-01-01,34.23500061035156,34.85499954223633,30.299999237060547,32.52000045776367,22.220827102661133,149023000.0
2009-01-22,,,,,,
2009-02-01,32.2599983215332,33.439998626708984,29.135000228881836,30.09000015258789,20.823041915893555,127851200.0
2009-03-01,29.7450008392334,30.174999237060547,27.2549991607666,29.489999771118164,20.407827377319336,156340000.0
2009-04-01,29.065000534057617,30.924999237060547,28.5,29.5,20.414749145507812,158712000.0
2009-04-22,,,,,,
2009-05-01,29.559999465942383,32.97999954223633,29.415000915527344,32.974998474121094,23.155792236328125,166977200.0
2009-06-01,33.14500045776367,36.244998931884766,33.14500045776367,35.369998931884766,24.837615966796875,168780400.0
2009-07-01,35.46500015258789,38.0,35.46500015258789,36.220001220703125,25.434505462646484,147059200.0
2009-07-22,,,,,,
2009-08-01,36.31999969482422,36.85499954223633,35.2599983215332,36.349998474121094,25.83383560180664,98810800.0
2009-09-01,36.20000076293945,38.720001220703125,35.224998474121094,38.13999938964844,27.10598373413086,114931000.0
2009-10-01,38.29999923706055,40.20500183105469,37.599998474121094,39.314998626708984,27.941055297851562,120839600.0
2009-10-22,,,,,,
2009-11-01,39.45500183105469,43.69499969482422,38.630001068115234,42.095001220703125,30.25414276123047,131081000.0
2009-12-01,42.095001220703125,43.3849983215332,40.5,41.07500076293945,29.521068572998047,104186200.0
2010-01-01,41.244998931884766,41.875,39.130001068115234,40.01499938964844,28.759235382080078,125015400.0
2010-01-21,,,,,,
2010-02-01,40.209999084472656,41.69499969482422,39.03499984741211,41.470001220703125,30.139795303344727,89673400.0
2010-03-01,41.61000061035156,42.814998626708984,41.38999938964844,42.630001068115234,30.982860565185547,100320200.0
2010-04-01,42.67499923706055,43.07500076293945,41.290000915527344,42.04999923706055,30.561321258544922,95193800.0
2010-04-22,,,,,,
2010-05-01,42.150001525878906,42.22999954223633,38.27000045776367,39.04499816894531,28.736980438232422,122633800.0
2010-06-01,38.8849983215332,40.974998474121094,38.31999969482422,39.380001068115234,28.983531951904297,114975200.0
2010-07-01,39.310001373291016,42.35499954223633,38.33000183105469,39.4900016784668,29.06449317932129,136625000.0
2010-07-22,,,,,,
2010-08-01,39.78499984741211,39.78499984741211,36.560001373291016,36.91999816894531,27.524370193481445,133424000.0
2010-09-01,37.369998931884766,39.595001220703125,37.060001373291016,38.43000030517578,28.65009880065918,131453000.0
2010-10-01,38.55500030517578,38.775001525878906,36.810001373291016,38.560001373291016,28.747013092041016,146941200.0
2010-10-21,,,,,,
2010-11-01,38.46500015258789,39.55500030517578,38.130001068115234,38.275001525878906,28.931900024414062,108222200.0
2010-12-01,38.540000915527344,40.65999984741211,38.459999084472656,40.185001373291016,30.37565803527832,97142600.0
2011-01-01,40.16999816894531,40.310001373291016,38.20000076293945,38.3849983215332,29.015037536621094,125940000.0
2011-01-21,,,,,,
2011-02-01,38.505001068115234,39.84000015258789,37.43000030517578,39.2599983215332,30.08011245727539,137726200.0
2011-03-01,39.150001525878906,40.68000030517578,38.19499969482422,40.380001068115234,30.938222885131836,130333600.0
2011-04-01,40.5,42.5,39.900001525878906,42.17499923706055,32.313514709472656,111984200.0
2011-04-21,,,,,,
2011-05-01,42.20500183105469,43.790000915527344,42.0,43.76499938964844,34.01727294921875,98483400.0
2011-06-01,43.525001525878906,44.68000030517578,41.80500030517578,43.70500183105469,33.970645904541016,122978000.0
2011-07-01,43.65999984741211,44.71500015258789,42.16999816894531,42.189998626708984,32.79307556152344,83664800.0
2011-07-22,,,,,,
2011-08-01,42.48500061035156,45.494998931884766,39.310001373291016,44.98500061035156,35.42729187011719,161796400.0
2011-09-01,45.0,47.44499969482422,42.8650016784668,44.34000015258789,34.91934585571289,135936600.0
2011-10-01,44.18000030517578,46.959999084472656,43.19499969482422,45.185001373291016,35.58481216430664,107061600.0
2011-10-21,,,,,,
2011-11-01,44.46500015258789,45.81999969482422,43.095001220703125,45.75,36.49179458618164,95131600.0
2011-12-01,45.60499954223633,46.92499923706055,44.564998626708984,46.19499969482422,36.84673309326172,78398000.0
2012-01-01,45.69499969482422,46.06999969482422,43.61000061035156,45.36000061035156,36.18070983886719,136240800.0
2012-01-20,,,,,,
2012-02-01,45.54499816894531,46.95000076293945,45.3849983215332,46.59000015258789,37.64719772338867,72865000.0
2012-03-01,46.5,48.96500015258789,46.25,48.88999938964844,39.505714416503906,82122200.0
2012-04-01,48.84000015258789,49.91999816894531,47.935001373291016,49.470001220703125,39.974388122558594,112798600.0
2012-04-20,,,,,,
2012-05-01,49.48500061035156,50.970001220703125,48.85499954223633,49.150001525878906,40.22384262084961,99108600.0
2012-06-01,48.85499954223633,52.165000915527344,48.10499954223633,52.04999923706055,42.597164154052734,78887400.0
2012-07-01,51.70500183105469,54.25,50.7599983215332,53.68000030517578,43.93113327026367,71470400.0
2012-07-20,,,,,,
2012-08-01,53.904998779296875,54.91999816894531,52.25,53.154998779296875,44.01826477050781,64602600.0
2012-09-01,53.08000183105469,54.0,51.25,53.61000061035156,44.39505386352539,90476400.0
2012-10-01,53.41999816894531,55.48500061035156,51.525001525878906,52.47999954223633,43.459293365478516,68836000.0
2012-10-19,,,,,,
2012-11-01,52.34000015258789,54.375,51.58000183105469,54.25,45.4343376159668,55695400.0
2012-12-01,54.314998626708984,54.5,51.40999984741211,52.27000045776367,43.776100158691406,59462800.0
2013-01-01,52.80500030517578,55.685001373291016,52.6150016784668,53.685001373291016,44.961158752441406,60128800.0
2013-01-22,,,,,,
2013-02-01,54.41999816894531,57.85499954223633,53.685001373291016,57.21500015258789,48.4688720703125,82093000.0
2013-03-01,57.04499816894531,59.224998474121094,55.65999984741211,59.01499938964844,49.99372482299805,68450400.0
2013-04-01,58.935001373291016,61.20000076293945,58.0099983215332,59.70500183105469,50.57823181152344,65934400.0
2013-04-19,,,,,,
2013-05-01,59.720001220703125,62.70000076293945,57.83000183105469,57.84000015258789,49.566864013671875,66651700.0
2013-05-16,,,,,,
2013-06-01,57.90999984741211,59.91999816894531,55.470001220703125,57.290000915527344,49.09553146362305,75494900.0
2013-07-01,57.599998474121094,60.68000030517578,57.11000061035156,59.869998931884766,51.30649948120117,70012200.0
2013-07-19,,,,,,
2013-08-01,60.27000045776367,61.5,56.939998626708984,57.77000045776367,49.79480743408203,57447000.0
2013-09-01,58.349998474121094,61.279998779296875,57.2599983215332,59.29999923706055,51.11358642578125,56226400.0
2013-10-01,59.22999954223633,66.04000091552734,58.720001220703125,64.7300033569336,55.79397964477539,80995700.0
2013-10-18,,,,,,
2013-11-01,64.81999969482422,66.48999786376953,64.0,65.80999755859375,57.03066635131836,53964600.0
2013-12-01,65.63999938964844,65.98999786376953,62.79999923706055,65.20999908447266,56.51071548461914,53782000.0
2014-01-01,64.88999938964844,65.45999908447266,60.0,61.22999954223633,53.06166076660156,75954700.0
2014-01-22,,,,,,
2014-02-01,61.220001220703125,63.150001525878906,59.75,62.83000183105469,54.73567581176758,72438400.0
2014-03-01,62.22999954223633,65.91999816894531,62.0,64.87000274658203,56.51286315917969,64729700.0
2014-04-01,64.87000274658203,67.94999694824219,63.869998931884766,67.30000305175781,58.62981414794922,78204100.0
2014-04-17,,,,,,
2014-05-01,67.18000030517578,68.47000122070312,66.0999984741211,68.4000015258789,59.90913391113281,58331300.0
2014-06-01,68.12999725341797,69.47000122070312,66.9800033569336,68.18000030517578,59.71643829345703,54575600.0
2014-07-01,68.5,70.11000061035156,63.400001525878906,63.400001525878906,55.529808044433594,55878500.0
2014-07-16,,,,,,
2014-08-01,63.060001373291016,65.69999694824219,62.88999938964844,64.7300033569336,56.98923110961914,69051100.0
2014-09-01,64.44000244140625,66.36000061035156,63.36000061035156,65.22000122070312,57.42063903808594,72310400.0
2014-10-01,65.22000122070312,67.12000274658203,62.529998779296875,66.87999725341797,58.88212203979492,86218600.0
2014-10-15,,,,,,
2014-11-01,66.80000305175781,69.9000015258789,66.70999908447266,69.58999633789062,61.612396240234375,44724700.0
2014-12-01,68.66999816894531,71.30999755859375,67.25,69.19000244140625,61.258262634277344,62216800.0
2015-01-01,69.16999816894531,69.45999908447266,64.87000274658203,67.5199966430664,59.77970504760742,77671100.0
2015-01-21,,,,,,
2015-02-01,67.36000061035156,71.29000091552734,66.9800033569336,70.81999969482422,63.03044128417969,51754600.0
2015-03-01,70.81999969482422,71.55999755859375,66.87999725341797,69.33999633789062,61.71322250366211,66453100.0
2015-04-01,69.33999633789062,70.44000244140625,66.77999877929688,67.27999877929688,59.87981033325195,54188000.0
2015-04-21,,,,,,
2015-05-01,67.27999877929688,69.27999877929688,66.73999786376953,66.79000091552734,59.77550506591797,54645000.0
2015-06-01,66.70999908447266,67.56999969482422,64.83000183105469,65.41000366210938,58.54043197631836,71702200.0
2015-07-01,65.58999633789062,69.2300033569336,65.55000305175781,68.0199966430664,60.87632751464844,64249000.0
2015-07-21,,,,,,
2015-08-01,67.66000366210938,69.30000305175781,50.84000015258789,62.810001373291016,56.530338287353516,76452400.0
2015-09-01,61.619998931884766,64.12999725341797,60.90999984741211,63.459999084472656,57.115352630615234,96105300.0
2015-10-01,63.58000183105469,69.44000244140625,63.060001373291016,66.3499984741211,59.71640396118164,72118800.0
2015-10-21,,,,,,
2015-11-01,66.7699966430664,68.11000061035156,64.51000213623047,65.68000030517578,59.45027542114258,63486700.0
2015-12-01,65.7699966430664,68.48999786376953,64.98999786376953,66.62000274658203,60.301116943359375,68985500.0
2016-01-01,65.4000015258789,67.6500015258789,61.400001525878906,67.52999877929688,61.12480926513672,91296100.0
2016-01-21,,,,,,
2016-02-01,66.93000030517578,68.38999938964844,64.0,65.63999938964844,59.77781295776367,71113700.0
2016-03-01,66.05999755859375,71.25,65.93000030517578,70.6500015258789,64.34037017822266,70433200.0
2016-04-01,70.20999908447266,71.79000091552734,68.23999786376953,70.91999816894531,64.58626556396484,70905000.0
2016-04-20,,,,,,
2016-05-01,71.47000122070312,72.72000122070312,69.52999877929688,70.41000366210938,64.47269439697266,64598400.0
2016-06-01,70.41000366210938,73.19999694824219,69.70999908447266,73.19999694824219,67.02743530273438,66417000.0
2016-07-01,73.19999694824219,75.33000183105469,72.62999725341797,74.43000030517578,68.1537094116211,64386900.0
2016-07-20,,,,,,
2016-08-01,74.44000244140625,75.37999725341797,73.88999938964844,74.33999633789062,68.4292221069336,50128700.0
2016-09-01,74.37999725341797,75.3499984741211,70.86000061035156,74.13999938964844,68.24512481689453,70865300.0
2016-10-01,73.93000030517578,74.06999969482422,70.25,71.36000061035156,65.68616485595703,61456700.0
2016-10-20,,,,,,
2016-11-01,71.45999908447266,71.7300033569336,65.2300033569336,65.2300033569336,60.371944427490234,81730200.0
2016-12-01,65.2300033569336,67.30000305175781,64.45999908447266,65.44000244140625,60.56631851196289,68323800.0
2017-01-01,65.55999755859375,68.5,63.43000030517578,64.58000183105469,59.770362854003906,88478100.0
2017-01-19,,,,,,
2017-02-01,64.5,75.08999633789062,64.43000030517578,72.9800033569336,67.93519592285156,109429700.0
2017-03-01,73.05000305175781,74.44000244140625,72.58000183105469,73.19000244140625,68.13067626953125,79175600.0
2017-04-01,73.0999984741211,74.87999725341797,70.16999816894531,72.04000091552734,67.06017303466797,65033600.0
2017-04-19,,,,,,
2017-05-01,72.29000091552734,76.86000061035156,70.66000366210938,76.36000061035156,71.46591186523438,95453800.0
2017-06-01,76.5,77.2699966430664,74.04000091552734,74.12999725341797,69.37885284423828,59073800.0
2017-07-01,74.33999633789062,74.58999633789062,69.77999877929688,72.19999694824219,67.57254028320312,68845300.0
2017-07-14,,,,,,
2017-08-01,72.11000061035156,72.3499984741211,70.66000366210938,71.63999938964844,67.42182159423828,59899700.0
2017-09-01,71.66000366210938,73.91000366210938,70.7699966430664,72.8499984741211,68.56055450439453,57647100.0
2017-10-01,73.0199966430664,76.0999984741211,69.05000305175781,70.44999694824219,66.30188751220703,80008000.0
2017-10-20,,,,,,
2017-11-01,70.72000122070312,73.83000183105469,69.75,72.44999694824219,68.55906677246094,70112200.0
2017-12-01,72.51000213623047,75.72000122070312,71.93000030517578,75.44999694824219,71.39795684814453,60195000.0
2018-01-01,75.43000030517578,77.91000366210938,72.44999694824219,74.23999786376953,70.25293731689453,88767800.0
2018-01-22,,,,,,
2018-02-01,74.33000183105469,74.62999725341797,68.19000244140625,68.97000122070312,65.60456848144531,77241000.0
2018-03-01,68.87000274658203,72.29000091552734,67.86000061035156,71.68000030517578,68.18232727050781,80751400.0
2018-04-01,71.31999969482422,72.61000061035156,64.83999633789062,65.2300033569336,62.04705810546875,94826200.0
2018-04-19,,,,,,
2018-05-01,64.77999877929688,65.38999938964844,61.279998779296875,63.09000015258789,60.36321258544922,105865700.0
2018-06-01,63.25,65.66999816894531,61.970001220703125,64.80999755859375,62.00886917114258,94871300.0
2018-07-01,64.5999984741211,67.91999816894531,64.02999877929688,67.01000213623047,64.1137924194336,78389000.0
2018-07-17,,,,,,
2018-08-01,66.83000183105469,68.43000030517578,65.01000213623047,66.41000366210938,63.94902420043945,64552600.0
2018-09-01,65.73999786376953,69.29000091552734,64.94999694824219,66.94999694824219,64.46900939941406,57660400.0
2018-10-01,66.95999908447266,67.80000305175781,57.40999984741211,59.54999923706055,57.34323501586914,118852700.0
2018-10-18,,,,,,
2018-11-01,59.630001068115234,63.9900016784668,59.31999969482422,63.52000045776367,61.573055267333984,109577700.0
2018-12-01,63.459999084472656,65.87999725341797,57.5099983215332,59.52000045776367,57.695655822753906,100054300.0
2019-01-01,59.2400016784668,64.8499984741211,58.619998931884766,64.68000030517578,62.6974983215332,104403100.0
2019-01-22,,,,,,
2019-02-01,64.9000015258789,67.47000122070312,64.19999694824219,65.87000274658203,64.2821044921875,72085600.0
2019-03-01,65.91999816894531,68.61000061035156,64.77999877929688,68.54000091552734,66.88773345947266,71090200.0
2019-04-01,68.37999725341797,72.8499984741211,67.25,72.79000091552734,71.03528594970703,67310600.0
2019-04-17,,,,,,
2019-05-01,72.08000183105469,73.0999984741211,69.44000244140625,69.62000274658203,68.36751556396484,65808500.0
2019-06-01,69.69999694824219,74.25,69.58999633789062,71.66999816894531,70.38062286376953,67419100.0
2019-07-01,71.95999908447266,76.41000366210938,71.12999725341797,71.73999786376953,70.44937133789062,73626700.0
2019-07-17,,,,,,
2019-08-01,71.62999725341797,74.55000305175781,68.41000366210938,74.1500015258789,73.23873901367188,67135800.0
2019-09-01,73.66999816894531,75.0,68.97000122070312,73.51000213623047,72.60660552978516,69830600.0
2019-10-01,72.77999877929688,73.20999908447266,66.80000305175781,68.5999984741211,67.75694274902344,76006700.0
2019-10-22,,,,,,
2019-11-01,67.44000244140625,67.9800033569336,64.75,67.81999969482422,67.41092681884766,75572100.0
2019-12-01,68.0,69.33999633789062,66.80000305175781,68.83999633789062,68.42477416992188,74443300.0
2020-01-01,68.83999633789062,74.97000122070312,67.47000122070312,73.77999877929688,73.3349838256836,89823500.0
2020-01-22,,,,,,
2020-02-01,74.05999755859375,77.41000366210938,66.31999969482422,67.56999969482422,67.56999969482422,91015500.0
2020-03-01,68.51000213623047,75.47000122070312,58.4900016784668,59.88999938964844,59.88999938964844,152417600.0
2020-03-26,60.36000061035156,62.875,60.220001220703125,62.75,62.75,4024428.0
