Date,Open,High,Low,Close,Adj Close,Volume
2006-01-01,45.0,49.29999923706055,39.5099983215332,47.52000045776367,47.52000045776367,16216400
2006-02-01,48.900001525878906,49.2400016784668,41.0,45.599998474121094,45.599998474121094,4306700
2006-03-01,45.63999938964844,56.75,40.88999938964844,55.38999938964844,55.38999938964844,10579600
2006-04-01,55.560001373291016,58.0,48.29999923706055,52.189998626708984,52.189998626708984,4412100
2006-05-01,52.0,67.7699966430664,51.400001525878906,57.77000045776367,57.77000045776367,12660600
2006-06-01,58.0,63.88999938964844,55.060001373291016,60.95000076293945,60.95000076293945,6065900
2006-07-01,61.25,61.25,48.70000076293945,52.5,52.5,9014100
2006-08-01,50.0099983215332,56.5,47.369998931884766,49.34000015258789,49.34000015258789,9754000
2006-09-01,49.599998474121094,53.79999923706055,45.81999969482422,49.66999816894531,49.66999816894531,12009500
2006-10-01,49.66999816894531,60.25,48.29999923706055,59.900001525878906,59.900001525878906,40521600
2006-11-01,59.63999938964844,62.36000061035156,55.5,57.95000076293945,57.95000076293945,16128000
2006-12-01,57.70000076293945,59.349998474121094,52.15999984741211,57.0,57.0,12790300
2007-01-01,56.900001525878906,60.939998626708984,54.61000061035156,59.41999816894531,59.41999816894531,11222800
2007-02-01,59.599998474121094,65.25,58.93000030517578,59.9900016784668,59.9900016784668,13512900
2007-03-01,58.650001525878906,64.95999908447266,58.599998474121094,62.099998474121094,62.099998474121094,7826200
2007-04-01,62.25,68.0,61.939998626708984,65.2300033569336,65.2300033569336,5576900
2007-05-01,65.6500015258789,87.54000091552734,63.90999984741211,86.62000274658203,86.62000274658203,17069700
2007-06-01,87.0,88.69999694824219,79.04000091552734,85.27999877929688,85.27999877929688,8853800
2007-07-01,86.1500015258789,92.0,77.51000213623047,88.33999633789062,88.33999633789062,10945100
2007-08-01,94.0999984741211,114.22000122070312,92.0,103.98999786376953,103.98999786376953,15679200
2007-09-01,104.48999786376953,119.97000122070312,99.25,118.12999725341797,118.12999725341797,7732100
2007-10-01,117.61000061035156,141.3000030517578,113.51000213623047,139.0,139.0,17214200
2007-11-01,137.88999938964844,138.75,116.30999755859375,133.14999389648438,133.14999389648438,13136400
2007-12-01,134.0,155.49000549316406,131.52000427246094,147.07000732421875,147.07000732421875,10901200
2008-01-01,147.10000610351562,150.0,108.0,120.37999725341797,120.37999725341797,21832300
2008-02-01,123.0,124.0,95.55000305175781,99.30000305175781,99.30000305175781,20753100
2008-03-01,99.0,117.9800033569336,90.08999633789062,113.43000030517578,113.43000030517578,14497000
2008-04-01,113.98999786376953,121.29000091552734,97.51000213623047,98.12999725341797,98.12999725341797,14835900
2008-05-01,98.16000366210938,103.98999786376953,83.68000030517578,92.30000305175781,92.30000305175781,13192200
2008-06-01,91.33999633789062,95.63999938964844,81.83000183105469,82.62000274658203,82.62000274658203,14826000
2008-07-01,83.02999877929688,89.2699966430664,65.1500015258789,68.5,68.5,22957100
2008-08-01,69.37000274658203,77.9800033569336,66.0,69.31999969482422,69.31999969482422,12671800
2008-09-01,70.29000091552734,74.73999786376953,53.0,55.4900016784668,55.4900016784668,18668000
2008-10-01,55.25,59.25,40.0,50.75,50.75,13154300
2008-11-01,49.970001220703125,53.220001220703125,36.86000061035156,49.58000183105469,49.58000183105469,7090400
2008-12-01,48.09000015258789,67.91999816894531,45.2400016784668,61.97999954223633,61.97999954223633,10924000
2009-01-01,61.88999938964844,64.8499984741211,46.459999084472656,47.7599983215332,47.7599983215332,10117900
2009-02-01,47.45000076293945,57.380001068115234,46.880001068115234,54.630001068115234,54.630001068115234,16116100
2009-03-01,53.93000030517578,70.75,47.88999938964844,66.37999725341797,66.37999725341797,11512800
2009-04-01,67.05999755859375,92.38999938964844,66.08000183105469,81.08999633789062,81.08999633789062,19254900
2009-05-01,80.41000366210938,86.0,71.30000305175781,79.19000244140625,79.19000244140625,12329200
2009-06-01,80.54000091552734,89.55000305175781,77.20999908447266,80.0,80.0,12670700
2009-07-01,81.20999908447266,97.20999908447266,76.75,93.83000183105469,93.83000183105469,13567500
2009-08-01,94.86000061035156,97.1500015258789,83.1500015258789,83.87999725341797,83.87999725341797,8480100
2009-09-01,83.51000213623047,98.66000366210938,80.1500015258789,97.05000305175781,97.05000305175781,9334300
2009-10-01,96.75,97.11000061035156,79.0199966430664,81.48999786376953,81.48999786376953,17139100
2009-11-01,81.63999938964844,90.9000015258789,81.05999755859375,83.44999694824219,83.44999694824219,9625700
2009-12-01,83.9800033569336,92.0,81.8499984741211,88.16000366210938,88.16000366210938,6087200
2010-01-01,89.5999984741211,102.9000015258789,86.0,96.45999908447266,96.45999908447266,10544700
2010-02-01,96.88999938964844,106.48999786376953,93.80999755859375,104.70999908447266,104.70999908447266,10591200
2010-03-01,105.52999877929688,117.11000061035156,105.33000183105469,112.66999816894531,112.66999816894531,8312900
2010-04-01,113.2699966430664,145.38999938964844,113.0,134.91000366210938,134.91000366210938,13708900
2010-05-01,135.27000427246094,148.8699951171875,124.0,142.27999877929688,142.27999877929688,13981600
2010-06-01,141.35000610351562,155.4199981689453,135.36000061035156,136.80999755859375,136.80999755859375,16028300
2010-07-01,136.14999389648438,150.0,127.30000305175781,147.89999389648438,147.89999389648438,18668200
2010-08-01,150.05999755859375,154.42999267578125,141.00999450683594,150.8300018310547,150.8300018310547,10966700
2010-09-01,152.8800048828125,177.69000244140625,151.6300048828125,172.0,172.0,14685600
2010-10-01,173.8000030517578,215.3800048828125,171.24000549316406,210.2100067138672,210.2100067138672,19277700
2010-11-01,211.88999938964844,262.7699890136719,209.0,258.489990234375,258.489990234375,20469800
2010-12-01,261.5400085449219,262.0,212.5800018310547,212.66000366210938,212.66000366210938,23536300
2011-01-01,215.25999450683594,237.1199951171875,213.05999755859375,218.9199981689453,218.9199981689453,15701200
2011-02-01,219.94000244140625,275.0,217.1999969482422,245.0,245.0,27626300
2011-03-01,243.0,273.9200134277344,234.47999572753906,272.3699951171875,272.3699951171875,21592800
2011-04-01,273.260009765625,289.3500061035156,260.1199951171875,266.7900085449219,266.7900085449219,29097100
2011-05-01,268.79998779296875,295.989990234375,249.5800018310547,289.07000732421875,289.07000732421875,17201400
2011-06-01,288.5,308.92999267578125,267.42999267578125,308.19000244140625,308.19000244140625,16336500
2011-07-01,307.239990234375,337.32000732421875,305.8800048828125,324.5799865722656,324.5799865722656,17639200
2011-08-01,328.9700012207031,330.5899963378906,271.5299987792969,313.3699951171875,313.3699951171875,24363500
2011-09-01,314.0299987792969,346.7799987792969,297.70001220703125,302.95001220703125,302.95001220703125,21404500
2011-10-01,300.80999755859375,347.94000244140625,285.3900146484375,336.1199951171875,336.1199951171875,20447100
2011-11-01,326.6400146484375,342.739990234375,300.0,321.55999755859375,321.55999755859375,11654000
2011-12-01,318.5,342.0,315.92999267578125,337.739990234375,337.739990234375,10015400
2012-01-01,343.70001220703125,370.3500061035156,336.2900085449219,367.2900085449219,367.2900085449219,9567300
2012-02-01,368.0,392.3500061035156,358.6000061035156,390.2200012207031,390.2200012207031,10635600
2012-03-01,391.8500061035156,426.57000732421875,386.44000244140625,418.0,418.0,8736300
2012-04-01,417.0,442.3999938964844,401.0299987792969,414.1499938964844,414.1499938964844,15216200
2012-05-01,415.4100036621094,424.4100036621094,384.489990234375,413.07000732421875,413.07000732421875,12751300
2012-06-01,404.8699951171875,419.69000244140625,370.19000244140625,379.95001220703125,379.95001220703125,13135200
2012-07-01,386.0299987792969,404.5899963378906,287.0299987792969,292.3299865722656,292.3299865722656,26600400
2012-08-01,292.8699951171875,307.2799987792969,277.260009765625,288.6400146484375,288.6400146484375,13890300
2012-09-01,289.7300109863281,351.79998779296875,283.67999267578125,317.5400085449219,317.5400085449219,16159700
2012-10-01,319.5799865722656,322.9200134277344,233.82000732421875,254.52999877929688,254.52999877929688,33768200
2012-11-01,251.55999755859375,284.57000732421875,251.55999755859375,263.7799987792969,263.7799987792969,15400900
2012-12-01,265.04998779296875,298.20001220703125,260.010009765625,297.4599914550781,297.4599914550781,10663800
2013-01-01,304.260009765625,314.989990234375,266.0199890136719,307.010009765625,307.010009765625,13914400
2013-02-01,308.5,326.989990234375,303.5,316.7900085449219,316.7900085449219,12078200
2013-03-01,316.75,334.8900146484375,314.5,325.8699951171875,325.8699951171875,6749600
2013-04-01,327.4200134277344,372.989990234375,316.8699951171875,363.19000244140625,363.19000244140625,15255600
2013-05-01,360.95001220703125,379.1499938964844,358.5,361.0,361.0,8751400
2013-06-01,361.010009765625,372.6600036621094,350.6600036621094,364.3500061035156,364.3500061035156,7409500
2013-07-01,366.45001220703125,414.8999938964844,362.29998779296875,412.2699890136719,412.2699890136719,11357300
2013-08-01,414.8999938964844,418.2300109863281,397.010009765625,408.1700134277344,408.1700134277344,5058100
2013-09-01,410.25,429.7799987792969,403.3699951171875,428.79998779296875,428.79998779296875,5482300
2013-10-01,429.19000244140625,531.4299926757812,420.20001220703125,526.969970703125,526.969970703125,13158500
2013-11-01,526.780029296875,550.280029296875,523.1199951171875,523.8599853515625,523.8599853515625,6305300
2013-12-01,521.5,537.0,506.44000244140625,532.780029296875,532.780029296875,6177500
2014-01-01,530.0,568.9000244140625,480.8699951171875,551.9600219726562,551.9600219726562,12679500
2014-02-01,550.2100219726562,573.1599731445312,531.0,565.2100219726562,565.2100219726562,8757700
2014-03-01,561.0,622.9000244140625,551.7000122070312,568.0499877929688,568.0499877929688,11395000
2014-04-01,568.010009765625,588.6900024414062,472.4100036621094,498.5,498.5,17087300
2014-05-01,498.510009765625,549.27001953125,490.54998779296875,547.0900268554688,547.0900268554688,9813000
2014-06-01,548.0,602.2100219726562,545.27001953125,592.510009765625,592.510009765625,7916200
2014-07-01,596.3499755859375,682.6699829101562,575.9199829101562,672.5,672.5,11382700
2014-08-01,674.8099975585938,697.9299926757812,664.239990234375,678.6500244140625,678.6500244140625,6654000
2014-09-01,678.8499755859375,692.9000244140625,642.6400146484375,666.5900268554688,666.5900268554688,6745100
2014-10-01,666.5,681.7999877929688,607.5499877929688,638.0,638.0,13916900
2014-11-01,638.280029296875,675.239990234375,635.3200073242188,663.6199951171875,663.6199951171875,5910800
2014-12-01,664.6599731445312,696.5599975585938,632.4299926757812,684.510009765625,684.510009765625,6994900
2015-01-01,686.0,727.969970703125,653.77001953125,709.8400268554688,709.8400268554688,7853500
2015-02-01,713.5499877929688,726.6300048828125,647.280029296875,664.969970703125,664.969970703125,11273000
2015-03-01,664.969970703125,692.4299926757812,650.5399780273438,650.5399780273438,650.5399780273438,7442200
2015-04-01,650.0,699.030029296875,619.719970703125,621.3400268554688,621.3400268554688,16343900
2015-05-01,628.9600219726562,641.9600219726562,612.260009765625,615.52001953125,615.52001953125,9566900
2015-06-01,615.010009765625,623.1799926757812,598.0399780273438,604.989990234375,604.989990234375,8966800
2015-07-01,606.3099975585938,746.4000244140625,597.3300170898438,742.22998046875,742.22998046875,16971300
2015-08-01,743.469970703125,758.6099853515625,685.0,727.1699829101562,727.1699829101562,10970900
2015-09-01,697.9500122070312,741.8900146484375,696.0999755859375,720.25,720.25,7622100
2015-10-01,717.5999755859375,757.0,640.0499877929688,640.22998046875,640.22998046875,14634700
2015-11-01,610.0,632.97998046875,532.030029296875,579.5499877929688,579.5499877929688,26179500
2015-12-01,583.280029296875,589.1500244140625,477.9700012207031,479.8500061035156,479.8500061035156,40732900
2016-01-01,468.70001220703125,478.3699951171875,399.1400146484375,452.9700012207031,452.9700012207031,38322800
2016-02-01,476.1199951171875,530.8499755859375,435.8699951171875,509.1600036621094,509.1600036621094,31346600
2016-03-01,514.25,542.5,452.7799987792969,470.9700012207031,470.9700012207031,31592700
2016-04-01,459.3299865722656,473.1700134277344,415.0,420.9700012207031,420.9700012207031,23495000
2016-05-01,422.0,467.0,420.3299865722656,441.9599914550781,441.9599914550781,19355400
2016-06-01,442.1099853515625,447.0799865722656,384.7699890136719,402.760009765625,402.760009765625,25323800
2016-07-01,400.0,444.1300048828125,386.1000061035156,423.989990234375,423.989990234375,24733500
2016-08-01,423.6000061035156,426.6199951171875,387.010009765625,413.7300109863281,413.7300109863281,21764200
2016-09-01,415.80999755859375,441.20001220703125,395.1099853515625,423.5,423.5,23322700
2016-10-01,423.0299987792969,440.0,360.1499938964844,360.760009765625,360.760009765625,28937700
2016-11-01,360.2799987792969,419.29998779296875,352.9599914550781,396.3299865722656,396.3299865722656,25401000
2016-12-01,396.989990234375,410.8299865722656,362.45001220703125,377.32000732421875,377.32000732421875,25263000
2017-01-01,379.1099853515625,425.6099853515625,372.8699951171875,421.44000244140625,421.44000244140625,18168000
2017-02-01,420.30999755859375,434.69000244140625,395.0799865722656,418.739990234375,418.739990234375,18942800
2017-03-01,422.510009765625,453.0799865722656,394.19000244140625,445.5199890136719,445.5199890136719,17905300
2017-04-01,449.20001220703125,497.4800109863281,445.25,474.4700012207031,474.4700012207031,20218500
2017-05-01,473.010009765625,499.0,465.989990234375,477.3500061035156,477.3500061035156,15921600
2017-06-01,479.80999755859375,487.5199890136719,410.9800109863281,416.1000061035156,416.1000061035156,21068600
2017-07-01,415.80999755859375,419.7300109863281,336.5199890136719,343.7699890136719,343.7699890136719,42223100
2017-08-01,344.0799865722656,355.4800109863281,296.0,316.7099914550781,316.7099914550781,27748300
2017-09-01,316.94000244140625,326.45001220703125,295.1099853515625,307.8299865722656,307.8299865722656,24768800
2017-10-01,307.9100036621094,331.989990234375,264.8999938964844,271.8999938964844,271.8999938964844,39199200
2017-11-01,271.8999938964844,308.17999267578125,263.0,304.3900146484375,304.3900146484375,23742300
2017-12-01,302.3999938964844,333.3299865722656,286.3999938964844,289.0299987792969,289.0299987792969,22278800
2018-01-01,290.8999938964844,345.8800048828125,289.0,324.760009765625,324.760009765625,21383900
2018-02-01,314.05999755859375,330.1400146484375,247.52000427246094,318.4100036621094,318.4100036621094,39045600
2018-03-01,318.260009765625,344.3399963378906,309.0299987792969,323.1099853515625,323.1099853515625,15731000
2018-04-01,322.239990234375,433.0,307.70001220703125,423.3299865722656,423.3299865722656,26203600
2018-05-01,423.2900085449219,447.7099914550781,415.239990234375,430.17999267578125,430.17999267578125,15152800
2018-06-01,431.5899963378906,474.4599914550781,415.05999755859375,431.3699951171875,431.3699951171875,16238400
2018-07-01,427.9800109863281,483.2900085449219,424.3599853515625,433.6600036621094,433.6600036621094,16840500
2018-08-01,435.0,530.6799926757812,429.010009765625,475.17999267578125,475.17999267578125,19932200
2018-09-01,476.19000244140625,497.8699951171875,453.6700134277344,454.5199890136719,454.5199890136719,11529500
2018-10-01,446.9700012207031,470.7799987792969,411.54998779296875,460.3299865722656,460.3299865722656,19261900
2018-11-01,462.0,500.9800109863281,454.3699951171875,473.2099914550781,473.2099914550781,13163200
2018-12-01,477.5199890136719,483.0799865722656,383.20001220703125,431.7900085449219,431.7900085449219,12446200
2019-01-01,427.8299865722656,543.9000244140625,423.9800109863281,529.6099853515625,529.6099853515625,15678600
2019-02-01,529.47998046875,612.5999755859375,519.0900268554688,607.530029296875,607.530029296875,15773300
2019-03-01,610.0999755859375,711.489990234375,604.6400146484375,710.3099975585938,710.3099975585938,12356700
2019-04-01,712.1500244140625,721.2100219726562,658.5,688.0399780273438,688.0399780273438,14468700
2019-05-01,688.8599853515625,727.0,656.1400146484375,659.969970703125,659.969970703125,11891000
2019-06-01,657.6300048828125,749.25,636.72998046875,732.8800048828125,732.8800048828125,9411300
2019-07-01,738.4299926757812,811.9500122070312,717.239990234375,795.530029296875,795.530029296875,11419500
2019-08-01,794.72998046875,848.8400268554688,770.530029296875,838.4199829101562,838.4199829101562,8388400
2019-09-01,833.0,857.9000244140625,779.780029296875,840.469970703125,840.469970703125,10086800
2019-10-01,845.0800170898438,856.75,758.8800048828125,778.1599731445312,778.1599731445312,12875200
2019-11-01,778.260009765625,825.5999755859375,728.0,813.9199829101562,813.9199829101562,9020500
2019-12-01,813.1099853515625,842.27001953125,798.02001953125,837.1099853515625,837.1099853515625,6852300
2020-01-01,839.969970703125,888.5800170898438,837.530029296875,866.760009765625,866.760009765625,6556300
2020-02-01,868.0,940.280029296875,702.9500122070312,773.5800170898438,773.5800170898438,11951700
2020-03-01,779.52001953125,781.780029296875,415.0,649.47998046875,649.47998046875,20994200
2020-03-26,661.7999877929688,671.5750122070312,636.0,661.510009765625,661.510009765625,554703
