Date,Open,High,Low,Close,Adj Close,Volume
1986-07-01,10.6875,11.125,9.3125,10.0625,7.337518692016602,14780000.0
1986-08-01,10.0,10.125,8.125,9.125,6.65390157699585,26423200.0
1986-09-01,9.1875,9.4375,7.0625,8.5625,6.243727684020996,24114800.0
1986-10-01,8.6875,9.1875,8.0625,9.0,6.562746047973633,11801200.0
1986-11-01,8.875,9.25,8.1875,9.0,6.562746047973633,9452000.0
1986-12-01,9.0,9.1875,7.9375,8.1875,5.97028112411499,12063200.0
1987-01-01,8.1875,10.0625,8.125,9.71875,7.086859703063965,20516400.0
1987-02-01,9.75,11.3125,9.4375,11.0625,8.06671142578125,15010000.0
1987-03-01,11.0625,12.9375,10.6875,12.0,8.750332832336426,20943600.0
1987-04-01,11.75,12.375,9.5,10.625,7.747693061828613,14492800.0
1987-05-01,10.625,11.25,10.25,10.8125,7.88441801071167,13502400.0
1987-06-01,10.8125,12.25,10.375,11.21875,8.180649757385254,14135600.0
1987-07-01,11.21875,12.3125,11.125,11.9375,8.704756736755371,17192000.0
1987-08-01,11.875,13.125,11.6875,12.5,9.114927291870117,13851200.0
1987-09-01,12.4375,12.5,10.5625,11.5625,8.431309700012207,14910000.0
1987-10-01,11.5625,11.8125,6.6875,7.75,5.651256561279297,36328800.0
1987-11-01,7.75,8.0625,6.4375,6.75,4.922059535980225,18430800.0
1987-12-01,6.75,8.3125,5.875,8.1875,5.97028112411499,22402800.0
1988-01-01,8.125,9.0,7.75,8.90625,6.494386196136475,13741200.0
1988-02-01,8.9375,10.125,8.75,10.0,7.291942119598389,19825200.0
1988-03-01,10.0,10.0,9.0,9.375,6.836195945739746,17984400.0
1988-04-01,9.25,9.75,8.9375,9.5,6.927349090576172,12283600.0
1988-05-01,9.5625,9.8125,8.875,9.0625,6.608325004577637,11776800.0
1988-06-01,9.1875,10.0625,9.0625,9.5625,6.972923755645752,14892000.0
1988-07-01,9.5,9.5625,8.375,8.8125,6.426026344299316,17592000.0
1988-08-01,8.8125,9.3125,8.4375,9.21875,6.722261428833008,11145600.0
1988-09-01,9.1875,9.8125,8.90625,9.6875,7.064069747924805,13489200.0
1988-10-01,9.625,10.5625,9.5,10.0,7.291942119598389,19822800.0
1988-11-01,9.9375,10.0625,9.125,9.8125,7.1552205085754395,10398800.0
1988-12-01,9.8125,10.1875,9.375,9.375,6.836195945739746,13875600.0
1989-01-01,9.375,9.875,8.8125,9.375,6.836195945739746,29280400.0
1989-02-01,9.3125,9.4375,8.90625,9.25,6.745048522949219,29131200.0
1989-03-01,9.1875,9.46875,8.6875,9.0625,6.608325004577637,22534800.0
1989-04-01,9.0,10.5,8.875,10.1875,7.428666591644287,22698000.0
1989-05-01,10.125,11.9375,10.125,11.125,8.112285614013672,36148800.0
1989-06-01,11.125,11.9375,9.8125,10.0,7.291942119598389,34459200.0
1989-07-01,10.0,11.0,9.8125,10.9375,7.97556209564209,12197600.0
1989-08-01,11.0,11.125,10.375,11.125,8.112285614013672,20632800.0
1989-09-01,11.0625,11.1875,10.4375,10.75,7.838837146759033,15056400.0
1989-10-01,10.625,12.125,10.3125,11.03125,8.043926239013672,33341600.0
1989-11-01,11.0,12.375,10.5,11.6875,8.522461891174316,20432800.0
1989-12-01,11.75,12.0625,10.4375,11.5625,8.431309700012207,13648400.0
1990-01-01,11.625,12.0625,9.4375,9.84375,7.178006172180176,30140000.0
1990-02-01,9.875,10.0,9.1875,9.5625,6.972923755645752,29525200.0
1990-03-01,9.6875,10.4375,9.5,9.6875,7.064069747924805,32876000.0
1990-04-01,9.4375,9.6875,8.3125,8.5625,6.243727684020996,35638400.0
1990-05-01,8.625,9.875,8.125,9.59375,6.995707988739014,41484000.0
1990-06-01,9.625,10.5,9.0,10.375,7.565392971038818,29798800.0
1990-07-01,10.3125,11.0,9.5625,10.0,7.291942119598389,21058400.0
1990-08-01,9.9375,10.0625,7.5625,8.3125,6.061429023742676,22927200.0
1990-09-01,8.25,8.4375,6.9375,7.3125,5.332236289978027,19492000.0
1990-10-01,7.375,8.1875,6.625,7.8125,5.696832180023193,24150800.0
1990-11-01,7.8125,9.8125,7.75,9.5625,6.972923755645752,15894000.0
1990-12-01,9.6875,10.0625,9.125,9.8125,7.1552205085754395,23303200.0
1991-01-01,9.75,11.15625,9.4375,11.125,8.112285614013672,52237600.0
1991-02-01,11.0625,11.6875,9.875,10.34375,7.542606353759766,46168800.0
1991-03-01,10.25,11.8125,10.1875,11.6875,8.522461891174316,23923200.0
1991-04-01,11.6875,14.625,11.5,12.75,9.297229766845703,51606000.0
1991-05-01,12.75,14.625,12.3125,13.875,10.117568969726562,31624800.0
1991-06-01,13.875,13.9375,12.875,13.5,9.84411907196045,22034800.0
1991-07-01,13.4375,14.0625,12.5,13.625,9.935274124145508,19150000.0
1991-08-01,13.625,16.3125,13.0,15.875,11.575963020324707,40574800.0
1991-09-01,16.03125,16.1875,14.375,15.0625,10.983489990234375,28378000.0
1991-10-01,15.0625,15.5,13.625,14.875,10.846763610839844,35168800.0
1991-11-01,15.0,15.4375,13.4375,13.9375,10.16314697265625,28170800.0
1991-12-01,13.75,14.0,10.9375,12.5625,9.160503387451172,66151200.0
1992-01-01,12.3125,12.6875,11.1875,11.4375,8.340158462524414,58341600.0
1992-02-01,11.3125,13.75,11.3125,13.5,9.84411907196045,36164000.0
1992-03-01,13.5,13.5,11.4375,11.75,8.568034172058105,25782800.0
1992-04-01,11.5625,11.625,7.375,7.625,5.560108661651611,111227600.0
1992-05-01,7.6875,8.6875,7.5,8.4375,6.152578830718994,29545600.0
1992-06-01,8.5,8.71875,8.0,8.25,6.015853404998779,32771200.0
1992-07-01,8.25,8.75,7.9375,8.5,6.198153972625732,27486000.0
1992-08-01,8.625,8.625,7.625,7.6875,5.605682373046875,14805200.0
1992-09-01,7.5625,8.0625,7.4375,8.0,5.833553314208984,25708000.0
1992-10-01,7.875,9.25,7.75,8.8125,6.426026344299316,20669600.0
1992-11-01,8.75,11.25,8.6875,9.75,7.109645366668701,69726000.0
1992-12-01,9.8125,10.375,8.375,9.0625,6.608325004577637,39689200.0
1993-01-01,9.3125,10.0,8.875,9.375,6.836195945739746,32733200.0
1993-02-01,9.4375,9.625,8.1875,8.375,6.107002258300781,23601600.0
1993-03-01,8.4375,8.8125,7.875,8.3125,6.061429023742676,17438800.0
1993-04-01,8.3125,8.3125,7.0625,7.25,5.2866597175598145,24933200.0
1993-05-01,7.3125,7.625,7.0625,7.3125,5.332236289978027,13199600.0
1993-06-01,7.4375,9.84375,7.1875,8.5,6.198153972625732,51965200.0
1993-07-01,8.5,8.6875,7.875,7.9375,5.7879815101623535,13135600.0
1993-08-01,7.9375,9.5,7.9375,9.5,6.927349090576172,22382800.0
1993-09-01,9.5,9.59375,8.78125,9.46875,6.904558181762695,25847200.0
1993-10-01,9.40625,10.5625,8.75,8.875,6.4715986251831055,48725800.0
1993-10-22,,,,,,
1993-11-01,8.9375,9.625,8.5625,9.5625,6.972923755645752,41325400.0
1993-12-01,9.625,10.6875,9.4375,9.625,7.018496036529541,64133000.0
1994-01-01,9.5625,9.6875,8.4375,8.875,6.4715986251831055,62653600.0
1994-02-01,8.75,10.0625,8.5,10.0,7.291942119598389,54060800.0
1994-03-01,9.9375,10.8125,8.6875,9.0625,6.608325004577637,98705400.0
1994-04-01,8.9375,9.125,7.0,7.5625,5.514535427093506,47641600.0
1994-05-01,7.6875,7.875,6.5625,6.625,4.8309125900268555,51507600.0
1994-06-01,6.625,7.875,6.5,7.46875,5.446170330047607,62757000.0
1994-07-01,7.4375,7.9375,6.875,7.5,5.468957424163818,36721200.0
1994-08-01,7.5,8.0,7.0625,7.84375,5.719619274139404,35838800.0
1994-09-01,7.75,8.25,7.125,8.03125,5.856341361999512,38216600.0
1994-10-01,8.0,8.375,7.4375,7.875,5.742406845092773,30936600.0
1994-11-01,7.875,8.25,7.0625,7.6875,5.605682373046875,34190800.0
1994-12-01,7.625,7.6875,6.25,6.4375,4.694186687469482,53485200.0
1995-01-01,6.4375,7.125,6.0,6.875,5.013208866119385,58513400.0
1995-02-01,6.875,7.4375,6.5,6.8125,4.967637062072754,33413600.0
1995-03-01,6.75,7.5625,6.0,7.375,5.377808094024658,46205400.0
1995-04-01,7.3125,7.6875,7.125,7.3125,5.332236289978027,20913600.0
1995-05-01,7.25,7.375,6.5625,7.0625,5.149936199188232,35898200.0
1995-06-01,7.0,8.3125,6.875,8.125,5.9247050285339355,45461800.0
1995-07-01,8.125,9.375,8.125,8.96875,6.539961814880371,55933800.0
1995-08-01,9.0625,9.3125,8.375,8.4375,6.152578830718994,31059600.0
1995-09-01,8.4375,9.3125,8.1875,8.5625,6.243727684020996,28591400.0
1995-10-01,8.5625,9.0625,8.1875,8.5,6.198153972625732,27939800.0
1995-11-01,8.5,8.6875,7.875,8.3125,6.061429023742676,32686800.0
1995-12-01,8.3125,8.6875,6.8125,7.625,5.560108661651611,56413200.0
1996-01-01,7.625,8.25,7.3125,7.8125,5.696832180023193,41378400.0
1996-02-01,7.8125,9.0625,7.75,8.625,6.289300918579102,51109200.0
1996-03-01,8.625,9.9375,8.5625,9.375,6.836195945739746,53006600.0
1996-04-01,9.4375,9.5625,8.5625,9.5,6.927349090576172,38968000.0
1996-05-01,9.5,10.5625,9.0,10.0,7.291942119598389,47821200.0
1996-06-01,10.0,10.9375,9.75,10.8125,7.88441801071167,72766000.0
1996-07-01,10.6875,10.875,9.46875,10.25,7.474244594573975,62505800.0
1996-08-01,10.1875,10.875,9.9375,9.9375,7.246371746063232,37079200.0
1996-09-01,9.9375,11.0625,9.8125,10.25,7.474244594573975,51878000.0
1996-10-01,10.25,11.0,9.4375,9.9375,7.246371746063232,67183000.0
1996-11-01,9.9375,11.6875,9.75,11.625,8.476885795593262,64427600.0
1996-12-01,11.6875,13.0,11.25,12.5625,9.160503387451172,82992000.0
1997-01-01,12.625,14.0,11.875,13.3125,9.707401275634766,105483600.0
1997-02-01,13.3125,13.625,12.1875,12.8125,9.342805862426758,61314600.0
1997-03-01,12.8125,15.1875,12.75,13.8125,10.07199764251709,105479000.0
1997-04-01,13.75,14.9375,13.25,14.4375,10.527745246887207,66642600.0
1997-05-01,14.4375,17.3125,13.6875,16.875,12.305157661437988,90723200.0
1997-06-01,16.9375,17.65625,15.8125,16.4375,11.986135482788086,73246600.0
1997-07-01,16.46875,19.4375,15.5,18.9375,13.80911636352539,86260200.0
1997-08-01,19.0,19.4375,16.875,18.03125,13.148286819458008,81442800.0
1997-09-01,18.03125,19.9375,18.0,18.8125,13.717965126037598,61296800.0
1997-10-01,18.75,20.625,16.9375,19.25,14.036992073059082,77113600.0
1997-11-01,19.5625,22.46875,19.375,22.15625,16.15621566772461,83953800.0
1997-12-01,22.125,22.59375,19.9375,22.3125,16.27014923095703,70241400.0
1998-01-01,22.3125,22.8125,21.0,21.6875,15.814407348632812,63694000.0
1998-02-01,21.75,25.375,21.6875,24.4375,17.81968879699707,55733400.0
1998-03-01,24.5625,29.375,24.0,26.6875,19.460378646850586,75608800.0
1998-04-01,26.75,28.8125,25.5625,27.9375,20.371870040893555,63272200.0
1998-05-01,27.96875,29.4375,26.0625,28.9375,21.10106658935547,54440400.0
1998-06-01,28.84375,32.0546875,28.125,31.53125,22.992414474487305,76802000.0
1998-07-01,31.53125,32.875,28.375,28.375,20.690895080566406,62908200.0
1998-08-01,28.34375,29.96875,23.5,23.53125,17.15885353088379,99569400.0
1998-09-01,23.625,28.375,22.5,23.6875,17.27279281616211,157175200.0
1998-10-01,23.0625,29.40625,20.625,28.375,20.690895080566406,116279000.0
1998-11-01,28.9375,32.4375,28.25,31.375,22.878477096557617,66797400.0
1998-12-01,31.0,38.0625,28.6875,36.09375,26.319355010986328,86047400.0
1999-01-01,36.21875,41.65625,34.625,41.4375,30.21599006652832,67150600.0
1999-02-01,41.5625,43.0,36.71875,40.15625,29.28172492980957,69782000.0
1999-03-01,40.3125,46.625,40.1875,45.78125,33.38343048095703,90726400.0
1999-04-01,45.96875,46.875,38.21875,40.46875,29.509607315063477,94183800.0
1999-05-01,40.46875,43.28125,35.3125,36.25,26.433300018310547,109286000.0
1999-06-01,36.4375,40.09375,35.3125,40.03125,29.190567016601562,70325400.0
1999-07-01,39.6875,43.5625,36.46875,37.375,27.253650665283203,68120800.0
1999-08-01,37.5,40.84375,35.5,37.375,27.253650665283203,83450400.0
1999-09-01,37.4375,37.5,32.6875,36.0,26.25098419189453,135572800.0
1999-10-01,36.0,42.1875,35.25,40.15625,29.28172492980957,123576000.0
1999-11-01,40.0,46.375,39.25,45.84375,33.42900848388672,88247600.0
1999-12-01,45.71875,49.375,43.0,45.625,33.269508361816406,102666000.0
2000-01-01,45.53125,53.125,41.84375,48.9375,35.6849479675293,95158600.0
2000-01-14,,,,,,
2000-02-01,49.3125,55.1875,41.875,49.625,36.186279296875,80449500.0
2000-03-01,49.4375,56.0625,42.375,52.5625,38.328277587890625,128374200.0
2000-04-01,51.5,60.5,46.3125,54.0625,39.422061920166016,96789700.0
2000-05-01,54.0625,59.0,25.9375,31.9375,23.28864860534668,213353300.0
2000-06-01,32.6875,34.6875,31.25,33.0,24.063413619995117,160436500.0
2000-07-01,33.0,37.125,31.1875,32.5625,23.744403839111328,106147400.0
2000-08-01,32.25,38.0625,31.625,34.4375,25.111635208129883,110153000.0
2000-09-01,34.8125,39.0625,32.625,34.9375,25.47622299194336,87117200.0
2000-10-01,33.5625,36.75,29.3125,36.625,26.706741333007812,130958400.0
2000-11-01,36.6875,37.375,32.0625,32.625,23.78997230529785,116075600.0
2000-12-01,33.25,41.5,31.75,39.9375,29.122201919555664,142507800.0
2001-01-01,40.0,46.375,39.0,46.25,33.72523880004883,167560600.0
2001-02-01,45.875,46.375,39.75,41.75,30.443864822387695,93210000.0
2001-03-01,41.375,43.109375,35.3125,39.25,28.620882034301758,138072500.0
2001-04-01,38.8125,40.369998931884766,33.16999816894531,34.93000030517578,25.470762252807617,116253500.0
2001-05-01,35.040000915527344,39.38999938964844,33.95000076293945,38.90999984741211,28.372957229614258,109293700.0
2001-06-01,39.209999084472656,44.04999923706055,37.5,41.08000183105469,29.95530891418457,97587300.0
2001-07-01,41.2599983215332,44.70000076293945,39.880001068115234,43.04999923706055,31.391826629638672,79465000.0
2001-08-01,43.18000030517578,43.849998474121094,36.5,37.40999984741211,27.279155731201172,71472500.0
2001-09-01,37.54999923706055,39.0,29.829999923706055,35.560001373291016,25.930160522460938,84414500.0
2001-10-01,35.279998779296875,40.54999923706055,33.099998474121094,37.83000183105469,27.585430145263672,90556000.0
2001-11-01,38.0,43.84000015258789,37.29999923706055,40.880001068115234,29.809473037719727,89047900.0
2001-12-01,40.650001525878906,45.369998931884766,40.08000183105469,44.380001068115234,32.361656188964844,76693500.0
2002-01-01,44.20000076293945,46.02000045776367,41.97999954223633,46.0,33.5429573059082,80990200.0
2002-02-01,45.68000030517578,46.900001525878906,41.25,41.2599983215332,30.086565017700195,88377600.0
2002-03-01,41.31999969482422,42.689998626708984,38.290000915527344,39.81999969482422,29.036523818969727,139301800.0
2002-04-01,39.470001220703125,43.04999923706055,38.56999969482422,40.20000076293945,29.313613891601562,88981000.0
2002-05-01,40.0099983215332,41.86000061035156,37.58000183105469,39.27000045776367,28.635465621948242,87754100.0
2002-06-01,39.290000915527344,41.349998474121094,36.56999969482422,38.619998931884766,28.161481857299805,79509800.0
2002-07-01,38.529998779296875,39.54999923706055,31.0,34.869998931884766,25.4270076751709,107983500.0
2002-08-01,34.56999969482422,36.72999954223633,31.610000610351562,33.40999984741211,24.362380981445312,106771900.0
2002-09-01,33.150001525878906,35.66999816894531,31.989999771118164,32.369998931884766,23.604022979736328,87916100.0
2002-10-01,32.45000076293945,37.0,28.75,33.93000030517578,24.741573333740234,137275400.0
2002-11-01,33.77000045776367,34.790000915527344,31.049999237060547,32.29999923706055,23.552982330322266,105825900.0
2002-12-01,33.029998779296875,34.43000030517578,27.09000015258789,28.059999465942383,20.461196899414062,152949000.0
2003-01-01,28.239999771118164,31.0,28.040000915527344,28.8700008392334,21.05183982849121,102664400.0
2003-02-01,28.969999313354492,30.770000457763672,27.93000030517578,30.520000457763672,22.255014419555664,64901700.0
2003-03-01,30.68000030517578,31.489999771118164,27.0,30.030000686645508,21.897706985473633,110479500.0
2003-04-01,30.170000076293945,35.220001220703125,29.760000228881836,34.61000061035156,25.2374210357666,91514500.0
2003-05-01,34.349998474121094,39.02000045776367,33.81999969482422,37.25,27.162487030029297,102462000.0
2003-06-01,37.27000045776367,37.97999954223633,34.72999954223633,36.599998474121094,26.68851661682129,84916100.0
2003-07-01,36.380001068115234,37.709999084472656,35.65999984741211,36.9900016784668,26.9728946685791,54265300.0
2003-08-01,36.900001525878906,37.310001373291016,28.829999923706055,32.25,23.51651954650879,204852100.0
2003-09-01,32.2400016784668,33.63999938964844,30.649999618530273,31.149999618530273,22.714405059814453,129415100.0
2003-10-01,31.149999618530273,35.7599983215332,31.100000381469727,35.45000076293945,25.84994125366211,97086000.0
2003-11-01,35.290000915527344,35.95000076293945,33.27000045776367,35.81999969482422,26.119731903076172,65059800.0
2003-12-01,35.95000076293945,37.400001525878906,35.130001068115234,37.18000030517578,27.1114444732666,92385500.0
2004-01-01,37.189998626708984,38.36000061035156,35.86000061035156,36.939998626708984,26.93643569946289,73353600.0
2004-02-01,36.970001220703125,39.5,36.83000183105469,38.86000061035156,28.336503982543945,61681700.0
2004-03-01,39.18000030517578,40.41999816894531,36.099998474121094,37.61000061035156,27.424999237060547,85947100.0
2004-04-01,37.43000030517578,38.77000045776367,36.75,37.5,27.344783782958984,66445600.0
2004-05-01,37.40999984741211,39.31999969482422,35.04999923706055,37.900001525878906,27.636476516723633,70581000.0
2004-05-06,,,,,,
2004-06-01,37.720001220703125,43.0,37.650001525878906,41.18000030517578,30.108705520629883,82119100.0
2004-07-01,41.29999923706055,41.97999954223633,39.810001373291016,40.709999084472656,29.765077590942383,72491600.0
2004-07-21,,,,,,
2004-08-01,40.61000061035156,42.790000915527344,39.560001373291016,41.16999816894531,30.174972534179688,74596500.0
2004-09-01,41.11000061035156,41.97999954223633,39.04999923706055,41.5099983215332,30.42416000366211,66245500.0
2004-10-01,41.7400016784668,48.54999923706055,41.47999954223633,47.939998626708984,35.13692855834961,91967700.0
2004-11-01,47.79999923706055,50.459999084472656,47.20000076293945,48.599998474121094,35.62068557739258,73920800.0
2004-11-03,,,,,,
2004-12-01,48.869998931884766,49.81999969482422,46.79999923706055,48.40999984741211,35.554691314697266,69564600.0
2005-01-01,48.2400016784668,49.18000030517578,46.33000183105469,47.27000045776367,34.71741485595703,51977500.0
2005-02-01,47.189998626708984,47.36000061035156,45.400001525878906,46.59000015258789,34.21797561645508,48508400.0
2005-02-04,,,,,,
2005-03-01,46.630001068115234,47.27000045776367,42.75,44.18000030517578,32.51809310913086,88083800.0
2005-04-01,44.36000061035156,47.22999954223633,39.47999954223633,40.630001068115234,29.905153274536133,97608200.0
2005-05-01,40.709999084472656,46.36000061035156,40.68000030517578,45.380001068115234,33.40132522583008,72604700.0
2005-05-04,,,,,,
2005-06-01,45.34000015258789,46.72999954223633,44.290000915527344,44.72999954223633,33.013214111328125,58189800.0
2005-07-01,45.099998474121094,46.79999923706055,44.52000045776367,45.970001220703125,33.928401947021484,40251700.0
2005-08-01,45.91999816894531,46.060001373291016,42.310001373291016,43.400001525878906,32.03159713745117,81912200.0
2005-08-03,,,,,,
2005-09-01,43.7599983215332,44.18000030517578,40.5099983215332,43.09000015258789,31.88359832763672,61770100.0
2005-10-01,43.040000915527344,48.599998474121094,42.349998474121094,48.369998931884766,35.79042434692383,81024900.0
2005-11-01,48.29999923706055,51.209999084472656,47.849998474121094,49.95000076293945,36.95951461791992,55618600.0
2005-11-16,,,,,,
2005-12-01,48.599998474121094,50.41999816894531,48.02000045776367,49.470001220703125,36.690025329589844,54919500.0
2006-01-01,49.75,51.08000183105469,48.7400016784668,49.88999938964844,37.00153350830078,50314800.0
2006-02-01,49.91999816894531,52.150001525878906,48.47999954223633,51.189998626708984,37.965675354003906,39344700.0
2006-02-07,,,,,,
2006-03-01,51.70000076293945,56.310001373291016,50.779998779296875,54.15999984741211,40.26240921020508,74544700.0
2006-04-01,54.47999954223633,57.380001068115234,53.2599983215332,54.43000030517578,40.46311569213867,56564500.0
2006-05-01,54.7400016784668,57.2400016784668,52.31999969482422,52.93000030517578,39.34800720214844,69298200.0
2006-05-08,,,,,,
2006-06-01,53.099998474121094,57.380001068115234,52.029998779296875,57.130001068115234,42.5678825378418,72765000.0
2006-07-01,57.18000030517578,57.939998626708984,50.70000076293945,52.7599983215332,39.31178283691406,82553700.0
2006-07-28,,,,,,
2006-08-01,52.400001525878906,52.650001525878906,46.0,46.790000915527344,34.95180130004883,119717400.0
2006-09-01,47.11000061035156,52.349998474121094,46.93000030517578,49.68000030517578,37.11061477661133,105807300.0
2006-10-01,49.56999969482422,54.349998474121094,47.88999938964844,53.380001068115234,39.874488830566406,110495000.0
2006-11-01,53.54999923706055,54.77000045776367,51.400001525878906,52.29999923706055,39.067745208740234,66647500.0
2006-11-15,,,,,,
2006-12-01,52.279998779296875,55.119998931884766,51.72999954223633,52.869998931884766,39.5916862487793,61920400.0
2007-01-01,53.349998474121094,57.25,52.43000030517578,56.15999984741211,42.05540466308594,63590400.0
2007-02-01,56.25,58.70000076293945,55.04999923706055,55.88999938964844,41.85319900512695,57578500.0
2007-02-12,,,,,,
2007-03-01,55.099998474121094,56.7400016784668,51.52000045776367,53.84000015258789,40.411930084228516,105195800.0
2007-04-01,53.349998474121094,56.06999969482422,53.349998474121094,53.56999969482422,40.209259033203125,73455700.0
2007-04-25,,,,,,
2007-05-01,53.58000183105469,57.45000076293945,53.0,56.470001220703125,42.49958038330078,89022100.0
2007-06-01,56.540000915527344,59.09000015258789,54.849998474121094,58.52000045776367,44.04241943359375,82585700.0
2007-07-01,59.5,63.06999969482422,58.34000015258789,59.79999923706055,45.00575637817383,89572800.0
2007-07-25,,,,,,
2007-08-01,60.0,65.56999969482422,57.2400016784668,61.75,46.585636138916016,114687300.0
2007-09-01,61.959999084472656,62.7400016784668,56.09000015258789,61.369998931884766,46.298954010009766,89661000.0
2007-10-01,61.52000045776367,70.55000305175781,61.15999984741211,67.26000213623047,50.74250411987305,119493700.0
2007-11-01,66.69999694824219,68.33000183105469,63.150001525878906,67.4000015258789,50.84812545776367,93320600.0
2007-11-28,,,,,,
2007-12-01,67.4000015258789,72.68000030517578,65.0999984741211,69.76000213623047,52.74452209472656,95612600.0
2008-01-01,69.62999725341797,70.44999694824219,62.380001068115234,67.94000244140625,51.36846923828125,147585600.0
2008-02-01,68.11000061035156,68.41999816894531,61.63999938964844,61.91999816894531,46.81681442260742,116784000.0
2008-02-13,,,,,,
2008-03-01,61.90999984741211,67.94999694824219,59.65999984741211,64.97000122070312,49.23371505737305,124947000.0
2008-04-01,65.18000030517578,72.23999786376953,64.97000122070312,71.25,53.992618560791016,86953200.0
2008-05-01,70.77999877929688,75.2300033569336,68.9000015258789,71.31999969482422,54.045684814453125,102556200.0
2008-05-14,,,,,,
2008-06-01,71.44999694824219,73.56999969482422,67.13999938964844,70.13999938964844,53.26669692993164,127820800.0
2008-07-01,69.41999816894531,74.88999938964844,60.2400016784668,62.68000030517578,47.60133361816406,190949900.0
2008-08-01,63.11000061035156,68.97000122070312,61.59000015258789,67.05999755859375,50.927650451660156,99945200.0
2008-08-06,,,,,,
2008-09-01,68.1500015258789,71.0,62.0,64.93000030517578,49.432411193847656,133535900.0
2008-10-01,64.0,65.12000274658203,48.65999984741211,57.0099983215332,43.402774810791016,186164000.0
2008-11-01,56.529998779296875,56.83000183105469,43.880001068115234,51.470001220703125,39.18506622314453,134303900.0
2008-11-12,,,,,,
2008-12-01,50.72999954223633,56.27000045776367,47.7599983215332,52.5,40.09192657470703,130133100.0
2009-01-01,52.439998626708984,53.619998931884766,44.790000915527344,45.029998779296875,34.387420654296875,115637700.0
2009-02-01,44.779998779296875,46.18000030517578,41.040000915527344,42.34000015258789,32.33317565917969,133948900.0
2009-02-11,,,,,,
2009-03-01,41.709999084472656,49.349998474121094,38.16999816894531,46.31999969482422,35.50172805786133,151183300.0
2009-04-01,45.66999816894531,48.970001220703125,44.029998779296875,48.599998474121094,37.24921417236328,112938500.0
2009-05-01,48.38999938964844,49.91999816894531,44.61000061035156,48.52000045776367,37.18790054321289,119077600.0
2009-05-13,,,,,,
2009-06-01,49.20000076293945,50.13999938964844,44.779998779296875,45.779998779296875,35.222999572753906,113315600.0
2009-07-01,45.810001373291016,49.93000030517578,44.369998931884766,49.5,38.085147857666016,96823400.0
2009-08-01,49.75,52.0,47.099998474121094,50.97999954223633,39.22386169433594,82577000.0
2009-08-12,,,,,,
2009-09-01,51.34000015258789,58.86000061035156,49.95000076293945,56.380001068115234,43.53880310058594,103969200.0
2009-10-01,56.150001525878906,60.29999923706055,55.400001525878906,56.849998474121094,43.9017448425293,92945500.0
2009-10-21,,,,,,
2009-11-01,56.849998474121094,61.25,56.7599983215332,59.90999984741211,46.406158447265625,63580000.0
2009-12-01,60.130001068115234,61.150001525878906,57.52000045776367,59.16999816894531,45.83296585083008,72889900.0
2010-01-01,59.130001068115234,60.439998626708984,56.75,57.43000030517578,44.48516082763672,61205800.0
2010-02-01,57.79999923706055,61.52000045776367,57.36000061035156,60.970001220703125,47.22725296020508,72957800.0
2010-02-10,,,,,,
2010-03-01,61.0,62.119998931884766,59.63999938964844,59.709999084472656,46.39335632324219,78643100.0
2010-04-01,59.72999954223633,61.959999084472656,58.61000061035156,59.08000183105469,45.90386962890625,83104700.0
2010-05-01,59.029998779296875,60.83000183105469,55.0,58.25,45.25896453857422,118287900.0
2010-05-05,,,,,,
2010-06-01,58.18000030517578,59.18000030517578,54.689998626708984,54.83000183105469,42.7480583190918,83488700.0
2010-07-01,54.72999954223633,57.400001525878906,53.40999984741211,56.709999084472656,44.21379470825195,90675600.0
2010-08-01,57.060001373291016,57.61000061035156,54.04999923706055,56.5,44.050071716308594,75912600.0
2010-08-04,,,,,,
2010-09-01,56.93000030517578,65.22000122070312,56.7599983215332,64.48999786376953,50.46238327026367,76683600.0
2010-10-01,64.91999816894531,65.45999908447266,61.900001525878906,62.77000045776367,49.11649703979492,86190200.0
2010-10-27,,,,,,
2010-11-01,63.04999923706055,68.0,62.709999084472656,67.61000061035156,53.0745964050293,70219900.0
2010-12-01,68.20999908447266,73.16000366210938,68.01000213623047,72.20999908447266,56.6856575012207,69379200.0
2011-01-01,72.75,73.69999694824219,70.01000213623047,71.83999633789062,56.39519500732422,51344400.0
2011-02-01,72.22000122070312,75.4800033569336,70.54000091552734,74.79000091552734,58.71098327636719,41166300.0
2011-02-09,,,,,,
2011-03-01,75.11000061035156,75.38999938964844,69.54000091552734,73.31999969482422,57.71519470214844,61283600.0
2011-04-01,73.16000366210938,81.5,73.13999938964844,80.88999938964844,63.67403030395508,51728400.0
2011-05-01,81.20999908447266,83.94999694824219,79.13999938964844,82.4800033569336,64.92565155029297,48334900.0
2011-05-11,,,,,,
2011-06-01,82.33999633789062,82.51000213623047,77.30999755859375,81.23999786376953,64.1367416381836,51884700.0
2011-07-01,81.5,83.44999694824219,77.19000244140625,78.25,61.77621841430664,36468100.0
2011-08-01,79.31999969482422,79.3499984741211,70.22000122070312,78.54000091552734,62.00516128540039,83484600.0
2011-08-03,,,,,,
2011-09-01,78.9800033569336,86.33999633789062,76.58999633789062,82.12999725341797,65.04524230957031,58581700.0
2011-10-01,81.72000122070312,86.13999938964844,78.41000366210938,83.25,65.93225860595703,61642600.0
2011-11-01,82.37000274658203,85.81999969482422,80.30000305175781,85.30000305175781,67.55582427978516,46929900.0
2011-11-08,,,,,,
2011-12-01,85.0,88.68000030517578,81.8499984741211,83.31999969482422,66.17639923095703,48945600.0
2012-01-01,84.27999877929688,85.08000183105469,78.80999755859375,82.2699966430664,65.34246063232422,51275200.0
2012-02-01,82.91999816894531,87.19999694824219,82.77999877929688,86.05999755859375,68.35264587402344,44535200.0
2012-02-08,,,,,,
2012-03-01,86.54000091552734,91.77999877929688,85.69000244140625,90.80000305175781,72.32263946533203,44799200.0
2012-04-01,90.94000244140625,92.0999984741211,86.02999877929688,88.18000030517578,70.23579406738281,43518200.0
2012-05-01,86.91000366210938,88.0,81.9800033569336,86.38999938964844,68.81004333496094,59100800.0
2012-05-23,,,,,,
2012-06-01,86.0,95.11000061035156,85.16999816894531,95.0,75.91832733154297,49076200.0
2012-07-01,95.0,97.76000213623047,93.11000061035156,96.18000030517578,76.8613052368164,34993500.0
2012-08-01,96.43000030517578,99.27999877929688,94.38999938964844,97.87000274658203,78.21187591552734,31041300.0
2012-08-08,,,,,,
2012-09-01,97.79000091552734,103.51000213623047,97.06999969482422,100.16000366210938,80.27234649658203,31903500.0
2012-10-01,100.62999725341797,104.43000030517578,93.83999633789062,98.43000030517578,78.8858413696289,69043500.0
2012-11-01,98.58999633789062,104.5,93.51000213623047,103.91999816894531,83.28575134277344,62802000.0
2012-11-14,,,,,,
2012-12-01,104.81999969482422,105.97000122070312,96.51000213623047,98.7300033569336,79.35431671142578,64890300.0
2012-12-06,,,,,,
2013-01-01,100.5999984741211,103.52999877929688,99.69999694824219,102.33999633789062,88.0748519897461,42633600.0
2013-02-01,102.88999938964844,104.3499984741211,98.94999694824219,101.29000091552734,87.17122650146484,41548000.0
2013-02-06,,,,,,
2013-03-01,100.81999969482422,107.05999755859375,100.26000213623047,106.11000061035156,91.56311798095703,43804300.0
2013-04-01,106.0,109.75,103.19999694824219,108.43000030517578,93.56505584716797,40330300.0
2013-05-01,108.12999725341797,115.7699966430664,107.72000122070312,109.62999725341797,94.60054016113281,40045500.0
2013-05-15,,,,,,
2013-06-01,109.91999816894531,112.58999633789062,107.37999725341797,110.56999969482422,95.6779556274414,34143100.0
2013-07-01,111.55000305175781,119.38999938964844,110.05999755859375,117.41999816894531,101.60533905029297,30468900.0
2013-08-01,118.06999969482422,120.19999694824219,110.19000244140625,111.87000274658203,96.8028564453125,31715100.0
2013-08-07,,,,,,
2013-09-01,112.80999755859375,119.47000122070312,111.3499984741211,115.16999816894531,99.91758728027344,33037000.0
2013-10-01,115.11000061035156,118.98999786376953,110.1500015258789,118.0,102.37281036376953,42905200.0
2013-11-01,118.70999908447266,126.12000274658203,118.55000305175781,125.43000030517578,108.81881713867188,31793400.0
2013-11-13,,,,,,
2013-12-01,125.66000366210938,125.69000244140625,115.8499984741211,119.0199966430664,103.51978302001953,43396100.0
2014-01-01,118.70999908447266,119.30000305175781,111.12999725341797,112.36000061035156,97.72713470458984,54683000.0
2014-02-01,112.95999908447266,117.47000122070312,109.5,116.80000305175781,101.58890533447266,41383300.0
2014-02-12,,,,,,
2014-03-01,116.22000122070312,117.06999969482422,111.1500015258789,111.68000030517578,97.39826965332031,54850200.0
2014-04-01,112.20999908447266,116.61000061035156,110.36000061035156,115.68000030517578,100.88675689697266,51977100.0
2014-05-01,115.68000030517578,116.91000366210938,111.61000061035156,116.0199966430664,101.18326568603516,40532600.0
2014-05-14,,,,,,
2014-06-01,115.83999633789062,118.8499984741211,114.51000213623047,115.16000366210938,100.74079895019531,33693000.0
2014-07-01,115.54000091552734,119.5999984741211,114.9000015258789,117.54000091552734,102.8227767944336,39082200.0
2014-07-09,,,,,,
2014-08-01,117.80000305175781,122.05999755859375,117.11000061035156,121.08000183105469,106.24060821533203,32829300.0
2014-09-01,121.0,127.77999877929688,120.9000015258789,125.31999969482422,109.96097564697266,39512400.0
2014-10-01,125.25,134.5,122.05000305175781,133.3699951171875,117.02439880371094,56709800.0
2014-11-01,133.82000732421875,142.97000122070312,133.3699951171875,142.1199951171875,124.70201873779297,33458700.0
2014-11-12,,,,,,
2014-12-01,143.32000732421875,146.82000732421875,136.5500030517578,141.75,124.7003402709961,46520400.0
2015-01-01,141.8699951171875,146.10000610351562,138.22000122070312,142.99000549316406,125.79124450683594,42037000.0
2015-02-01,144.0,156.85000610351562,140.1300048828125,146.9600067138672,129.28367614746094,62314000.0
2015-02-05,,,,,,
2015-02-11,,,,,,
2015-03-01,147.32000732421875,154.22999572753906,145.77999877929688,151.5,138.02374267578125,48746100.0
2015-04-01,151.8300018310547,152.9499969482422,142.5399932861328,143.0500030517578,130.32537841796875,39579200.0
2015-04-29,,,,,,
2015-05-01,143.4600067138672,147.55999755859375,141.52999877929688,142.58999633789062,130.26168823242188,40758600.0
2015-06-01,143.0500030517578,143.25,134.72999572753906,135.05999755859375,123.3827133178711,43415400.0
2015-07-01,135.7899932861328,147.0,135.05999755859375,145.3000030517578,132.73736572265625,40333900.0
2015-08-01,145.77999877929688,147.58999633789062,117.02999877929688,140.0500030517578,127.94126892089844,43378800.0
2015-08-12,,,,,,
2015-09-01,137.5800018310547,146.89999389648438,137.5,144.57000732421875,132.43359375,39105000.0
2015-10-01,144.85000610351562,159.39999389648438,142.19000244140625,158.1199951171875,144.84605407714844,46356600.0
2015-11-01,158.99000549316406,164.47000122070312,153.22999572753906,161.4199981689453,147.8690643310547,39892100.0
2015-11-10,,,,,,
2015-12-01,162.02000427246094,169.72999572753906,157.3300018310547,161.5,148.32472229003906,54513100.0
2016-01-01,159.80999755859375,161.22999572753906,144.91000366210938,151.1199951171875,138.79151916503906,48510000.0
2016-02-01,150.83999633789062,154.8800048828125,141.6199951171875,150.02999877929688,137.7904815673828,54382400.0
2016-02-10,,,,,,
2016-03-01,150.39999389648438,159.8000030517578,147.10000610351562,157.5800018310547,145.1168975830078,51290800.0
2016-04-01,157.8699951171875,159.08999633789062,147.4600067138672,148.1300048828125,136.41429138183594,42835300.0
2016-04-27,,,,,,
2016-05-01,148.75999450683594,153.8800048828125,138.57000732421875,148.77000427246094,137.4088592529297,69436400.0
2016-06-01,150.5,158.7899932861328,148.5500030517578,157.0399932861328,145.0472869873047,55950500.0
2016-07-01,157.19000244140625,168.82000732421875,154.6699981689453,167.22000122070312,154.44989013671875,43086800.0
2016-08-01,167.14999389648438,169.58999633789062,161.14999389648438,162.08999633789062,149.71165466308594,34033800.0
2016-08-10,,,,,,
2016-09-01,159.0,159.27999877929688,147.1999969482422,152.50999450683594,141.2418975830078,60766000.0
2016-10-01,152.22000122070312,152.32000732421875,147.10000610351562,147.8699951171875,136.94471740722656,46455900.0
2016-11-01,148.47999572753906,153.4199981689453,142.11000061035156,150.11000061035156,139.0192108154297,51222600.0
2016-11-02,,,,,,
2016-12-01,150.11000061035156,164.9499969482422,150.11000061035156,160.11000061035156,148.7367401123047,48204500.0
2017-01-01,160.64999389648438,164.8000030517578,158.50999450683594,163.9499969482422,152.30398559570312,36710400.0
2017-02-01,163.83999633789062,177.8699951171875,161.80999755859375,177.17999267578125,164.59422302246094,48179100.0
2017-02-08,,,,,,
2017-03-01,177.3699951171875,178.7100067138672,164.10000610351562,167.69000244140625,156.1979217529297,58812800.0
2017-04-01,167.74000549316406,178.27000427246094,166.11000061035156,177.52000427246094,165.354248046875,36641800.0
2017-05-01,178.5,183.17999267578125,169.05999755859375,180.42999267578125,168.06478881835938,53726300.0
2017-05-08,,,,,,
2017-05-10,,,,,,
2017-06-01,180.80999755859375,182.72000122070312,156.55999755859375,159.92999267578125,155.44049072265625,110663000.0
2017-07-01,160.2100067138672,161.35000610351562,150.0,158.50999450683594,154.06036376953125,93217800.0
2017-08-01,159.10000610351562,162.35000610351562,150.05999755859375,156.74000549316406,152.340087890625,78721800.0
2017-08-16,,,,,,
2017-09-01,157.58999633789062,165.32000732421875,155.02999877929688,164.2899932861328,160.18865966796875,50198600.0
2017-10-01,164.9199981689453,167.2899932861328,154.11000061035156,161.0800018310547,157.05880737304688,89106400.0
2017-11-01,161.97000122070312,184.89999389648438,161.2899932861328,184.42999267578125,179.8258819580078,57900700.0
2017-11-16,,,,,,
2017-12-01,183.25999450683594,195.35000610351562,181.1300048828125,186.1199951171875,182.01217651367188,60835900.0
2018-01-01,187.22999572753906,199.8800048828125,183.8800048828125,194.8699951171875,190.569091796875,57501400.0
2018-02-01,193.41000366210938,195.52000427246094,175.7899932861328,190.89999389648438,186.6866912841797,43370500.0
2018-02-15,,,,,,
2018-03-01,191.30999755859375,192.99000549316406,180.8300018310547,188.42999267578125,184.76429748535156,57402100.0
2018-04-01,186.91000366210938,199.0399932861328,180.94000244140625,197.16000366210938,193.32447814941406,44178400.0
2018-05-01,196.49000549316406,201.77000427246094,190.17999267578125,198.24000549316406,194.38345336914062,55250400.0
2018-05-10,,,,,,
2018-06-01,195.4499969482422,212.4600067138672,195.0,208.97999572753906,205.51206970214844,44835900.0
2018-07-01,208.4199981689453,224.6199951171875,206.0500030517578,218.7100067138672,215.08059692382812,36353800.0
2018-08-01,218.64999389648438,233.52000427246094,215.00999450683594,233.1300048828125,229.2613067626953,41228700.0
2018-08-30,,,,,,
2018-09-01,233.13999938964844,245.16000366210938,231.50999450683594,234.8800048828125,231.5556640625,41975400.0
2018-10-01,235.80999755859375,237.57000732421875,217.0,228.6300048828125,225.3941192626953,66756300.0
2018-11-01,228.17999267578125,240.8800048828125,217.4499969482422,231.27999877929688,228.00662231445312,47451000.0
2018-11-08,,,,,,
2018-12-01,230.72000122070312,233.86000061035156,189.50999450683594,203.7100067138672,201.30419921875,64334700.0
2019-01-01,200.5,215.55999755859375,199.85000610351562,214.6300048828125,212.09521484375,46077200.0
2019-02-01,214.0,219.69000244140625,205.75,218.74000549316406,216.1566925048828,37632900.0
2019-02-07,,,,,,
2019-03-01,219.75999450683594,242.44000244140625,215.77000427246094,242.13999938964844,239.92662048339844,50866400.0
2019-04-01,243.07000732421875,248.6999969482422,240.30999755859375,245.52999877929688,243.28564453125,32850000.0
2019-05-01,245.33999633789062,251.00999450683594,233.0500030517578,239.5800018310547,237.39002990722656,39654400.0
2019-05-09,,,,,,
2019-06-01,239.77999877929688,268.94000244140625,238.0800018310547,264.260009765625,262.55157470703125,34369400.0
2019-07-01,266.42999267578125,284.30999755859375,261.6700134277344,275.6300048828125,273.84808349609375,32122300.0
2019-08-01,275.75,299.95001220703125,262.7099914550781,294.760009765625,292.8544006347656,49910500.0
2019-08-29,,,,,,
2019-09-01,292.57000732421875,307.3399963378906,284.3999938964844,288.1099853515625,286.88055419921875,47479100.0
2019-10-01,288.0400085449219,304.8800048828125,281.6000061035156,297.1099853515625,295.8421630859375,46758300.0
2019-10-31,,,,,,
2019-11-01,297.989990234375,307.1000061035156,295.1700134277344,299.80999755859375,299.1792297363281,33480700.0
2019-12-01,299.75,300.20001220703125,289.1000061035156,293.9200134277344,293.3016357421875,45563900.0
2020-01-01,294.05999755859375,314.2799987792969,288.6199951171875,305.5199890136719,304.877197265625,43480800.0
2020-02-01,307.0,325.260009765625,271.2799987792969,281.1400146484375,280.54852294921875,43440100.0
2020-02-06,,,,,,
2020-03-01,294.44000244140625,324.510009765625,276.3399963378906,280.8599853515625,280.8599853515625,105740100.0
2020-03-26,281.3399963378906,287.5,280.8599853515625,287.3699951171875,287.3699951171875,3038443.0
