Date,Open,High,Low,Close,Adj Close,Volume
1998-06-01,0.2083333283662796,0.2682291567325592,0.1979166716337204,0.2513020932674408,0.24257054924964905,117825600.0
1998-07-01,0.25,0.3854166567325592,0.2473958283662796,0.3333333432674408,0.32175156474113464,148094400.0
1998-08-01,0.328125,0.4088541567325592,0.25,0.25,0.24131371080875397,85809600.0
1998-09-01,0.2578125,0.3463541567325592,0.2408854216337204,0.3229166567325592,0.3116967976093292,45907200.0
1998-10-01,0.3177083432674408,0.5026041865348816,0.1458333283662796,0.46484375,0.4486927092075348,144696000.0
1998-11-01,0.4869791567325592,0.5,0.3697916567325592,0.4505208432674408,0.43486732244491577,78499200.0
1998-12-01,0.4505208432674408,0.6979166865348816,0.4322916567325592,0.6328125,0.6108253002166748,111595200.0
1999-01-01,0.6380208134651184,0.8645833134651184,0.546875,0.8098958134651184,0.7817558646202087,63081600.0
1999-02-01,0.8255208134651184,1.0,0.7552083134651184,0.8958333134651184,0.8647074699401855,105028800.0
1999-03-01,0.8919270634651184,0.8932291865348816,0.4895833432674408,0.578125,0.558038055896759,235924800.0
1999-04-01,0.5807291865348816,0.58203125,0.40625,0.4674479067325592,0.4512063264846802,81763200.0
1999-05-01,0.46875,0.6497395634651184,0.4010416567325592,0.5234375,0.5052505135536194,61574400.0
1999-06-01,0.5208333134651184,0.5794270634651184,0.4583333432674408,0.54296875,0.5241031646728516,35400000.0
1999-07-01,0.5423176884651184,0.6302083134651184,0.4244791567325592,0.5598958134651184,0.5404422283172607,90993600.0
1999-08-01,0.5559895634651184,0.5651041865348816,0.4661458432674408,0.5026041865348816,0.4851410984992981,23510400.0
1999-09-01,0.5026041865348816,0.6822916865348816,0.4453125,0.6588541865348816,0.6359621286392212,77016000.0
1999-10-01,0.6666666865348816,0.9895833134651184,0.5338541865348816,0.95703125,0.9237789511680603,119102400.0
1999-11-01,0.97265625,1.2877603769302368,0.9583333134651184,1.2486978769302368,1.20531165599823,90542400.0
1999-12-01,1.19140625,2.5208332538604736,1.19140625,2.27734375,2.1982169151306152,89798400.0
2000-01-01,2.296875,2.3125,1.5208333730697632,1.5677083730697632,1.5132378339767456,41150400.0
2000-02-01,1.6536458730697632,2.8098957538604736,1.5833333730697632,2.2734375,2.194446563720703,69062400.0
2000-03-01,2.2916667461395264,3.0052082538604736,1.8763021230697632,2.6041667461395264,2.5136842727661133,80769600.0
2000-03-17,,,,,,
2000-04-01,2.5455729961395264,2.6041667461395264,1.0104166269302368,1.9114583730697632,1.845044493675232,39590400.0
2000-05-01,2.0130207538604736,2.7083332538604736,1.9453125,2.3333332538604736,2.252261161804199,37569600.0
2000-06-01,2.2864582538604736,2.5,1.3541666269302368,1.3828125,1.3347662687301636,52401600.0
2000-07-01,1.3854166269302368,2.0416667461395264,1.2890625,1.7135416269302368,1.6540043354034424,58156800.0
2000-08-01,1.7083333730697632,1.93359375,1.6354166269302368,1.78125,1.719360113143921,19068000.0
2000-09-01,1.7916666269302368,1.8020833730697632,1.3125,1.625,1.5685392618179321,51067200.0
2000-10-01,1.6171875,1.7083333730697632,1.390625,1.7083333730697632,1.6489769220352173,46860000.0
2000-11-01,1.6770833730697632,1.875,1.4947916269302368,1.5416666269302368,1.4881011247634888,52744800.0
2000-12-01,1.546875,1.8489583730697632,1.203125,1.5130208730697632,1.4604508876800537,46077600.0
2001-01-01,1.51953125,2.2395832538604736,1.3125,2.0520832538604736,1.980783462524414,31624800.0
2001-02-01,2.0286457538604736,2.0807292461395264,1.6015625,1.75,1.6891958713531494,23839200.0
2001-03-01,1.7395833730697632,1.7708333730697632,1.1588541269302368,1.2526041269302368,1.209082007408142,53872800.0
2001-04-01,1.2526041269302368,1.9833333492279053,1.1604167222976685,1.7616666555404663,1.700457215309143,85197600.0
2001-05-01,1.7583333253860474,1.8854166269302368,1.6104166507720947,1.7004166841506958,1.6413354873657227,27564000.0
2001-06-01,1.7062499523162842,1.8666666746139526,1.5420833826065063,1.7687499523162842,1.7072943449020386,38404800.0
2001-07-01,1.756250023841858,1.9187500476837158,1.5883333683013916,1.84375,1.7796884775161743,52178400.0
2001-08-01,1.84375,1.9104167222976685,1.6479166746139526,1.7620832920074463,1.7008593082427979,34596000.0
2001-09-01,1.7620832920074463,1.7620832920074463,0.7604166865348816,0.9333333373069763,0.9009044170379639,73238400.0
2001-10-01,0.9375,1.3224999904632568,0.737500011920929,1.1758333444595337,1.1349788904190063,85360800.0
2001-11-01,1.1762499809265137,1.462916612625122,1.1008332967758179,1.3337500095367432,1.287408471107483,30480000.0
2001-12-01,1.341249942779541,1.8879166841506958,1.3354166746139526,1.7074999809265137,1.6481724977493286,52413600.0
2002-01-01,1.7050000429153442,1.7379167079925537,1.3520833253860474,1.5295833349227905,1.4764376878738403,78868800.0
2002-02-01,1.5333333015441895,1.5433332920074463,1.3479167222976685,1.4774999618530273,1.4261640310287476,31824000.0
2002-03-01,1.4858332872390747,1.7687499523162842,1.475000023841858,1.7541667222976685,1.6932179927825928,29719200.0
2002-04-01,1.7604166269302368,2.004166603088379,1.5637500286102295,1.9583333730697632,1.89029061794281,65186400.0
2002-05-01,1.9495832920074463,2.3125,1.8825000524520874,2.03208327293396,1.9614778757095337,90588000.0
2002-06-01,2.0054166316986084,2.25,1.6791666746139526,2.2395832538604736,2.161768913269043,123254400.0
2002-07-01,2.216249942779541,2.5208332538604736,1.9487500190734863,2.43833327293396,2.3536131381988525,224400000.0
2002-08-01,2.472916603088379,2.555833339691162,1.9462499618530273,2.3920834064483643,2.3089699745178223,247473600.0
2002-09-01,2.370833396911621,2.700833320617676,2.2191667556762695,2.394583225250244,2.311382532119751,251299200.0
2002-10-01,2.402083396911621,2.9345834255218506,1.9704166650772095,2.7570834159851074,2.661288022994995,511795200.0
2002-11-01,2.759999990463257,3.115833282470703,2.6666667461395264,2.974583387374878,2.8712308406829834,275472000.0
2002-12-01,3.025416612625122,3.1879167556762695,2.8458333015441895,3.0095832347869873,2.9050142765045166,161035200.0
2003-01-01,3.0291666984558105,3.0570833683013916,2.319999933242798,2.5112500190734863,2.4239964485168457,565320000.0
2003-02-01,2.582083225250244,2.9329166412353516,2.4970834255218506,2.924999952316284,2.8233702182769775,737325600.0
2003-03-01,2.921250104904175,2.9666666984558105,2.5687499046325684,2.8045833110809326,2.7071373462677,366079200.0
2003-04-01,2.8125,2.9262499809265137,2.2249999046325684,2.244999885559082,2.166996955871582,543576800.0
2003-04-02,,,,,,
2003-05-01,2.2249999046325684,2.668750047683716,2.140000104904175,2.59375,2.5036299228668213,232364000.0
2003-06-01,2.6075000762939453,3.299999952316284,2.356250047683716,3.0487499237060547,2.9428205490112305,275908000.0
2003-07-01,3.018749952316284,4.098750114440918,3.0,3.851249933242798,3.717437267303467,248640000.0
2003-08-01,3.851249933242798,4.417500019073486,3.5399999618530273,4.353750228881836,4.202478885650635,134274400.0
2003-09-01,4.40500020980835,5.103750228881836,4.396249771118164,4.557499885559082,4.399148464202881,190459200.0
2003-10-01,4.573750019073486,5.74875020980835,4.567500114440918,5.673749923706055,5.476613998413086,198324000.0
2003-11-01,5.71750020980835,5.962500095367432,5.392499923706055,5.733749866485596,5.534529685974121,110220000.0
2003-12-01,5.739999771118164,6.198750019073486,5.101250171661377,5.704999923706055,5.506779193878174,198512800.0
2004-01-01,5.772500038146973,7.148749828338623,5.739999771118164,6.768750190734863,6.533568859100342,285208000.0
2004-02-01,6.78125,6.867499828338623,5.757500171661377,5.908750057220459,5.703448295593262,201618400.0
2004-03-01,5.886250019073486,6.019999980926514,5.043749809265137,5.65625,5.459722518920898,214019200.0
2004-04-01,5.651249885559082,6.164999961853027,5.387499809265137,5.40749979019165,5.219614505767822,153010400.0
2004-05-01,5.411250114440918,5.818749904632568,4.900000095367432,5.78000020980835,5.579172611236572,188598400.0
2004-06-01,5.691249847412109,6.659999847412109,5.5,6.352499961853027,6.131781578063965,135896000.0
2004-06-18,,,,,,
2004-07-01,6.40500020980835,6.982500076293945,5.710000038146973,6.887499809265137,6.648192405700684,114284000.0
2004-08-01,6.8125,6.875,6.005000114440918,6.855000019073486,6.616822719573975,86364800.0
2004-09-01,6.862500190734863,7.662499904632568,6.775000095367432,7.627500057220459,7.362480640411377,92853200.0
2004-10-01,7.597499847412109,8.792499542236328,7.412499904632568,8.5,8.204667091369629,160068400.0
2004-11-01,8.667499542236328,9.9399995803833,7.744999885559082,9.532500267028809,9.201292037963867,129240800.0
2004-12-01,9.574999809265137,10.732500076293945,9.125,10.582500457763672,10.214808464050293,144543200.0
2005-01-01,10.9375,11.020000457763672,8.892499923706055,9.475000381469727,9.145790100097656,171848800.0
2005-02-01,9.550000190734863,12.045000076293945,9.125,11.770000457763672,11.36104965209961,172360000.0
2005-03-01,11.895000457763672,12.3725004196167,10.8100004196167,11.550000190734863,11.14869499206543,134626000.0
2005-04-01,11.675000190734863,12.102499961853027,9.529999732971191,10.5024995803833,10.137588500976562,181874000.0
2005-05-01,10.5024995803833,12.055000305175781,10.352499961853027,12.0,11.583057403564453,116040800.0
2005-06-01,12.022500038146973,12.577500343322754,11.375,11.782500267028809,11.373115539550781,123284400.0
2005-07-01,11.8125,12.862500190734863,11.34749984741211,12.270000457763672,11.84367561340332,124867200.0
2005-08-01,12.300000190734863,12.489999771118164,10.9375,11.382499694824219,10.987011909484863,135604800.0
2005-09-01,11.335000038146973,12.227499961853027,10.609999656677246,11.647500038146973,11.242804527282715,102969600.0
2005-10-01,11.670000076293945,11.835000038146973,10.5625,10.994999885559082,10.612977027893066,151208800.0
2005-11-01,11.012499809265137,12.369999885559082,10.7475004196167,12.147500038146973,11.725430488586426,110038400.0
2005-12-01,12.15250015258789,13.117500305175781,12.015000343322754,12.567500114440918,12.130838394165039,116645200.0
2006-01-01,12.484999656677246,13.162500381469727,12.1274995803833,13.092499732971191,12.637598991394043,110836800.0
2006-02-01,12.992500305175781,14.762499809265137,12.412500381469727,14.40250015258789,13.902080535888672,116418800.0
2006-03-01,14.395000457763672,15.145000457763672,13.725000381469727,14.8725004196167,14.355753898620605,97110800.0
2006-04-01,14.957500457763672,16.270000457763672,14.112500190734863,15.90250015258789,15.34996509552002,98838000.0
2006-05-01,16.100000381469727,17.417499542236328,14.342499732971191,14.75,14.237507820129395,156610800.0
2006-06-01,14.75,17.09000015258789,14.3100004196167,16.842500686645508,16.25730323791504,147354400.0
2006-07-01,16.950000762939453,17.137500762939453,15.042499542236328,16.372499465942383,15.803633689880371,114985600.0
2006-08-01,16.125,17.997499465942383,15.774999618530273,17.477500915527344,16.870243072509766,118732400.0
2006-09-01,17.604999542236328,19.162500381469727,17.022499084472656,18.502500534057617,17.85962677001953,107291600.0
2006-10-01,18.604999542236328,19.86750030517578,17.962499618530273,18.81999969482422,18.16609764099121,100736800.0
2006-11-01,18.88249969482422,20.392499923706055,17.8799991607666,20.389999389648438,19.681541442871094,228015200.0
2006-12-01,20.4950008392334,20.622499465942383,18.8174991607666,19.290000915527344,18.619766235351562,94774000.0
2007-01-01,19.427499771118164,21.342500686645508,18.9375,21.322500228881836,20.58164405822754,111539600.0
2007-02-01,21.34749984741211,23.887500762939453,21.167499542236328,22.549999237060547,21.76649284362793,137146000.0
2007-03-01,21.84000015258789,23.667499542236328,21.30500030517578,22.0674991607666,21.300758361816406,142395600.0
2007-04-01,22.1200008392334,22.74250030517578,20.662500381469727,22.350000381469727,21.573448181152344,157988000.0
2007-05-01,22.547500610351562,22.547500610351562,18.6200008392334,19.639999389648438,18.95760726928711,249645600.0
2007-06-01,19.787500381469727,20.209999084472656,18.5,18.75,18.098526000976562,173104000.0
2007-07-01,18.842500686645508,22.09749984741211,18.512500762939453,20.2450008392334,19.541584014892578,227170800.0
2007-08-01,20.06999969482422,22.219999313354492,17.43000030517578,18.377500534057617,17.738967895507812,222571200.0
2007-09-01,18.3799991607666,20.202499389648438,16.899999618530273,19.947500228881836,19.25442123413086,174413600.0
2007-10-01,20.110000610351562,21.5,19.155000686645508,20.729999542236328,20.009729385375977,141339000.0
2007-10-17,,,,,,
2007-11-01,20.700000762939453,21.0,14.720000267028809,15.550000190734863,15.009711265563965,263907800.0
2007-12-01,15.65999984741211,18.135000228881836,15.300000190734863,16.969999313354492,16.380369186401367,130882800.0
2008-01-01,16.915000915527344,17.0,11.6850004196167,13.949999809265137,13.465303421020508,237812600.0
2008-02-01,14.050000190734863,16.9950008392334,13.029999732971191,15.104999542236328,14.580172538757324,209114800.0
2008-03-01,15.03499984741211,15.75,12.875,14.414999961853027,13.91415023803711,168162600.0
2008-04-01,14.585000038146973,16.420000076293945,13.15999984741211,16.125,15.564735412597656,175548000.0
2008-05-01,15.75,17.899999618530273,14.420000076293945,17.639999389648438,17.027099609375,239520600.0
2008-06-01,17.665000915527344,18.549999237060547,16.079999923706055,16.2549991607666,15.690218925476074,214514600.0
2008-07-01,16.135000228881836,16.264999389648438,13.300000190734863,14.03499984741211,13.547350883483887,288883000.0
2008-08-01,14.135000228881836,15.845000267028809,14.100000381469727,14.65999984741211,14.15063762664795,192201800.0
2008-09-01,15.0,15.149999618530273,10.34000015258789,11.414999961853027,11.018383979797363,266164400.0
2008-10-01,11.15999984741211,11.345000267028809,7.735000133514404,9.600000381469727,9.266447067260742,327557400.0
2008-11-01,9.600000381469727,10.5600004196167,7.190000057220459,9.600000381469727,9.266447067260742,197944800.0
2008-12-01,9.329999923706055,9.595000267028809,7.695000171661377,9.029999732971191,8.716251373291016,209856000.0
2009-01-01,8.890000343322754,10.824999809265137,8.890000343322754,9.364999771118164,9.039612770080566,268649600.0
2009-02-01,9.369999885559082,10.975000381469727,8.90999984741211,9.199999809265137,8.88034439086914,279831200.0
2009-03-01,8.795000076293945,11.09000015258789,8.630000114440918,10.395000457763672,10.033825874328613,303016200.0
2009-04-01,10.375,12.569999694824219,10.175000190734863,12.395000457763672,11.964332580566406,226546600.0
2009-05-01,12.265000343322754,13.755000114440918,12.029999732971191,12.595000267028809,12.15738296508789,242832200.0
2009-06-01,12.850000381469727,13.949999809265137,12.220000267028809,13.350000381469727,12.886153221130371,211023800.0
2009-07-01,13.774999618530273,15.40999984741211,12.505000114440918,14.795000076293945,14.28094482421875,203409400.0
2009-08-01,14.970000267028809,17.975000381469727,14.880000114440918,17.434999465942383,16.8292179107666,211977600.0
2009-09-01,17.434999465942383,19.700000762939453,16.920000076293945,19.329999923706055,18.65837287902832,150863000.0
2009-10-01,19.469999313354492,20.829999923706055,18.344999313354492,19.325000762939453,18.653549194335938,161458400.0
2009-11-01,19.360000610351562,22.875,19.184999465942383,21.96500015258789,21.201824188232422,136406800.0
2009-12-01,22.06999969482422,23.30500030517578,21.545000076293945,22.665000915527344,21.87750244140625,127661800.0
2010-01-01,22.81999969482422,24.475000381469727,21.790000915527344,21.829999923706055,21.071514129638672,148304000.0
2010-02-01,21.899999618530273,24.170000076293945,21.040000915527344,24.065000534057617,23.22885513305664,150335000.0
2010-03-01,24.239999771118164,26.34000015258789,24.079999923706055,25.489999771118164,24.604347229003906,144441800.0
2010-04-01,25.604999542236328,27.174999237060547,25.094999313354492,25.55500030517578,24.66708755493164,131836800.0
2010-05-01,25.625,26.649999618530273,22.924999237060547,25.020000457763672,24.150676727294922,191194600.0
2010-06-01,24.399999618530273,27.405000686645508,24.264999389648438,25.030000686645508,24.160327911376953,158606600.0
2010-07-01,24.979999542236328,28.040000915527344,24.489999771118164,27.280000686645508,26.332155227661133,144826800.0
2010-08-01,27.7549991607666,31.969999313354492,27.344999313354492,28.80500030517578,27.804161071777344,138122200.0
2010-09-01,29.31999969482422,32.875,29.28499984741211,32.23500061035156,31.114986419677734,122246200.0
2010-10-01,32.6349983215332,34.435001373291016,31.334999084472656,32.595001220703125,31.462486267089844,113800000.0
2010-11-01,33.44499969482422,33.45000076293945,30.6299991607666,32.4900016784668,31.361127853393555,118758600.0
2010-12-01,32.82500076293945,37.39500045776367,32.82500076293945,36.64500045776367,35.37175750732422,89199000.0
2011-01-01,37.06999969482422,38.224998474121094,35.32500076293945,36.474998474121094,35.20766067504883,90624200.0
2011-02-01,36.68000030517578,38.869998931884766,36.625,38.435001373291016,37.09956741333008,94836400.0
2011-03-01,38.525001525878906,40.92499923706055,35.26499938964844,40.70000076293945,39.2858772277832,105667000.0
2011-04-01,40.915000915527344,41.6150016784668,38.3849983215332,41.45000076293945,40.00981140136719,81631800.0
2011-05-01,41.724998474121094,41.7400016784668,35.845001220703125,38.02000045776367,36.6989860534668,130665200.0
2011-06-01,37.88999938964844,38.18000030517578,32.20000076293945,36.66999816894531,35.395896911621094,151259000.0
2011-07-01,36.7400016784668,38.85499954223633,34.189998626708984,34.935001373291016,33.7211799621582,85826200.0
2011-08-01,35.25,37.244998931884766,26.770000457763672,31.725000381469727,30.622711181640625,219406400.0
2011-09-01,32.23500061035156,34.2599983215332,29.075000762939453,31.350000381469727,30.260738372802734,146124600.0
2011-10-01,31.149999618530273,38.720001220703125,29.975000381469727,36.375,35.11114501953125,123778800.0
2011-11-01,35.86000061035156,35.98500061035156,30.760000228881836,33.67499923706055,32.50495147705078,126553200.0
2011-12-01,33.540000915527344,35.41999816894531,31.25,32.154998779296875,31.037771224975586,96584200.0
2012-01-01,33.31999969482422,36.2400016784668,32.459999084472656,35.875,34.62852096557617,91023000.0
2012-02-01,36.34000015258789,37.095001220703125,34.79999923706055,35.474998474121094,34.24241256713867,92233800.0
2012-03-01,35.724998474121094,39.0,35.08000183105469,38.474998474121094,37.1381721496582,81032200.0
2012-04-01,38.36000061035156,38.92499923706055,34.98500061035156,36.665000915527344,35.39106369018555,91272600.0
2012-05-01,36.654998779296875,37.084999084472656,27.850000381469727,29.125,28.113048553466797,243350600.0
2012-06-01,28.434999465942383,30.454999923706055,27.625,30.0,28.957643508911133,111224200.0
2012-07-01,30.149999618530273,30.274999618530273,26.959999084472656,28.385000228881836,27.398757934570312,99110600.0
2012-08-01,28.55500030517578,32.82500076293945,27.764999389648438,32.13999938964844,31.023286819458008,113978000.0
2012-09-01,32.154998779296875,35.724998474121094,31.684999465942383,34.94499969482422,33.7308235168457,102331800.0
2012-10-01,35.154998779296875,36.3650016784668,32.970001220703125,33.32500076293945,32.167118072509766,94055400.0
2012-11-01,33.439998626708984,34.404998779296875,32.099998474121094,33.6150016784668,32.447044372558594,106642600.0
2012-12-01,33.76499938964844,37.435001373291016,33.15999984741211,36.939998626708984,35.65651321411133,90863200.0
2013-01-01,37.72999954223633,39.77000045776367,37.05500030517578,39.09000015258789,37.7318115234375,88120200.0
2013-02-01,39.47999954223633,39.6150016784668,37.564998626708984,38.3849983215332,37.051307678222656,75388800.0
2013-03-01,38.224998474121094,40.540000915527344,37.01499938964844,38.310001373291016,36.97890853881836,73514600.0
2013-04-01,38.27000045776367,38.94499969482422,30.645000457763672,32.400001525878906,31.27425193786621,199217600.0
2013-05-01,32.22999954223633,34.3650016784668,30.94499969482422,32.32500076293945,31.201866149902344,214506000.0
2013-06-01,32.43000030517578,33.33000183105469,30.459999084472656,31.31999969482422,30.231781005859375,125786200.0
2013-07-01,31.700000762939453,37.459999084472656,31.56999969482422,36.19499969482422,34.937400817871094,115547800.0
2013-08-01,36.3650016784668,38.040000915527344,35.0,36.650001525878906,35.37659454345703,97083000.0
2013-09-01,37.0,42.084999084472656,36.790000915527344,41.060001373291016,39.633365631103516,90859400.0
2013-10-01,40.88999938964844,45.005001068115234,40.619998931884766,43.46500015258789,41.954803466796875,95538400.0
2013-11-01,43.64500045776367,47.875,43.06999969482422,46.94499969482422,45.313880920410156,72921200.0
2013-12-01,46.56999969482422,50.564998626708984,46.29499816894531,50.4900016784668,48.7357177734375,59057800.0
2014-01-01,50.125,50.810001373291016,47.71500015258789,48.45500183105469,46.77142333984375,88516000.0
2014-02-01,48.56999969482422,52.650001525878906,44.95500183105469,52.029998779296875,50.22220230102539,78096000.0
2014-03-01,51.5,54.0,47.41999816894531,50.599998474121094,48.841888427734375,83985900.0
2014-03-10,,,,,,
2014-04-01,50.779998779296875,53.400001525878906,47.27000045776367,47.90999984741211,46.245357513427734,71847800.0
2014-05-01,47.959999084472656,49.66999816894531,45.72999954223633,48.61000061035156,46.92103576660156,79026300.0
2014-06-01,48.61000061035156,50.310001373291016,46.779998779296875,48.90999984741211,47.21061325073242,72371000.0
2014-07-01,49.25,51.380001068115234,48.540000915527344,49.04999923706055,47.34575271606445,71887300.0
2014-08-01,49.119998931884766,50.619998931884766,41.5099983215332,45.72999954223633,44.1411018371582,147005000.0
2014-09-01,45.9900016784668,46.5,44.0099983215332,44.77000045776367,43.21445846557617,114880500.0
2014-10-01,44.75,49.11000061035156,42.939998626708984,48.849998474121094,47.15269470214844,116668000.0
2014-11-01,48.97999954223633,54.54999923706055,48.400001525878906,53.9900016784668,52.114105224609375,84919200.0
2014-12-01,53.88999938964844,54.88999938964844,50.16999816894531,52.65999984741211,50.830318450927734,82867100.0
2015-01-01,52.88999938964844,56.619998931884766,50.709999084472656,54.130001068115234,52.249244689941406,83956700.0
2015-02-01,54.40999984741211,63.150001525878906,53.33000183105469,62.4900016784668,60.31877899169922,83972400.0
2015-03-01,62.560001373291016,64.69000244140625,60.290000915527344,62.38999938964844,60.222251892089844,75604800.0
2015-04-01,62.45000076293945,63.22999954223633,58.380001068115234,58.540000915527344,56.506019592285156,64057300.0
2015-05-01,58.650001525878906,65.58000183105469,58.349998474121094,64.72000122070312,62.47129440307617,70463100.0
2015-06-01,65.05000305175781,65.95999908447266,60.779998779296875,61.09000015258789,58.967411041259766,63937500.0
2015-07-01,61.790000915527344,63.66999816894531,57.689998626708984,63.099998474121094,60.90757369995117,67310600.0
2015-08-01,63.310001373291016,69.3499984741211,57.5,62.939998626708984,60.753135681152344,89410000.0
2015-09-01,61.540000915527344,64.0,59.90999984741211,62.61000061035156,60.43461227416992,69091900.0
2015-10-01,62.95000076293945,69.80000305175781,61.27000045776367,68.11000061035156,65.7435073852539,68654900.0
2015-11-01,68.54000091552734,69.2300033569336,63.27000045776367,64.58000183105469,62.336158752441406,66784600.0
2015-12-01,64.6500015258789,65.25,58.150001525878906,60.02000045776367,57.93459701538086,80090700.0
2016-01-01,58.810001373291016,63.43000030517578,55.529998779296875,63.310001373291016,61.110286712646484,107942500.0
2016-02-01,62.47999954223633,63.0,51.220001220703125,56.97999954223633,55.00022888183594,104541900.0
2016-03-01,57.869998931884766,63.02000045776367,54.650001525878906,62.70000076293945,60.52147674560547,94671500.0
2016-04-01,62.31999969482422,63.189998626708984,57.779998779296875,58.369998931884766,56.341922760009766,70540100.0
2016-05-01,58.369998931884766,63.22999954223633,56.209999084472656,61.439998626708984,59.30525207519531,84634900.0
2016-06-01,61.43000030517578,62.709999084472656,55.16999816894531,57.2400016784668,55.25119400024414,96675000.0
2016-07-01,57.15999984741211,59.40999984741211,55.41999816894531,57.4900016784668,55.49250411987305,77170200.0
2016-08-01,57.58000183105469,60.470001220703125,56.31999969482422,57.439998626708984,55.44422912597656,90583100.0
2016-09-01,57.75,59.0,45.439998626708984,47.709999084472656,46.05230712890625,148644000.0
2016-10-01,48.65999984741211,51.97999954223633,48.5,51.349998474121094,49.565834045410156,115997700.0
2016-11-01,51.9900016784668,58.5,51.119998931884766,55.08000183105469,53.166229248046875,198004100.0
2016-12-01,55.2400016784668,57.209999084472656,53.75,55.84000015258789,53.899837493896484,97454300.0
2017-01-01,56.650001525878906,58.0,51.52000045776367,52.59000015258789,50.76274871826172,100120600.0
2017-02-01,52.68000030517578,59.66999816894531,51.58000183105469,59.27000045776367,57.21064376831055,133207400.0
2017-03-01,59.709999084472656,60.38999938964844,57.0,59.52000045776367,57.45197296142578,95258000.0
2017-04-01,59.54999923706055,60.400001525878906,57.5,60.22999954223633,58.137298583984375,75775000.0
2017-05-01,60.400001525878906,67.12999725341797,60.15999984741211,66.91000366210938,64.58518981933594,96162600.0
2017-05-18,,,,,,
2017-06-01,66.91000366210938,68.18000030517578,65.58999633789062,66.4000015258789,64.24231719970703,94091000.0
2017-07-01,66.93000030517578,70.48999786376953,66.05000305175781,69.31999969482422,67.06744384765625,56490200.0
2017-08-01,69.38999938964844,72.06999969482422,67.72000122070312,70.7699966430664,68.4703140258789,77967500.0
2017-08-18,,,,,,
2017-09-01,70.8499984741211,73.0,69.87999725341797,72.54000091552734,70.33267211914062,51991900.0
2017-10-01,72.51000213623047,76.51000213623047,72.22000122070312,75.66999816894531,73.36742401123047,60415200.0
2017-11-01,74.63999938964844,75.7699966430664,70.52999877929688,72.27999877929688,70.0805892944336,76183700.0
2017-11-17,,,,,,
2017-12-01,71.91000366210938,73.86000061035156,69.69000244140625,71.0199966430664,68.99623107910156,77789900.0
2018-01-01,71.16000366210938,78.94999694824219,70.54000091552734,77.9800033569336,75.75790405273438,71925200.0
2018-02-01,77.91000366210938,83.79000091552734,71.94999694824219,82.0199966430664,79.6827621459961,86374100.0
2018-02-21,,,,,,
2018-03-01,82.23999786376953,85.0999984741211,79.19999694824219,80.5,78.39837646484375,72071400.0
2018-04-01,80.45999908447266,83.23999786376953,78.45999908447266,81.81999969482422,79.68392944335938,63199700.0
2018-05-01,81.77999877929688,82.61000061035156,73.97000122070312,75.3499984741211,73.3828353881836,87549800.0
2018-05-21,,,,,,
2018-05-22,,,,,,
2018-06-01,75.77999877929688,80.75,75.7699966430664,78.98999786376953,77.33484649658203,75671200.0
2018-07-01,78.56999969482422,83.3499984741211,78.30000305175781,81.5,79.7922592163086,55529500.0
2018-08-01,81.5,82.29000091552734,74.12999725341797,78.43000030517578,76.7865982055664,78925800.0
2018-08-21,,,,,,
2018-09-01,75.11000061035156,77.8499984741211,74.0199966430664,77.1500015258789,75.73561096191406,58637700.0
2018-10-01,77.44999694824219,77.87000274658203,65.13999938964844,69.02999877929688,67.76447296142578,88435500.0
2018-11-01,68.98999786376953,71.81999969482422,67.01000213623047,71.2300033569336,69.92415618896484,78980000.0
2018-11-19,,,,,,
2018-12-01,71.69000244140625,72.2300033569336,59.470001220703125,63.47999954223633,62.49394226074219,76366500.0
2019-01-01,62.5,70.31999969482422,61.0099983215332,69.68000030517578,68.5976333618164,73622000.0
2019-02-01,69.94999694824219,74.69000244140625,69.77999877929688,70.9800033569336,69.87744140625,77010100.0
2019-02-20,,,,,,
2019-03-01,70.91000366210938,72.87999725341797,70.01000213623047,72.44999694824219,71.52005767822266,65553700.0
2019-04-01,73.0,74.8499984741211,70.37000274658203,72.95999908447266,72.02352142333984,62592200.0
2019-05-01,73.3499984741211,73.37999725341797,56.72999954223633,61.93000030517578,61.13509750366211,217525300.0
2019-05-21,,,,,,
2019-06-01,61.77000045776367,64.72000122070312,58.869998931884766,63.38999938964844,62.785675048828125,110122500.0
2019-07-01,64.47000122070312,66.5,63.599998474121094,65.13999938964844,64.51898956298828,68415900.0
2019-08-01,66.95999908447266,67.87999725341797,59.20000076293945,61.38999938964844,60.804744720458984,73126700.0
2019-08-21,,,,,,
2019-09-01,60.95000076293945,65.62000274658203,58.65999984741211,60.27000045776367,59.88993453979492,65065900.0
2019-10-01,60.400001525878906,62.20000076293945,58.88999938964844,60.939998626708984,60.55570602416992,66056900.0
2019-11-01,61.38999938964844,64.37000274658203,60.869998931884766,64.11000061035156,63.70571517944336,48943300.0
2019-11-18,,,,,,
2019-12-01,64.08999633789062,64.16000366210938,60.43000030517578,62.02000045776367,61.8239860534668,52345100.0
2020-01-01,62.290000915527344,63.380001068115234,59.97999954223633,61.380001068115234,61.186012268066406,64017300.0
2020-02-01,61.849998474121094,71.4800033569336,59.459999084472656,60.93000030517578,60.737430572509766,84889100.0
2020-02-14,,,,,,
2020-03-01,60.599998474121094,62.880001068115234,40.0099983215332,47.689998626708984,47.689998626708984,108945300.0
2020-03-26,48.0,50.45000076293945,47.43000030517578,48.88999938964844,48.88999938964844,1877669.0
