Date,Open,High,Low,Close,Adj Close,Volume
2007-06-01,28.0,32.16999816894531,27.93000030517578,28.5,23.262544631958008,16479900.0
2007-07-01,28.549999237060547,29.149999618530273,22.3700008392334,23.049999237060547,18.8140926361084,157631000.0
2007-08-01,22.68000030517578,24.56999969482422,20.350000381469727,23.139999389648438,18.887554168701172,99511200.0
2007-09-01,23.049999237060547,24.0,20.25,20.799999237060547,16.977577209472656,75963600.0
2007-10-01,21.0,23.329999923706055,16.90999984741211,19.299999237060547,15.753228187561035,108054900.0
2007-10-03,,,,,,
2007-11-01,18.950000762939453,19.5,15.720000267028809,17.3700008392334,14.2178316116333,113151000.0
2007-12-01,17.3700008392334,17.850000381469727,14.8100004196167,15.079999923706055,12.343400001525879,91397600.0
2007-12-31,,,,,,
2008-01-01,15.100000381469727,17.989999771118164,10.9399995803833,17.489999771118164,14.373778343200684,140670800.0
2008-02-01,17.209999084472656,17.979999542236328,13.699999809265137,15.09000015258789,12.401390075683594,123464800.0
2008-03-01,14.6899995803833,17.559999465942383,13.0,16.3700008392334,13.453329086303711,119415900.0
2008-04-01,16.549999237060547,19.459999084472656,16.549999237060547,18.209999084472656,14.96549129486084,100315200.0
2008-04-01,,,,,,
2008-05-01,18.1200008392334,19.8700008392334,16.530000686645508,17.149999618530273,14.146208763122559,77263700.0
2008-06-01,17.049999237060547,17.049999237060547,13.0,13.170000076293945,10.863292694091797,125116700.0
2008-06-27,,,,,,
2008-07-01,13.0,17.15999984741211,12.510000228881836,14.649999618530273,12.1394624710083,190660300.0
2008-08-01,15.0600004196167,16.670000076293945,13.819999694824219,16.450000762939453,13.63100528717041,103432200.0
2008-09-01,16.729999542236328,18.149999618530273,11.170000076293945,13.819999694824219,11.451699256896973,167802100.0
2008-09-29,,,,,,
2008-10-01,13.609999656677246,14.029999732971191,7.519999980926514,12.25,10.194690704345703,168101700.0
2008-11-01,12.039999961853027,12.739999771118164,6.590000152587891,10.229999542236328,8.513607025146484,133007800.0
2008-12-01,9.680000305175781,11.470000267028809,8.229999542236328,9.529999732971191,7.931051731109619,116287900.0
2008-12-30,,,,,,
2009-01-01,9.6899995803833,9.930000305175781,6.880000114440918,7.150000095367432,5.99232292175293,123836200.0
2009-02-01,6.96999979019165,8.039999961853027,5.050000190734863,5.730000019073486,4.802238941192627,153915700.0
2009-03-01,5.610000133514404,7.909999847412109,4.730000019073486,6.309999942779541,5.288329601287842,221388600.0
2009-03-30,,,,,,
2009-04-01,6.119999885559082,9.40999984741211,6.019999980926514,8.130000114440918,6.833748817443848,213606200.0
2009-05-01,8.0600004196167,11.649999618530273,8.020000457763672,9.5600004196167,8.035746574401855,189096400.0
2009-06-01,9.739999771118164,10.880000114440918,8.579999923706055,10.270000457763672,8.632549285888672,170537400.0
2009-06-29,,,,,,
2009-07-01,10.319999694824219,12.300000190734863,9.0,11.880000114440918,10.006062507629395,277467200.0
2009-08-01,12.239999771118164,14.239999771118164,11.970000267028809,13.75,11.581085205078125,172588400.0
2009-09-01,13.550000190734863,16.639999389648438,12.869999885559082,16.229999542236328,13.66989517211914,194324300.0
2009-09-29,,,,,,
2009-10-01,16.139999389648438,17.360000610351562,13.899999618530273,14.140000343322754,11.924102783203125,208002700.0
2009-11-01,14.25,16.309999465942383,13.850000381469727,15.460000038146973,13.037242889404297,113945600.0
2009-12-01,15.600000381469727,16.780000686645508,14.569999694824219,14.710000038146973,12.404778480529785,126646900.0
2009-12-29,,,,,,
2010-01-01,14.869999885559082,15.180000305175781,13.239999771118164,13.680000305175781,11.551779747009277,151130000.0
2010-02-01,13.729999542236328,14.100000381469727,12.579999923706055,13.649999618530273,11.526442527770996,111005600.0
2010-03-01,13.699999809265137,15.779999732971191,13.539999961853027,14.899999618530273,12.58198356628418,147459500.0
2010-03-30,,,,,,
2010-04-01,15.0600004196167,16.59000015258789,15.039999961853027,15.460000038146973,13.071893692016602,154367900.0
2010-05-01,15.59000015258789,16.18000030517578,12.609999656677246,13.449999809265137,11.372377395629883,164557500.0
2010-06-01,13.15999984741211,14.90999984741211,12.109999656677246,13.979999542236328,11.820513725280762,161502900.0
2010-07-01,14.079999923706055,15.649999618530273,13.329999923706055,15.270000457763672,12.91124153137207,119502700.0
2010-07-02,,,,,,
2010-08-01,15.649999618530273,15.779999732971191,13.729999542236328,14.510000228881836,12.286293983459473,82214900.0
2010-09-01,14.729999542236328,16.979999542236328,14.649999618530273,16.68000030517578,14.12373161315918,123472500.0
2010-10-01,16.899999618530273,17.940000534057617,16.1200008392334,17.649999618530273,14.945074081420898,105245900.0
2010-10-05,,,,,,
2010-11-01,17.760000228881836,19.15999984741211,17.6299991607666,18.280000686645508,15.497532844543457,84967000.0
2010-12-01,18.5,19.450000762939453,17.860000610351562,18.530000686645508,15.709474563598633,102634500.0
2010-12-27,,,,,,
2011-01-01,18.75,21.239999771118164,18.309999465942383,20.59000015258789,17.474851608276367,89261800.0
2011-02-01,20.790000915527344,22.040000915527344,20.229999542236328,21.75,18.459346771240234,57473200.0
2011-03-01,21.899999618530273,24.989999771118164,20.959999084472656,24.1200008392334,20.470781326293945,124713700.0
2011-04-01,24.489999771118164,25.110000610351562,23.520000457763672,24.84000015258789,21.081851959228516,100382400.0
2011-04-05,,,,,,
2011-05-01,24.979999542236328,25.760000228881836,22.90999984741211,23.84000015258789,20.282533645629883,124856500.0
2011-06-01,23.790000915527344,26.950000762939453,22.329999923706055,26.75,22.7582950592041,160957400.0
2011-07-01,26.06999969482422,27.920000076293945,25.020000457763672,25.610000610351562,21.78841209411621,141594000.0
2011-07-05,,,,,,
2011-08-01,25.770000457763672,25.93000030517578,20.510000228881836,25.15999984741211,21.454038619995117,187916800.0
2011-09-01,25.0,27.31999969482422,22.809999465942383,22.940000534057617,19.56103515625,170390800.0
2011-10-01,21.440000534057617,25.950000762939453,21.440000534057617,23.559999465942383,20.089710235595703,168383400.0
2011-10-04,,,,,,
2011-11-01,22.860000610351562,25.0,22.479999542236328,23.81999969482422,20.366313934326172,125500600.0
2011-12-01,23.700000762939453,24.850000381469727,22.84000015258789,24.0,20.52021026611328,92671700.0
2011-12-27,,,,,,
2012-01-01,24.34000015258789,28.09000015258789,23.75,27.18000030517578,23.33442497253418,122289300.0
2012-02-01,27.6299991607666,30.690000534057617,27.40999984741211,30.010000228881836,25.76402473449707,88238900.0
2012-03-01,30.09000015258789,34.43000030517578,29.6200008392334,33.34000015258789,28.622873306274414,144293700.0
2012-04-01,33.7400016784668,34.25,32.060001373291016,33.900001525878906,29.103641510009766,86099500.0
2012-04-03,,,,,,
2012-05-01,33.9900016784668,34.75,31.350000381469727,33.11000061035156,28.510019302368164,100064400.0
2012-06-01,32.220001220703125,34.58000183105469,30.479999542236328,34.58000183105469,29.775787353515625,129842700.0
2012-07-01,34.68000030517578,36.61000061035156,33.790000915527344,35.959999084472656,30.964069366455078,82583800.0
2012-07-02,,,,,,
2012-08-01,36.09000015258789,39.22999954223633,34.7599983215332,38.72999954223633,33.44593811035156,78258800.0
2012-09-01,38.630001068115234,40.279998779296875,37.0,39.72999954223633,34.309513092041016,86586100.0
2012-10-01,40.04999923706055,41.02000045776367,38.65999984741211,41.0,35.406246185302734,77107000.0
2012-10-02,,,,,,
2012-11-01,41.06999969482422,41.869998931884766,37.900001525878906,41.61000061035156,36.023258209228516,94326600.0
2012-12-01,41.810001373291016,42.08000183105469,37.36000061035156,38.54999923706055,33.374114990234375,107837000.0
2012-12-31,,,,,,
2013-01-01,39.38999938964844,40.630001068115234,37.4900016784668,38.38999938964844,33.358516693115234,115411300.0
2013-02-01,38.65999984741211,40.349998474121094,37.2400016784668,38.529998779296875,33.48017883300781,89400900.0
2013-03-01,38.31999969482422,45.380001068115234,37.88999938964844,44.84000015258789,38.96316909790039,106754600.0
2013-04-01,44.720001220703125,45.61000061035156,42.119998931884766,43.7400016784668,38.007347106933594,114425400.0
2013-05-01,43.68000030517578,49.709999084472656,43.66999816894531,47.40999984741211,41.196346282958984,87827600.0
2013-05-07,,,,,,
2013-06-01,47.75,49.380001068115234,45.08000183105469,47.63999938964844,41.57575225830078,74434300.0
2013-07-01,48.0099983215332,51.70000076293945,47.68000030517578,49.5099983215332,43.20771408081055,72037500.0
2013-08-01,49.959999084472656,51.18000030517578,46.93000030517578,47.25,41.23539733886719,50706100.0
2013-08-06,,,,,,
2013-09-01,47.77000045776367,53.36000061035156,47.4900016784668,50.540000915527344,44.280487060546875,59242400.0
2013-10-01,50.54999923706055,54.45000076293945,48.400001525878906,51.880001068115234,45.454524993896484,75833400.0
2013-11-01,51.869998931884766,53.70000076293945,50.220001220703125,53.29999923706055,46.69864273071289,57705300.0
2013-11-05,,,,,,
2013-12-01,53.4900016784668,56.20000076293945,51.25,55.95000076293945,49.208187103271484,53240200.0
2014-01-01,55.790000915527344,56.0,51.779998779296875,53.650001525878906,47.18532943725586,74232700.0
2014-02-01,53.65999984741211,57.93000030517578,51.630001068115234,57.380001068115234,50.465877532958984,60184900.0
2014-02-04,,,,,,
2014-03-01,56.959999084472656,60.0,56.310001373291016,58.189998626708984,51.37507629394531,63006400.0
2014-04-01,58.34000015258789,59.7400016784668,54.349998474121094,55.900001525878906,49.353271484375,69425300.0
2014-05-01,55.7599983215332,59.2400016784668,55.31999969482422,59.130001068115234,52.204994201660156,42966100.0
2014-05-06,,,,,,
2014-06-01,59.130001068115234,62.619998931884766,59.060001373291016,61.97999954223633,54.95506286621094,45905700.0
2014-07-01,62.36000061035156,64.44000244140625,61.040000915527344,61.060001373291016,54.13933563232422,53803400.0
2014-08-01,60.790000915527344,63.15999984741211,59.0,62.369998931884766,55.30085754394531,41665800.0
2014-08-05,,,,,,
2014-08-07,,,,,,
2014-09-01,62.84000015258789,65.9800033569336,62.209999084472656,64.38999938964844,57.55033874511719,44858500.0
2014-10-01,64.26000213623047,65.52999877929688,60.40999984741211,63.779998779296875,57.005130767822266,65628700.0
2014-11-01,63.95000076293945,66.75,63.439998626708984,65.55000305175781,58.58710861206055,44287600.0
2014-11-04,,,,,,
2014-12-01,65.54000091552734,66.72000122070312,60.150001525878906,65.48999786376953,58.75468444824219,59631900.0
2015-01-01,65.93000030517578,66.0199966430664,54.02000045776367,54.380001068115234,48.787288665771484,104419600.0
2015-02-01,54.40999984741211,61.5,54.09000015258789,60.97999954223633,54.70851516723633,86958000.0
2015-02-03,,,,,,
2015-03-01,60.97999954223633,61.22999954223633,56.040000915527344,56.349998474121094,50.77500915527344,78009400.0
2015-04-01,56.189998626708984,59.900001525878906,56.16999816894531,57.970001220703125,52.23472595214844,78050500.0
2015-05-01,58.209999084472656,60.56999969482422,57.70000076293945,58.27000045776367,52.50505065917969,52344600.0
2015-05-05,,,,,,
2015-06-01,58.34000015258789,59.54999923706055,57.310001373291016,57.619998931884766,52.165584564208984,64402400.0
2015-07-01,58.2599983215332,59.880001068115234,55.0,55.810001373291016,50.52694320678711,72587500.0
2015-08-01,55.779998779296875,56.84000015258789,50.91999816894531,53.72999954223633,48.643829345703125,89868300.0
2015-08-04,,,,,,
2015-09-01,52.209999084472656,54.2400016784668,50.36000061035156,51.9900016784668,47.30873107910156,66931000.0
2015-10-01,51.72999954223633,57.4900016784668,50.20000076293945,56.220001220703125,51.15785217285156,75566300.0
2015-11-01,56.20000076293945,58.08000183105469,55.380001068115234,56.7599983215332,51.64921951293945,53233400.0
2015-11-03,,,,,,
2015-12-01,57.060001373291016,57.400001525878906,51.939998626708984,53.619998931884766,49.03592300415039,72125200.0
2016-01-01,52.529998779296875,53.09000015258789,44.66999816894531,45.790000915527344,41.875328063964844,94685800.0
2016-02-01,45.790000915527344,47.77000045776367,42.86000061035156,46.41999816894531,42.45145034790039,80324000.0
2016-02-02,,,,,,
2016-03-01,46.689998626708984,51.130001068115234,46.369998931884766,50.91999816894531,46.85161590576172,65392500.0
2016-04-01,50.58000183105469,58.099998474121094,49.97999954223633,56.27000045776367,51.77416229248047,77207700.0
2016-05-01,56.5099983215332,57.099998474121094,53.54999923706055,56.810001373291016,52.27102279663086,56877700.0
2016-05-03,,,,,,
2016-06-01,56.810001373291016,57.77000045776367,50.31999969482422,53.59000015258789,49.55430603027344,74409800.0
2016-07-01,53.540000915527344,57.68000030517578,51.66999816894531,56.84000015258789,52.559566497802734,55126900.0
2016-08-01,56.81999969482422,60.04999923706055,55.279998779296875,60.0,55.48159408569336,50066600.0
2016-08-02,,,,,,
2016-09-01,60.029998779296875,60.290000915527344,55.63999938964844,56.54999923706055,52.57133865356445,61749400.0
2016-10-01,56.36000061035156,57.349998474121094,53.90999984741211,56.33000183105469,52.36680221557617,55969700.0
2016-11-01,56.459999084472656,68.87999725341797,55.40999984741211,67.7699966430664,63.00193405151367,62660500.0
2016-11-01,,,,,,
2016-12-01,68.0,73.62000274658203,66.87999725341797,72.81999969482422,68.0591049194336,59337300.0
2017-01-01,72.9000015258789,74.33000183105469,68.2699966430664,69.27999877929688,64.75054168701172,56377900.0
2017-02-01,69.69999694824219,72.30999755859375,67.7300033569336,71.13999938964844,66.4889144897461,39664900.0
2017-02-07,,,,,,
2017-03-01,72.2300033569336,72.91000366210938,65.54000091552734,68.38999938964844,64.1966781616211,45030900.0
2017-04-01,68.47000122070312,68.54000091552734,62.27000045776367,62.59000015258789,58.75229263305664,56358700.0
2017-05-01,62.349998474121094,62.630001068115234,57.81999969482422,58.70000076293945,55.10081100463867,90058300.0
2017-05-09,,,,,,
2017-06-01,58.880001068115234,63.279998779296875,58.2400016784668,62.189998626708984,58.66807556152344,64985200.0
2017-07-01,62.41999816894531,64.0,59.91999816894531,60.939998626708984,57.48886489868164,58775900.0
2017-08-01,61.290000915527344,62.540000915527344,58.130001068115234,58.95000076293945,55.61156463623047,49570100.0
2017-08-22,,,,,,
2017-09-01,59.119998931884766,64.7300033569336,57.5,64.4800033569336,61.189727783203125,49279700.0
2017-10-01,64.51000213623047,67.41000366210938,63.529998779296875,66.52999877929688,63.13512420654297,55988900.0
2017-11-01,66.68000030517578,71.18000030517578,63.310001373291016,70.5999984741211,66.99742889404297,43464700.0
2017-11-21,,,,,,
2017-12-01,70.79000091552734,77.79000091552734,68.7699966430664,76.91999816894531,73.38516998291016,47401700.0
2018-01-01,77.23999786376953,81.93000030517578,76.37999725341797,79.80000305175781,76.13282012939453,48541100.0
2018-02-01,79.51000213623047,81.33999633789062,71.30999755859375,78.83000183105469,75.20740509033203,42767600.0
2018-02-21,,,,,,
2018-03-01,78.63999938964844,79.33999633789062,69.55000305175781,71.93000030517578,68.92742919921875,49921700.0
2018-04-01,71.41000366210938,74.38999938964844,68.55999755859375,71.25,68.27581787109375,43847400.0
2018-05-01,71.08999633789062,78.97000122070312,68.4800033569336,73.86000061035156,70.77686309814453,43845900.0
2018-05-23,,,,,,
2018-06-01,74.58000183105469,76.55000305175781,69.2300033569336,70.41000366210938,67.7741470336914,43252200.0
2018-07-01,69.9000015258789,74.18000030517578,69.58000183105469,71.41000366210938,68.7367172241211,44477400.0
2018-08-01,71.5999984741211,79.69000244140625,70.9800033569336,78.12000274658203,75.19552612304688,43606000.0
2018-08-22,,,,,,
2018-09-01,78.20999908447266,80.36000061035156,76.36000061035156,76.44999694824219,73.96138763427734,34143400.0
2018-10-01,77.26000213623047,78.76000213623047,66.83000183105469,69.66999816894531,67.40208435058594,48006300.0
2018-11-01,69.79000091552734,72.05000305175781,67.76000213623047,71.30000305175781,68.9790267944336,37715300.0
2018-11-20,,,,,,
2018-12-01,71.9800033569336,72.52999877929688,54.36000061035156,58.97999954223633,57.388099670410156,56038500.0
2019-01-01,57.91999816894531,68.0,57.790000915527344,67.48999786376953,65.66840362548828,56305600.0
2019-02-01,67.58999633789062,72.27999877929688,67.41999816894531,71.61000061035156,69.67720794677734,40623200.0
2019-02-20,,,,,,
2019-03-01,72.0199966430664,74.41000366210938,69.11000061035156,71.16000366210938,69.62840270996094,41439100.0
2019-04-01,71.7300033569336,81.98999786376953,71.7300033569336,81.48999786376953,79.7360610961914,33528200.0
2019-05-01,81.4800033569336,82.51000213623047,74.36000061035156,74.55000305175781,72.94544219970703,40431100.0
2019-05-23,,,,,,
2019-06-01,74.55000305175781,79.55000305175781,74.37999725341797,77.58999633789062,76.30907440185547,35518700.0
2019-07-01,78.7300033569336,92.9800033569336,78.12999725341797,89.73999786376953,88.25850677490234,47720300.0
2019-08-01,89.75,90.05000305175781,76.26000213623047,79.97000122070312,78.64978790283203,40645500.0
2019-08-21,,,,,,
2019-09-01,79.11000061035156,85.69000244140625,77.55999755859375,81.08999633789062,80.1937484741211,36322600.0
2019-10-01,81.70999908447266,83.33000183105469,74.8499984741211,80.26000213623047,79.3729248046875,40520100.0
2019-11-01,81.05999755859375,85.33000183105469,80.83000183105469,84.87000274658203,83.93197631835938,25149400.0
2019-11-20,,,,,,
2019-12-01,85.26000213623047,87.43000030517578,81.58999633789062,84.81999969482422,84.32469940185547,30093800.0
2020-01-01,85.11000061035156,85.86000061035156,73.43000030517578,75.12999725341797,74.6912841796875,57043600.0
2020-02-01,75.7699966430664,78.13999938964844,63.2400016784668,65.58000183105469,65.19705200195312,41593900.0
2020-02-19,,,,,,
2020-03-01,66.11000061035156,68.7300033569336,23.25,37.45000076293945,37.45000076293945,103594700.0
2020-03-26,39.65999984741211,43.81999969482422,39.060001373291016,42.060001373291016,42.060001373291016,4898061.0
