Date,Open,High,Low,Close,Adj Close,Volume
2009-11-01,22.0,23.979999542236328,21.75,23.0,21.698659896850586,31249000.0
2009-12-01,23.440000534057617,24.770000457763672,22.079999923706055,22.43000030517578,21.160917282104492,13516700.0
2010-01-01,22.549999237060547,24.899999618530273,22.399999618530273,23.489999771118164,22.16093635559082,8081900.0
2010-02-01,23.68000030517578,24.350000381469727,21.299999237060547,23.889999389648438,22.538301467895508,6128500.0
2010-03-01,24.010000228881836,26.510000228881836,23.770000457763672,25.25,23.821353912353516,8401800.0
2010-04-01,25.350000381469727,29.90999984741211,25.290000915527344,28.56999969482422,26.953510284423828,32503000.0
2010-05-01,28.59000015258789,31.3799991607666,26.739999771118164,30.229999542236328,28.51958656311035,27113300.0
2010-06-01,30.229999542236328,31.40999984741211,27.209999084472656,27.549999237060547,25.99122428894043,29838900.0
2010-07-01,27.510000228881836,30.170000076293945,26.610000610351562,29.18000030517578,27.529001235961914,22476500.0
2010-08-01,29.520000457763672,30.200000762939453,26.639999389648438,27.309999465942383,25.764801025390625,18035200.0
2010-09-01,27.65999984741211,29.899999618530273,27.0,29.25,27.59503746032715,19354200.0
2010-10-01,29.290000915527344,30.1299991607666,27.399999618530273,28.190000534057617,26.595014572143555,13149300.0
2010-11-01,28.219999313354492,33.72999954223633,27.290000915527344,32.84000015258789,30.981914520263672,23146600.0
2010-12-01,33.209999084472656,33.68000030517578,30.280000686645508,30.670000076293945,28.934688568115234,43207400.0
2011-01-01,31.0,31.0,27.729999542236328,27.809999465942383,26.236513137817383,39122100.0
2011-02-01,27.989999771118164,31.3799991607666,26.649999618530273,28.25,26.651613235473633,56035100.0
2011-03-01,28.299999237060547,32.099998474121094,27.559999465942383,31.350000381469727,29.57621955871582,43227500.0
2011-04-01,31.43000030517578,33.58000183105469,30.920000076293945,32.59000015258789,30.746068954467773,24297400.0
2011-05-01,32.56999969482422,35.09000015258789,32.279998779296875,35.06999969482422,33.08574295043945,22587000.0
2011-06-01,32.75,34.70000076293945,31.309999465942383,33.88999938964844,31.972505569458008,45149600.0
2011-07-01,33.91999816894531,34.470001220703125,31.100000381469727,31.459999084472656,29.67999267578125,23122700.0
2011-08-01,31.709999084472656,36.86000061035156,29.84000015258789,36.599998474121094,34.52916717529297,51516900.0
2011-09-01,36.540000915527344,38.59000015258789,34.220001220703125,37.7599983215332,35.62354278564453,72794600.0
2011-10-01,37.709999084472656,40.709999084472656,35.83000183105469,39.65999984741211,37.416038513183594,36326600.0
2011-11-01,38.97999954223633,40.599998474121094,38.31999969482422,40.56999969482422,38.27455520629883,23229600.0
2011-12-01,40.54999923706055,42.099998474121094,38.849998474121094,41.13999938964844,38.81230545043945,68241300.0
2012-01-01,41.52000045776367,43.0,39.83000183105469,42.61000061035156,40.19913101196289,31877600.0
2012-02-01,42.790000915527344,43.150001525878906,41.20000076293945,42.060001373291016,39.68025588989258,33266300.0
2012-03-01,42.11000061035156,47.59000015258789,42.040000915527344,46.20000076293945,43.58601379394531,62929100.0
2012-04-01,46.380001068115234,48.7400016784668,45.34000015258789,47.459999084472656,44.77472686767578,44044100.0
2012-05-01,47.5099983215332,49.5,45.369998931884766,48.90999984741211,46.14268112182617,55333600.0
2012-06-01,48.41999816894531,55.29999923706055,46.45000076293945,54.38999938964844,51.31261444091797,116649600.0
2012-07-01,54.61000061035156,56.040000915527344,49.41999816894531,51.0099983215332,48.12385559082031,63503200.0
2012-08-01,51.380001068115234,52.970001220703125,48.189998626708984,51.06999969482422,48.18047332763672,61564300.0
2012-09-01,51.31999969482422,53.36000061035156,48.5099983215332,51.540000915527344,48.62386703491211,88342000.0
2012-10-01,52.0,52.459999084472656,45.58000183105469,48.619998931884766,45.869083404541016,106690900.0
2012-11-01,48.400001525878906,50.79999923706055,46.45000076293945,50.0,47.17100524902344,141443100.0
2012-12-01,50.040000915527344,50.2400016784668,42.25,44.09000015258789,41.59539031982422,134346100.0
2013-01-01,44.40999984741211,47.2400016784668,39.72999954223633,46.220001220703125,43.604888916015625,99183600.0
2013-02-01,46.459999084472656,47.5,43.349998474121094,46.34000015258789,43.718082427978516,103370400.0
2013-03-01,46.2599983215332,52.90999984741211,45.84000015258789,50.58000183105469,47.718196868896484,114040300.0
2013-04-01,50.77000045776367,52.9900016784668,49.54999923706055,52.09000015258789,49.14274597167969,78213500.0
2013-05-01,52.0,55.16999816894531,51.83000183105469,52.79999923706055,49.81257629394531,51662800.0
2013-06-01,53.060001373291016,53.9900016784668,48.61000061035156,50.43000030517578,47.5766716003418,92272900.0
2013-07-01,51.029998779296875,55.79999923706055,50.529998779296875,54.66999816894531,51.57676696777344,67866000.0
2013-08-01,54.970001220703125,56.099998474121094,52.400001525878906,53.970001220703125,50.9163818359375,55795700.0
2013-09-01,54.470001220703125,58.709999084472656,53.400001525878906,56.459999084472656,53.2654914855957,59463300.0
2013-10-01,56.59000015258789,59.869998931884766,55.959999084472656,57.779998779296875,54.51080322265625,55000900.0
2013-11-01,57.83000183105469,59.560001373291016,56.810001373291016,56.939998626708984,53.71833419799805,53642700.0
2013-12-01,56.90999984741211,61.95000076293945,55.560001373291016,60.31999969482422,56.90709686279297,81235200.0
2014-01-01,60.380001068115234,62.93000030517578,55.08000183105469,56.31999969482422,53.133419036865234,90166100.0
2014-02-01,56.47999954223633,61.18000030517578,55.20000076293945,59.900001525878906,56.510868072509766,68455300.0
2014-03-01,59.58000183105469,60.619998931884766,55.08000183105469,55.47999954223633,52.34095001220703,113455800.0
2014-04-01,55.5,57.540000915527344,54.43000030517578,56.439998626708984,53.24663162231445,78912500.0
2014-05-01,56.709999084472656,57.45000076293945,53.0,53.779998779296875,50.737125396728516,82236600.0
2014-06-01,53.790000915527344,65.98999786376953,53.70000076293945,57.36000061035156,54.114585876464844,149860200.0
2014-07-01,57.56999969482422,58.439998626708984,53.779998779296875,55.22999954223633,52.10508346557617,126130900.0
2014-08-01,55.310001373291016,65.04000091552734,55.150001525878906,63.9900016784668,60.36945343017578,156560000.0
2014-09-01,64.5,65.0999984741211,60.779998779296875,61.11000061035156,57.65241241455078,83862600.0
2014-10-01,61.22999954223633,63.41999816894531,57.09000015258789,62.66999816894531,59.124141693115234,84086900.0
2014-11-01,62.880001068115234,67.94999694824219,62.5,66.73999786376953,62.96384811401367,77351800.0
2014-12-01,66.95999908447266,71.77999877929688,65.41000366210938,70.69999694824219,66.69979858398438,91299400.0
2015-01-01,70.69999694824219,71.47000122070312,65.31999969482422,67.05999755859375,63.2657470703125,123285700.0
2015-02-01,67.13999938964844,73.2699966430664,65.86000061035156,72.62000274658203,68.51118469238281,75848500.0
2015-03-01,72.62000274658203,76.27999877929688,70.87999725341797,75.37999725341797,71.11499786376953,81180600.0
2015-04-01,75.08999633789062,76.98999786376953,72.44999694824219,72.70999908447266,68.5960693359375,68574700.0
2015-04-06,,,,,,
2015-05-01,73.06999969482422,75.36000061035156,71.44000244140625,72.58999633789062,68.6828384399414,57727900.0
2015-06-01,72.73999786376953,79.5999984741211,72.19000244140625,77.73999786376953,73.55563354492188,59012700.0
2015-06-15,,,,,,
2015-07-01,78.1500015258789,81.41999816894531,77.80999755859375,80.37000274658203,76.25968933105469,44107400.0
2015-08-01,80.37000274658203,81.1500015258789,70.3499984741211,74.48999786376953,70.6803970336914,70048700.0
2015-09-01,73.05000305175781,73.58000183105469,68.44999694824219,72.44000244140625,68.73526000976562,78571300.0
2015-09-14,,,,,,
2015-10-01,72.44000244140625,72.5,64.66000366210938,67.7699966430664,64.50578308105469,99597100.0
2015-11-01,67.80000305175781,68.97000122070312,59.75,65.41000366210938,62.259456634521484,90863600.0
2015-12-01,65.52999877929688,73.0,65.11000061035156,71.87000274658203,68.40830993652344,74682800.0
2015-12-21,,,,,,
2016-01-01,70.93000030517578,75.13999938964844,67.13999938964844,75.05999755859375,71.66504669189453,67458900.0
2016-02-01,74.86000061035156,76.75,67.9000015258789,74.25,70.89167785644531,60010000.0
2016-03-01,74.54000091552734,86.80000305175781,72.58000183105469,85.5999984741211,81.72830200195312,74732200.0
2016-03-24,,,,,,
2016-04-01,85.55000305175781,87.41999816894531,79.88999938964844,81.91000366210938,78.43724822998047,50969300.0
2016-05-01,82.05999755859375,90.93000030517578,78.91000366210938,89.9000015258789,86.0885009765625,61467100.0
2016-06-01,89.9000015258789,94.2699966430664,89.27999877929688,94.0,90.01467895507812,58143700.0
2016-06-13,,,,,,
2016-07-01,94.11000061035156,96.87999725341797,91.6500015258789,94.73999786376953,90.97200775146484,42854900.0
2016-08-01,93.8499984741211,94.75,73.19000244140625,73.41000366210938,70.4903564453125,107190400.0
2016-09-01,73.88999938964844,74.38999938964844,68.7699966430664,69.98999786376953,67.20638275146484,99363900.0
2016-09-12,,,,,,
2016-10-01,69.2699966430664,70.0,66.5,69.08999633789062,66.57796478271484,58295600.0
2016-11-01,69.04000091552734,80.66999816894531,68.04000091552734,77.31999969482422,74.50875854492188,74429500.0
2016-12-01,72.48999786376953,78.05999755859375,70.58999633789062,74.06999969482422,71.37692260742188,67458200.0
2016-12-19,,,,,,
2017-01-01,74.33999633789062,76.29000091552734,69.87000274658203,73.81999969482422,71.36741638183594,53867900.0
2017-02-01,73.63999938964844,79.3499984741211,72.16999816894531,73.0199966430664,70.59400177001953,52167100.0
2017-03-01,74.75,75.38999938964844,68.2300033569336,69.7300033569336,67.41329193115234,78314500.0
2017-04-01,69.83999633789062,73.44000244140625,67.94000244140625,72.70999908447266,70.29429626464844,46471300.0
2017-04-07,,,,,,
2017-05-01,73.0,74.66999816894531,69.13999938964844,73.38999938964844,71.21794891357422,56334300.0
2017-06-01,75.81999969482422,79.27999877929688,65.97000122070312,72.08999633789062,69.95641326904297,88614800.0
2017-07-01,72.52999877929688,75.52999877929688,68.69000244140625,75.16000366210938,72.93556213378906,50992300.0
2017-07-07,,,,,,
2017-08-01,75.58000183105469,79.69999694824219,70.30000305175781,72.55999755859375,70.67489624023438,72416400.0
2017-09-01,72.77999877929688,81.30000305175781,71.80000305175781,81.05000305175781,78.94432830810547,60803000.0
2017-10-01,80.98999786376953,85.06999969482422,78.83000183105469,80.83999633789062,78.73979187011719,43753900.0
2017-10-06,,,,,,
2017-11-01,81.20999908447266,89.80000305175781,79.79000091552734,88.08000183105469,86.06633758544922,51697100.0
2017-12-01,88.33999633789062,96.5999984741211,86.80000305175781,93.01000213623047,90.88362121582031,57130100.0
2018-01-01,93.55999755859375,105.81999969482422,93.31999969482422,103.12000274658203,100.76249694824219,44681600.0
2018-01-08,,,,,,
2018-02-01,102.18000030517578,103.01000213623047,92.73999786376953,94.58999633789062,92.67923736572266,49643400.0
2018-03-01,94.56999969482422,96.5,85.54000091552734,93.55000305175781,91.66024780273438,73630800.0
2018-04-01,93.2300033569336,101.19999694824219,91.97000122070312,96.52999877929688,94.5800552368164,49556200.0
2018-04-09,,,,,,
2018-05-01,96.26000213623047,98.61000061035156,86.87000274658203,87.4800033569336,85.97541046142578,65292500.0
2018-06-01,87.5,101.18000030517578,87.26000213623047,98.5999984741211,96.90414428710938,57732300.0
2018-07-01,98.61000061035156,100.6500015258789,97.11000061035156,98.1500015258789,96.4618911743164,36358900.0
2018-07-09,,,,,,
2018-08-01,98.1500015258789,109.05000305175781,96.37000274658203,107.7300033569336,106.18934631347656,45583700.0
2018-09-01,107.98999786376953,112.58999633789062,106.94999694824219,109.30000305175781,107.73690032958984,45019900.0
2018-10-01,109.55999755859375,113.4800033569336,101.88999938964844,111.37999725341797,109.78714752197266,59562600.0
2018-10-05,,,,,,
2018-11-01,111.66000366210938,118.44999694824219,103.61000061035156,110.98999786376953,109.70728302001953,48648600.0
2018-12-01,113.01000213623047,113.1500015258789,98.08000183105469,108.08000183105469,106.83092498779297,60304300.0
2019-01-01,106.48999786376953,117.23999786376953,106.02999877929688,115.43000030517578,114.09598541259766,49603500.0
2019-01-07,,,,,,
2019-02-01,115.43000030517578,120.33000183105469,113.45999908447266,118.45999908447266,117.40397644042969,31694100.0
2019-03-01,119.56999969482422,121.2699966430664,108.73999786376953,119.30000305175781,118.23650360107422,58588300.0
2019-04-01,119.48999786376953,126.83999633789062,116.76000213623047,126.08999633789062,124.9659652709961,34216900.0
2019-04-08,,,,,,
2019-05-01,125.97000122070312,128.07000732421875,116.1500015258789,127.27999877929688,126.47553253173828,43101200.0
2019-06-01,127.87000274658203,139.77999877929688,127.87000274658203,135.16000366210938,134.30572509765625,33231600.0
2019-07-01,136.00999450683594,145.05999755859375,132.57000732421875,134.02000427246094,133.17294311523438,34876100.0
2019-07-08,,,,,,
2019-08-01,133.86000061035156,158.91000366210938,131.02999877929688,156.08999633789062,155.45889282226562,42610500.0
2019-09-01,155.41000366210938,162.33999633789062,152.36000061035156,158.94000244140625,158.29737854003906,35804800.0
2019-10-01,159.72999572753906,166.97999572753906,155.2899932861328,160.33999633789062,159.69171142578125,32263300.0
2019-10-07,,,,,,
2019-11-01,161.47000122070312,162.52999877929688,154.58999633789062,157.36000061035156,157.03594970703125,32897600.0
2019-12-01,158.27999877929688,158.42999267578125,152.0,155.97999572753906,155.65878295898438,49086200.0
2020-01-01,156.9499969482422,160.41000366210938,151.1300048828125,153.41000366210938,153.09408569335938,40051300.0
2020-01-06,,,,,,
2020-02-01,154.27999877929688,167.0399932861328,147.55999755859375,150.3000030517578,150.3000030517578,30941500.0
2020-03-01,150.36000061035156,167.44000244140625,125.0,137.22999572753906,137.22999572753906,66609900.0
2020-03-26,136.89999389648438,142.86839294433594,135.44000244140625,139.11000061035156,139.11000061035156,1773792.0
