Date,Open,High,Low,Close,Adj Close,Volume
1978-12-01,0.0,0.08588419109582901,0.0799611434340477,0.08588419109582901,0.040933672338724136,654200.0
1979-01-01,0.08588419109582901,0.09773028641939163,0.08588419109582901,0.09180723875761032,0.043756693601608276,6511600.0
1979-02-01,0.0,0.10365333408117294,0.0799611434340477,0.10069181025028229,0.04799121990799904,7174300.0
1979-03-01,0.0,0.12734553217887878,0.09773028641939163,0.11846095323562622,0.05646023526787758,13940100.0
1979-04-01,0.0,0.14511467516422272,0.11253790557384491,0.11549942940473557,0.05504873767495155,19338800.0
1979-05-01,0.0,0.13623009622097015,0.09773028641939163,0.11846095323562622,0.05646023526787758,10643800.0
1979-06-01,0.0,0.1391916275024414,0.11549942940473557,0.12142247706651688,0.0578717365860939,14894100.0
1979-07-01,0.0,0.12438400089740753,0.11253790557384491,0.11846095323562622,0.05646023526787758,9419900.0
1979-08-01,0.0,0.16288381814956665,0.11549942940473557,0.14215314388275146,0.06775231659412384,26826400.0
1979-09-01,0.0,0.14215314388275146,0.12438400089740753,0.13030704855918884,0.062106262892484665,9331200.0
1979-10-01,0.0,0.13030704855918884,0.08884571492671967,0.09180723875761032,0.043756693601608276,14210400.0
1979-11-01,0.0,0.12438400089740753,0.09180723875761032,0.11846095323562622,0.05646023526787758,10340100.0
1979-12-01,0.0,0.11846095323562622,0.1066148579120636,0.10957638174295425,0.05222572013735771,9445100.0
1980-01-01,0.0,0.13623009622097015,0.09773028641939163,0.11549942940473557,0.05504873767495155,12775400.0
1980-02-01,0.0,0.11846095323562622,0.09773028641939163,0.10365333408117294,0.049402717500925064,9280500.0
1980-03-01,0.07699961960315704,0.1066148579120636,0.062192000448703766,0.06811504811048508,0.0324646532535553,18797900.0
1980-04-01,0.0,0.08588419109582901,0.06811504811048508,0.08588419109582901,0.040933672338724136,5937600.0
1980-05-01,0.0,0.09773028641939163,0.07403809577226639,0.09180723875761032,0.043756693601608276,5882700.0
1980-06-01,0.0,0.10365333408117294,0.08884571492671967,0.10069181025028229,0.04799121990799904,8052300.0
1980-07-01,0.0,0.10069181025028229,0.08884571492671967,0.09180723875761032,0.043756693601608276,9884100.0
1980-08-01,0.0,0.11253790557384491,0.09180723875761032,0.09476876258850098,0.045168183743953705,15113600.0
1980-09-01,0.0,0.10957638174295425,0.09773028641939163,0.10069181025028229,0.04799121990799904,13716600.0
1980-10-01,0.0,0.10957638174295425,0.09180723875761032,0.09476876258850098,0.045168183743953705,14788500.0
1980-11-01,0.0,0.1066148579120636,0.09180723875761032,0.09773028641939163,0.046579696238040924,11821500.0
1980-12-01,0.0,0.10069181025028229,0.08588419109582901,0.10069181025028229,0.04799121990799904,17662900.0
1981-01-01,0.0,0.13623009622097015,0.10365333408117294,0.13623009622097015,0.0649293065071106,28278200.0
1981-02-01,0.0,0.13623009622097015,0.12438400089740753,0.12438400089740753,0.05928323417901993,13699700.0
1981-03-01,0.0,0.15103772282600403,0.11549942940473557,0.14215314388275146,0.06775231659412384,19275500.0
1981-04-01,0.0,0.14215314388275146,0.12142247706651688,0.12142247706651688,0.0578717365860939,11534300.0
1981-05-01,0.0,0.12438400089740753,0.11253790557384491,0.11549942940473557,0.05504873767495155,3325100.0
1981-06-01,0.0,0.13623009622097015,0.11549942940473557,0.13030704855918884,0.062106262892484665,13724900.0
1981-07-01,0.0,0.13030704855918884,0.1066148579120636,0.11253790557384491,0.053637243807315826,6127500.0
1981-08-01,0.0,0.11549942940473557,0.10069181025028229,0.10365333408117294,0.049402717500925064,4080200.0
1981-09-01,0.0,0.10365333408117294,0.06811504811048508,0.0799611434340477,0.03811065852642059,10128600.0
1981-10-01,0.0,0.09476876258850098,0.07403809577226639,0.08292266726493835,0.03952217847108841,5076700.0
1981-11-01,0.0,0.08588419109582901,0.07699961960315704,0.07699961960315704,0.03669916093349457,8326600.0
1981-12-01,0.0,0.08292266726493835,0.06811504811048508,0.08292266726493835,0.03952217847108841,21744600.0
1982-01-01,0.0,0.08292266726493835,0.07107657194137573,0.07699961960315704,0.03669916093349457,4397100.0
1982-02-01,0.0,0.08588419109582901,0.07107657194137573,0.07699961960315704,0.03669916093349457,14050100.0
1982-03-01,0.0,0.07699961960315704,0.06811504811048508,0.06811504811048508,0.0324646532535553,5831900.0
1982-04-01,0.0,0.07403809577226639,0.06811504811048508,0.07107657194137573,0.03387615829706192,2379300.0
1982-05-01,0.0,0.07107657194137573,0.062192000448703766,0.06515352427959442,0.031053131446242332,6820000.0
1982-06-01,0.0,0.062192000448703766,0.050345905125141144,0.0533074289560318,0.025407109409570694,4726400.0
1982-07-01,0.0,0.05923047661781311,0.050345905125141144,0.056268952786922455,0.026818621903657913,3979100.0
1982-08-01,0.0,0.062192000448703766,0.0533074289560318,0.062192000448703766,0.029641617089509964,4578600.0
1982-09-01,0.0,0.05923047661781311,0.050345905125141144,0.056268952786922455,0.026818621903657913,6832300.0
1982-10-01,0.0,0.062192000448703766,0.050345905125141144,0.05923047661781311,0.02823011763393879,6376600.0
1982-11-01,0.0,0.06811504811048508,0.0533074289560318,0.06811504811048508,0.0324646532535553,17084700.0
1982-12-01,0.0,0.07107657194137573,0.0533074289560318,0.05923047661781311,0.02823011763393879,24251700.0
1983-01-01,0.0,0.0799611434340477,0.05923047661781311,0.07107657194137573,0.03387615829706192,15670700.0
1983-02-01,0.0,0.08588419109582901,0.07107657194137573,0.0799611434340477,0.03811065852642059,13429500.0
1983-03-01,0.0,0.08588419109582901,0.06515352427959442,0.06811504811048508,0.0324646532535553,25011200.0
1983-04-01,0.0,0.09773028641939163,0.06515352427959442,0.09476876258850098,0.045168183743953705,102129600.0
1983-05-01,0.0,0.10069181025028229,0.08884571492671967,0.10069181025028229,0.04799121990799904,35116100.0
1983-06-01,0.0,0.11253790557384491,0.09773028641939163,0.09773028641939163,0.046579696238040924,16734300.0
1983-07-01,0.0,0.10069181025028229,0.08292266726493835,0.08292266726493835,0.03952217847108841,15371200.0
1983-08-01,0.0,0.08884571492671967,0.07699961960315704,0.0799611434340477,0.03811065852642059,9470200.0
1983-09-01,0.0,0.10365333408117294,0.0799611434340477,0.10069181025028229,0.04799121990799904,19782000.0
1983-10-01,0.0,0.1066148579120636,0.08588419109582901,0.09773028641939163,0.046579696238040924,18308800.0
1983-11-01,0.0,0.10957638174295425,0.09476876258850098,0.10365333408117294,0.049402717500925064,21757100.0
1983-12-01,0.0,0.11253790557384491,0.09180723875761032,0.1066148579120636,0.05081421881914139,13881100.0
1984-01-01,0.0,0.17176838219165802,0.10365333408117294,0.1332685798406601,0.06351775676012039,45473800.0
1984-02-01,0.0,0.1599222868680954,0.1332685798406601,0.1539992392063141,0.07339832186698914,12589800.0
1984-03-01,0.0,0.15696077048778534,0.1391916275024414,0.15103772282600403,0.07198678702116013,8052300.0
1984-04-01,0.0,0.1865760087966919,0.1539992392063141,0.16288381814956665,0.0776328444480896,19123500.0
1984-05-01,0.0,0.16880686581134796,0.14215314388275146,0.14215314388275146,0.06775231659412384,8402500.0
1984-06-01,0.0,0.1658453345298767,0.13623009622097015,0.15696077048778534,0.07480981200933456,6300500.0
1984-07-01,0.0,0.16288381814956665,0.14215314388275146,0.14511467516422272,0.06916376203298569,5110400.0
1984-08-01,0.0,0.1599222868680954,0.14215314388275146,0.15696077048778534,0.07480981200933456,7744000.0
1984-09-01,0.0,0.15696077048778534,0.13623009622097015,0.15103772282600403,0.07198678702116013,13425400.0
1984-10-01,0.0,0.1539992392063141,0.1332685798406601,0.1332685798406601,0.06351775676012039,4848400.0
1984-11-01,0.0,0.13623009622097015,0.13030704855918884,0.1332685798406601,0.06351775676012039,4215400.0
1984-12-01,0.0,0.17472991347312927,0.12734553217887878,0.1658453345298767,0.07904435694217682,10352800.0
1985-01-01,0.0,0.1924990564584732,0.1599222868680954,0.1924990564584732,0.09174787253141403,7668100.0
1985-02-01,0.0,0.20138362050056458,0.17176838219165802,0.18065296113491058,0.08610187470912933,12632100.0
1985-03-01,0.0,0.1865760087966919,0.17176838219165802,0.18065296113491058,0.08610187470912933,5430900.0
1985-04-01,0.0,0.18953752517700195,0.17472991347312927,0.18065296113491058,0.08610187470912933,5203200.0
1985-05-01,0.0,0.18065296113491058,0.16880686581134796,0.17176838219165802,0.08186734467744827,4228100.0
1985-06-01,0.0,0.18953752517700195,0.1599222868680954,0.18953752517700195,0.09033636748790741,11526300.0
1985-07-01,0.0,0.22803734242916107,0.18361447751522064,0.2191527634859085,0.10445144027471542,22981100.0
1985-08-01,0.0,0.22211429476737976,0.19546057283878326,0.20138362050056458,0.09598243981599808,8313800.0
1985-09-01,0.0,0.22211429476737976,0.19546057283878326,0.20138362050056458,0.09598243981599808,12146600.0
1985-10-01,0.0,0.2073066681623459,0.18361447751522064,0.1865760087966919,0.08892485499382019,8140700.0
1985-11-01,0.0,0.18361447751522064,0.16288381814956665,0.16288381814956665,0.0776328444480896,11087000.0
1985-12-01,0.0,0.18953752517700195,0.1539992392063141,0.1865760087966919,0.08892485499382019,16840100.0
1986-01-01,0.0,0.19546057283878326,0.1658453345298767,0.18065296113491058,0.08610187470912933,9419800.0
1986-02-01,0.0,0.19842210412025452,0.17472991347312927,0.1924990564584732,0.09174787253141403,13594200.0
1986-03-01,0.0,0.2665371596813202,0.18065296113491058,0.24876800179481506,0.11856646835803986,57904100.0
1986-04-01,0.0,0.31688305735588074,0.22507581114768982,0.29615238308906555,0.1411505937576294,52619400.0
1986-05-01,0.0,0.31095999479293823,0.2724601924419403,0.2991138994693756,0.14256209135055542,18836500.0
1986-06-01,0.0,0.31688305735588074,0.2724601924419403,0.2931908667087555,0.1397390514612198,17734800.0
1986-07-01,0.0,0.2931908667087555,0.23396039009094238,0.23396039009094238,0.11150896549224854,13644600.0
1986-08-01,0.0,0.24876800179481506,0.22211429476737976,0.23099885880947113,0.1100974753499031,10470900.0
1986-09-01,0.0,0.2665371596813202,0.23099885880947113,0.2517295181751251,0.11997798085212708,9778400.0
1986-10-01,0.0,0.2931908667087555,0.245806485414505,0.29022935032844543,0.13832752406597137,7849700.0
1986-11-01,0.0,0.29022935032844543,0.2517295181751251,0.2783832550048828,0.13268154859542847,13214600.0
1986-12-01,0.0,0.30207544565200806,0.2724601924419403,0.2931908667087555,0.1397390514612198,12513600.0
1987-01-01,0.0,0.40276724100112915,0.29615238308906555,0.3849981129169464,0.18349574506282806,20811800.0
1987-02-01,0.0,0.48272839188575745,0.37611353397369385,0.43534401059150696,0.20749129354953766,30346500.0
1987-03-01,0.0,0.5982277989387512,0.4323824942111969,0.5538049936294556,0.2639516294002533,38154900.0
1987-04-01,0.0,0.6219199895858765,0.5360358357429504,0.5626895427703857,0.26818615198135376,20186900.0
1987-05-01,0.0,0.5834202170372009,0.4975360035896301,0.5804587006568909,0.27665504813194275,9411400.0
1987-06-01,0.0,0.5982277989387512,0.5360358357429504,0.5597280263900757,0.26677459478378296,9187800.0
1987-07-01,0.0,0.6367276310920715,0.5360358357429504,0.6308045983314514,0.3006507158279419,15101100.0
1987-08-01,0.0,0.7403809428215027,0.6278430819511414,0.6781889796257019,0.323234885931015,19798700.0
1987-09-01,0.0,0.7936884164810181,0.5804587006568909,0.7522270679473877,0.3585224449634552,15622400.0
1987-09-09,,,,,,
1987-10-01,0.0,0.7581501007080078,0.28430628776550293,0.36130592226982117,0.17220374941825867,38834200.0
1987-11-01,0.5156199932098389,0.5390599966049194,0.3316906690597534,0.46875,0.2234131097793579,23039100.0
1987-12-01,0.36130592226982117,0.46199771761894226,0.3079984784126282,0.40276724100112915,0.19196487963199615,22700500.0
1988-01-01,0.40276724100112915,0.46199771761894226,0.35538285970687866,0.45015162229537964,0.2145489752292633,24156800.0
1988-02-01,0.45015162229537964,0.5212281942367554,0.40276724100112915,0.5153051614761353,0.24560204148292542,13214300.0
1988-03-01,0.5212281942367554,0.5923047661781311,0.49161297082901,0.5508434176445007,0.2625400424003601,21149200.0
1988-04-01,0.5567665100097656,0.7699962258338928,0.5508434176445007,0.7522270679473877,0.3585224449634552,35449600.0
1988-05-01,0.7581501007080078,0.7936884164810181,0.6515352725982666,0.6633813381195068,0.3161774277687073,18011100.0
1988-06-01,0.669304370880127,0.9299185276031494,0.6633813381195068,0.8706880211830139,0.4149825870990753,36840500.0
1988-07-01,0.876611053943634,0.9476876258850098,0.8351497054100037,0.9062263369560242,0.4319208860397339,29166800.0
1988-08-01,0.9062263369560242,0.9299185276031494,0.7463040351867676,0.7936884164810181,0.37828367948532104,23831700.0
1988-09-01,0.7936884164810181,0.8410727977752686,0.7522270679473877,0.7581501007080078,0.36134546995162964,13530800.0
1988-10-01,0.7640731334686279,0.7699962258338928,0.6278430819511414,0.6456121802330017,0.30770817399024963,29985600.0
1988-11-01,0.6456121802330017,0.6633813381195068,0.586381733417511,0.6219199895858765,0.296416312456131,14383600.0
1988-12-01,0.6219199895858765,0.6752274632453918,0.6100739240646362,0.669304370880127,0.3190003037452698,17589200.0
1989-01-01,0.669304370880127,0.7107657194137573,0.6100739240646362,0.6574583053588867,0.31335434317588806,22593000.0
1989-02-01,0.6633813381195068,0.7226118445396423,0.6574583053588867,0.6752274632453918,0.3218233287334442,20330700.0
1989-03-01,0.681150496006012,0.8055344820022583,0.6752274632453918,0.7699962258338928,0.36699149012565613,18652600.0
1989-04-01,0.7640731334686279,0.8351497054100037,0.7403809428215027,0.8114575147628784,0.38675257563591003,19845100.0
1989-05-01,0.8055344820022583,0.8233036398887634,0.7818422913551331,0.8055344820022583,0.3839297592639923,18296200.0
1989-06-01,0.8055344820022583,0.8706880211830139,0.7818422913551331,0.8055344820022583,0.3839297592639923,14628300.0
1989-07-01,0.7996114492416382,0.8647649884223938,0.7936884164810181,0.8233036398887634,0.39239880442619324,7567000.0
1989-08-01,0.8114575147628784,0.8706880211830139,0.7936884164810181,0.8351497054100037,0.3980445861816406,8436300.0
1989-09-01,0.8351497054100037,0.8410727977752686,0.7522270679473877,0.7818422913551331,0.3726375699043274,10517500.0
1989-10-01,0.7818422913551331,0.8351497054100037,0.6633813381195068,0.6989196538925171,0.3331153690814972,12948300.0
1989-11-01,0.6989196538925171,0.8588418960571289,0.6929965615272522,0.7996114492416382,0.38110652565956116,10557200.0
1989-12-01,0.7936884164810181,0.8055344820022583,0.6870735287666321,0.7226118445396423,0.34440749883651733,6899900.0
1990-01-01,0.7107657194137573,0.7463040351867676,0.6396891474723816,0.681150496006012,0.3246462941169739,11728500.0
1990-02-01,0.6870735287666321,0.7581501007080078,0.681150496006012,0.6989196538925171,0.3331153690814972,14415100.0
1990-03-01,0.7107657194137573,0.7463040351867676,0.7048426866531372,0.7107657194137573,0.3387613296508789,9820800.0
1990-04-01,0.7107657194137573,0.888457179069519,0.7107657194137573,0.8647649884223938,0.4121595621109009,33913000.0
1990-05-01,0.8706880211830139,1.0661486387252808,0.8292266726493835,0.9950720071792603,0.4742658734321594,30102000.0
1990-06-01,0.9950720071792603,1.0187642574310303,0.9417645931243896,0.9417645931243896,0.44885876774787903,28955600.0
1990-07-01,0.9476876258850098,1.1194560527801514,0.9476876258850098,1.0424563884735107,0.4968501031398773,20672500.0
1990-08-01,1.0306103229522705,1.054302453994751,0.7226118445396423,0.8173806071281433,0.38957566022872925,37289700.0
1990-09-01,0.8114575147628784,0.9003032445907593,0.7048426866531372,0.7344579100608826,0.3500535488128662,17530200.0
1990-10-01,0.7285348773002625,0.7640731334686279,0.6752274632453918,0.681150496006012,0.3246462941169739,23939200.0
1990-11-01,0.6633813381195068,0.7818422913551331,0.6633813381195068,0.7818422913551331,0.3726375699043274,18855500.0
1990-12-01,0.7818422913551331,0.7996114492416382,0.7048426866531372,0.7581501007080078,0.36134546995162964,13830500.0
1991-01-01,0.7581501007080078,0.9062263369560242,0.7463040351867676,0.8943802118301392,0.42627477645874023,13452700.0
1991-02-01,0.888457179069519,0.9773029088973999,0.8825341463088989,0.9121493697166443,0.4347437918186188,18874300.0
1991-03-01,0.9062263369560242,1.0720716714859009,0.8825341463088989,0.9239954352378845,0.4403899013996124,32615400.0
1991-04-01,0.9180724024772644,0.9595337510108948,0.9003032445907593,0.9536107182502747,0.4545048177242279,19237300.0
1991-05-01,0.9417645931243896,0.9950720071792603,0.8529188632965088,0.9950720071792603,0.4742658734321594,29949600.0
1991-06-01,0.9950720071792603,1.0898407697677612,0.9950720071792603,1.0187642574310303,0.48555806279182434,31380700.0
1991-07-01,1.0306103229522705,1.1135330200195312,1.0069180727005005,1.054302453994751,0.5024962425231934,18718400.0
1991-08-01,1.0365333557128906,1.0898407697677612,0.971379816532135,1.0839177370071411,0.5166110992431641,16420000.0
1991-09-01,1.0898407697677612,1.0957638025283813,0.888457179069519,0.9536107182502747,0.4545048177242279,18006900.0
1991-10-01,0.9595337510108948,0.9654567837715149,0.8647649884223938,0.9003032445907593,0.4290979504585266,14731500.0
1991-11-01,0.9003032445907593,0.9358415603637695,0.876611053943634,0.876611053943634,0.4178057610988617,9316400.0
1991-12-01,0.8706880211830139,0.9654567837715149,0.8469958305358887,0.9595337510108948,0.4573279321193695,13290300.0
1992-01-01,0.9654567837715149,1.054302453994751,0.9358415603637695,1.0424563884735107,0.4968501031398773,8332900.0
1992-02-01,1.0424563884735107,1.172763466835022,1.0365333557128906,1.1194560527801514,0.5335491895675659,15116000.0
1992-03-01,1.1135330200195312,1.1313021183013916,1.054302453994751,1.1135330200195312,0.5307261943817139,8259200.0
1992-04-01,1.1016868352890015,1.1372251510620117,0.9950720071792603,1.1372251510620117,0.5420185327529907,16561500.0
1992-05-01,1.1313021183013916,1.172763466835022,1.1135330200195312,1.1431481838226318,0.5448413491249084,9354400.0
1992-06-01,1.149071216583252,1.2083017826080322,1.077994704246521,1.077994704246521,0.5137881636619568,10177500.0
1992-07-01,1.0898407697677612,1.2083017826080322,1.0839177370071411,1.1905325651168823,0.5674253702163696,8379200.0
1992-08-01,1.1964555978775024,1.2260708808898926,1.0424563884735107,1.0483794212341309,0.49967318773269653,9590700.0
1992-09-01,1.0602256059646606,1.1372251510620117,1.0246872901916504,1.0424563884735107,0.4968501031398773,15120100.0
1992-10-01,1.0483794212341309,1.178686499595642,1.0009950399398804,1.172763466835022,0.5589562058448792,13452900.0
1992-11-01,1.1668404340744019,1.1668404340744019,1.0602256059646606,1.0957638025283813,0.5222572684288025,8820500.0
1992-12-01,1.0957638025283813,1.297147512435913,1.0957638025283813,1.2319939136505127,0.5871865749359131,13275600.0
1993-01-01,1.2379169464111328,1.391916275024414,1.2319939136505127,1.3030705451965332,0.6210627555847168,16791800.0
1993-02-01,1.3089935779571533,1.3445318937301636,1.1431481838226318,1.1846095323562622,0.5646023750305176,9466200.0
1993-03-01,1.1964555978775024,1.3326857089996338,1.1964555978775024,1.3267626762390137,0.6323548555374146,9158000.0
1993-03-22,,,,,,
1993-04-01,1.3149166107177734,1.391916275024414,1.267532229423523,1.3267626762390137,0.6474596261978149,9822900.0
1993-05-01,1.3267626762390137,1.5103771686553955,1.3267626762390137,1.4985311031341553,0.7312822341918945,13490900.0
1993-06-01,1.4985311031341553,1.5755306482315063,1.4748388528823853,1.5340694189071655,0.7486252784729004,14951400.0
1993-06-21,,,,,,
1993-07-01,1.5103771686553955,1.5932998657226562,1.4096853733062744,1.5755306482315063,0.7847786545753479,14776000.0
1993-08-01,1.5755306482315063,1.7413760423660278,1.5755306482315063,1.682145595550537,0.8378841876983643,7469800.0
1993-09-01,1.6702994108200073,1.6999146938323975,1.6229150295257568,1.6347612142562866,0.8142815232276917,7849600.0
1993-09-23,,,,,,
1993-10-01,1.6347612142562866,1.6702994108200073,1.5281462669372559,1.658453345298767,0.8416211009025574,8027000.0
1993-11-01,1.652530312538147,1.8598370552062988,1.6110689640045166,1.753222107887268,0.8897136449813843,15276100.0
1993-12-01,1.7591451406478882,1.8242987394332886,1.7295299768447876,1.8065295219421387,0.9167652130126953,13032800.0
1993-12-13,,,,,,
1994-01-01,1.8065295219421387,1.9012982845306396,1.7828373908996582,1.7828373908996582,0.9207073450088501,12139900.0
1994-02-01,1.7887604236602783,1.8006064891815186,1.7058377265930176,1.7354530096054077,0.8962366580963135,7978700.0
1994-03-01,1.747299075126648,1.9190675020217896,1.7295299768447876,1.7591451406478882,0.908471941947937,27269700.0
1994-03-17,,,,,,
1994-04-01,1.7354530096054077,1.9190675020217896,1.7354530096054077,1.8835291862487793,0.9898714423179626,9390600.0
1994-05-01,1.8835291862487793,1.9012982845306396,1.8242987394332886,1.8598370552062988,0.9774202108383179,8440600.0
1994-06-01,1.871683120727539,2.0730667114257812,1.8539139032363892,1.9782979488372803,1.0396758317947388,16776600.0
1994-06-20,,,,,,
1994-07-01,1.9842209815979004,2.1856045722961426,1.9842209815979004,2.061220645904541,1.0995659828186035,15508300.0
1994-08-01,2.0730667114257812,2.1322972774505615,2.0375285148620605,2.102681875228882,1.1216837167739868,12549400.0
1994-09-01,2.0967588424682617,2.2270660400390625,2.0730667114257812,2.108604907989502,1.1248432397842407,14242200.0
1994-09-20,,,,,,
1994-10-01,2.108604907989502,2.345526933670044,2.0434515476226807,2.3277578353881836,1.2589349746704102,15455400.0
1994-11-01,2.3218348026275635,2.3336808681488037,2.1678354740142822,2.209296703338623,1.1948682069778442,7343000.0
1994-12-01,2.209296703338623,2.5172953605651855,2.1678354740142822,2.4758338928222656,1.3390204906463623,24840300.0
1994-12-12,,,,,,
1995-01-01,2.392911195755005,2.6535253524780273,2.3099887371063232,2.357372999191284,1.298590898513794,17295800.0
1995-01-23,,,,,,
1995-02-01,2.3810651302337646,2.819370746612549,2.298142433166504,2.7956786155700684,1.5400381088256836,17120800.0
1995-03-01,2.7956786155700684,2.831216812133789,2.5706026554107666,2.7127559185028076,1.494359016418457,12936900.0
1995-03-13,,,,,,
1995-03-21,,,,,,
1995-04-01,2.629833221435547,2.819370746612549,2.499526262283325,2.819370746612549,1.5763503313064575,16256600.0
1995-05-01,2.783832550048828,2.9496777057647705,2.7482941150665283,2.8667550086975098,1.6028422117233276,10406100.0
1995-06-01,2.8667550086975098,3.0326004028320312,2.8667550086975098,2.8904473781585693,1.6160900592803955,9840700.0
1995-06-20,,,,,,
1995-06-28,,,,,,
1995-07-01,2.91413950920105,3.1392152309417725,2.8667550086975098,3.0326004028320312,1.7189422845840454,13190000.0
1995-08-01,3.0444464683532715,3.1865997314453125,2.9615237712860107,3.1273691654205322,1.7726593017578125,7868300.0
1995-09-01,3.1392152309417725,3.257676362991333,2.9852161407470703,3.1036770343780518,1.759229063987732,7971100.0
1995-09-26,,,,,,
1995-09-27,,,,,,
1995-10-01,3.1510612964630127,3.1510612964630127,2.8667550086975098,2.9378316402435303,1.686647653579712,10154100.0
1995-11-01,2.9615237712860107,3.1747536659240723,2.9022934436798096,2.91413950920105,1.67304527759552,8582000.0
1995-12-01,2.8904473781585693,3.1984457969665527,2.8430628776550293,3.008908271789551,1.7274545431137085,15854600.0
1995-12-26,,,,,,
1996-01-01,2.9496777057647705,3.0799849033355713,2.771986246109009,3.0326004028320312,1.7528939247131348,19756400.0
1996-02-01,3.020754337310791,3.3405988216400146,3.008908271789551,3.222137928009033,1.862450122833252,15971700.0
1996-03-01,3.2458300590515137,3.541982650756836,3.1747536659240723,3.506444215774536,2.0267832279205322,12690900.0
1996-03-20,,,,,,
1996-04-01,3.447213888168335,3.8973653316497803,3.4235215187072754,3.731520175933838,2.1694679260253906,14628200.0
1996-05-01,3.731520175933838,3.9447498321533203,3.648597478866577,3.93290376663208,2.2865500450134277,18063800.0
1996-06-01,3.9447498321533203,4.122441291809082,3.7670583724975586,4.122441291809082,2.396744966506958,11759000.0
1996-06-25,,,,,,
1996-07-01,4.098749160766602,4.122441291809082,3.364291191101074,3.778904438018799,2.208418369293213,18046000.0
1996-08-01,3.778904438018799,4.110595226287842,3.7670583724975586,3.93290376663208,2.298417091369629,7171100.0
1996-09-01,3.9092116355895996,4.039518356323242,3.778904438018799,3.92105770111084,2.291494131088257,10995000.0
1996-09-25,,,,,,
1996-10-01,3.93290376663208,3.968441963195801,3.790750503540039,3.8736732006073,2.278763771057129,11984900.0
1996-11-01,3.8499810695648193,4.323824882507324,3.790750503540039,4.240902423858643,2.4947946071624756,10117500.0
1996-12-01,4.240902423858643,4.418593406677246,4.075057029724121,4.418593406677246,2.5993239879608154,10633400.0
1996-12-24,,,,,,
1997-01-01,4.371209144592285,4.738438129425049,4.217209815979004,4.738438129425049,2.803956985473633,15498700.0
1997-02-01,4.714745998382568,4.714745998382568,4.086903095245361,4.098749160766602,2.425422430038452,14304300.0
1997-03-01,4.122441291809082,4.240902423858643,3.93290376663208,3.9447498321533203,2.3342933654785156,19694200.0
1997-03-19,,,,,,
1997-04-01,3.9921340942382812,4.4778242111206055,3.695981740951538,4.276440620422363,2.54604434967041,30695800.0
1997-05-01,4.264594554901123,4.631823539733887,4.217209815979004,4.596284866333008,2.73647141456604,14669400.0
1997-06-01,4.548900604248047,4.927975654602051,4.548900604248047,4.8154377937316895,2.8669464588165283,10690300.0
1997-06-25,,,,,,
1997-07-01,4.821361064910889,5.265589237213135,4.702899932861328,5.2537431716918945,3.1441714763641357,17779000.0
1997-08-01,5.2537431716918945,5.259666442871094,5.028667449951172,5.076051712036133,3.037827730178833,9597000.0
1997-09-01,5.0997443199157715,5.561741828918457,5.093821048736572,5.496588230133057,3.2895045280456543,14136400.0
1997-09-24,,,,,,
1997-10-01,5.520280361175537,5.5854339599609375,4.975359916687012,5.194512844085693,3.122981071472168,13522300.0
1997-11-01,5.206358909606934,5.715741157531738,5.206358909606934,5.567665100097656,3.347322463989258,13202600.0
1997-12-01,5.603203296661377,6.0652008056640625,5.603203296661377,5.982278347015381,3.5965921878814697,12751000.0
1997-12-23,,,,,,
1998-01-01,5.964509010314941,6.154046535491943,5.532126426696777,5.982278347015381,3.6120359897613525,23979600.0
1998-02-01,5.988201141357422,6.953658103942871,5.988201141357422,6.817428112030029,4.116291046142578,17577500.0
1998-03-01,6.793735980987549,7.255733489990234,6.669351577758789,7.196503162384033,4.34517240524292,19209100.0
1998-03-18,,,,,,
1998-04-01,7.2142720222473145,7.427501678466797,6.3968915939331055,6.81150484085083,4.1271185874938965,37704500.0
1998-05-01,6.82335090637207,7.261656761169434,6.716736316680908,6.85296630859375,4.152240753173828,28199200.0
1998-06-01,6.870735168457031,7.143195629119873,6.681197643280029,6.953658103942871,4.21325159072876,22060900.0
1998-06-01,,,,,,
1998-06-24,,,,,,
1998-07-01,7.557808876037598,8.837186813354492,7.545962810516357,7.735500335693359,4.695394515991211,37853100.0
1998-08-01,7.75919246673584,8.007960319519043,6.870735168457031,6.870735168457031,4.170487880706787,23785200.0
1998-09-01,6.82335090637207,8.043498992919922,5.686125755310059,5.686125755310059,3.451437473297119,36580200.0
1998-09-23,,,,,,
1998-10-01,5.591357231140137,7.581501007080078,5.307050704956055,7.569654941558838,4.604038715362549,34189600.0
1998-11-01,7.569654941558838,8.90826416015625,7.4985785484313965,8.647649765014648,5.259703159332275,92840400.0
1998-12-01,8.623957633972168,10.471948623657227,8.422574043273926,10.294257164001465,6.261203289031982,42525100.0
1998-12-22,,,,,,
1999-01-01,10.258718490600586,10.424564361572266,9.228108406066895,10.140257835388184,6.177148342132568,33512600.0
1999-02-01,10.140257835388184,10.152103424072266,8.860879898071289,9.145185470581055,5.570981979370117,32623300.0
1999-03-01,9.097801208496094,10.365333557128906,8.789802551269531,9.903335571289062,6.032820701599121,31674900.0
1999-03-24,,,,,,
1999-04-01,9.903335571289062,13.078089714050293,9.7374906539917,12.592399597167969,7.683126449584961,56350400.0
1999-05-01,12.60424518585205,13.078089714050293,11.348559379577637,11.455174446105957,6.989264011383057,38085700.0
1999-06-01,11.372251510620117,12.367323875427246,10.483794212341309,11.016868591308594,6.721834659576416,29309600.0
1999-06-23,,,,,,
1999-07-01,10.993176460266113,11.86978816986084,10.732563018798828,10.815485000610352,6.607388019561768,45638100.0
1999-08-01,10.76810073852539,11.846095085144043,9.465030670166016,11.135330200195312,6.802787780761719,42482100.0
1999-09-01,11.135330200195312,11.419635772705078,9.003032684326172,9.986258506774902,6.100798606872559,37353500.0
1999-09-22,,,,,,
1999-10-01,9.796721458435059,10.306102752685547,8.529189109802246,9.157032012939453,5.602574825286865,37171100.0
1999-11-01,9.204416275024414,10.009950637817383,8.529189109802246,9.311031341552734,5.696791648864746,38951200.0
1999-12-01,9.263647079467773,9.70195198059082,8.102729797363281,9.145185470581055,5.595322132110596,42201200.0
1999-12-29,,,,,,
2000-01-01,9.097801208496094,9.168877601623535,7.190579891204834,8.173806190490723,5.009610176086426,54099900.0
2000-02-01,8.161959648132324,8.387035369873047,7.107657432556152,7.735500335693359,4.740975856781006,45451400.0
2000-03-01,7.77103853225708,9.713798522949219,6.90627384185791,9.666414260864258,5.924406051635742,63031000.0
2000-03-29,,,,,,
2000-04-01,9.666414260864258,10.981330871582031,9.03857135772705,10.82733154296875,6.647790431976318,35088100.0
2000-05-01,10.732563018798828,11.170867919921875,9.097801208496094,9.133339881896973,5.607710838317871,41755800.0
2000-06-01,9.03857135772705,9.630875587463379,8.872725486755371,9.370261192321777,5.753172397613525,40452200.0
2000-06-28,,,,,,
2000-07-01,9.358415603637695,9.65456771850586,8.564726829528809,9.65456771850586,5.9373087882995605,40193100.0
2000-08-01,9.65456771850586,10.756255149841309,9.228108406066895,10.649640083312988,6.549251556396484,40373900.0
2000-09-01,10.69702434539795,10.732563018798828,8.837186813354492,9.429491996765137,5.7988972663879395,45520400.0
2000-09-27,,,,,,
2000-10-01,9.382107734680176,11.964556694030762,9.287339210510254,11.964556694030762,7.374103546142578,54103900.0
2000-11-01,11.940864562988281,12.473938941955566,11.360405921936035,12.355477333068848,7.615042686462402,44992100.0
2000-12-01,12.402861595153809,13.232089042663574,11.692096710205078,12.959628105163574,7.987395763397217,53028000.0
2000-12-27,,,,,,
2001-01-01,12.959628105163574,13.018858909606934,10.910253524780273,12.221380233764648,7.544511795043945,95435200.0
2001-02-01,12.221380233764648,12.600455284118652,11.77596664428711,12.024260520935059,7.422827243804932,50959400.0
2001-03-01,12.024260520935059,12.329416275024414,9.89575481414795,10.341167449951172,6.3838210105896,77941700.0
2001-03-28,,,,,,
2001-04-01,10.386656761169434,11.192191123962402,9.763077735900879,10.615997314453125,6.565576553344727,69720700.0
2001-05-01,10.703184127807617,12.357847213745117,10.11182689666748,11.937073707580566,7.382611274719238,93481100.0
2001-06-01,11.865049362182617,12.412813186645508,10.519332885742188,10.61410140991211,6.56440544128418,80869100.0
2001-06-27,,,,,,
2001-07-01,10.642532348632812,11.220622062683105,10.36770248413086,10.72592830657959,6.644320011138916,67580700.0
2001-08-01,10.216073036193848,11.141016006469727,10.149734497070312,10.532600402832031,6.524561405181885,222410200.0
2001-09-01,10.443517684936523,10.784685134887695,8.320697784423828,8.942380905151367,5.5394792556762695,140461400.0
2001-09-26,,,,,,
2001-10-01,8.90826416015625,11.334343910217285,8.637225151062012,10.56482219696045,6.558754920959473,199770900.0
2001-11-01,10.591357231140137,11.713418960571289,10.48521614074707,11.116375923156738,6.90116548538208,103510500.0
2001-12-01,10.955268859863281,12.1493558883667,10.633055686950684,11.431008338928223,7.096494197845459,134188600.0
2001-12-26,,,,,,
2002-01-01,11.372251510620117,12.177785873413086,11.08984088897705,12.081122398376465,7.513400554656982,123949800.0
2002-02-01,11.978772163391113,13.256255149841309,11.239575386047363,12.742608070373535,7.9247846603393555,132343800.0
2002-03-01,12.74639892578125,14.073161125183105,12.62130355834961,13.460955619812012,8.37153434753418,158754400.0
2002-03-26,,,,,,
2002-04-01,13.476118087768555,14.302501678466797,12.998483657836914,13.567096710205078,8.450230598449707,101464400.0
2002-05-01,13.54245662689209,13.798332214355469,12.757771492004395,13.195602416992188,8.21884822845459,89521000.0
2002-06-01,13.197498321533203,13.23919677734375,11.614859580993652,12.575815200805664,7.832812786102295,140412100.0
2002-06-26,,,,,,
2002-07-01,12.575815200805664,12.577710151672363,10.25398063659668,11.76080322265625,7.337311744689941,139858800.0
2002-08-01,11.762699127197266,12.1493558883667,10.536391258239746,11.40068244934082,7.112642288208008,92536200.0
2002-09-01,11.35329818725586,11.561789512634277,9.969674110412598,10.775208473205566,6.722422122955322,123230600.0
2002-09-25,,,,,,
2002-10-01,10.898407936096191,11.565580368041992,10.041698455810547,10.964746475219727,6.8572587966918945,207399100.0
2002-11-01,10.936315536499023,12.096284866333008,10.498483657836914,11.910538673400879,7.4487528800964355,112191400.0
2002-12-01,12.130401611328125,12.735026359558105,11.39310073852539,12.452615737915039,7.787759780883789,100593300.0
2002-12-24,,,,,,
2003-01-01,12.482941627502441,12.973843574523926,11.286959648132324,11.63949966430664,7.29376220703125,109414100.0
2003-02-01,11.64897632598877,12.414708137512207,11.438590049743652,12.32373046875,7.722528457641602,93255100.0
2003-03-01,12.355951309204102,12.983320236206055,11.755117416381836,12.463988304138184,7.810422897338867,134795700.0
2003-03-26,,,,,,
2003-04-01,12.5,13.468536376953125,12.319939613342285,13.074298858642578,8.208870887756348,136054600.0
2003-05-01,13.074298858642578,13.614480972290039,12.145565032958984,12.68385124206543,7.963723659515381,131534400.0
2003-06-01,12.74639892578125,13.694086074829102,12.74639892578125,12.898028373718262,8.098196029663086,124738200.0
2003-06-25,,,,,,
2003-07-01,12.898028373718262,13.855193138122559,12.38059139251709,13.684609413146973,8.6083984375,120242100.0
2003-08-01,13.686505317687988,14.69863510131836,13.392722129821777,14.64177417755127,9.210509300231934,101049100.0
2003-09-01,14.68915843963623,14.901440620422363,13.804018020629883,13.999241828918457,8.806321144104004,94212600.0
2003-09-24,,,,,,
2003-10-01,13.987869262695312,15.8453369140625,13.978392601013184,15.703184127807617,9.895429611206055,95382800.0
2003-11-01,15.864291191101074,16.1656551361084,15.11940860748291,15.769522666931152,9.937232971191406,71289900.0
2003-12-01,15.807430267333984,17.5037899017334,15.608415603637695,17.39006805419922,10.95842456817627,98241800.0
2003-12-23,,,,,,
2004-01-01,17.409021377563477,18.093252182006836,16.635709762573242,17.352161407470703,10.950326919555664,124660800.0
2004-02-01,17.494314193725586,17.97763442993164,16.961713790893555,16.988248825073242,10.720675468444824,80978100.0
2004-03-01,17.134193420410156,18.233510971069336,16.612964630126953,17.697118759155273,11.168014526367188,112120900.0
2004-03-24,,,,,,
2004-04-01,17.655420303344727,18.233510971069336,17.43745231628418,17.536012649536133,11.082769393920898,95143100.0
2004-05-01,17.536012649536133,18.006065368652344,16.72858238220215,17.827899932861328,11.26724624633789,92218200.0
2004-05-21,,,,,,
2004-06-01,17.755876541137695,19.711902618408203,17.69143295288086,19.65504264831543,12.42199993133545,75809100.0
2004-06-23,,,,,,
2004-07-01,19.65504264831543,19.719484329223633,18.309326171875,19.200151443481445,12.144193649291992,79347400.0
2004-08-01,19.200151443481445,19.49962043762207,18.06292724609375,19.49203872680664,12.328813552856445,61412900.0
2004-09-01,19.49203872680664,20.075815200805664,18.88551902770996,19.438968658447266,12.295243263244629,75717400.0
2004-09-22,,,,,,
2004-10-01,19.5034122467041,21.061410903930664,19.39348030090332,20.898406982421875,13.228367805480957,81660700.0
2004-11-01,20.96285057067871,22.3275203704834,20.773313522338867,21.56178855895996,13.648275375366211,58853000.0
2004-12-01,21.656557083129883,22.134193420410156,21.266111373901367,21.762699127197266,13.775450706481934,56737500.0
2004-12-29,,,,,,
2005-01-01,21.891584396362305,21.95602798461914,19.909021377563477,20.803638458251953,13.17739486694336,75937400.0
2005-02-01,20.84912872314453,21.20924949645996,20.083396911621094,20.534496307373047,13.006912231445312,62968300.0
2005-03-01,20.534496307373047,21.372251510620117,19.97725486755371,20.24639892578125,12.824423789978027,80370700.0
2005-03-22,,,,,,
2005-04-01,20.322214126586914,20.37907600402832,18.316905975341797,19.192569732666016,12.165746688842773,131155200.0
2005-05-01,19.26080322265625,21.012130737304688,19.109172821044922,20.898406982421875,13.247041702270508,92751300.0
2005-06-01,20.936315536499023,21.22820281982422,19.541318893432617,19.840787887573242,12.576642036437988,77521500.0
2005-06-22,,,,,,
2005-07-01,19.939348220825195,21.398786544799805,19.351781845092773,21.019712448120117,13.333590507507324,85522900.0
2005-08-01,21.22820281982422,21.618650436401367,19.689159393310547,20.303260803222656,12.879120826721191,64321700.0
2005-09-01,20.405611038208008,21.133434295654297,19.590599060058594,20.405611038208008,12.94404411315918,88181800.0
2005-09-28,,,,,,
2005-10-01,20.413192749023438,20.564821243286133,18.574678421020508,19.74981117248535,12.540523529052734,100389900.0
2005-11-01,19.74601936340332,21.22820281982422,19.601970672607422,21.038665771484375,13.358907699584961,67322900.0
2005-12-01,21.285064697265625,22.137983322143555,20.890827178955078,21.144805908203125,13.426300048828125,77950200.0
2005-12-28,,,,,,
2006-01-01,21.262319564819336,21.774070739746094,20.48521614074707,21.47081184387207,13.646322250366211,79494400.0
2006-02-01,21.33055305480957,23.64670181274414,20.905988693237305,22.964366912841797,14.59559440612793,60030400.0
2006-03-01,22.94541358947754,24.799089431762695,22.82411003112793,24.090219497680664,15.311161041259766,61782300.0
2006-03-29,,,,,,
2006-04-01,24.090219497680664,25.769521713256836,23.794540405273438,24.302501678466797,15.458876609802246,75301900.0
2006-05-01,24.39727020263672,25.95526885986328,23.316905975341797,24.302501678466797,15.458876609802246,81956400.0
2006-06-01,24.181198120117188,24.78392791748047,22.983320236206055,24.38210678100586,15.50951099395752,79767300.0
2006-06-28,,,,,,
2006-07-01,24.412433624267578,25.12888526916504,22.638362884521484,24.715694427490234,15.73487663269043,82303200.0
2006-08-01,24.564064025878906,25.670963287353516,23.616376876831055,25.12888526916504,15.997925758361816,98614000.0
2006-09-01,25.13267707824707,26.175132751464844,24.412433624267578,26.031084060668945,16.572296142578125,65579300.0
2006-09-27,,,,,,
2006-10-01,26.031084060668945,27.354055404663086,25.3487491607666,27.20621681213379,17.333961486816406,73270800.0
2006-11-01,27.365428924560547,28.53676986694336,26.402578353881836,27.717967987060547,17.660011291503906,54492800.0
2006-12-01,27.721759796142578,28.203184127807617,27.05458641052246,27.46019744873047,17.49578285217285,57843800.0
2006-12-27,,,,,,
2007-01-01,27.46019744873047,28.79833221435547,26.71341896057129,28.074298858642578,17.900022506713867,77270000.0
2007-02-01,28.222137451171875,28.43062973022461,26.550416946411133,27.17588996887207,17.327199935913086,51377800.0
2007-03-01,26.914329528808594,27.630781173706055,26.197877883911133,27.08491325378418,17.269187927246094,90434100.0
2007-03-28,,,,,,
2007-04-01,26.81576919555664,27.767248153686523,26.387414932250977,26.986352920532227,17.21902847290039,84191100.0
2007-05-01,26.70204734802246,28.29037094116211,26.542835235595703,27.862016677856445,17.777755737304688,133283600.0
2007-06-01,27.862016677856445,28.843820571899414,26.872631072998047,28.620166778564453,18.26150894165039,87674900.0
2007-06-27,,,,,,
2007-07-01,28.874147415161133,30.47005271911621,27.911296844482422,28.309326171875,18.082502365112305,109786200.0
2007-08-01,28.354814529418945,31.413949966430664,27.634571075439453,29.438968658447266,18.804065704345703,121617500.0
2007-09-01,29.579227447509766,31.9749813079834,28.434419631958008,31.35329818725586,20.026832580566406,63536800.0
2007-09-26,,,,,,
2007-10-01,31.311599731445312,32.604244232177734,30.36012077331543,32.47536087036133,20.763151168823242,82124900.0
2007-11-01,31.929492950439453,33.131160736083984,30.341167449951172,32.91129684448242,21.041872024536133,125742900.0
2007-12-01,33.025020599365234,33.821075439453125,32.03184127807617,33.26004409790039,21.264835357666016,73513700.0
2007-12-27,,,,,,
2008-01-01,33.09325408935547,33.43442153930664,26.60727882385254,28.41546630859375,18.18370246887207,162278000.0
2008-02-01,28.28278923034668,29.135709762573242,27.513267517089844,28.108415603637695,17.987213134765625,114180700.0
2008-03-01,28.04776382446289,30.12509536743164,25.686126708984375,28.821077346801758,18.44325828552246,135036700.0
2008-03-26,,,,,,
2008-04-01,29.094011306762695,30.204700469970703,27.68764305114746,29.575435638427734,18.945173263549805,133151300.0
2008-05-01,29.590599060058594,30.678544998168945,28.43062973022461,29.63608741760254,18.98402214050293,98988100.0
2008-06-01,29.49203872680664,31.319181442260742,28.65807342529297,29.302501678466797,18.770343780517578,126433100.0
2008-06-25,,,,,,
2008-07-01,28.862773895263672,31.630022048950195,27.634571075439453,30.193328857421875,19.36025619506836,165367600.0
2008-08-01,30.288097381591797,32.221378326416016,30.24639892578125,30.921152114868164,19.826942443847656,97097000.0
2008-09-01,31.178922653198242,31.523881912231445,25.564821243286133,26.307809829711914,16.86882209777832,124617500.0
2008-09-24,,,,,,
2008-10-01,26.34571647644043,26.622440338134766,18.597421646118164,22.456405639648438,14.41527271270752,235675200.0
2008-11-01,22.524639129638672,23.89689064025879,18.53676986694336,21.09173583984375,13.53925895690918,138861900.0
2008-12-01,20.481426239013672,21.56937026977539,17.892343521118164,21.45943832397461,13.77529525756836,170580400.0
2008-12-23,,,,,,
2009-01-01,21.44048500061035,22.115238189697266,18.953752517700195,21.20166778564453,13.629630088806152,133216100.0
2009-02-01,20.96285057067871,22.365428924560547,19.03335952758789,19.241849899291992,12.369749069213867,130063500.0
2009-03-01,19.128128051757812,21.56937026977539,18.093252182006836,20.553449630737305,13.212916374206543,204448600.0
2009-03-25,,,,,,
2009-04-01,19.719484329223633,23.04018211364746,19.40106201171875,22.153146743774414,14.261758804321289,157598900.0
2009-05-01,22.134193420410156,23.8059139251709,21.8347225189209,22.877180099487305,14.72787857055664,108627200.0
2009-06-01,23.267627716064453,24.601970672607422,22.369218826293945,23.404094696044922,15.067097663879395,95580600.0
2009-06-24,,,,,,
2009-07-01,23.578468322753906,24.355571746826172,21.622440338134766,23.214555740356445,14.964972496032715,129196400.0
2009-08-01,23.38513946533203,24.02577781677246,22.22138023376465,23.013647079467773,14.835467338562012,116767200.0
2009-09-01,22.873388290405273,26.156179428100586,22.8203182220459,25.519332885742188,16.450725555419922,151579400.0
2009-09-23,,,,,,
2009-10-01,25.37528419494629,27.589082717895508,24.40864372253418,25.864290237426758,16.692432403564453,134087500.0
2009-11-01,25.936315536499023,27.979530334472656,25.62168312072754,26.884002685546875,17.350534439086914,92683700.0
2009-12-01,27.043214797973633,29.02198600769043,26.82335090637207,28.506444931030273,18.39763641357422,98392300.0
2009-12-29,,,,,,
2010-01-01,28.612585067749023,29.575435638427734,27.016679763793945,27.04700469970703,17.48006820678711,86113900.0
2010-02-01,27.153146743774414,28.92342758178711,26.45943832397461,28.04018211364746,18.1219425201416,103071400.0
2010-03-01,28.03639030456543,30.74298667907715,27.949203491210938,30.291887283325195,19.57718849182129,111696800.0
2010-03-24,,,,,,
2010-04-01,30.37528419494629,32.410919189453125,29.912813186645508,31.94844627380371,20.675928115844727,120844300.0
2010-05-01,31.857467651367188,33.18043899536133,28.55193328857422,30.090978622436523,19.473838806152344,157618100.0
2010-06-01,29.77634620666504,31.34192657470703,28.05913543701172,28.142532348632812,18.212875366210938,111728200.0
2010-06-14,,,,,,
2010-06-23,,,,,,
2010-07-01,28.256254196166992,29.52236557006836,27.043214797973633,29.120546340942383,18.858360290527344,127724600.0
2010-08-01,29.461713790893555,30.098560333251953,26.71721076965332,27.543594360351562,17.83713150024414,100689900.0
2010-09-01,27.839271545410156,31.508718490600586,27.839271545410156,30.788476943969727,19.938505172729492,93165100.0
2010-09-22,,,,,,
2010-10-01,31.046247482299805,32.956787109375,29.96967315673828,32.873390197753906,21.30238151550293,96611300.0
2010-11-01,33.03260040283203,34.116756439208984,32.16830825805664,32.78999328613281,21.248336791992188,81790100.0
2010-12-01,33.29037094116211,36.08036422729492,33.26004409790039,35.761940002441406,23.1742000579834,75804800.0
2010-12-29,,,,,,
2011-01-01,36.019710540771484,36.360877990722656,34.594390869140625,34.92039489746094,22.641510009765625,81297500.0
2011-02-01,35.208492279052734,39.5830192565918,35.0644416809082,38.362396240234375,24.87321662902832,97121900.0
2011-03-01,38.43062973022461,39.704322814941406,37.1190299987793,39.347991943359375,25.51225471496582,93559300.0
2011-03-23,,,,,,
2011-04-01,39.62850570678711,42.52463912963867,38.8097038269043,41.880210876464844,27.168062210083008,82631200.0
2011-05-01,42.160728454589844,42.31993865966797,40.04549026489258,41.34192657470703,26.818859100341797,82937000.0
2011-06-01,41.21303939819336,41.288856506347656,38.47611999511719,40.174373626708984,26.061466217041016,127237100.0
2011-06-22,,,,,,
2011-07-01,40.15163040161133,42.19863510131836,36.23957443237305,37.23275375366211,24.165225982666016,104154300.0
2011-08-01,37.59666442871094,37.78620147705078,30.24260711669922,34.730857849121094,22.541419982910156,185972100.0
2011-09-01,34.579227447509766,35.564823150634766,31.357088088989258,31.796815872192383,20.637128829956055,140729200.0
2011-09-28,,,,,,
2011-10-01,31.637603759765625,38.64291000366211,29.825626373291016,36.656558990478516,23.80899429321289,126994000.0
2011-11-01,35.655799865722656,38.0212287902832,33.6542854309082,36.67930221557617,23.82376480102539,91149100.0
2011-12-01,36.71720886230469,37.149356842041016,34.1622428894043,35.66337966918945,23.16390609741211,90922100.0
2011-12-28,,,,,,
2012-01-01,36.421531677246094,40.333587646484375,36.01213073730469,39.810462951660156,25.87541389465332,78727500.0
2012-02-01,40.03032684326172,40.72024154663086,38.711143493652344,40.053070068359375,26.0330867767334,82195200.0
2012-03-01,40.07581329345703,42.49431228637695,39.454132080078125,42.45640563964844,27.595182418823242,70501300.0
2012-03-28,,,,,,
2012-04-01,42.45640563964844,42.79757308959961,39.545108795166016,41.10689926147461,26.73399543762207,75803700.0
2012-05-01,40.95526885986328,41.69825744628906,38.90826416015625,39.40106201171875,25.62460708618164,88970700.0
2012-06-01,38.605003356933594,40.18195724487305,37.285823822021484,39.484458923339844,25.6788272857666,88307400.0
2012-06-27,,,,,,
2012-07-01,39.484458923339844,40.4927978515625,37.361637115478516,40.037906646728516,26.055843353271484,88558400.0
2012-08-01,40.26535415649414,41.10689926147461,39.575435638427734,40.61410140991211,26.43082046508789,71408300.0
2012-09-01,40.68991470336914,42.53980255126953,39.855953216552734,41.81197738647461,27.210372924804688,81969500.0
2012-09-26,,,,,,
2012-10-01,41.81197738647461,43.328277587890625,38.38513946533203,39.2191047668457,25.538415908813477,128386800.0
2012-11-01,39.423805236816406,40.9931755065918,38.90826416015625,40.917362213134766,26.644275665283203,104474500.0
2012-12-01,41.24336624145508,42.89613342285156,40.04549026489258,42.380592346191406,27.597095489501953,73977100.0
2012-12-12,,,,,,
2013-01-01,43.18423080444336,46.61865234375,42.58529281616211,45.435935974121094,29.604890823364258,98802600.0
2013-02-01,45.72403335571289,47.111446380615234,45.38286590576172,46.70204544067383,30.429851531982422,64601800.0
2013-03-01,46.43669509887695,47.68764114379883,46.034873962402344,47.1190299987793,30.701553344726562,63455100.0
2013-03-26,,,,,,
2013-04-01,46.899166107177734,47.09628677368164,43.67702865600586,46.20166778564453,30.120088577270508,91228400.0
2013-05-01,45.99696731567383,48.81728744506836,45.564823150634766,46.868839263916016,30.555038452148438,79007400.0
2013-06-01,46.899166107177734,49.12812805175781,45.223655700683594,47.990901947021484,31.286542892456055,84994900.0
2013-06-26,,,,,,
2013-07-01,48.32448959350586,52.32752227783203,47.884761810302734,51.053829193115234,33.30097198486328,88433100.0
2013-08-01,51.41773986816406,51.69825744628906,49.11296463012695,49.67399597167969,32.40093994140625,56407400.0
2013-09-01,50.13646697998047,53.78316879272461,49.74222946166992,52.55496597290039,34.280120849609375,64654500.0
2013-09-25,,,,,,
2013-10-01,52.653526306152344,55.208492279052734,50.667171478271484,54.6550407409668,35.666996002197266,75770000.0
2013-11-01,54.79909133911133,57.56633758544922,54.3593635559082,56.70962905883789,37.00779724121094,59163700.0
2013-12-01,56.550418853759766,58.67323684692383,55.25397872924805,58.52919006347656,38.1952018737793,62064200.0
2013-12-26,,,,,,
2014-01-01,58.119789123535156,59.74222946166992,55.8377571105957,56.39878845214844,36.82074737548828,81072600.0
2014-02-01,56.50492858886719,58.78696060180664,54.50341033935547,57.990901947021484,37.86017990112305,70295900.0
2014-03-01,57.42229080200195,58.8021240234375,55.30705261230469,56.86125946044922,37.122676849365234,67055100.0
2014-03-26,,,,,,
2014-04-01,56.92190933227539,58.15011215209961,54.39727020263672,55.633056640625,36.385311126708984,96429500.0
2014-05-01,55.633056640625,59.92418670654297,54.715694427490234,59.46171188354492,38.88933563232422,82861200.0
2014-06-01,59.590599060058594,61.516300201416016,59.0068244934082,59.68915939331055,39.0380973815918,67544200.0
2014-06-25,,,,,,
2014-07-01,60.01516342163086,60.439727783203125,55.564823150634766,56.01213073730469,36.694313049316406,103546300.0
2014-08-01,56.02729415893555,58.824867248535156,55.36012268066406,58.081878662109375,38.05022430419922,71247000.0
2014-09-01,58.12736892700195,60.652008056640625,56.81576919555664,57.604244232177734,37.73731231689453,79154000.0
2014-09-24,,,,,,
2014-10-01,57.391963958740234,61.175132751464844,53.1614875793457,60.95526885986328,40.00077438354492,117088000.0
2014-11-01,60.917362213134766,63.6542854309082,60.38665771484375,63.35102462768555,41.572940826416016,54056300.0
2014-12-01,63.009857177734375,66.33055114746094,62.054588317871094,64.98104858398438,42.64261245727539,76400000.0
2014-12-23,,,,,,
2015-01-01,65.20848846435547,65.59514617919922,61.59969711303711,62.45640563964844,41.04804611206055,88153500.0
2015-02-01,62.501895904541016,66.79302215576172,61.865047454833984,66.17134094238281,43.48959732055664,60435600.0
2015-03-01,66.11827087402344,66.59590911865234,63.593631744384766,64.366943359375,42.3037109375,77224600.0
2015-03-25,,,,,,
2015-04-01,64.27596282958984,65.19332885742188,61.85746765136719,62.07733154296875,40.88363265991211,86992100.0
2015-05-01,62.236541748046875,68.42304992675781,62.06974792480469,65.44351959228516,43.1005744934082,127784300.0
2015-06-01,65.57998657226562,66.29264831542969,63.77558898925781,64.89006805419922,42.7360725402832,96364600.0
2015-06-24,,,,,,
2015-07-01,65.20091247558594,69.88627624511719,64.5792236328125,69.41622161865234,45.812129974365234,146030600.0
2015-08-01,69.38589477539062,70.44731140136719,62.67626953125,65.9742202758789,43.54053497314453,78087800.0
2015-09-01,64.60197448730469,67.78620147705078,62.395755767822266,64.60197448730469,42.63491439819336,115416800.0
2015-09-23,,,,,,
2015-09-30,,,,,,
2015-10-01,64.6474609375,71.72858428955078,63.57088851928711,70.74298858642578,46.88544464111328,95471100.0
2015-11-01,70.89461517333984,74.01061248779297,70.73540496826172,73.07808685302734,48.433040618896484,60782500.0
2015-12-01,73.50265502929688,73.91205596923828,69.07505798339844,70.41698455810547,46.669376373291016,81958600.0
2015-12-17,,,,,,
2016-01-01,69.03714752197266,69.84837341308594,61.59969711303711,65.69371032714844,43.621498107910156,97670800.0
2016-02-01,65.51933288574219,68.14253234863281,62.82032012939453,67.68006134033203,44.94047546386719,72450200.0
2016-03-01,68.13494873046875,72.69901275634766,66.94465637207031,71.91812133789062,47.75461196899414,86984400.0
2016-03-22,,,,,,
2016-03-23,,,,,,
2016-04-01,71.53146362304688,73.93479919433594,70.09098052978516,73.35102081298828,48.92342758178711,61460900.0
2016-05-01,73.33586120605469,76.19408416748047,72.34268188476562,74.57164764404297,49.7375602722168,64494300.0
2016-06-01,74.4503402709961,76.57315826416016,73.41925811767578,76.57315826416016,51.072513580322266,82189800.0
2016-06-01,,,,,,
2016-07-01,76.8309326171875,82.19000244140625,76.58832550048828,81.44000244140625,54.43537902832031,88537800.0
2016-07-05,,,,,,
2016-08-01,81.23999786376953,82.63999938964844,79.86000061035156,81.41000366210938,79.62460327148438,49210000.0
2016-09-01,81.55000305175781,81.8499984741211,76.1500015258789,78.38999938964844,76.67081451416016,74028500.0
2016-09-28,,,,,,
2016-10-01,77.95999908447266,81.25,75.70999908447266,78.55000305175781,76.95121765136719,64696700.0
2016-11-01,78.70999908447266,81.30000305175781,76.38999938964844,78.16999816894531,76.57894897460938,74279600.0
2016-12-01,78.12999725341797,80.62000274658203,76.2699966430664,78.0999984741211,76.5103759765625,77863200.0
2016-12-28,,,,,,
2017-01-01,78.44000244140625,84.11000061035156,78.22000122070312,83.91999816894531,82.34248352050781,57102500.0
2017-02-01,84.55000305175781,86.33000183105469,82.55999755859375,85.55000305175781,83.94185638427734,39535200.0
2017-03-01,86.55000305175781,88.01000213623047,85.20999908447266,85.52999877929688,83.92223358154297,49015400.0
2017-03-29,,,,,,
2017-04-01,85.66000366210938,86.98999786376953,81.58000183105469,83.33000183105469,81.89707946777344,64057600.0
2017-05-01,83.56999969482422,85.4800033569336,81.36000061035156,84.94000244140625,83.4793930053711,56926100.0
2017-06-01,85.2699966430664,87.0,83.6500015258789,84.38999938964844,82.9388656616211,60731200.0
2017-06-28,,,,,,
2017-07-01,84.77999877929688,85.94999694824219,80.68000030517578,81.48999786376953,80.22145080566406,68432300.0
2017-08-01,81.54000091552734,83.58999633789062,78.97000122070312,81.55999755859375,80.29036712646484,64714900.0
2017-09-01,83.37000274658203,88.62000274658203,82.68000030517578,85.77999877929688,84.44464874267578,54154700.0
2017-09-28,,,,,,
2017-10-01,86.0,92.47000122070312,83.80999755859375,92.2699966430664,90.98267364501953,62033700.0
2017-11-01,92.37000274658203,94.81999969482422,91.6500015258789,94.36000061035156,93.04351806640625,39042300.0
2017-12-01,94.48999786376953,95.16000366210938,92.04000091552734,92.81999969482422,91.52499389648438,43977600.0
2017-12-28,,,,,,
2018-01-01,93.18000030517578,104.81999969482422,92.18000030517578,101.27999877929688,100.01663208007812,52729800.0
2018-02-01,100.91999816894531,102.52999877929688,91.83999633789062,97.77999877929688,96.56028747558594,56870800.0
2018-03-01,97.75,104.29000091552734,94.91000366210938,97.91000366210938,96.68867492675781,47946500.0
2018-03-28,,,,,,
2018-04-01,97.62000274658203,103.9800033569336,95.0199966430664,100.31999969482422,99.23186492919922,46011200.0
2018-05-01,100.3499984741211,103.13999938964844,97.73999786376953,99.27999877929688,98.20314025878906,45779700.0
2018-06-01,100.0999984741211,104.12999725341797,97.08999633789062,98.68000030517578,97.60967254638672,51996200.0
2018-06-28,,,,,,
2018-07-01,98.18000030517578,106.08000183105469,97.4000015258789,102.58000183105469,101.63304138183594,58158400.0
2018-08-01,102.5999984741211,103.81999969482422,99.05000305175781,103.54000091552734,102.58417510986328,46752300.0
2018-09-01,103.66000366210938,109.31999969482422,102.75,108.66000366210938,107.65691375732422,39620300.0
2018-09-27,,,,,,
2018-10-01,109.18000030517578,110.12999725341797,95.44000244140625,99.4000015258789,98.62730407714844,68564100.0
2018-11-01,99.38999938964844,109.66999816894531,98.70999908447266,109.54000091552734,108.6884765625,47277600.0
2018-12-01,110.5,110.86000061035156,94.58999633789062,103.12000274658203,102.31838989257812,64399200.0
2018-12-27,,,,,,
2019-01-01,101.66000366210938,111.0999984741211,96.44000244140625,110.91999816894531,110.23418426513672,54290300.0
2019-02-01,110.93000030517578,127.83999633789062,107.55999755859375,127.0199966430664,126.2346420288086,68294800.0
2019-03-01,127.55000305175781,132.60000610351562,123.5,132.02000427246094,131.20372009277344,62603500.0
2019-03-28,,,,,,
2019-04-01,133.14999389648438,134.5,124.01000213623047,132.44000244140625,131.79380798339844,56107500.0
2019-05-01,132.66000366210938,134.6699981689453,128.30999755859375,132.00999450683594,131.36590576171875,47879100.0
2019-06-01,132.1999969482422,144.57000732421875,131.2100067138672,142.9199981689453,142.2227020263672,45591000.0
2019-06-27,,,,,,
2019-07-01,144.0399932861328,145.5,139.27000427246094,140.5,139.98338317871094,52475000.0
2019-08-01,140.83999633789062,143.3800048828125,134.11000061035156,142.08999633789062,141.56752014160156,43274400.0
2019-09-01,140.5500030517578,147.3300018310547,133.83999633789062,144.42999267578125,143.89892578125,47627200.0
2019-09-26,,,,,,
2019-10-01,144.25,145.36000061035156,134.4199981689453,137.82000732421875,137.47560119628906,46792600.0
2019-11-01,138.72000122070312,147.1999969482422,132.8800048828125,145.97999572753906,145.61520385742188,91681000.0
2019-12-01,146.49000549316406,154.0,144.07000732421875,153.47999572753906,153.09645080566406,569616200.0
2019-12-26,,,,,,
2020-01-01,153.9600067138672,169.19000244140625,152.42999267578125,160.8699951171875,160.64608764648438,51782400.0
2020-02-01,162.0,166.39999389648438,141.22000122070312,144.5800018310547,144.37876892089844,50380700.0
2020-03-01,145.30999755859375,156.13999938964844,119.5999984741211,129.32000732421875,129.1400146484375,90359200.0
2020-03-26,,,,,,
2020-03-26,131.85000610351562,138.88999938964844,130.22000122070312,138.8350067138672,138.8350067138672,2229672.0
