Date,Open,High,Low,Close,Adj Close,Volume
1980-03-01,0.0,6.973199844360352,6.4284186363220215,6.918721675872803,0.8729116320610046,1668000.0
1980-04-01,0.0,8.17171859741211,6.918721675872803,8.117240905761719,1.0241246223449707,4564300.0
1980-05-01,0.0,8.389631271362305,7.3000688552856445,7.626937389373779,0.9622642993927002,4653900.0
1980-06-01,0.0,8.335153579711914,7.517981052398682,8.062762260437012,1.0172513723373413,2352300.0
1980-07-01,0.0,8.226197242736816,7.626937389373779,7.626937389373779,0.9622642993927002,4989800.0
1980-08-01,0.0,7.790371894836426,7.354547023773193,7.517981052398682,0.9485180974006653,3997800.0
1980-09-01,0.0,7.844850063323975,7.517981052398682,7.626937389373779,0.9622642993927002,3105900.0
1980-10-01,0.0,7.790371894836426,7.245590686798096,7.245590686798096,0.9141507148742676,3569600.0
1980-11-01,0.0,7.681415557861328,6.864243984222412,6.918721675872803,0.8729116320610046,3528600.0
1980-12-01,0.0,8.17171859741211,6.7552876472473145,7.899328231811523,0.9966312646865845,6087000.0
1981-01-01,0.0,8.389631271362305,7.3000688552856445,7.517981052398682,0.9485180974006653,2786700.0
1981-02-01,0.0,7.790371894836426,6.918721675872803,7.136634349822998,0.9004049301147461,1555500.0
1981-03-01,0.0,8.117240905761719,6.973199844360352,7.899328231811523,0.9966312646865845,4305500.0
1981-04-01,0.0,8.280674934387207,7.790371894836426,8.062762260437012,1.0172513723373413,3959100.0
1981-05-01,0.0,8.226197242736816,7.463503360748291,7.844850063323975,0.9897583723068237,4487000.0
1981-06-01,0.0,8.770977973937988,7.735893726348877,8.389631271362305,1.058491587638855,8448400.0
1981-07-01,0.0,8.934412956237793,8.17171859741211,8.934412956237793,1.1272250413894653,5699600.0
1981-08-01,0.0,9.26128101348877,8.444108963012695,8.770977973937988,1.106603980064392,7093600.0
1981-09-01,0.0,8.879934310913086,8.335153579711914,8.66202163696289,1.0928574800491333,8561800.0
1981-10-01,0.0,9.315759658813477,8.553065299987793,9.315759658813477,1.175337314605713,6088000.0
1981-11-01,0.0,9.806062698364258,9.152324676513672,9.588150024414062,1.209704041481018,5023400.0
1981-12-01,0.0,9.588150024414062,8.825456619262695,8.988890647888184,1.1340974569320679,12214300.0
1982-01-01,0.0,9.588150024414062,8.879934310913086,9.533672332763672,1.2028316259384155,6512700.0
1982-02-01,0.0,9.860540390014648,8.934412956237793,9.642627716064453,1.2165769338607788,7642200.0
1982-03-01,0.0,10.241887092590332,9.642627716064453,9.75158405303955,1.230324149131775,9244000.0
1982-04-01,0.0,10.241887092590332,9.75158405303955,10.13293170928955,1.2784371376037598,4702700.0
1982-05-01,0.0,10.459799766540527,9.479193687438965,9.588150024414062,1.209704041481018,7639000.0
1982-06-01,0.0,9.806062698364258,8.825456619262695,9.370237350463867,1.1822108030319214,6629000.0
1982-07-01,0.0,9.860540390014648,8.934412956237793,9.206803321838379,1.1615909337997437,9749400.0
1982-08-01,0.0,10.296365737915039,9.26128101348877,9.860540390014648,1.2440707683563232,12118200.0
1982-09-01,0.0,10.241887092590332,8.988890647888184,9.206803321838379,1.1615909337997437,8370700.0
1982-10-01,0.0,10.023975372314453,8.934412956237793,9.206803321838379,1.1615909337997437,14292700.0
1982-11-01,0.0,10.078453063964844,8.988890647888184,9.152324676513672,1.1547175645828247,11738700.0
1982-12-01,0.0,10.241887092590332,9.043368339538574,10.13293170928955,1.2784371376037598,10251600.0
1983-01-01,0.0,10.459799766540527,9.915019035339355,10.187409400939941,1.2853107452392578,8552700.0
1983-02-01,0.0,10.459799766540527,9.588150024414062,9.915019035339355,1.2509440183639526,14565800.0
1983-03-01,0.0,10.13293170928955,9.69710636138916,9.806062698364258,1.237196922302246,11057200.0
1983-04-01,10.078450202941895,10.459799766540527,9.75158405303955,10.078450202941895,1.27156400680542,19012000.0
1983-05-01,10.078453063964844,10.459799766540527,9.806062698364258,10.023975372314453,1.2646912336349487,14855000.0
1983-05-16,,,,,,
1983-06-01,10.023975372314453,10.078453063964844,9.424715995788574,9.915019035339355,1.2820403575897217,8430800.0
1983-07-01,9.969496726989746,10.35084342956543,9.69710636138916,9.915019035339355,1.2820403575897217,9762400.0
1983-08-01,9.860540390014648,10.187409400939941,9.479193687438965,9.588150024414062,1.2397750616073608,16695100.0
1983-08-15,,,,,,
1983-09-01,9.588150024414062,10.514278411865234,9.533672332763672,10.514278411865234,1.3959286212921143,7140000.0
1983-10-01,10.514278411865234,11.3859281539917,10.459799766540527,11.331450462341309,1.5044214725494385,12911300.0
1983-11-01,11.331450462341309,11.494884490966797,10.73219108581543,11.113537788391113,1.475489854812622,11365800.0
1983-11-03,,,,,,
1983-12-01,11.113537788391113,11.113537788391113,10.568756103515625,10.950102806091309,1.4870573282241821,9409400.0
1984-01-01,10.950102806091309,11.3859281539917,10.514278411865234,10.841146469116211,1.472259759902954,8297600.0
1984-02-01,10.78666877746582,11.059059143066406,9.806062698364258,9.860540390014648,1.3390908241271973,12759100.0
1984-02-10,,,,,,
1984-03-01,9.860540390014648,10.677712440490723,9.69710636138916,10.459799766540527,1.4551615715026855,6707900.0
1984-04-01,10.514278411865234,10.514278411865234,10.241887092590332,10.296365737915039,1.4324244260787964,6306100.0
1984-05-01,10.35084342956543,11.004581451416016,9.915019035339355,10.023975372314453,1.3945295810699463,7277100.0
1984-05-14,,,,,,
1984-06-01,9.969496726989746,10.895625114440918,9.969496726989746,10.677712440490723,1.5227168798446655,7602600.0
1984-07-01,10.73219108581543,11.276971817016602,10.296365737915039,11.059059143066406,1.5771000385284424,4419200.0
1984-08-01,11.059059143066406,11.767274856567383,10.950102806091309,11.3859281539917,1.6237138509750366,5678900.0
1984-08-13,,,,,,
1984-09-01,11.3859281539917,12.148621559143066,11.222494125366211,12.039665222167969,1.7576799392700195,8078800.0
1984-10-01,11.930709838867188,13.129228591918945,11.82175350189209,12.47549057006836,1.8213053941726685,12091600.0
1984-11-01,12.529969215393066,12.693403244018555,12.039665222167969,12.529969215393066,1.8292584419250488,5460400.0
1984-11-02,,,,,,
1984-12-01,12.47549057006836,12.856837272644043,12.257577896118164,12.638924598693848,1.8856533765792847,5818900.0
1985-01-01,12.747880935668945,13.347140312194824,12.421012878417969,12.747880935668945,1.9019089937210083,8128100.0
1985-02-01,12.747880935668945,13.183706283569336,12.421012878417969,13.074749946594238,1.9506759643554688,16153700.0
1985-02-08,,,,,,
1985-03-01,13.074749946594238,14.327747344970703,12.91131591796875,14.273268699645996,2.1742355823516846,10102400.0
1985-04-01,14.327747344970703,14.491181373596191,13.946399688720703,14.327747344970703,2.1825344562530518,6345500.0
1985-05-01,14.327747344970703,14.818050384521484,14.00087833404541,14.491181373596191,2.2074294090270996,9226900.0
1985-05-13,,,,,,
1985-06-01,14.545659065246582,15.635221481323242,14.382225036621094,15.144918441772461,2.3506813049316406,6349500.0
1985-07-01,15.199397087097168,15.635221481323242,13.401618957519531,14.164312362670898,2.1984798908233643,8419300.0
1985-08-01,14.164312362670898,14.218791007995605,13.292662620544434,14.218791007995605,2.2069344520568848,7850500.0
1985-08-12,,,,,,
1985-09-01,14.273268699645996,14.327747344970703,13.074749946594238,13.674009323120117,2.1644792556762695,8117200.0
1985-10-01,13.728487968444824,15.144918441772461,13.674009323120117,15.09044075012207,2.3886878490448,7129300.0
1985-11-01,15.035962104797363,15.144918441772461,14.436702728271484,14.818050384521484,2.3455710411071777,9090000.0
1985-11-04,,,,,,
1985-12-01,14.818050384521484,16.071046829223633,14.763571739196777,15.417309761047363,2.486949920654297,9093300.0
1986-01-01,15.417309761047363,16.942697525024414,15.199397087097168,16.77926254272461,2.7066428661346436,8523600.0
1986-02-01,16.77926254272461,17.378520965576172,16.561349868774414,17.26956558227539,2.785733461380005,11667800.0
1986-02-14,,,,,,
1986-03-01,17.26956558227539,18.250171661376953,16.72478485107422,18.195693969726562,3.049546480178833,9126300.0
1986-04-01,18.250171661376953,18.740474700927734,17.051652908325195,17.596433639526367,2.949110507965088,8933400.0
1986-05-01,17.487478256225586,18.685997009277344,17.215087890625,18.359128952026367,3.076936721801758,11252000.0
1986-05-12,,,,,,
1986-06-01,18.413606643676758,19.666603088378906,17.977781295776367,19.666603088378906,3.4193193912506104,7748700.0
1986-07-01,19.612125396728516,21.57333755493164,19.557647705078125,21.02855682373047,3.6561152935028076,8679200.0
1986-08-01,21.02855682373047,22.662900924682617,20.810644149780273,21.791250228881836,3.788719892501831,12287300.0
1986-08-11,,,,,,
1986-09-01,21.845727920532227,21.95468521118164,17.977781295776367,19.666603088378906,3.53125,10832100.0
1986-10-01,19.83003807067871,21.02855682373047,19.176300048828125,21.02855682373047,3.77579665184021,6203800.0
1986-11-01,21.13751220703125,21.355424880981445,20.102428436279297,21.13751220703125,3.7953624725341797,9872500.0
1986-11-07,,,,,,
1986-12-01,21.08303451538086,21.51885986328125,19.612125396728516,19.721080780029297,3.6563351154327393,8444100.0
1987-01-01,19.775558471679688,22.553943634033203,19.721080780029297,22.063640594482422,4.09065055847168,9172900.0
1987-02-01,22.063640594482422,22.281553268432617,20.429296493530273,20.70168685913086,3.8381402492523193,11722100.0
1987-02-09,,,,,,
1987-03-01,20.70168685913086,20.919599533081055,19.721080780029297,20.2658634185791,3.875607490539551,8343400.0
1987-04-01,20.211383819580078,20.211383819580078,17.16061019897461,19.44869041442871,3.7193381786346436,11216900.0
1987-05-01,19.33973503112793,19.938993453979492,18.08673667907715,19.230777740478516,3.6776628494262695,13336600.0
1987-05-11,,,,,,
1987-06-01,19.285255432128906,19.993471145629883,18.794952392578125,19.44869041442871,3.8508946895599365,7748900.0
1987-07-01,19.44869041442871,19.612125396728516,18.90390968322754,19.067344665527344,3.7753851413726807,6236700.0
1987-08-01,19.067344665527344,21.02855682373047,18.95838737487793,20.047950744628906,3.969546318054199,15467200.0
1987-08-10,,,,,,
1987-09-01,20.047950744628906,20.320341110229492,19.285255432128906,19.938993453979492,4.092436790466309,7159800.0
1987-10-01,19.993471145629883,21.900205612182617,17.487478256225586,20.919599533081055,4.293705463409424,16776900.0
1987-11-01,20.70168685913086,21.08303451538086,18.304649353027344,18.740474700927734,3.8464417457580566,22018300.0
1987-11-06,,,,,,
1987-12-01,18.84943199157715,19.067344665527344,18.52256202697754,18.685997009277344,3.968397617340088,9708400.0
1988-01-01,18.794952392578125,21.355424880981445,18.740474700927734,21.355424880981445,4.535313129425049,8977800.0
1988-02-01,21.355424880981445,21.355424880981445,19.8845157623291,20.156906127929688,4.280778408050537,38808900.0
1988-02-08,,,,,,
1988-03-01,20.211383819580078,20.483774185180664,19.176300048828125,19.230777740478516,4.226247310638428,7626000.0
1988-04-01,19.230777740478516,19.83003807067871,18.52256202697754,19.285255432128906,4.238220691680908,5174500.0
1988-05-01,19.176300048828125,19.83003807067871,18.413606643676758,19.83003807067871,4.357947826385498,12794100.0
1988-05-09,,,,,,
1988-06-01,19.83003807067871,20.865121841430664,19.44869041442871,19.8845157623291,4.539478302001953,6769800.0
1988-07-01,19.938993453979492,20.156906127929688,19.285255432128906,19.993471145629883,4.564352512359619,5940900.0
1988-08-01,19.993471145629883,20.047950744628906,18.57703971862793,19.121822357177734,4.365362644195557,25778900.0
1988-08-08,,,,,,
1988-09-01,19.067344665527344,19.938993453979492,18.685997009277344,19.83003807067871,4.702027797698975,4122900.0
1988-10-01,19.8845157623291,20.756166458129883,19.775558471679688,20.592731475830078,4.882874488830566,5991400.0
1988-11-01,20.592731475830078,20.70168685913086,19.44869041442871,19.8845157623291,4.714944839477539,4803300.0
1988-11-14,,,,,,
1988-12-01,19.83003807067871,20.429296493530273,19.721080780029297,20.156906127929688,4.961178779602051,4623600.0
1989-01-01,20.156906127929688,20.374818801879883,19.83003807067871,20.102428436279297,4.9477691650390625,4657600.0
1989-02-01,20.047950744628906,20.156906127929688,18.740474700927734,18.794952392578125,4.6259636878967285,6463800.0
1989-02-13,,,,,,
1989-03-01,18.84943199157715,19.39421272277832,18.631519317626953,19.39421272277832,4.960090637207031,5917900.0
1989-04-01,19.33973503112793,20.374818801879883,19.285255432128906,19.938993453979492,5.099418640136719,5752200.0
1989-05-01,19.83003807067871,21.355424880981445,19.612125396728516,20.919599533081055,5.350211143493652,9329000.0
1989-05-08,,,,,,
1989-06-01,20.919599533081055,22.00916290283203,20.756166458129883,21.51885986328125,5.713806629180908,6322400.0
1989-07-01,21.57333755493164,22.935291290283203,21.57333755493164,22.935291290283203,6.089908123016357,5959900.0
1989-08-01,23.044246673583984,23.20768165588379,21.682292938232422,22.172595977783203,5.88739013671875,8238900.0
1989-08-14,,,,,,
1989-09-01,22.118118286132812,22.608421325683594,21.845727920532227,22.3905086517334,6.15716552734375,5234100.0
1989-10-01,22.3905086517334,22.989768981933594,22.00916290283203,22.989768981933594,6.32195520401001,6493300.0
1989-11-01,23.044246673583984,23.26215934753418,22.499465942382812,23.20768165588379,6.381879806518555,6060300.0
1989-11-13,,,,,,
1989-12-01,23.26215934753418,24.624113082885742,23.20768165588379,24.460678100585938,6.963832855224609,9040700.0
1990-01-01,24.297243118286133,24.56963348388672,22.227075576782227,23.425594329833984,6.669153213500977,8743200.0
1990-02-01,23.31663703918457,23.915897369384766,22.88081169128418,23.861419677734375,6.793228626251221,12279400.0
1990-02-12,,,,,,
1990-03-01,23.861419677734375,24.460678100585938,23.589027404785156,23.970375061035156,7.057060241699219,4466100.0
1990-04-01,23.861419677734375,24.13381004333496,22.82633399963379,23.044246673583984,6.78440523147583,4645600.0
1990-05-01,22.88081169128418,24.56963348388672,22.82633399963379,24.024852752685547,7.073101043701172,12082100.0
1990-05-14,,,,,,
1990-06-01,24.13381004333496,24.624113082885742,23.970375061035156,24.351722717285156,7.405484199523926,6759900.0
1990-07-01,24.297243118286133,25.277849197387695,23.75246238708496,25.277849197387695,7.6871209144592285,4647300.0
1990-08-01,25.168893814086914,25.8226318359375,23.534549713134766,24.18828773498535,7.355775833129883,13360800.0
1990-08-13,,,,,,
1990-09-01,24.079330444335938,24.242765426635742,23.589027404785156,24.242765426635742,7.616795539855957,5820900.0
1990-10-01,24.297243118286133,28.219669342041016,24.079330444335938,27.783843994140625,8.729361534118652,6818400.0
1990-10-01,,,,,,
1990-11-01,27.783843994140625,28.219669342041016,25.38680648803711,26.912193298339844,8.455498695373535,13606500.0
1990-11-09,,,,,,
1990-12-01,26.912193298339844,27.892799377441406,26.040544509887695,26.69428062438965,8.517858505249023,7196600.0
1991-01-01,26.585325241088867,26.803237915039062,23.970375061035156,24.079330444335938,7.683455467224121,7599000.0
1991-02-01,24.079330444335938,25.604719161987305,23.64350700378418,24.733068466186523,7.892059326171875,8285600.0
1991-02-11,,,,,,
1991-03-01,24.515155792236328,25.49576187133789,23.31663703918457,25.059938430786133,8.128777503967285,7718000.0
1991-04-01,25.168893814086914,25.604719161987305,24.079330444335938,24.18828773498535,7.8460373878479,6229700.0
1991-05-01,24.18828773498535,24.95098114013672,23.75246238708496,24.18828773498535,7.8460373878479,6739500.0
1991-05-13,,,,,,
1991-06-01,24.18828773498535,24.95098114013672,23.861419677734375,24.079330444335938,7.942944049835205,3900700.0
1991-07-01,24.18828773498535,26.149499893188477,23.861419677734375,25.49576187133789,8.410177230834961,5645800.0
1991-08-01,25.49576187133789,26.912193298339844,25.277849197387695,26.149499893188477,8.625823020935059,6964200.0
1991-08-12,,,,,,
1991-09-01,26.25845718383789,28.328624725341797,25.713674545288086,28.219669342041016,9.465659141540527,4530400.0
1991-10-01,28.328624725341797,28.87340545654297,26.585325241088867,27.348018646240234,9.1732816696167,5770400.0
1991-11-01,27.45697593688965,27.67488670349121,26.25845718383789,27.13010597229004,9.10019302368164,6131700.0
1991-11-08,,,,,,
1991-12-01,27.021150588989258,30.507749557495117,27.021150588989258,30.507749557495117,10.394655227661133,6068200.0
1992-01-01,30.507749557495117,30.507749557495117,27.348018646240234,28.546537399291992,9.72642707824707,5912800.0
1992-02-01,28.43758201599121,28.546537399291992,27.45697593688965,27.783843994140625,9.466556549072266,6882900.0
1992-02-10,,,,,,
1992-03-01,27.892799377441406,28.546537399291992,27.348018646240234,27.892799377441406,9.651898384094238,6279300.0
1992-04-01,27.892799377441406,29.63610076904297,27.892799377441406,29.527143478393555,10.217439651489258,4758100.0
1992-05-01,29.527143478393555,30.18088150024414,29.200275421142578,29.418188095092773,10.179738998413086,7428400.0
1992-05-11,,,,,,
1992-06-01,29.30923080444336,30.18088150024414,29.091318130493164,29.854013442993164,10.480406761169434,5246500.0
1992-07-01,29.854013442993164,31.706268310546875,29.74505615234375,31.48835563659668,11.054156303405762,4777900.0
1992-08-01,31.48835563659668,31.81522560119629,30.834619522094727,31.597312927246094,11.09240436553955,4356600.0
1992-08-10,,,,,,
1992-09-01,31.48835563659668,31.597312927246094,30.725662231445312,31.3794002532959,11.175615310668945,4025200.0
1992-10-01,31.3794002532959,31.706268310546875,30.18088150024414,31.161487579345703,11.098005294799805,3403100.0
1992-11-01,31.270442962646484,31.3794002532959,30.289836883544922,31.052532196044922,11.059203147888184,8236500.0
1992-11-06,,,,,,
1992-12-01,31.052532196044922,32.68687438964844,30.725662231445312,31.48835563659668,11.37873649597168,4467700.0
1993-01-01,31.706268310546875,32.033138275146484,30.834619522094727,32.033138275146484,11.575603485107422,6499100.0
1993-02-01,32.033138275146484,33.88539505004883,31.92418098449707,33.44956970214844,12.087450981140137,5036500.0
1993-02-08,,,,,,
1993-03-01,33.340614318847656,34.757041931152344,32.79582977294922,34.21226119995117,12.535053253173828,4723300.0
1993-04-01,34.43017578125,36.064517974853516,33.12269973754883,34.21226119995117,12.535053253173828,3577300.0
1993-05-01,34.10330581665039,34.757041931152344,32.36000442504883,33.99435043334961,12.455217361450195,5244800.0
1993-05-10,,,,,,
1993-06-01,33.99435043334961,34.97495651245117,33.66748046875,34.757041931152344,12.902754783630371,3981300.0
1993-07-01,34.86600112915039,37.37199401855469,34.757041931152344,37.04512405395508,13.752163887023926,3745600.0
1993-08-01,37.04512405395508,37.263038635253906,36.391387939453125,36.9361686706543,13.711709976196289,6401300.0
1993-08-09,,,,,,
1993-09-01,36.827213287353516,39.11529541015625,36.827213287353516,37.80781936645508,14.215121269226074,3959300.0
1993-10-01,37.6988639831543,38.35260009765625,36.718257904052734,38.13468933105469,14.338016510009766,3756800.0
1993-11-01,37.91677474975586,37.91677474975586,33.99435043334961,36.60929870605469,13.764497756958008,5739900.0
1993-11-05,,,,,,
1993-12-01,36.60929870605469,38.35260009765625,35.73765182495117,36.9361686706543,14.076543807983398,5233800.0
1994-01-01,36.9361686706543,37.48094940185547,35.192867279052734,36.60929870605469,13.951983451843262,3963000.0
1994-02-01,36.60929870605469,36.718257904052734,32.577919006347656,33.66748046875,12.830840110778809,5753800.0
1994-02-07,,,,,,
1994-03-01,33.66748046875,34.64808654785156,31.161487579345703,31.48835563659668,12.162800788879395,9511100.0
1994-04-01,31.052532196044922,32.25104904174805,30.61670684814453,31.92418098449707,12.331141471862793,5472800.0
1994-05-01,31.92418098449707,32.142093658447266,28.655494689941406,31.597312927246094,12.204888343811035,13561600.0
1994-05-09,,,,,,
1994-06-01,31.48835563659668,32.142093658447266,30.071924209594727,31.161487579345703,12.221519470214844,6305000.0
1994-07-01,31.270442962646484,33.340614318847656,30.943574905395508,33.340614318847656,13.076166152954102,4790900.0
1994-08-01,33.340614318847656,34.757041931152344,32.577919006347656,33.77643585205078,13.24710464477539,7002400.0
1994-08-08,,,,,,
1994-09-01,33.66748046875,33.99435043334961,31.48835563659668,33.99435043334961,13.526299476623535,6545700.0
1994-10-01,33.88539505004883,34.64808654785156,33.23165512084961,34.53913116455078,13.743067741394043,5605800.0
1994-11-01,34.43017578125,35.84660720825195,33.55852508544922,35.519737243652344,14.133252143859863,8235900.0
1994-11-14,,,,,,
1994-12-01,35.30182647705078,36.718257904052734,33.12269973754883,33.23165512084961,13.413721084594727,9361700.0
1995-01-01,33.23165512084961,35.30182647705078,33.12269973754883,35.192867279052734,14.205353736877441,4965400.0
1995-02-01,35.41078186035156,35.519737243652344,33.55852508544922,34.21226119995117,13.80953598022461,6369300.0
1995-02-13,,,,,,
1995-03-01,34.10330581665039,34.10330581665039,32.577919006347656,33.340614318847656,13.653251647949219,6257700.0
1995-04-01,33.340614318847656,34.757041931152344,33.340614318847656,34.43017578125,14.099432945251465,4340500.0
1995-05-01,34.43017578125,36.391387939453125,34.21226119995117,36.391387939453125,14.902565956115723,6458100.0
1995-05-08,,,,,,
1995-05-15,,,,,,
1995-06-01,36.391387939453125,37.263038635253906,34.757041931152344,36.1734733581543,15.237289428710938,6688900.0
1995-07-01,35.955562591552734,36.500343322753906,35.41078186035156,36.1734733581543,15.237289428710938,6175900.0
1995-08-01,36.1734733581543,36.1734733581543,34.86600112915039,35.41078186035156,14.916023254394531,6474400.0
1995-08-16,,,,,,
1995-09-01,35.519737243652344,38.13468933105469,35.30182647705078,37.80781936645508,16.15772247314453,5882600.0
1995-10-01,37.80781936645508,39.7690315246582,37.58990478515625,39.0063362121582,16.669925689697266,5694300.0
1995-11-01,39.0063362121582,39.7690315246582,37.91677474975586,39.11529541015625,16.716495513916016,4306900.0
1995-11-15,,,,,,
1995-12-01,39.11529541015625,41.73024368286133,39.11529541015625,41.29441833496094,17.884920120239258,4796800.0
1996-01-01,41.076507568359375,43.47354507446289,40.85859298706055,43.364585876464844,18.78152084350586,6580700.0
1996-02-01,43.47354507446289,46.19744873046875,42.49293899536133,42.60189437866211,18.451204299926758,8340800.0
1996-02-14,,,,,,
1996-03-01,42.92876434326172,44.7810173034668,41.076507568359375,44.01832580566406,19.27902603149414,7147900.0
1996-04-01,44.01832580566406,44.345191955566406,40.313812255859375,40.96754837036133,17.942832946777344,6514800.0
1996-05-01,40.96754837036133,43.58250045776367,39.877986907958984,42.05711364746094,18.420047760009766,7840400.0
1996-05-15,,,,,,
1996-06-01,41.83919906616211,44.889976501464844,41.73024368286133,44.672061920166016,19.79877281188965,5939700.0
1996-07-01,44.7810173034668,44.7810173034668,41.40337371826172,41.73024368286133,18.494953155517578,6845900.0
1996-08-01,41.73024368286133,43.47354507446289,40.640682220458984,40.749637603759766,18.06034278869629,5693900.0
1996-08-14,,,,,,
1996-09-01,40.640682220458984,42.05711364746094,39.877986907958984,40.640682220458984,18.240737915039062,5211500.0
1996-10-01,40.640682220458984,42.60189437866211,40.422767639160156,42.60189437866211,19.120990753173828,5477600.0
1996-11-01,42.71084976196289,42.81980514526367,40.09590148925781,40.422767639160156,18.142921447753906,14248000.0
1996-11-13,,,,,,
1996-12-01,40.5317268371582,41.83919906616211,37.80781936645508,40.313812255859375,18.32137107849121,20074300.0
1997-01-01,40.422767639160156,41.83919906616211,39.11529541015625,40.85859298706055,18.56896209716797,19625700.0
1997-02-01,40.85859298706055,40.96754837036133,38.46155548095703,38.57051086425781,17.529102325439453,16148200.0
1997-02-12,,,,,,
1997-03-01,38.35260009765625,39.22425079345703,37.80781936645508,38.46155548095703,17.715024948120117,15421700.0
1997-04-01,38.46155548095703,39.0063362121582,36.500343322753906,38.24364471435547,17.61466407775879,16089400.0
1997-05-01,38.35260009765625,40.749637603759766,38.13468933105469,39.33320617675781,18.116498947143555,17788800.0
1997-05-14,,,,,,
1997-06-01,39.442161560058594,41.83919906616211,39.0063362121582,41.78472137451172,19.506322860717773,22916800.0
1997-07-01,42.00263595581055,44.290714263916016,41.512332916259766,44.181758880615234,20.62533187866211,21015300.0
1997-08-01,44.181758880615234,44.617584228515625,41.83919906616211,42.22054672241211,19.70978355407715,18985200.0
1997-08-13,,,,,,
1997-09-01,42.22054672241211,44.39967346191406,42.16606903076172,43.09219741821289,20.374130249023438,14145000.0
1997-10-01,43.14667510986328,44.726539611816406,38.84290313720703,42.2750244140625,19.98775863647461,17632600.0
1997-11-01,42.49293899536133,46.41536331176758,41.022029876708984,45.325801849365234,21.4301815032959,16704400.0
1997-11-12,,,,,,
1997-12-01,45.5437126159668,49.302703857421875,44.45415115356445,48.26762008666992,23.11803436279297,13395500.0
1998-01-01,48.3765754699707,48.812400817871094,46.3064079284668,47.2325325012207,22.622255325317383,18355100.0
1998-02-01,47.06909942626953,49.248226165771484,46.96014404296875,48.431053161621094,23.19630241394043,13787200.0
1998-02-11,,,,,,
1998-03-01,48.3765754699707,53.116172790527344,48.158660888671875,51.91765213012695,25.15056800842285,13934300.0
1998-04-01,51.75421905517578,52.62586975097656,48.648963928222656,50.44674301147461,24.437999725341797,13306600.0
1998-05-01,50.55569839477539,50.99152374267578,47.94075012207031,50.22883224487305,24.33244514465332,12028100.0
1998-05-13,,,,,,
1998-06-01,50.33778762817383,54.96842956542969,50.28330993652344,51.645263671875,25.298358917236328,19080300.0
1998-07-01,51.75421905517578,52.026607513427734,49.57509231567383,49.793006896972656,24.39103126525879,15493400.0
1998-08-01,49.793006896972656,56.05799102783203,49.357181549072266,54.36916732788086,26.63265037536621,24197000.0
1998-08-12,,,,,,
1998-09-01,54.042301177978516,57.74681091308594,51.972129821777344,57.69233322143555,28.568979263305664,26183400.0
1998-10-01,57.69233322143555,61.887149810791016,54.42364501953125,56.38486099243164,27.921520233154297,31746600.0
1998-11-01,56.38486099243164,56.657249450683594,53.7699089050293,54.5326042175293,27.004304885864258,21302900.0
1998-11-10,,,,,,
1998-12-01,54.69603729248047,56.275901794433594,52.08108901977539,55.8400764465332,27.93549346923828,29808600.0
1999-01-01,55.8400764465332,56.92964172363281,52.08108901977539,53.87886428833008,26.954336166381836,20751800.0
1999-02-01,53.87886428833008,53.93334197998047,49.08478927612305,49.57509231567383,24.80125617980957,21762800.0
1999-02-10,,,,,,
1999-03-01,49.57509231567383,52.734825134277344,47.17805480957031,47.77731704711914,24.156171798706055,20899900.0
1999-04-01,47.94075012207031,49.357181549072266,45.27132034301758,48.812400817871094,24.679513931274414,31074700.0
1999-05-01,48.70344543457031,53.3885612487793,47.06909942626953,52.57139205932617,26.580053329467773,26296800.0
1999-05-12,,,,,,
1999-06-01,52.407955169677734,52.734825134277344,47.17805480957031,47.45044708251953,24.268068313598633,19731600.0
1999-07-01,47.39596939086914,49.46613693237305,45.70714569091797,46.14297103881836,23.599367141723633,20583800.0
1999-08-01,46.19744873046875,50.71913528442383,45.59819030761719,50.119876861572266,25.633316040039062,27021600.0
1999-08-11,,,,,,
1999-09-01,50.119876861572266,51.15496063232422,45.5437126159668,48.049705505371094,24.86273956298828,19479700.0
1999-10-01,48.049705505371094,49.84748458862305,45.27132034301758,49.302703857421875,25.511079788208008,20245500.0
1999-11-01,49.193748474121094,49.684051513671875,42.92876434326172,44.181758880615234,22.861324310302734,19740800.0
1999-11-09,,,,,,
1999-12-01,43.90937042236328,44.45415115356445,40.749637603759766,43.69145584106445,22.868192672729492,23452300.0
2000-01-01,43.58250045776367,50.501220703125,41.62128829956055,50.33778762817383,26.34689712524414,23981400.0
2000-02-01,50.22883224487305,50.44674301147461,41.076507568359375,42.2750244140625,22.126827239990234,23808100.0
2000-02-09,,,,,,
2000-03-01,42.81980514526367,46.19744873046875,39.877986907958984,45.76162338256836,24.237253189086914,35658200.0
2000-04-01,45.76162338256836,52.462432861328125,45.21684265136719,50.119876861572266,26.545560836791992,29308900.0
2000-05-01,50.119876861572266,54.69603729248047,48.812400817871094,50.77361297607422,26.891807556152344,32960400.0
2000-05-10,,,,,,
2000-06-01,50.66465759277344,54.20573425292969,48.812400817871094,49.13926696777344,26.307544708251953,27486100.0
2000-07-01,49.357181549072266,56.43933868408203,49.193748474121094,53.7699089050293,28.786623001098633,21956600.0
2000-08-01,54.20573425292969,66.08196258544922,54.20573425292969,65.22393798828125,34.91874694824219,36971300.0
2000-08-09,,,,,,
2000-09-01,65.31927490234375,76.16041564941406,64.22970581054688,74.75760650634766,40.38712692260742,49789900.0
2000-10-01,74.74398803710938,78.2305908203125,68.69691467285156,75.34324645996094,40.703495025634766,44522000.0
2000-11-01,75.34324645996094,78.82984924316406,73.21859741210938,78.3940200805664,42.35166549682617,35901900.0
2000-11-15,,,,,,
2000-12-01,78.3940200805664,78.3940200805664,71.58425903320312,74.30815887451172,40.44591522216797,37166700.0
2001-01-01,73.8723373413086,73.8723373413086,56.49381637573242,63.752479553222656,34.7004280090332,76331300.0
2001-01-29,,,,,,
2001-02-01,63.76991271972656,74.78756713867188,62.88083267211914,71.03947448730469,38.6667594909668,27839200.0
2001-02-14,,,,,,
2001-03-01,70.86514282226562,75.83354949951172,63.97911071777344,74.5086441040039,40.71269226074219,50292500.0
2001-04-01,74.90959930419922,83.15541076660156,67.012451171875,81.51670837402344,44.54201126098633,39802900.0
2001-05-01,81.0634536743164,83.22514343261719,75.92071533203125,79.70367431640625,43.55133819580078,32062700.0
2001-05-09,,,,,,
2001-06-01,78.62283325195312,78.62283325195312,66.94271850585938,68.00613403320312,37.2926139831543,43122200.0
2001-07-01,68.94751739501953,74.70040130615234,63.4038200378418,67.3088150024414,36.91020584106445,36278200.0
2001-08-01,67.6400375366211,70.4293212890625,63.63045120239258,68.52912139892578,37.579376220703125,27783200.0
2001-08-15,,,,,,
2001-09-01,68.77318572998047,70.4293212890625,59.95208740234375,65.98390197753906,36.33543014526367,31992800.0
2001-10-01,66.15823364257812,72.08545684814453,64.41493225097656,66.96015167236328,36.87301254272461,32889500.0
2001-11-01,67.20421600341797,70.51648712158203,62.09634780883789,63.020294189453125,34.70344543457031,45758600.0
2001-11-14,,,,,,
2001-12-01,62.84596633911133,69.83660125732422,56.169124603271484,68.44195556640625,37.836753845214844,51488300.0
2002-01-01,68.07586669921875,69.73200225830078,58.57487869262695,60.78887176513672,33.605899810791016,41150500.0
2002-02-01,60.9283332824707,61.887149810791016,55.768165588378906,61.538490295410156,34.020294189453125,48633900.0
2002-02-13,,,,,,
2002-03-01,61.97431564331055,66.47203063964844,59.795188903808594,65.89674377441406,36.71805191040039,61975400.0
2002-04-01,65.722412109375,69.03468322753906,64.39749908447266,66.82068634033203,37.23286437988281,46248700.0
2002-05-01,66.82068634033203,66.82068634033203,54.61758804321289,55.80303192138672,31.093761444091797,55584800.0
2002-05-15,,,,,,
2002-06-01,55.820465087890625,59.02813720703125,49.684051513671875,54.21662902832031,30.339263916015625,62360700.0
2002-07-01,53.86796951293945,54.199195861816406,31.553730010986328,44.43671798706055,24.866487503051758,116922600.0
2002-08-01,44.41928482055664,50.66029739379883,41.856632232666016,46.77273941040039,26.173723220825195,47156400.0
2002-08-14,,,,,,
2002-09-01,46.77273941040039,46.77273941040039,31.048173904418945,34.08151626586914,19.185483932495117,84586000.0
2002-10-01,33.73285675048828,36.78363037109375,28.62498664855957,35.720218658447266,20.107954025268555,88661000.0
2002-11-01,35.284393310546875,38.35260009765625,31.536296844482422,34.412742614746094,19.371938705444336,47959300.0
2002-11-13,,,,,,
2002-12-01,34.34300994873047,36.95795822143555,32.739173889160156,34.064083099365234,19.338274002075195,49315100.0
2003-01-01,34.412742614746094,37.60298156738281,28.903913497924805,29.688398361206055,16.854188919067383,83211700.0
2003-02-01,29.75813102722168,30.228822708129883,22.662900924682617,23.551982879638672,13.370534896850586,83517500.0
2003-02-12,,,,,,
2003-03-01,23.7263126373291,27.70103645324707,21.28569221496582,25.34758186340332,14.646756172180176,86802500.0
2003-04-01,24.667694091796875,30.995874404907227,23.551982879638672,30.66464614868164,17.719148635864258,70606600.0
2003-05-01,29.02594566345215,34.09894943237305,28.938779830932617,33.785152435302734,19.522293090820312,78085900.0
2003-05-14,,,,,,
2003-06-01,33.88975143432617,36.1734733581543,32.02442169189453,34.77883529663086,20.28582763671875,56667600.0
2003-07-01,33.90718460083008,34.34300994873047,29.63610076904297,30.59491539001465,17.845430374145508,51675500.0
2003-08-01,30.71694564819336,30.71694564819336,29.200275421142578,29.775564193725586,17.367511749267578,44704300.0
2003-08-13,,,,,,
2003-09-01,29.740697860717773,32.599708557128906,29.723264694213867,31.048173904418945,18.274349212646484,49118300.0
2003-10-01,30.856409072875977,33.15756607055664,30.124223709106445,31.64089584350586,18.623210906982422,76959600.0
2003-11-01,31.728059768676758,31.867523193359375,29.775564193725586,31.449132919311523,18.510339736938477,43434600.0
2003-11-12,,,,,,
2003-12-01,31.449132919311523,36.417537689208984,30.769245147705078,35.65048599243164,21.171960830688477,54538800.0
2004-01-01,35.91197967529297,38.61409378051758,34.6219367980957,37.88190841674805,22.497159957885742,65234500.0
2004-02-01,37.82960891723633,39.206817626953125,36.97539138793945,38.282867431640625,22.735273361206055,40840900.0
2004-02-11,,,,,,
2004-03-01,38.43976593017578,39.57291030883789,37.21945571899414,39.39857864379883,23.56524085998535,35596500.0
2004-04-01,39.39857864379883,39.92156982421875,35.94684600830078,36.713897705078125,21.959476470947266,58790000.0
2004-05-01,36.626731872558594,36.713897705078125,32.8612060546875,34.76140213012695,20.79163360595703,41948800.0
2004-05-12,,,,,,
2004-06-01,34.76140213012695,36.15604019165039,33.36676025390625,35.37155532836914,21.328678131103516,31034000.0
2004-07-01,35.284393310546875,37.690147399902344,34.58707046508789,37.48094940185547,22.60062599182129,28959200.0
2004-08-01,37.48094940185547,39.17195129394531,37.21945571899414,38.59666061401367,23.273393630981445,35449600.0
2004-08-11,,,,,,
2004-09-01,38.61409378051758,40.09590148925781,38.10853958129883,39.904136657714844,24.232587814331055,37184300.0
2004-10-01,39.92156982421875,43.16410827636719,39.83440399169922,42.76314926147461,25.96879005432129,34574400.0
2004-11-01,42.76314926147461,45.60472869873047,42.37962341308594,44.07062530517578,26.762773513793945,38580400.0
2004-11-09,,,,,,
2004-12-01,44.15778732299805,45.46526336669922,42.1006965637207,44.15778732299805,26.982820510864258,32898800.0
2005-01-01,44.3146858215332,46.842472076416016,42.484222412109375,46.703006744384766,28.5380916595459,31531300.0
2005-02-01,46.87733840942383,48.34170913696289,44.66334533691406,47.051666259765625,28.751136779785156,44363300.0
2005-02-09,,,,,,
2005-03-01,47.12139892578125,49.16106033325195,46.82503890991211,48.829833984375,30.01186752319336,44630900.0
2005-04-01,49.17849349975586,50.92179489135742,48.44630813598633,50.88692855834961,31.27621078491211,41262800.0
2005-05-01,50.99152374267578,51.462215423583984,47.66182327270508,47.9058837890625,29.44400405883789,65055400.0
2005-05-11,,,,,,
2005-06-01,47.9058837890625,52.26413345336914,47.888450622558594,51.82830810546875,32.0351676940918,39072500.0
2005-07-01,51.950340270996094,53.257816314697266,50.55569839477539,51.4970817565918,31.830425262451172,33397300.0
2005-08-01,51.462215423583984,52.21183395385742,48.533470153808594,50.538265228271484,31.23777198791504,40372200.0
2005-08-10,,,,,,
2005-09-01,50.55569839477539,51.35761642456055,48.95186233520508,50.8520622253418,31.629070281982422,43460900.0
2005-10-01,50.8694953918457,51.165855407714844,43.68709945678711,46.16258239746094,28.71231460571289,61954100.0
2005-11-01,46.110286712646484,47.99304962158203,44.59361267089844,46.82503890991211,29.12434196472168,38343100.0
2005-11-09,,,,,,
2005-12-01,47.17369842529297,48.60320281982422,45.482696533203125,47.85358428955078,29.967487335205078,40312200.0
2006-01-01,48.20224380493164,50.381370544433594,47.73155212402344,49.42255401611328,30.950014114379883,38758600.0
2006-02-01,50.17217254638672,50.29420471191406,47.94075012207031,49.50971984863281,31.004602432250977,31730200.0
2006-02-15,,,,,,
2006-03-01,49.596885681152344,51.898040771484375,47.94075012207031,50.817195892333984,32.024620056152344,51880300.0
2006-04-01,50.817195892333984,51.79344177246094,49.26565933227539,50.764896392822266,31.991653442382812,46949400.0
2006-05-01,50.904361724853516,51.14842224121094,46.964500427246094,49.195926666259766,31.002880096435547,49523800.0
2006-05-10,,,,,,
2006-06-01,49.248226165771484,52.037506103515625,48.69036865234375,51.200721740722656,32.466068267822266,50266500.0
2006-07-01,51.07868957519531,53.606475830078125,50.276771545410156,52.85685729980469,33.516212463378906,35135000.0
2006-08-01,52.64765930175781,54.0074348449707,50.974090576171875,52.29899978637695,33.16249084472656,42894400.0
2006-08-09,,,,,,
2006-09-01,52.56049346923828,53.7285041809082,51.21815490722656,52.64765930175781,33.58697509765625,44774300.0
2006-10-01,51.985206604003906,55.99479675292969,51.985206604003906,55.15801239013672,35.18846893310547,53525300.0
2006-11-01,55.19287872314453,55.733299255371094,53.0834846496582,55.29747772216797,35.27745056152344,48961700.0
2006-11-15,,,,,,
2006-12-01,55.34977340698242,60.14384841918945,54.80935287475586,57.89499282836914,37.148921966552734,47981700.0
2007-01-01,60.0,60.0,55.20000076293945,59.06999969482422,37.90287399291992,65611200.0
2007-01-03,,,,,,
2007-02-01,59.25,61.290000915527344,58.290000915527344,59.040000915527344,37.88362503051758,52104000.0
2007-02-14,,,,,,
2007-03-01,58.91999816894531,61.86000061035156,57.18000030517578,60.869998931884766,39.192413330078125,54595700.0
2007-04-01,61.59000015258789,63.900001525878906,60.150001525878906,61.560001373291016,39.63668441772461,38167200.0
2007-05-01,62.849998474121094,62.90999984741211,57.150001525878906,58.619998931884766,37.74370193481445,45470000.0
2007-05-09,,,,,,
2007-06-01,58.83000183105469,58.95000076293945,54.18000030517578,54.900001525878906,35.46867370605469,64523800.0
2007-07-01,55.16999816894531,55.83000183105469,51.0,51.09000015258789,33.00719451904297,70540000.0
2007-08-01,51.29999923706055,59.70000076293945,50.72999954223633,55.02000045776367,35.54619598388672,81844300.0
2007-08-15,,,,,,
2007-09-01,55.11000061035156,57.5099983215332,54.38999938964844,56.06999969482422,36.368350982666016,42750200.0
2007-10-01,56.34000015258789,58.619998931884766,54.75,57.5099983215332,37.302364349365234,45150000.0
2007-11-01,57.27000045776367,60.27000045776367,55.83000183105469,59.369998931884766,38.5088005065918,51886400.0
2007-11-14,,,,,,
2007-12-01,59.369998931884766,62.34000015258789,59.099998474121094,60.5099983215332,39.395477294921875,39259700.0
2008-01-01,60.38999938964844,61.79999923706055,53.63999938964844,55.95000076293945,36.42665481567383,60558300.0
2008-02-01,55.88999938964844,58.2599983215332,52.40999984741211,52.619998931884766,34.258644104003906,58563500.0
2008-02-13,,,,,,
2008-03-01,52.650001525878906,55.290000915527344,51.0,53.54999923706055,35.001380920410156,60718400.0
2008-04-01,53.939998626708984,55.79999923706055,53.58000183105469,54.93000030517578,35.903377532958984,50608300.0
2008-05-01,55.11000061035156,57.599998474121094,53.220001220703125,55.439998626708984,36.23672103881836,42878500.0
2008-05-15,,,,,,
2008-06-01,55.349998474121094,55.40999984741211,51.060001373291016,52.13999938964844,34.21260452270508,58389500.0
2008-07-01,51.56999969482422,53.279998779296875,50.310001373291016,52.7400016784668,34.60629653930664,59276700.0
2008-08-01,52.5,56.15999984741211,51.45000076293945,52.31999969482422,34.33070373535156,48717000.0
2008-08-13,,,,,,
2008-09-01,52.560001373291016,57.29999923706055,51.09000015258789,52.290000915527344,34.459022521972656,78532200.0
2008-10-01,52.290000915527344,53.970001220703125,40.5,49.13999938964844,32.3831787109375,119103200.0
2008-11-01,48.900001525878906,51.599998474121094,42.5099983215332,46.68000030517578,30.76204490661621,89432000.0
2008-11-12,,,,,,
2008-12-01,45.630001068115234,46.08000183105469,42.38999938964844,45.029998779296875,29.819019317626953,63647600.0
2009-01-01,45.150001525878906,47.880001068115234,43.5,45.45000076293945,30.09714698791504,54927200.0
2009-02-01,45.0,47.58000183105469,40.11000061035156,40.40999984741211,26.759634017944336,65163300.0
2009-02-11,,,,,,
2009-03-01,39.75,44.099998474121094,35.15999984741211,42.959999084472656,28.592374801635742,75325900.0
2009-04-01,42.56999969482422,43.40999984741211,40.79999923706055,41.43000030517578,27.574071884155273,60049200.0
2009-05-01,41.4900016784668,43.5,39.93000030517578,42.45000076293945,28.252944946289062,62731200.0
2009-05-14,,,,,,
2009-06-01,42.599998474121094,44.4900016784668,41.72999954223633,43.77000045776367,29.291431427001953,64607200.0
2009-07-01,43.709999084472656,46.88999938964844,42.29999923706055,46.439998626708984,31.078227996826172,53459800.0
2009-08-01,46.709999084472656,47.220001220703125,45.38999938964844,46.470001220703125,31.09830665588379,55310000.0
2009-08-12,,,,,,
2009-09-01,46.31999969482422,48.060001373291016,45.119998931884766,47.220001220703125,31.763103485107422,55934700.0
2009-10-01,47.189998626708984,48.93000030517578,45.9900016784668,47.459999084472656,31.92453384399414,62538400.0
2009-11-01,47.61000061035156,50.4900016784668,47.040000915527344,50.040000915527344,33.66000747680664,55320400.0
2009-11-10,,,,,,
2009-12-01,50.099998474121094,53.81999969482422,50.099998474121094,51.630001068115234,34.900726318359375,51270000.0
2010-01-01,51.630001068115234,51.869998931884766,49.439998626708984,49.59000015258789,33.521728515625,55483700.0
2010-02-01,49.68000030517578,50.58000183105469,48.060001373291016,49.04999923706055,33.15669250488281,53458500.0
2010-02-10,,,,,,
2010-03-01,49.22999954223633,50.279998779296875,48.689998626708984,48.959999084472656,33.25653076171875,46915500.0
2010-04-01,49.13999938964844,50.70000076293945,47.81999969482422,50.34000015258789,34.193904876708984,72257200.0
2010-05-01,50.54999923706055,51.41999816894531,46.40999984741211,47.880001068115234,32.52291488647461,78632900.0
2010-05-19,,,,,,
2010-06-01,47.54999923706055,50.25,46.709999084472656,48.0,32.7591438293457,56340500.0
2010-07-01,48.209999084472656,52.290000915527344,47.61000061035156,51.29999923706055,35.01133346557617,59431100.0
2010-08-01,51.720001220703125,53.400001525878906,50.279998779296875,51.540000915527344,35.17512130737305,65921000.0
2010-08-11,,,,,,
2010-09-01,51.9900016784668,54.2400016784668,51.599998474121094,53.130001068115234,36.42845153808594,47275500.0
2010-10-01,53.54999923706055,54.959999084472656,52.529998779296875,54.630001068115234,37.45692825317383,56784600.0
2010-11-01,54.869998931884766,55.79999923706055,52.04999923706055,52.650001525878906,36.099334716796875,42598400.0
2010-11-09,,,,,,
2010-12-01,53.099998474121094,53.70000076293945,51.56999969482422,53.43000030517578,36.79720687866211,40548300.0
2011-01-01,53.7599983215332,54.779998779296875,52.08000183105469,53.63999938964844,36.94182205200195,66863500.0
2011-02-01,53.939998626708984,54.810001373291016,52.77000045776367,53.970001220703125,37.169097900390625,72341500.0
2011-02-09,,,,,,
2011-03-01,53.849998474121094,55.439998626708984,52.290000915527344,54.45000076293945,37.66936111450195,72629500.0
2011-04-01,54.56999969482422,56.15999984741211,53.849998474121094,55.95000076293945,38.70708465576172,48866700.0
2011-05-01,56.06999969482422,58.5,55.5,56.25,38.91463088989258,60981600.0
2011-05-18,,,,,,
2011-06-01,56.25,56.7599983215332,54.84000015258789,56.4900016784668,39.24518966674805,54642500.0
2011-07-01,56.400001525878906,57.689998626708984,55.290000915527344,55.79999923706055,38.76582336425781,66194500.0
2011-08-01,56.4900016784668,56.880001068115234,50.61000061035156,56.72999954223633,39.41192626953125,122987800.0
2011-08-10,,,,,,
2011-09-01,56.790000915527344,60.630001068115234,54.9900016784668,59.970001220703125,41.858154296875,93764000.0
2011-10-01,60.27000045776367,62.189998626708984,57.5099983215332,61.2599983215332,42.758544921875,88077600.0
2011-11-01,60.540000915527344,63.060001373291016,58.7400016784668,62.54999923706055,43.6589469909668,117491900.0
2011-11-16,,,,,,
2011-12-01,62.279998779296875,66.36000061035156,61.349998474121094,66.0,46.25337600708008,73608400.0
2012-01-01,66.33000183105469,66.33000183105469,62.61000061035156,63.93000030517578,44.80270767211914,66801400.0
2012-02-01,64.08000183105469,64.83000183105469,62.400001525878906,62.7599983215332,43.98276138305664,95219100.0
2012-02-15,,,,,,
2012-03-01,62.72999954223633,64.44000244140625,62.0099983215332,63.029998779296875,44.34385681152344,63539900.0
2012-04-01,63.0,64.5,60.56999969482422,64.29000091552734,45.230308532714844,93107200.0
2012-05-01,64.2300033569336,66.2699966430664,63.84000015258789,65.94000244140625,46.391151428222656,112170800.0
2012-05-16,,,,,,
2012-06-01,65.61000061035156,70.19999694824219,65.55000305175781,69.18000030517578,48.8584098815918,113998900.0
2012-07-01,70.3499984741211,71.12999725341797,64.5199966430664,67.77999877929688,47.86965560913086,129111100.0
2012-07-03,,,,,,
2012-08-01,67.97000122070312,69.16999816894531,64.58000183105469,64.77999877929688,45.75090789794922,99305900.0
2012-08-15,,,,,,
2012-09-01,64.69999694824219,65.20999908447266,63.029998779296875,64.79000091552734,46.27705001831055,70391600.0
2012-10-01,65.01000213623047,65.9000015258789,63.880001068115234,65.69000244140625,46.91987991333008,55104400.0
2012-11-01,65.63999938964844,65.86000061035156,59.630001068115234,63.81999969482422,45.58421325683594,98516900.0
2012-11-14,,,,,,
2012-12-01,64.08999633789062,65.66000366210938,62.599998474121094,63.79999923706055,46.13914108276367,68570400.0
2013-01-01,64.55999755859375,68.91999816894531,64.44000244140625,68.73999786376953,49.7116584777832,55455100.0
2013-02-01,68.97000122070312,70.30000305175781,67.77999877929688,69.25,50.08049011230469,70846100.0
2013-02-13,,,,,,
2013-03-01,68.41000366210938,72.68000030517578,68.05000305175781,72.58999633789062,53.08018112182617,47203900.0
2013-04-01,72.55999755859375,75.41999816894531,71.25,75.19999694824219,54.98868942260742,52934000.0
2013-05-01,75.0,75.45999908447266,66.16999816894531,66.93000030517578,48.941402435302734,86749700.0
2013-05-15,,,,,,
2013-06-01,66.95999908447266,68.95999908447266,64.62000274658203,67.5,49.88768768310547,65130300.0
2013-07-01,67.9000015258789,71.91000366210938,66.5,71.0,52.474449157714844,52162000.0
2013-08-01,71.33000183105469,72.01000213623047,65.33000183105469,65.5999984741211,48.483436584472656,74398200.0
2013-08-14,,,,,,
2013-09-01,65.88999938964844,68.63999938964844,64.16000366210938,66.77999877929688,49.90519714355469,56848600.0
2013-10-01,67.44999694824219,73.05999755859375,66.05000305175781,71.7300033569336,53.604366302490234,58630600.0
2013-11-01,71.95999908447266,73.52999877929688,69.73999786376953,69.95999908447266,52.28163528442383,75366600.0
2013-11-13,,,,,,
2013-12-01,70.12999725341797,70.54000091552734,67.91999816894531,69.01000213623047,52.138736724853516,54472000.0
2014-01-01,69.19999694824219,70.68000030517578,67.05000305175781,70.62000274658203,53.35511779785156,70414700.0
2014-02-01,70.68000030517578,72.66999816894531,69.18000030517578,70.87999725341797,53.55156707763672,60207800.0
2014-02-12,,,,,,
2014-03-01,70.58999633789062,71.36000061035156,68.0999984741211,71.22000122070312,54.403602600097656,70161000.0
2014-04-01,71.38999938964844,75.12999725341797,70.11000061035156,74.48999786376953,56.901493072509766,60337900.0
2014-05-01,74.5999984741211,74.77999877929688,69.7300033569336,71.08000183105469,54.29666519165039,56014300.0
2014-05-14,,,,,,
2014-06-01,70.94999694824219,74.38999938964844,68.80999755859375,74.19000244140625,57.29545211791992,58531500.0
2014-07-01,74.19999694824219,74.4800033569336,70.80999755859375,72.12999725341797,55.704559326171875,55979700.0
2014-08-01,72.23999786376953,74.0,69.4800033569336,73.98999786376953,57.14097595214844,59977600.0
2014-08-13,,,,,,
2014-09-01,74.0199966430664,75.20999908447266,72.94999694824219,74.7699966430664,58.39375305175781,66332200.0
2014-10-01,75.05000305175781,82.68000030517578,74.33000183105469,82.1500015258789,64.15736389160156,84098400.0
2014-11-01,82.2300033569336,83.9000015258789,78.51000213623047,80.9000015258789,63.181148529052734,68856000.0
2014-11-12,,,,,,
2014-12-01,80.38999938964844,87.29000091552734,80.16000366210938,83.54000091552734,65.8764877319336,74847400.0
2015-01-01,83.54000091552734,89.97000122070312,82.61000061035156,87.13999938964844,68.7153091430664,59373400.0
2015-02-01,87.0,87.29000091552734,77.79000091552734,78.55000305175781,61.94157409667969,76140500.0
2015-02-11,,,,,,
2015-03-01,78.4800033569336,78.4800033569336,73.62999725341797,76.77999877929688,61.123077392578125,89031900.0
2015-04-01,76.94000244140625,79.87999725341797,76.16000366210938,77.56999969482422,61.75196838378906,62386700.0
2015-05-01,77.70999908447266,78.8499984741211,74.04000091552734,75.7300033569336,60.28717041015625,67752800.0
2015-05-13,,,,,,
2015-06-01,76.26000213623047,76.36000061035156,70.41000366210938,70.62000274658203,56.81114959716797,91643100.0
2015-07-01,70.80000305175781,75.70999908447266,70.23999786376953,74.22000122070312,59.707210540771484,69538200.0
2015-08-01,74.30000305175781,77.52999877929688,70.1500015258789,70.91000366210938,57.04445266723633,82708500.0
2015-08-12,,,,,,
2015-09-01,70.26000213623047,72.0199966430664,67.2699966430664,71.94000244140625,58.514217376708984,67370500.0
2015-10-01,71.98999786376953,75.29000091552734,70.0,71.47000122070312,58.131935119628906,65329100.0
2015-11-01,71.4000015258789,72.55000305175781,65.6500015258789,67.76000213623047,55.11431121826172,71827400.0
2015-11-10,,,,,,
2015-11-11,,,,,,
2015-12-01,68.05000305175781,72.75,65.5,71.38999938964844,59.50905990600586,73400500.0
2016-01-01,70.93000030517578,75.41000366210938,70.16000366210938,75.30000305175781,62.76833724975586,59412100.0
2016-02-01,75.18000030517578,80.0999984741211,73.79000091552734,74.27999877929688,61.91807556152344,90841700.0
2016-02-10,,,,,,
2016-03-01,74.66000366210938,80.70999908447266,72.4800033569336,80.68000030517578,67.96334075927734,87092800.0
2016-04-01,80.4800033569336,81.38999938964844,76.20999908447266,78.77999877929688,66.36283874511719,55371200.0
2016-05-01,78.83000183105469,81.27999877929688,75.72000122070312,78.2300033569336,65.8995361328125,64085900.0
2016-05-18,,,,,,
2016-06-01,78.25,85.79000091552734,77.95999908447266,85.79000091552734,73.02564239501953,71024500.0
2016-07-01,85.91000366210938,87.30999755859375,84.1500015258789,85.58999633789062,72.85539245605469,60163700.0
2016-08-01,85.4000015258789,86.0,79.1500015258789,79.66000366210938,67.80770111083984,69852700.0
2016-08-10,,,,,,
2016-09-01,79.66000366210938,87.75,77.9000015258789,80.04000091552734,68.82568359375,59932600.0
2016-10-01,79.77999877929688,80.48999786376953,75.80999755859375,80.0199966430664,68.80847930908203,62754800.0
2016-11-01,80.04000091552734,80.05000305175781,73.2300033569336,73.7699966430664,63.43416213989258,80681600.0
2016-11-16,,,,,,
2016-12-01,73.5,78.23999786376953,72.33999633789062,77.62000274658203,67.50487518310547,68667800.0
2017-01-01,77.6500015258789,78.55999755859375,76.13999938964844,78.54000091552734,68.30497741699219,56710600.0
2017-02-01,78.13999938964844,82.81999969482422,76.27999877929688,82.55000305175781,71.79241943359375,61110900.0
2017-02-15,,,,,,
2017-03-01,81.5999984741211,83.58999633789062,80.0199966430664,82.01000213623047,72.11285400390625,76182100.0
2017-04-01,81.9000015258789,83.3499984741211,81.2699966430664,82.5,72.54370880126953,43659700.0
2017-05-01,82.51000213623047,86.01000213623047,81.8499984741211,85.68000030517578,75.33993530273438,55606900.0
2017-05-17,,,,,,
2017-06-01,85.4800033569336,87.48999786376953,83.58999633789062,83.58999633789062,74.26608276367188,59184000.0
2017-07-01,83.77999877929688,85.33000183105469,82.72000122070312,85.12000274658203,75.62542724609375,43839600.0
2017-08-01,85.1500015258789,87.94999694824219,84.6500015258789,87.30000305175781,77.5622787475586,48443500.0
2017-08-16,,,,,,
2017-09-01,87.4800033569336,88.4000015258789,83.4000015258789,83.91999816894531,75.33087921142578,48247900.0
2017-10-01,84.06999969482422,88.63999938964844,83.5199966430664,88.30999755859375,79.27157592773438,49411000.0
2017-11-01,88.55999755859375,91.80000305175781,87.55999755859375,89.18000030517578,80.05252075195312,55766100.0
2017-11-16,,,,,,
2017-12-01,89.38999938964844,89.72000122070312,83.55999755859375,84.11000061035156,76.25064086914062,53164800.0
2018-01-01,84.27999877929688,84.41999816894531,76.63999938964844,78.5,71.16484832763672,79844000.0
2018-02-01,78.31999969482422,79.62999725341797,72.93000030517578,75.33999633789062,68.30011749267578,86888100.0
2018-02-15,,,,,,
2018-03-01,75.3499984741211,77.91000366210938,74.58000183105469,77.47000122070312,71.06910705566406,93731900.0
2018-04-01,77.55000305175781,80.8499984741211,75.95999908447266,80.16000366210938,73.53683471679688,63529600.0
2018-05-01,80.16000366210938,80.41000366210938,73.12999725341797,77.16000366210938,70.78470611572266,79113900.0
2018-05-17,,,,,,
2018-06-01,77.12000274658203,80.1500015258789,71.95999908447266,79.08000183105469,73.40532684326172,83951100.0
2018-07-01,79.20999908447266,81.75,77.9000015258789,81.62000274658203,75.76307678222656,67246200.0
2018-08-01,81.13999938964844,82.72000122070312,79.51000213623047,81.23999786376953,75.41032409667969,66662500.0
2018-08-16,,,,,,
2018-09-01,81.37999725341797,83.7699966430664,78.0,80.0199966430664,75.12911224365234,87873800.0
2018-10-01,79.91000366210938,85.08000183105469,78.5199966430664,82.62999725341797,77.57958984375,98495800.0
2018-11-01,82.56999969482422,89.2300033569336,80.88999938964844,88.56999969482422,83.15653991699219,79281100.0
2018-11-15,,,,,,
2018-12-01,88.0,91.3499984741211,82.7699966430664,86.30000305175781,81.9043197631836,80059900.0
2019-01-01,86.11000061035156,88.4800033569336,82.45999908447266,87.77999877929688,83.3089370727539,63371400.0
2019-02-01,87.77999877929688,90.73999786376953,86.4800033569336,89.66000366210938,85.09318542480469,63419900.0
2019-02-14,,,,,,
2019-03-01,89.5999984741211,91.66999816894531,88.66000366210938,90.0,86.30938720703125,86750300.0
2019-04-01,89.75,91.33000183105469,87.93000030517578,91.12000274658203,87.38346099853516,66422400.0
2019-05-01,90.68000030517578,91.05999755859375,84.45999908447266,85.61000061035156,82.09941101074219,68935000.0
2019-05-16,,,,,,
2019-06-01,86.04000091552734,90.68000030517578,84.27999877929688,88.23999786376953,85.53565979003906,64664800.0
2019-07-01,88.01000213623047,90.5999984741211,86.16999816894531,86.72000122070312,84.06224822998047,50628900.0
2019-08-01,86.80000305175781,93.3499984741211,86.30999755859375,92.73999786376953,89.89774322509766,61143700.0
2019-08-15,,,,,,
2019-09-01,92.5,96.80000305175781,92.33000183105469,95.86000061035156,93.92151641845703,54377800.0
2019-10-01,95.56999969482422,97.37000274658203,93.33000183105469,94.26000213623047,92.35387420654297,54188200.0
2019-11-01,94.30000305175781,94.55000305175781,86.36000061035156,88.16999816894531,86.38701629638672,99953700.0
2019-11-14,,,,,,
2019-12-01,87.87000274658203,91.5,87.1500015258789,91.20999908447266,90.32975769042969,79323200.0
2020-01-01,91.27999877929688,98.05000305175781,89.83999633789062,97.62999725341797,96.68779754638672,64040300.0
2020-02-01,97.62999725341797,103.79000091552734,89.38999938964844,91.69999694824219,90.81502532958984,74118600.0
2020-02-13,,,,,,
2020-03-01,91.6500015258789,101.69000244140625,62.130001068115234,74.70999908447266,74.70999908447266,113853200.0
2020-03-26,75.18000030517578,81.9000015258789,75.0,81.9000015258789,81.9000015258789,2869201.0
