Date,Open,High,Low,Close,Adj Close,Volume
1993-06-01,1.625,1.625,1.40625,1.40625,1.2452541589736938,31072000.0
1993-07-01,1.46875,1.5,1.25,1.34375,1.18990957736969,8425600.0
1993-08-01,1.3125,1.34375,1.0625,1.21875,1.0792202949523926,5542400.0
1993-09-01,1.140625,1.53125,1.0625,1.5,1.3282709121704102,6750400.0
1993-10-01,1.53125,1.671875,1.3125,1.375,1.2175815105438232,6936000.0
1993-11-01,1.375,1.4375,1.25,1.34375,1.18990957736969,2571200.0
1993-12-01,1.34375,1.4375,1.15625,1.21875,1.0792202949523926,7844000.0
1994-01-01,1.21875,1.625,1.1875,1.53125,1.355942964553833,7564000.0
1994-02-01,1.53125,1.53125,1.34375,1.515625,1.3421070575714111,4918400.0
1994-03-01,1.53125,1.9375,1.46875,1.71875,1.5219773054122925,9935200.0
1994-04-01,1.71875,1.875,1.59375,1.828125,1.6188302040100098,3988800.0
1994-05-01,1.78125,1.875,1.65625,1.75,1.5496494770050049,2519200.0
1994-06-01,1.71875,1.71875,1.46875,1.609375,1.425124168395996,3574400.0
1994-07-01,1.5625,1.75,1.46875,1.71875,1.5219773054122925,2640000.0
1994-08-01,1.78125,1.78125,1.375,1.5,1.3282709121704102,3400800.0
1994-09-01,1.5,1.59375,1.46875,1.53125,1.355942964553833,3094400.0
1994-10-01,1.5,1.71875,1.5,1.6875,1.494304895401001,3696000.0
1994-11-01,1.71875,1.71875,1.52734375,1.625,1.438960075378418,5350400.0
1994-12-01,1.609375,1.65625,1.46875,1.625,1.438960075378418,2123200.0
1995-01-01,1.65625,1.84375,1.46875,1.75,1.5496494770050049,8063200.0
1995-02-01,1.75,1.90625,1.65625,1.8125,1.6049941778182983,5132800.0
1995-03-01,1.875,2.09375,1.8125,1.9375,1.715683102607727,3500000.0
1995-04-01,1.875,1.96875,1.5625,1.75,1.5496494770050049,8769600.0
1995-05-01,1.78125,1.78125,1.5,1.5625,1.3836157321929932,5449600.0
1995-06-01,1.59375,1.84375,1.53125,1.78125,1.5773217678070068,7380000.0
1995-07-01,1.71875,1.8125,1.46875,1.765625,1.5634857416152954,9024000.0
1995-08-01,1.75,1.78125,1.546875,1.625,1.438960075378418,4435200.0
1995-09-01,1.625,1.78125,1.53125,1.53125,1.355942964553833,3454400.0
1995-10-01,1.578125,1.703125,1.5,1.59375,1.4112880229949951,2202400.0
1995-11-01,1.53125,1.6875,1.53125,1.625,1.438960075378418,4646400.0
1995-12-01,1.59375,1.6875,1.5,1.53125,1.355942964553833,10004800.0
1996-01-01,1.578125,1.59375,1.25,1.3125,1.1622368097305298,5170400.0
1996-02-01,1.375,1.796875,1.28125,1.5625,1.3836157321929932,10048800.0
1996-03-01,1.53125,1.625,1.40625,1.53125,1.355942964553833,2840800.0
1996-04-01,1.53125,1.65625,1.3125,1.59375,1.4112880229949951,7256800.0
1996-05-01,1.65625,2.03125,1.625,1.75,1.5496494770050049,11152000.0
1996-06-01,1.75,1.78125,1.46875,1.53125,1.355942964553833,6616800.0
1996-07-01,1.53125,1.90625,1.46875,1.609375,1.425124168395996,4433600.0
1996-08-01,1.5625,1.828125,1.5625,1.71875,1.5219773054122925,3739200.0
1996-09-01,1.6875,1.78125,1.59375,1.640625,1.4527966976165771,1568800.0
1996-10-01,1.625,1.8125,1.59375,1.75,1.5496494770050049,2545600.0
1996-11-01,1.65625,1.75,1.65625,1.703125,1.5081411600112915,1692000.0
1996-12-01,1.65625,1.734375,1.640625,1.71875,1.5219773054122925,2992000.0
1997-01-01,1.671875,1.9375,1.65625,1.8125,1.6049941778182983,7875200.0
1997-02-01,1.875,2.1875,1.78125,1.953125,1.7295194864273071,5306400.0
1997-03-01,1.96875,2.21875,1.875,2.03125,1.798699975013733,4881600.0
1997-04-01,1.9375,2.21875,1.90625,1.953125,1.7295194864273071,4093600.0
1997-05-01,1.96875,2.0625,1.84375,2.0,1.77102792263031,4220800.0
1997-06-01,2.0,2.046875,1.9375,1.96875,1.743355631828308,3722400.0
1997-07-01,2.0,2.5625,1.96875,2.546875,2.25529408454895,6388800.0
1997-08-01,2.578125,2.75,2.25,2.3125,2.0477511882781982,5594400.0
1997-09-01,2.390625,2.6875,2.3125,2.484375,2.199949026107788,3030400.0
1997-10-01,2.5,2.703125,2.1875,2.625,2.3244736194610596,2664000.0
1997-11-01,2.6875,2.6875,2.3125,2.46875,2.18611216545105,2140000.0
1997-12-01,2.46875,2.75,2.25,2.59375,2.296802043914795,2496800.0
1998-01-01,2.515625,2.5625,2.171875,2.21875,1.9647339582443237,2575200.0
1998-02-01,2.21875,2.46875,2.09375,2.40625,2.130768060684204,7135200.0
1998-03-01,2.421875,2.578125,2.359375,2.53125,2.241457223892212,3750400.0
1998-04-01,2.5,2.71875,2.484375,2.578125,2.2829647064208984,2676800.0
1998-05-01,2.5859375,2.671875,2.3046875,2.34375,2.075423002243042,3720000.0
1998-06-01,2.328125,2.453125,2.15625,2.15625,1.9093892574310303,21229600.0
1998-07-01,2.171875,2.265625,1.96875,2.09375,1.8540446758270264,16024000.0
1998-08-01,2.1171875,2.125,1.3125,1.3125,1.1622368097305298,5857600.0
1998-09-01,1.3125,1.859375,1.296875,1.65625,1.466632604598999,4074400.0
1998-10-01,1.6484375,2.25,1.3125,2.109375,1.8678810596466064,6976800.0
1998-11-01,2.15625,2.546875,1.953125,2.40625,2.130768060684204,8123200.0
1998-12-01,2.40625,2.96875,2.34375,2.90625,2.5735254287719727,7564000.0
1999-01-01,2.875,2.96875,2.7109375,2.734375,2.4213268756866455,5773600.0
1999-02-01,2.796875,2.796875,2.28125,2.296875,2.0339150428771973,3144800.0
1999-03-01,2.296875,2.5703125,2.09375,2.265625,2.006242036819458,6241600.0
1999-04-01,2.296875,2.40625,1.46875,1.71875,1.5219773054122925,11809600.0
1999-05-01,1.75,1.78125,1.5703125,1.671875,1.4804681539535522,8920800.0
1999-06-01,1.75,2.01171875,1.6875,1.890625,1.6741751432418823,8644000.0
1999-07-01,1.875,2.25,1.8125,2.203125,1.9508981704711914,10165600.0
1999-08-01,2.203125,2.203125,2.03125,2.0625,1.826372742652893,5033600.0
1999-09-01,2.078125,2.078125,1.578125,1.6171875,1.432041883468628,6415200.0
1999-10-01,1.625,2.0,1.375,1.7734375,1.5704039335250854,6635200.0
1999-11-01,1.76953125,2.125,1.7421875,1.90625,1.6880109310150146,3222400.0
1999-12-01,1.8984375,2.125,1.6484375,2.03125,1.798699975013733,4031200.0
2000-01-01,2.015625,2.375,1.921875,2.3046875,2.040832757949829,4042400.0
2000-02-01,2.265625,2.328125,1.671875,1.984375,1.757191777229309,11192800.0
2000-03-01,1.9609375,2.40625,1.0859375,1.1484375,1.0169575214385986,32652000.0
2000-04-01,1.1875,1.1875,0.859375,0.921875,0.8163332343101501,7291200.0
2000-05-01,0.984375,1.359375,0.85546875,0.8671875,0.7679064869880676,9142400.0
2000-06-01,0.873046875,0.890625,0.65625,0.8125,0.719480037689209,18012800.0
2000-07-01,0.8046875,1.25,0.8046875,0.96875,0.8578415513038635,8980800.0
2000-08-01,1.0234375,1.09375,0.65625,0.6953125,0.6157090067863464,11008800.0
2000-09-01,0.7109375,0.890625,0.703125,0.75,0.6641354560852051,10702400.0
2000-10-01,0.751953125,0.8125,0.671875,0.75,0.6641354560852051,4352800.0
2000-11-01,0.734375,0.765625,0.4375,0.44921875,0.3977894186973572,12220800.0
2000-12-01,0.462890625,0.6953125,0.375,0.6953125,0.6157090067863464,14684800.0
2001-01-01,0.689453125,0.6953125,0.515625,0.625,0.5534462928771973,12892000.0
2001-02-01,0.638671875,1.0703125,0.6015625,0.875,0.7748247385025024,8818400.0
2001-03-01,0.84375,1.125,0.7890625,1.01953125,0.902809202671051,11137600.0
2001-04-01,1.0078125,1.8925000429153442,0.96875,1.7612500190734863,1.559611439704895,30355200.0
2001-05-01,1.75,2.34375,1.7062499523162842,2.0062499046325684,1.776562213897705,20425600.0
2001-06-01,2.0,3.2774999141693115,1.9249999523162842,3.1287500858306885,2.7705516815185547,23494400.0
2001-07-01,2.6875,3.9287500381469727,2.6575000286102295,3.7612500190734863,3.330639362335205,47760800.0
2001-08-01,3.75,4.412499904632568,3.328749895095825,3.5250000953674316,3.121436357498169,36049600.0
2001-09-01,3.4700000286102295,5.25,3.375,5.128749847412109,4.5415802001953125,51686400.0
2001-10-01,5.243750095367432,5.90625,4.6875,5.789999961853027,5.127125263214111,67040800.0
2001-11-01,5.789999961853027,6.193749904632568,4.21875,5.018750190734863,4.444173336029053,71098400.0
2001-12-01,5.016250133514404,6.098750114440918,4.451250076293945,4.739999771118164,4.197336673736572,62153600.0
2002-01-01,4.699999809265137,5.808750152587891,4.599999904632568,5.707499980926514,5.054069995880127,40684800.0
2002-02-01,5.698750019073486,7.125,5.340000152587891,6.816249847412109,6.035885334014893,93926400.0
2002-03-01,6.818749904632568,7.4375,5.131249904632568,5.96875,5.285410404205322,175660800.0
2002-04-01,6.101250171661377,6.588749885559082,4.670000076293945,4.983749866485596,4.413179874420166,93148000.0
2002-05-01,5.06374979019165,5.949999809265137,4.366250038146973,5.53125,4.897999286651611,103136800.0
2002-06-01,5.527500152587891,5.726250171661377,4.849999904632568,5.246250152587891,4.645627498626709,41660800.0
2002-07-01,5.18874979019165,5.5,4.550000190734863,5.112500190734863,4.527190685272217,52884800.0
2002-08-01,5.12375020980835,5.261250019073486,4.579999923706055,4.743750095367432,4.200656414031982,50432800.0
2002-09-01,4.710000038146973,5.081250190734863,4.347499847412109,4.37375020980835,3.873016119003296,52515200.0
2002-10-01,4.49875020980835,6.0,3.421250104904175,5.916250228881836,5.238923072814941,93448800.0
2002-11-01,5.881249904632568,6.21875,5.15625,5.4375,4.8149824142456055,62487200.0
2002-12-01,5.474999904632568,6.211249828338623,5.357500076293945,6.099999904632568,5.401634693145752,43072800.0
2003-01-01,6.112500190734863,6.621250152587891,5.772500038146973,5.840000152587891,5.171402931213379,44485600.0
2003-02-01,5.803750038146973,6.099999904632568,5.125,5.526249885559082,4.893571853637695,40513600.0
2003-03-01,5.541250228881836,6.050000190734863,5.18625020980835,5.926249980926514,5.247777938842773,38840000.0
2003-04-01,5.9375,6.622499942779541,5.641250133514404,6.512499809265137,5.766910552978516,40846400.0
2003-05-01,6.46999979019165,7.179999828338623,6.233749866485596,7.130000114440918,6.313716888427734,57851600.0
2003-05-30,,,,,,
2003-06-01,7.222499847412109,8.050000190734863,6.90749979019165,7.527500152587891,6.665706157684326,52780000.0
2003-07-01,7.557499885559082,8.0649995803833,6.304999828338623,6.775000095367432,5.999355792999268,43805200.0
2003-08-01,6.824999809265137,6.972499847412109,6.15749979019165,6.612500190734863,5.855461120605469,34364800.0
2003-09-01,6.625,7.15500020980835,6.192500114440918,6.355000019073486,5.627440929412842,33650400.0
2003-10-01,6.355000019073486,8.1225004196167,6.320000171661377,7.817500114440918,6.922506332397461,41190400.0
2003-11-01,7.974999904632568,8.7475004196167,7.567500114440918,8.614999771118164,7.628704071044922,24499600.0
2003-12-01,8.702500343322754,9.25,8.484999656677246,9.125,8.080314636230469,22545200.0
2004-01-01,9.09000015258789,10.112500190734863,8.737500190734863,9.050000190734863,8.013898849487305,28910000.0
2004-02-01,9.037500381469727,10.207500457763672,8.880000114440918,9.607500076293945,8.507575988769531,32096400.0
2004-03-01,9.640000343322754,10.050000190734863,9.050000190734863,9.529999732971191,8.438947677612305,25128800.0
2004-04-01,9.512499809265137,12.417499542236328,9.442500114440918,11.710000038146973,10.369366645812988,44020400.0
2004-05-01,11.837499618530273,12.59000015258789,10.942500114440918,12.300000190734863,10.89182186126709,36334400.0
2004-06-01,12.322500228881836,15.720000267028809,12.042499542236328,13.725000381469727,12.153679847717285,49005200.0
2004-07-01,14.0,16.24250030517578,12.829999923706055,15.907500267028809,14.086311340332031,62913200.0
2004-08-01,16.174999237060547,16.667499542236328,14.199999809265137,14.592499732971191,12.92186450958252,51776000.0
2004-09-01,13.994999885559082,15.992500305175781,13.982500076293945,14.625,12.950641632080078,37984000.0
2004-10-01,14.832500457763672,15.162500381469727,12.287500381469727,13.302499771118164,11.779546737670898,53376000.0
2004-11-01,12.927499771118164,15.449999809265137,12.927499771118164,14.087499618530273,12.474677085876465,35895200.0
2004-12-01,14.102499961853027,16.079999923706055,13.449999809265137,15.947500228881836,14.121733665466309,28949600.0
2005-01-01,15.829999923706055,15.994999885559082,14.130000114440918,15.237500190734863,13.493020057678223,18470400.0
2005-02-01,15.380000114440918,16.25,14.475000381469727,15.625,13.836155891418457,22246600.0
2005-02-03,,,,,,
2005-03-01,15.550000190734863,17.475000381469727,13.6850004196167,15.149999618530273,13.415534019470215,31378400.0
2005-04-01,15.265000343322754,15.46500015258789,11.925000190734863,13.300000190734863,11.777336120605469,38799800.0
2005-05-01,13.8100004196167,13.8100004196167,12.444999694824219,13.404999732971191,11.870314598083496,25109800.0
2005-06-01,13.425000190734863,15.46500015258789,13.375,14.920000076293945,13.21186637878418,29828400.0
2005-07-01,15.0,17.674999237060547,14.375,16.44499969482422,14.562277793884277,34228600.0
2005-08-01,16.764999389648438,18.18000030517578,15.84000015258789,16.145000457763672,14.296626091003418,26504200.0
2005-09-01,16.030000686645508,16.200000762939453,13.899999618530273,14.78499984741211,13.092324256896973,26046000.0
2005-10-01,14.555000305175781,15.100000381469727,10.324999809265137,10.479999542236328,9.280186653137207,56471000.0
2005-11-01,10.425000190734863,12.420000076293945,10.234999656677246,12.399999618530273,10.980374336242676,44959400.0
2005-12-01,11.104999542236328,11.770000457763672,10.335000038146973,11.164999961853027,9.886760711669922,31525600.0
2006-01-01,11.154999732971191,12.729999542236328,11.135000228881836,11.850000381469727,10.493340492248535,19015200.0
2006-02-01,11.824999809265137,13.265000343322754,11.6850004196167,12.920000076293945,11.440839767456055,26250200.0
2006-03-01,12.920000076293945,14.3149995803833,12.835000038146973,14.204999923706055,12.578723907470703,29900200.0
2006-04-01,14.204999923706055,14.895000457763672,12.180000305175781,12.225000381469727,10.825407028198242,36126800.0
2006-05-01,12.170000076293945,13.25,11.649999618530273,12.805000305175781,11.339005470275879,29154000.0
2006-06-01,12.805000305175781,13.204999923706055,10.899999618530273,11.449999809265137,10.13913345336914,35611400.0
2006-07-01,11.3100004196167,13.555000305175781,10.725000381469727,11.994999885559082,10.621740341186523,62424400.0
2006-08-01,11.885000228881836,13.875,11.579999923706055,13.850000381469727,12.26436996459961,27512200.0
2006-09-01,13.850000381469727,13.944999694824219,13.154999732971191,13.579999923706055,12.02527904510498,23443000.0
2006-10-01,13.550000190734863,16.065000534057617,13.140000343322754,15.970000267028809,14.141657829284668,27700000.0
2006-11-01,16.125,17.020000457763672,15.279999732971191,16.104999542236328,14.261199951171875,22341000.0
2006-12-01,16.010000228881836,16.46500015258789,15.475000381469727,15.914999961853027,14.092957496643066,15578400.0
2007-01-01,15.90999984741211,16.434999465942383,14.8100004196167,15.454999923706055,13.685620307922363,18578400.0
2007-02-01,15.529999732971191,18.239999771118164,15.109999656677246,17.3799991607666,15.390230178833008,27991400.0
2007-03-01,17.184999465942383,17.90999984741211,16.475000381469727,17.834999084472656,15.793145179748535,21210200.0
2007-04-01,17.934999465942383,21.75,17.549999237060547,20.2450008392334,17.927230834960938,26170000.0
2007-05-01,20.2549991607666,22.06999969482422,19.875,20.68000030517578,18.31243133544922,34624400.0
2007-06-01,20.825000762939453,23.524999618530273,19.795000076293945,23.125,20.477514266967773,29417200.0
2007-07-01,23.549999237060547,25.7450008392334,21.415000915527344,21.825000762939453,19.326343536376953,36763000.0
2007-08-01,21.399999618530273,27.2450008392334,20.604999542236328,24.6200008392334,21.80135154724121,42688400.0
2007-09-01,24.565000534057617,28.8700008392334,23.700000762939453,27.69499969482422,24.524309158325195,22676200.0
2007-10-01,27.989999771118164,36.349998474121094,27.709999084472656,34.69499969482422,30.722911834716797,33943000.0
2007-11-01,34.255001068115234,36.42499923706055,30.280000686645508,34.3650016784668,30.430679321289062,29033600.0
2007-12-01,34.58000183105469,35.57500076293945,29.350000381469727,31.299999237060547,27.71658706665039,21995200.0
2007-12-11,,,,,,
2008-01-01,31.280000686645508,33.119998931884766,26.170000076293945,30.280000686645508,26.813358306884766,31103500.0
2008-02-01,30.639999389648438,33.650001525878906,27.719999313354492,28.459999084472656,25.201723098754883,24687100.0
2008-03-01,28.3700008392334,30.15999984741211,23.68000030517578,30.09000015258789,26.64511489868164,36289200.0
2008-04-01,30.34000015258789,35.25,28.469999313354492,34.33000183105469,30.39969253540039,22756400.0
2008-05-01,34.400001525878906,40.43000030517578,32.5,39.41999816894531,34.906959533691406,28784100.0
2008-06-01,39.45000076293945,42.0,35.650001525878906,40.56999969482422,35.9253044128418,60557000.0
2008-07-01,41.4900016784668,45.4900016784668,35.09000015258789,40.7400016784668,36.075843811035156,53472200.0
2008-08-01,41.209999084472656,41.4900016784668,35.380001068115234,35.70000076293945,31.61284828186035,19252300.0
2008-09-01,36.38999938964844,38.9900016784668,32.16999816894531,38.41999816894531,34.021446228027344,31105500.0
2008-10-01,38.41999816894531,39.2400016784668,24.719999313354492,32.099998474121094,28.42499542236328,40445600.0
2008-11-01,32.540000915527344,33.7400016784668,27.1200008392334,31.0,27.450929641723633,34523300.0
2008-12-01,30.139999389648438,32.15999984741211,24.079999923706055,30.68000030517578,27.167566299438477,67177400.0
2009-01-01,30.34000015258789,32.310001373291016,24.770000457763672,24.969999313354492,22.111286163330078,36824900.0
2009-02-01,24.530000686645508,24.950000762939453,20.0,20.40999984741211,18.073333740234375,55706300.0
2009-03-01,20.020000457763672,22.09000015258789,18.809999465942383,20.479999542236328,18.135324478149414,60328800.0
2009-04-01,20.100000381469727,23.3700008392334,19.899999618530273,22.18000030517578,19.640701293945312,38025400.0
2009-05-01,23.850000381469727,26.649999618530273,21.989999771118164,22.459999084472656,19.888643264770508,39381100.0
2009-06-01,22.690000534057617,25.15999984741211,21.889999389648438,22.559999465942383,19.977191925048828,58936600.0
2009-07-01,22.75,23.75,20.360000610351562,21.489999771118164,19.029695510864258,53178800.0
2009-08-01,21.56999969482422,23.540000915527344,21.09000015258789,23.020000457763672,20.384532928466797,37935700.0
2009-09-01,23.170000076293945,29.09000015258789,22.34000015258789,27.969999313354492,24.7678279876709,59788500.0
2009-10-01,27.450000762939453,30.200000762939453,26.59000015258789,27.809999465942383,24.626142501831055,41775600.0
2009-11-01,27.860000610351562,30.520000457763672,27.43000030517578,28.700000762939453,25.41425132751465,25055300.0
2009-12-01,28.899999618530273,33.349998474121094,28.899999618530273,32.72999954223633,28.98287010192871,24934100.0
2010-01-01,33.220001220703125,33.220001220703125,29.549999237060547,29.579999923706055,26.193506240844727,38685300.0
2010-02-01,29.6200008392334,30.25,25.889999389648438,26.809999465942383,23.740629196166992,44547700.0
2010-03-01,26.90999984741211,28.3700008392334,26.350000381469727,28.18000030517578,24.95378303527832,47115400.0
2010-04-01,28.34000015258789,31.479999542236328,27.8799991607666,30.59000015258789,27.08786964416504,40597200.0
2010-05-01,30.65999984741211,31.3700008392334,26.6299991607666,28.489999771118164,25.228294372558594,34856700.0
2010-06-01,28.389999389648438,30.1299991607666,26.5,29.09000015258789,25.759601593017578,34996800.0
2010-07-01,29.0,30.899999618530273,28.579999923706055,29.760000228881836,26.352893829345703,43135300.0
2010-08-01,30.0,30.780000686645508,24.0,25.100000381469727,22.226402282714844,44098100.0
2010-09-01,25.5,27.959999084472656,25.299999237060547,25.700000762939453,22.757705688476562,39359500.0
2010-10-01,25.940000534057617,28.06999969482422,24.239999771118164,27.84000015258789,24.652708053588867,48269400.0
2010-11-01,27.59000015258789,28.989999771118164,26.59000015258789,26.809999465942383,23.740629196166992,27581800.0
2010-12-01,27.219999313354492,30.0,27.100000381469727,29.75,26.344038009643555,34278400.0
2011-01-01,29.899999618530273,31.200000762939453,28.530000686645508,31.040000915527344,27.486347198486328,24498200.0
2011-02-01,31.270000457763672,33.56999969482422,29.920000076293945,32.29999923706055,28.60210609436035,24995700.0
2011-02-17,,,,,,
2011-03-01,32.2599983215332,34.63999938964844,30.8700008392334,34.61000061035156,30.704822540283203,23208800.0
2011-04-01,34.72999954223633,35.58000183105469,32.83000183105469,35.220001220703125,31.24599838256836,17708200.0
2011-05-01,35.22999954223633,37.290000915527344,34.02000045776367,36.150001525878906,32.07105255126953,20270000.0
2011-05-18,,,,,,
2011-06-01,35.959999084472656,36.27000045776367,31.799999237060547,33.709999084472656,29.956195831298828,22652900.0
2011-07-01,33.58000183105469,34.7400016784668,27.149999618530273,27.459999084472656,24.40216636657715,35030900.0
2011-08-01,27.760000228881836,27.760000228881836,21.860000610351562,25.8700008392334,22.989227294921875,53549400.0
2011-08-18,,,,,,
2011-09-01,25.969999313354492,28.34000015258789,23.829999923706055,25.049999237060547,22.31669807434082,31393600.0
2011-10-01,24.969999313354492,27.920000076293945,24.0,26.299999237060547,23.43031120300293,28510700.0
2011-11-01,25.489999771118164,27.719999313354492,23.790000915527344,26.860000610351562,23.929214477539062,25377500.0
2011-11-17,,,,,,
2011-12-01,26.860000610351562,26.989999771118164,24.65999984741211,25.06999969482422,22.38650131225586,22834000.0
2012-01-01,25.579999923706055,27.059999465942383,25.040000915527344,25.75,22.99372100830078,13785800.0
2012-02-01,25.950000762939453,26.649999618530273,24.260000228881836,26.170000076293945,23.368755340576172,25041900.0
2012-02-16,,,,,,
2012-03-01,26.170000076293945,26.600000381469727,25.030000686645508,25.309999465942383,22.6644229888916,20819400.0
2012-04-01,25.239999771118164,25.34000015258789,22.270000457763672,22.459999084472656,20.11232566833496,24284700.0
2012-05-01,22.209999084472656,22.690000534057617,20.299999237060547,21.329999923706055,19.100440979003906,28665800.0
2012-05-17,,,,,,
2012-06-01,20.93000030517578,22.020000457763672,18.950000762939453,19.5,17.51996421813965,35518500.0
2012-07-01,19.559999465942383,21.18000030517578,17.989999771118164,20.450000762939453,18.373497009277344,36340800.0
2012-08-01,20.559999465942383,21.350000381469727,19.43000030517578,19.799999237060547,17.789499282836914,23382100.0
2012-08-16,,,,,,
2012-09-01,19.700000762939453,21.350000381469727,19.549999237060547,19.979999542236328,18.011720657348633,14722200.0
2012-10-01,20.079999923706055,20.729999542236328,18.850000381469727,19.43000030517578,17.51590919494629,22356900.0
2012-11-01,19.420000076293945,20.5,18.579999923706055,20.399999618530273,18.39034652709961,16909600.0
2012-11-15,,,,,,
2012-12-01,20.469999313354492,22.329999923706055,19.700000762939453,22.31999969482422,20.195720672607422,17540500.0
2013-01-01,23.040000915527344,24.530000686645508,22.860000610351562,23.770000457763672,21.507719039916992,20202200.0
2013-02-01,24.010000228881836,27.15999984741211,23.239999771118164,26.329999923706055,23.824079513549805,22900200.0
2013-02-14,,,,,,
2013-03-01,26.229999542236328,26.940000534057617,25.440000534057617,26.010000228881836,23.61324691772461,27506600.0
2013-04-01,26.0,26.239999771118164,23.0,24.309999465942383,22.069894790649414,30397800.0
2013-05-01,24.270000457763672,25.059999465942383,23.93000030517578,24.360000610351562,22.11528778076172,26251000.0
2013-05-16,,,,,,
2013-06-01,24.3700008392334,27.15999984741211,23.579999923706055,26.969999313354492,24.573997497558594,28482600.0
2013-07-01,27.18000030517578,32.81999969482422,27.040000915527344,32.470001220703125,29.585376739501953,26167800.0
2013-08-01,32.7400016784668,33.810001373291016,31.25,31.280000686645508,28.501102447509766,20027300.0
2013-08-15,,,,,,
2013-09-01,31.719999313354492,32.58000183105469,30.93000030517578,31.399999618530273,28.688894271850586,16623500.0
2013-10-01,31.280000686645508,33.20000076293945,27.90999984741211,28.479999542236328,26.021011352539062,32467300.0
2013-11-01,28.479999542236328,30.0,28.149999618530273,29.670000076293945,27.108266830444336,14591500.0
2013-11-14,,,,,,
2013-12-01,29.610000610351562,30.1299991607666,28.030000686645508,30.100000381469727,27.58524513244629,16478000.0
2014-01-01,29.920000076293945,34.189998626708984,28.809999465942383,31.719999313354492,29.069894790649414,28490100.0
2014-02-01,31.75,34.279998779296875,29.6299991607666,34.13999938964844,31.2877197265625,25252400.0
2014-02-14,,,,,,
2014-03-01,33.88999938964844,36.040000915527344,33.56999969482422,36.0,33.099266052246094,27830800.0
2014-04-01,36.060001373291016,37.41999816894531,33.59000015258789,34.040000915527344,31.297191619873047,30139500.0
2014-05-01,34.099998474121094,35.29999923706055,33.09000015258789,34.90999984741211,32.097084045410156,15883300.0
2014-05-16,,,,,,
2014-06-01,34.95000076293945,36.36000061035156,34.08000183105469,34.72999954223633,32.02730178833008,11869800.0
2014-07-01,34.88999938964844,35.290000915527344,32.5,33.279998779296875,30.69014549255371,18314600.0
2014-08-01,33.029998779296875,34.25,32.720001220703125,33.790000915527344,31.160449981689453,12466500.0
2014-08-15,,,,,,
2014-09-01,33.79999923706055,34.029998779296875,31.200000762939453,31.34000015258789,28.986957550048828,11922500.0
2014-10-01,31.190000534057617,33.630001068115234,28.31999969482422,33.529998779296875,31.012521743774414,21701600.0
2014-11-01,33.599998474121094,34.400001525878906,31.43000030517578,31.729999542236328,29.347675323486328,13847700.0
2014-11-14,,,,,,
2014-12-01,31.540000915527344,33.91999816894531,30.81999969482422,32.310001373291016,29.97653579711914,20792600.0
2015-01-01,32.459999084472656,32.5,29.549999237060547,30.200000762939453,28.018922805786133,14397900.0
2015-02-01,30.270000457763672,34.459999084472656,29.700000762939453,32.279998779296875,29.948699951171875,14045700.0
2015-02-18,,,,,,
2015-03-01,32.25,32.88999938964844,30.520000457763672,31.280000686645508,29.119482040405273,13893500.0
2015-04-01,31.299999237060547,31.75,29.43000030517578,30.889999389648438,28.75641632080078,14625600.0
2015-05-01,30.950000762939453,32.04999923706055,30.43000030517578,30.549999237060547,28.439897537231445,15483100.0
2015-05-20,,,,,,
2015-06-01,30.670000076293945,31.690000534057617,30.139999389648438,30.81999969482422,28.7906551361084,12563200.0
2015-07-01,31.020000457763672,31.31999969482422,29.530000686645508,30.790000915527344,28.762630462646484,14136400.0
2015-08-01,30.84000015258789,32.099998474121094,26.34000015258789,28.6299991607666,26.744853973388672,19176500.0
2015-08-19,,,,,,
2015-09-01,28.079999923706055,29.229999542236328,26.969999313354492,27.989999771118164,26.242046356201172,20936900.0
2015-10-01,28.010000228881836,29.0,25.1200008392334,26.670000076293945,25.00447654724121,25503600.0
2015-11-01,26.670000076293945,30.65999984741211,25.8700008392334,30.559999465942383,28.651548385620117,25870500.0
2015-11-18,,,,,,
2015-12-01,30.649999618530273,30.940000534057617,27.729999542236328,28.06999969482422,26.416908264160156,18768400.0
2016-01-01,28.350000381469727,32.0,27.979999542236328,29.239999771118164,27.518003463745117,39489300.0
2016-02-01,29.100000381469727,31.81999969482422,26.479999542236328,30.959999084472656,29.136707305908203,24255400.0
2016-02-17,,,,,,
2016-03-01,31.139999389648438,33.95000076293945,30.959999084472656,32.95000076293945,31.132970809936523,15409400.0
2016-04-01,32.77000045776367,34.09000015258789,30.06999969482422,30.209999084472656,28.54407501220703,19635800.0
2016-05-01,30.200000762939453,31.170000076293945,29.270000457763672,31.149999618530273,29.432233810424805,14393000.0
2016-05-18,,,,,,
2016-06-01,30.940000534057617,31.68000030517578,29.0,30.950000762939453,29.362384796142578,18492500.0
2016-07-01,30.989999771118164,33.25,30.729999542236328,32.58000183105469,30.908775329589844,15600800.0
2016-08-01,32.5099983215332,32.7400016784668,30.209999084472656,30.829999923706055,29.248538970947266,19743000.0
2016-08-17,,,,,,
2016-09-01,30.770000457763672,31.90999984741211,30.31999969482422,31.420000076293945,29.925823211669922,13269200.0
2016-10-01,31.40999984741211,33.43000030517578,28.260000228881836,32.91999816894531,31.3544864654541,16061800.0
2016-11-01,32.959999084472656,36.11000061035156,31.809999465942383,35.90999984741211,34.202301025390625,17412900.0
2016-11-16,,,,,,
2016-12-01,35.939998626708984,37.16999816894531,35.25,36.189998626708984,34.58661651611328,12707700.0
2017-01-01,36.41999816894531,36.86000061035156,34.41999816894531,35.33000183105469,33.76472473144531,12779400.0
2017-02-01,35.52000045776367,37.220001220703125,33.75,36.709999084472656,35.083587646484375,18758100.0
2017-02-22,,,,,,
2017-03-01,37.040000915527344,37.439998626708984,35.5099983215332,36.279998779296875,34.814697265625,12711300.0
2017-04-01,36.310001373291016,37.7400016784668,34.11000061035156,36.72999954223633,35.24652099609375,15430700.0
2017-05-01,36.7599983215332,38.2400016784668,36.380001068115234,37.88999938964844,36.35967254638672,16989700.0
2017-05-24,,,,,,
2017-06-01,38.029998779296875,38.95000076293945,34.45000076293945,34.65999984741211,33.396263122558594,25611200.0
2017-07-01,35.0099983215332,38.79999923706055,33.95000076293945,37.31999969482422,35.959266662597656,26371600.0
2017-08-01,37.38999938964844,38.54999923706055,36.939998626708984,38.0,36.614471435546875,19597200.0
2017-08-23,,,,,,
2017-09-01,38.02000045776367,40.7599983215332,37.65999984741211,38.90999984741211,37.6402702331543,25023500.0
2017-10-01,39.08000183105469,48.060001373291016,38.95000076293945,46.81999969482422,45.292137145996094,28059300.0
2017-11-01,47.06999969482422,48.040000915527344,46.13999938964844,47.47999954223633,45.930606842041016,26293000.0
2017-11-22,,,,,,
2017-12-01,46.5,48.43000030517578,45.349998474121094,46.619998931884766,45.24250411987305,18202400.0
2018-01-01,46.77000045776367,52.880001068115234,46.56999969482422,51.209999084472656,49.69688415527344,20004700.0
2018-02-01,51.04999923706055,51.689998626708984,45.209999084472656,49.099998474121094,47.649234771728516,21401800.0
2018-02-22,,,,,,
2018-03-01,49.22999954223633,51.70000076293945,48.310001373291016,50.0099983215332,48.6936149597168,23582800.0
2018-04-01,50.04999923706055,54.81999969482422,48.849998474121094,53.54999923706055,52.14043426513672,20419000.0
2018-05-01,53.189998626708984,55.66999816894531,52.849998474121094,53.900001525878906,52.48122024536133,21355700.0
2018-05-24,,,,,,
2018-06-01,54.290000915527344,55.720001220703125,51.130001068115234,51.970001220703125,50.75198745727539,20281200.0
2018-07-01,51.720001220703125,60.709999084472656,51.11000061035156,58.599998474121094,57.226600646972656,23764600.0
2018-08-01,58.650001525878906,62.90999984741211,57.86000061035156,62.7400016784668,61.26957321166992,17363700.0
2018-08-23,,,,,,
2018-09-01,62.70000076293945,63.880001068115234,60.560001373291016,61.470001220703125,60.18684005737305,13680000.0
2018-10-01,61.93000030517578,62.59000015258789,45.0,46.310001373291016,45.34330368041992,21338800.0
2018-11-01,46.310001373291016,49.709999084472656,44.380001068115234,45.86000061035156,44.90269470214844,26102300.0
2018-11-21,,,,,,
2018-12-01,46.400001525878906,46.84000015258789,40.52000045776367,43.540000915527344,42.78491973876953,23794900.0
2019-01-01,42.75,49.02000045776367,41.77000045776367,48.880001068115234,48.032318115234375,22084700.0
2019-02-01,48.95000076293945,53.20000076293945,48.27000045776367,51.45000076293945,50.557743072509766,17841700.0
2019-02-21,,,,,,
2019-03-01,51.810001373291016,51.959999084472656,46.5099983215332,47.58000183105469,46.9058837890625,21279700.0
2019-04-01,47.9900016784668,55.150001525878906,47.869998931884766,52.939998626708984,52.189937591552734,20525500.0
2019-05-01,53.11000061035156,53.90999984741211,48.06999969482422,48.33000183105469,47.64525604248047,16159500.0
2019-05-23,,,,,,
2019-06-01,48.31999969482422,54.279998779296875,47.849998474121094,54.099998474121094,53.51191711425781,13981900.0
2019-07-01,54.880001068115234,55.540000915527344,49.599998474121094,49.65999984741211,49.12017822265625,18405000.0
2019-08-01,49.849998474121094,50.189998626708984,45.41999816894531,49.27000045776367,48.73441696166992,19956400.0
2019-08-22,,,,,,
2019-09-01,48.790000915527344,54.650001525878906,48.189998626708984,52.59000015258789,52.203643798828125,14661700.0
2019-10-01,53.119998931884766,55.34000015258789,44.18000030517578,51.560001373291016,51.181209564208984,12934600.0
2019-11-01,51.88999938964844,54.279998779296875,51.779998779296875,53.560001373291016,53.1665153503418,11524900.0
2019-11-25,,,,,,
2019-12-01,53.68000030517578,53.79999923706055,51.5,52.06999969482422,51.85309600830078,11849800.0
2020-01-01,52.349998474121094,55.349998474121094,51.459999084472656,51.540000915527344,51.32530212402344,10921800.0
2020-02-01,51.880001068115234,59.439998626708984,41.0099983215332,42.470001220703125,42.293087005615234,19853400.0
2020-03-01,42.939998626708984,44.95000076293945,23.850000381469727,31.469999313354492,31.33890724182129,44196100.0
2020-03-05,,,,,,
2020-03-26,31.610000610351562,34.58000183105469,31.610000610351562,33.33000183105469,33.33000183105469,875347.0
