Date,Open,High,Low,Close,Adj Close,Volume
2019-03-01,38.599998474121094,41.72999954223633,35.38999938964844,35.880001068115234,35.14664840698242,37944800.0
2019-04-01,36.16999816894531,38.90999984741211,35.209999084472656,38.5,37.71309280395508,44724200.0
2019-05-01,38.65999984741211,38.79999923706055,34.25,34.709999084472656,34.00055694580078,35804400.0
2019-05-17,,,,,,
2019-06-01,34.61000061035156,37.0,33.31999969482422,36.529998779296875,36.01140213012695,43038800.0
2019-07-01,36.81999969482422,38.060001373291016,35.71500015258789,37.20000076293945,36.67189407348633,34235700.0
2019-08-01,37.15999984741211,37.45000076293945,31.280000686645508,32.79999923706055,32.334354400634766,35694600.0
2019-09-01,32.400001525878906,34.41999816894531,31.1299991607666,31.540000915527344,31.09224510192871,20395400.0
2019-09-03,,,,,,
2019-10-01,31.700000762939453,33.0099983215332,29.610000610351562,31.239999771118164,31.013978958129883,30821000.0
2019-11-01,31.360000610351562,35.54999923706055,31.18000030517578,34.97999954223633,34.72692108154297,28323200.0
2019-12-01,34.959999084472656,36.95000076293945,33.9900016784668,36.400001525878906,36.13664627075195,24585900.0
2020-01-01,36.5,38.84000015258789,35.529998779296875,36.33000183105469,36.06715393066406,29154300.0
2020-02-01,36.5,38.439998626708984,29.860000610351562,30.450000762939453,30.229694366455078,30512900.0
2020-03-01,30.479999542236328,32.279998779296875,19.1299991607666,23.34000015258789,23.17113494873047,54700900.0
2020-03-03,,,,,,
2020-03-26,23.459999084472656,24.780000686645508,23.459999084472656,24.18000030517578,24.18000030517578,887259.0
