Date,Open,High,Low,Close,Adj Close,Volume
2001-06-01,5.449999809265137,5.619999885559082,4.900000095367432,5.162499904632568,3.54533052444458,31098800.0
2001-07-01,5.162499904632568,5.162499904632568,4.352499961853027,4.517499923706055,3.1023788452148438,22945200.0
2001-08-01,4.542500019073486,4.574999809265137,3.950000047683716,4.067500114440918,2.7933430671691895,9616000.0
2001-09-01,4.067500114440918,4.237500190734863,2.747499942779541,2.887500047683716,1.98298180103302,12601600.0
2001-10-01,2.887500047683716,3.487499952316284,2.765000104904175,3.2750000953674316,2.2490956783294678,6733200.0
2001-11-01,3.25,3.450000047683716,3.0174999237060547,3.1524999141693115,2.1649694442749023,12540800.0
2001-12-01,3.127500057220459,4.125,3.0625,4.112500190734863,2.824246644973755,37776000.0
2002-01-01,4.0,4.287499904632568,3.575000047683716,3.9625000953674316,2.7212347984313965,72978400.0
2002-02-01,3.9749999046325684,4.762499809265137,3.950000047683716,4.652500152587891,3.1950888633728027,31892000.0
2002-03-01,4.652500152587891,5.125,4.59499979019165,4.982500076293945,3.4217159748077393,28747600.0
2002-04-01,5.045000076293945,5.75,4.817500114440918,5.6875,3.9058728218078613,35702800.0
2002-05-01,5.6875,5.957499980926514,5.324999809265137,5.612500190734863,3.85436749458313,25806000.0
2002-06-01,5.625,5.625,4.980000019073486,5.190000057220459,3.564216136932373,26940400.0
2002-07-01,5.150000095367432,5.150000095367432,3.7125000953674316,4.625,3.1762046813964844,32908400.0
2002-08-01,4.625,5.087500095367432,4.21999979019165,4.590000152587891,3.152168035507202,24433200.0
2002-09-01,4.539999961853027,4.862500190734863,4.077499866485596,4.190000057220459,2.877469539642334,24347200.0
2002-10-01,4.262499809265137,4.875,4.122499942779541,4.625,3.1762046813964844,32412000.0
2002-11-01,4.612500190734863,4.862500190734863,4.287499904632568,4.817500114440918,3.308403491973877,18428400.0
2002-12-01,4.84250020980835,5.242499828338623,4.824999809265137,5.107500076293945,3.5075600147247314,23797600.0
2003-01-01,5.132500171661377,5.244999885559082,4.59250020980835,4.852499961853027,3.3324389457702637,26747600.0
2003-02-01,4.862500190734863,5.237500190734863,4.637499809265137,4.987500190734863,3.4251503944396973,23209600.0
2003-03-01,5.074999809265137,5.087500095367432,4.485000133514404,4.800000190734863,3.2963850498199463,23334000.0
2003-04-01,4.824999809265137,4.927499771118164,4.572500228881836,4.704999923706055,3.2311434745788574,26988000.0
2003-05-01,4.704999923706055,5.630000114440918,4.704999923706055,5.582499980926514,3.8337643146514893,29899600.0
2003-06-01,5.5625,5.6875,5.110000133514404,5.262499809265137,3.6140050888061523,28879200.0
2003-07-01,5.25,5.742499828338623,5.050000190734863,5.614999771118164,3.8560829162597656,33474400.0
2003-08-01,5.607500076293945,6.150000095367432,5.5,5.917500019073486,4.06382417678833,28381200.0
2003-09-01,5.917500019073486,5.947500228881836,5.355000019073486,5.355000019073486,3.677529811859131,30453200.0
2003-10-01,5.355000019073486,5.65500020980835,4.802499771118164,5.019999980926514,3.4474687576293945,45372400.0
2003-11-01,5.019999980926514,5.340000152587891,4.927499771118164,5.320000171661377,3.6534934043884277,32954000.0
2003-12-01,5.349999904632568,5.954999923706055,5.324999809265137,5.824999809265137,4.000300407409668,31674800.0
2004-01-01,5.8125,6.454999923706055,5.492499828338623,6.152500152587891,4.225210666656494,25060000.0
2004-02-01,6.127500057220459,6.612500190734863,5.994999885559082,6.574999809265137,4.515360355377197,29377600.0
2004-03-01,6.599999904632568,7.127500057220459,6.295000076293945,6.757500171661377,4.640692710876465,39190800.0
2004-04-01,6.757500171661377,7.262499809265137,6.585000038146973,6.8125,4.678463935852051,35374400.0
2004-05-01,6.8125,7.03249979019165,6.21750020980835,6.742499828338623,4.63038969039917,30735600.0
2004-06-01,6.724999904632568,7.247499942779541,6.599999904632568,7.199999809265137,4.944577693939209,30394400.0
2004-07-01,7.21750020980835,7.599999904632568,7.017499923706055,7.5,5.150601387023926,29533200.0
2004-08-01,7.487500190734863,7.735000133514404,7.122499942779541,7.679999828338623,5.2742156982421875,43139600.0
2004-09-01,7.737500190734863,8.4975004196167,7.712500095367432,8.350000381469727,5.7343363761901855,37692000.0
2004-10-01,8.352499961853027,8.625,7.46750020980835,7.557499885559082,5.190089225769043,46684800.0
2004-11-01,7.6875,8.364999771118164,7.125,8.212499618530273,5.6399078369140625,77160400.0
2004-12-01,8.1875,8.25,7.53249979019165,8.050000190734863,5.5283122062683105,41863200.0
2005-01-01,7.900000095367432,8.045000076293945,7.355000019073486,7.65749979019165,5.258763790130615,43609600.0
2005-02-01,7.652500152587891,8.7475004196167,7.637499809265137,8.635000228881836,5.930059432983398,31868800.0
2005-03-01,8.635000228881836,8.977499961853027,8.137499809265137,8.295000076293945,5.696566104888916,37952800.0
2005-04-01,8.574999809265137,8.587499618530273,7.5,7.582499980926514,5.2072577476501465,46999200.0
2005-05-01,7.644999980926514,8.125,7.15500020980835,7.887499809265137,5.4167160987854,54030400.0
2005-06-01,7.90749979019165,8.317500114440918,7.724999904632568,7.992499828338623,5.48882532119751,37904400.0
2005-07-01,8.017499923706055,9.175000190734863,7.885000228881836,9.0625,6.223644256591797,51104800.0
2005-08-01,9.125,10.15250015258789,9.09749984741211,10.052499771118164,6.903522491455078,47561200.0
2005-09-01,10.137499809265137,10.672499656677246,9.625,10.52750015258789,7.229727268218994,43838400.0
2005-10-01,10.645000457763672,10.787500381469727,8.449999809265137,9.114999771118164,6.259697437286377,70065600.0
2005-11-01,9.114999771118164,10.404999732971191,8.5,10.272500038146973,7.054607391357422,58507600.0
2005-12-01,10.337499618530273,11.055000305175781,10.272500038146973,10.729999542236328,7.368793487548828,38356800.0
2006-01-01,10.850000381469727,13.170000076293945,10.845000267028809,12.954999923706055,8.896803855895996,63742800.0
2006-02-01,12.887499809265137,13.074999809265137,11.020000457763672,11.729999542236328,8.0555419921875,55841200.0
2006-03-01,11.77750015258789,12.949999809265137,11.279999732971191,12.805000305175781,8.793793678283691,55828000.0
2006-04-01,12.987500190734863,14.162500381469727,12.407500267028809,13.645000457763672,9.370660781860352,41741200.0
2006-05-01,13.774999618530273,17.97249984741211,13.612500190734863,16.684999465942383,11.458372116088867,116110400.0
2006-06-01,16.612499237060547,17.302499771118164,14.229999542236328,16.864999771118164,11.581985473632812,88844400.0
2006-07-01,17.0625,17.774999618530273,14.787500381469727,15.755000114440918,10.819696426391602,81673200.0
2006-08-01,15.732500076293945,16.547500610351562,14.324999809265137,14.704999923706055,10.098610877990723,71778400.0
2006-09-01,14.737500190734863,15.630000114440918,12.460000038146973,13.425000190734863,9.219578742980957,79949200.0
2006-10-01,13.375,15.592499732971191,12.460000038146973,15.112500190734863,10.378461837768555,69809200.0
2006-11-01,15.130000114440918,15.5625,14.050000190734863,15.0024995803833,10.30291748046875,71126800.0
2006-12-01,14.850000381469727,16.024999618530273,14.762499809265137,15.407500267028809,10.581052780151367,50468000.0
2007-01-01,15.300000190734863,15.547499656677246,13.782500267028809,15.482500076293945,10.63255786895752,48321600.0
2007-02-01,15.479999542236328,17.190000534057617,15.197500228881836,16.44499969482422,11.29355239868164,56762000.0
2007-03-01,16.149999618530273,17.712499618530273,16.0,17.440000534057617,11.9768648147583,66109600.0
2007-04-01,17.549999237060547,18.329999923706055,17.114999771118164,17.719999313354492,12.169150352478027,42964800.0
2007-05-01,17.78499984741211,19.239999771118164,17.485000610351562,18.899999618530273,12.979512214660645,54329200.0
2007-06-01,18.947500228881836,20.05500030517578,18.15999984741211,19.80500030517578,13.601022720336914,43180800.0
2007-07-01,19.962499618530273,24.162500381469727,19.8799991607666,22.8799991607666,15.712767601013184,70816400.0
2007-08-01,22.375,24.102500915527344,20.114999771118164,23.674999237060547,16.258731842041016,84304000.0
2007-09-01,23.90999984741211,29.729999542236328,22.860000610351562,28.829999923706055,19.79891014099121,55593600.0
2007-09-04,,,,,,
2007-10-01,28.9950008392334,33.88999938964844,27.700000762939453,30.315000534057617,20.81873321533203,78436200.0
2007-11-01,30.149999618530273,31.15999984741211,26.315000534057617,27.790000915527344,19.084697723388672,67834800.0
2007-12-01,27.825000762939453,29.6299991607666,26.875,28.350000381469727,19.469274520874023,43538400.0
2008-01-01,28.18000030517578,32.97999954223633,22.950000762939453,24.079999923706055,16.536865234375,98394800.0
2008-02-01,24.225000381469727,30.260000228881836,22.75,28.329999923706055,19.455537796020508,91140400.0
2008-03-01,28.125,30.225000381469727,24.920000076293945,28.44499969482422,19.534515380859375,77299600.0
2008-04-01,28.395000457763672,35.31999969482422,27.94499969482422,33.599998474121094,23.074691772460938,75037000.0
2008-05-01,33.435001373291016,41.59000015258789,31.78499984741211,35.92499923706055,24.671377182006836,84424000.0
2008-06-01,35.724998474121094,40.65999984741211,35.57500076293945,38.46500015258789,26.41571617126465,69818000.0
2008-07-01,38.44499969482422,40.17499923706055,30.604999542236328,30.889999389648438,21.213611602783203,88831000.0
2008-08-01,30.125,30.614999771118164,25.100000381469727,26.780000686645508,18.391080856323242,84520800.0
2008-08-01,,,,,,
2008-09-01,25.71500015258789,26.5,20.635000228881836,23.274999618530273,16.83763313293457,96217400.0
2008-10-01,22.829999923706055,22.829999923706055,12.859999656677246,17.4950008392334,12.656258583068848,169844600.0
2008-11-01,17.21500015258789,20.06999969482422,10.135000228881836,13.734999656677246,9.936193466186523,88487800.0
2008-12-01,13.074999809265137,13.210000038146973,10.4399995803833,11.914999961853027,8.619565963745117,72317400.0
2009-01-01,11.994999885559082,16.06999969482422,11.850000381469727,14.795000076293945,10.703021049499512,74071000.0
2009-02-01,14.520000457763672,15.555000305175781,12.199999809265137,13.244999885559082,9.58171558380127,108457200.0
2009-03-01,12.854999542236328,17.010000228881836,11.675000190734863,15.6850004196167,11.346866607666016,123941000.0
2009-04-01,15.255000114440918,18.709999084472656,15.055000305175781,17.114999771118164,12.381357192993164,58681800.0
2009-05-01,17.06999969482422,20.895000457763672,16.774999618530273,20.809999465942383,15.054398536682129,55690400.0
2009-06-01,21.375,22.2450008392334,17.584999084472656,18.790000915527344,13.593090057373047,138985400.0
2009-07-01,18.825000762939453,21.989999771118164,16.954999923706055,21.75,15.734413146972656,69092000.0
2009-08-01,22.059999465942383,24.68000030517578,21.290000915527344,23.850000381469727,17.253604888916016,42500600.0
2009-09-01,23.6299991607666,27.7450008392334,22.415000915527344,26.1200008392334,18.895771026611328,59816200.0
2009-10-01,26.079999923706055,29.739999771118164,24.71500015258789,26.299999237060547,19.02597999572754,56642400.0
2009-11-01,26.489999771118164,29.684999465942383,25.979999542236328,27.235000610351562,19.702381134033203,43841800.0
2009-12-01,27.53499984741211,29.780000686645508,25.950000762939453,28.920000076293945,20.921344757080078,55949400.0
2010-01-01,29.075000762939453,30.739999771118164,26.299999237060547,26.584999084472656,19.232158660888672,49277200.0
2010-02-01,26.844999313354492,29.420000076293945,25.825000762939453,28.084999084472656,20.317291259765625,69816400.0
2010-03-01,28.31999969482422,33.01499938964844,28.145000457763672,32.314998626708984,23.377363204956055,65377800.0
2010-04-01,32.65999984741211,38.27000045776367,32.345001220703125,33.845001220703125,24.48419761657715,65948800.0
2010-05-01,34.064998626708984,34.625,26.950000762939453,29.075000762939453,21.033479690551758,100511400.0
2010-06-01,28.704999923706055,28.704999923706055,23.079999923706055,26.329999923706055,19.047685623168945,128314800.0
2010-07-01,26.225000381469727,31.93000030517578,25.579999923706055,31.639999389648438,22.889055252075195,74335200.0
2010-08-01,32.3849983215332,32.93000030517578,30.204999923706055,30.924999237060547,22.37180519104004,47204200.0
2010-09-01,31.559999465942383,35.65999984741211,31.5049991607666,34.14500045776367,24.70122528076172,51529000.0
2010-10-01,34.529998779296875,37.19499969482422,33.599998474121094,36.04999923706055,26.07933807373047,49776000.0
2010-11-01,36.58000183105469,42.845001220703125,35.814998626708984,42.119998931884766,30.470510482788086,38645400.0
2010-12-01,43.0099983215332,45.400001525878906,42.48500061035156,44.45500183105469,32.15970230102539,34591800.0
2011-01-01,44.67499923706055,47.69499969482422,41.19499969482422,47.0,34.00080108642578,35168400.0
2011-02-01,47.244998931884766,48.375,43.29999923706055,47.025001525878906,34.018898010253906,48285000.0
2011-03-01,47.34000015258789,48.67499923706055,42.10499954223633,47.2400016784668,34.17443084716797,43806200.0
2011-04-01,47.9900016784668,50.33000183105469,44.349998474121094,46.47999954223633,33.624629974365234,40651400.0
2011-04-01,,,,,,
2011-05-01,46.93000030517578,47.16999816894531,40.88999938964844,44.630001068115234,32.28630065917969,62577900.0
2011-05-06,,,,,,
2011-06-01,44.5,45.15999984741211,38.810001373291016,44.790000915527344,33.54240417480469,42734600.0
2011-07-01,44.59000015258789,46.869998931884766,42.810001373291016,45.599998474121094,34.14899826049805,40205300.0
2011-08-01,46.369998931884766,46.45000076293945,36.33000183105469,44.459999084472656,33.2952766418457,76107900.0
2011-09-01,44.400001525878906,45.29999923706055,37.290000915527344,37.599998474121094,28.157949447631836,52335900.0
2011-10-01,37.0,47.31999969482422,34.459999084472656,44.81999969482422,33.56487274169922,59401700.0
2011-11-01,43.27000045776367,52.70000076293945,42.4900016784668,52.36000061035156,39.21144104003906,54106800.0
2011-12-01,52.25,54.880001068115234,47.40999984741211,52.22999954223633,39.11408996582031,51853400.0
2012-01-01,54.06999969482422,55.0,50.66999816894531,51.11000061035156,38.27534866333008,47022900.0
2012-02-01,51.54999923706055,55.189998626708984,49.880001068115234,50.43000030517578,37.7661018371582,55502300.0
2012-03-01,50.65999984741211,52.84000015258789,47.72999954223633,50.41999816894531,37.75862121582031,54191000.0
2012-04-01,50.22999954223633,51.029998779296875,45.459999084472656,47.0,35.19742965698242,53784700.0
2012-05-01,47.150001525878906,47.939998626708984,39.7599983215332,40.2400016784668,30.134998321533203,55505700.0
2012-05-08,,,,,,
2012-06-01,39.349998474121094,42.13999938964844,36.88999938964844,39.22999954223633,30.468767166137695,55005500.0
2012-07-01,39.279998779296875,47.09000015258789,39.0099983215332,45.119998931884766,35.04335403442383,48893100.0
2012-08-01,45.5,48.290000915527344,45.06999969482422,46.84000015258789,36.37922668457031,34001000.0
2012-09-01,46.849998474121094,50.4900016784668,46.0099983215332,46.29999923706055,35.95983123779297,33655500.0
2012-10-01,46.790000915527344,47.25,39.25,40.900001525878906,31.765804290771484,54635700.0
2012-11-01,40.9900016784668,41.88999938964844,39.439998626708984,40.86000061035156,31.7347412109375,36864200.0
2012-12-01,41.15999984741211,42.869998931884766,40.2400016784668,42.83000183105469,33.26478576660156,29627700.0
2013-01-01,43.75,47.650001525878906,42.040000915527344,47.349998474121094,36.77532958984375,42648400.0
2013-02-01,47.41999816894531,53.18000030517578,47.25,51.90999984741211,40.31694030761719,46537700.0
2013-03-01,51.7400016784668,54.52000045776367,50.25,54.38999938964844,42.24309158325195,31473500.0
2013-04-01,54.59000015258789,55.4900016784668,47.91999816894531,54.29999923706055,42.17319107055664,48455200.0
2013-05-01,53.7400016784668,59.27000045776367,53.18000030517578,55.65999984741211,43.22945785522461,27334800.0
2013-05-02,,,,,,
2013-06-01,55.93000030517578,58.34000015258789,53.16999816894531,55.68000030517578,44.639991760253906,29212800.0
2013-07-01,56.16999816894531,59.130001068115234,53.09000015258789,53.29999923706055,42.73189163208008,36064200.0
2013-08-01,54.0,55.63999938964844,52.209999084472656,53.630001068115234,42.9964599609375,24675200.0
2013-09-01,54.349998474121094,57.91999816894531,53.7400016784668,55.41999816894531,44.43154525756836,24101600.0
2013-10-01,55.29999923706055,59.790000915527344,50.54999923706055,50.54999923706055,40.52714920043945,53074200.0
2013-11-01,50.529998779296875,50.900001525878906,47.58000183105469,48.099998474121094,38.56292724609375,35066700.0
2013-12-01,48.209999084472656,53.47999954223633,47.650001525878906,52.209999084472656,41.85801315307617,39841700.0
2014-01-01,51.939998626708984,52.349998474121094,48.33000183105469,49.439998626708984,39.637237548828125,38963700.0
2014-02-01,49.459999084472656,51.959999084472656,47.599998474121094,50.2400016784668,40.27861785888672,47435100.0
2014-03-01,49.959999084472656,53.88999938964844,49.56999969482422,52.290000915527344,41.92215347290039,32409600.0
2014-04-01,52.36000061035156,59.279998779296875,51.54999923706055,56.70000076293945,45.45775604248047,38463800.0
2014-05-01,56.650001525878906,58.15999984741211,54.380001068115234,58.060001373291016,46.548095703125,27540100.0
2014-05-02,,,,,,
2014-06-01,58.099998474121094,62.43000030517578,57.279998779296875,61.06999969482422,50.61962127685547,28829400.0
2014-07-01,61.38999938964844,63.91999816894531,58.83000183105469,60.79999923706055,50.39582824707031,34677600.0
2014-08-01,60.43000030517578,62.099998474121094,59.310001373291016,61.84000015258789,51.25785827636719,24937100.0
2014-09-01,61.84000015258789,62.0,53.41999816894531,54.310001373291016,45.01640701293945,41582400.0
2014-10-01,54.189998626708984,56.779998779296875,47.790000915527344,56.040000915527344,46.45036315917969,62052700.0
2014-11-01,56.13999938964844,57.869998931884766,47.380001068115234,47.77000045776367,39.59552764892578,45137000.0
2014-12-01,46.83000183105469,48.75,42.40999984741211,46.84000015258789,38.82468032836914,63055400.0
2015-01-01,46.439998626708984,46.790000915527344,34.849998474121094,37.47999954223633,31.066373825073242,75082600.0
2015-02-01,37.95000076293945,43.16999816894531,37.7599983215332,39.93000030517578,33.09712600708008,82187100.0
2015-03-01,39.779998779296875,40.099998474121094,35.369998931884766,37.0099983215332,30.67679786682129,86850400.0
2015-04-01,37.189998626708984,44.43000030517578,36.650001525878906,44.099998474121094,36.55355453491211,78163100.0
2015-04-29,,,,,,
2015-05-01,43.9900016784668,44.279998779296875,40.72999954223633,41.790000915527344,36.413822174072266,54619200.0
2015-06-01,41.65999984741211,43.68000030517578,40.599998474121094,41.4900016784668,36.15242004394531,52885000.0
2015-07-01,41.58000183105469,41.720001220703125,31.829999923706055,32.7599983215332,28.54551124572754,90060300.0
2015-08-01,32.4900016784668,35.209999084472656,27.940000534057617,34.779998779296875,30.305641174316406,68345100.0
2015-09-01,33.20000076293945,35.65999984741211,30.489999771118164,31.0,27.01192855834961,67647900.0
2015-10-01,31.540000915527344,35.040000915527344,29.0,33.83000183105469,29.477863311767578,88045200.0
2015-11-01,33.439998626708984,35.93000030517578,32.08000183105469,34.02000045776367,29.643415451049805,36532600.0
2015-12-01,33.91999816894531,34.29999923706055,28.079999923706055,29.010000228881836,25.27794075012207,68685300.0
2016-01-01,28.8799991607666,29.270000457763672,22.850000381469727,25.149999618530273,21.914514541625977,85411500.0
2016-02-01,25.049999237060547,26.829999923706055,22.299999237060547,24.530000686645508,21.374279022216797,117048300.0
2016-03-01,24.81999969482422,27.940000534057617,23.68000030517578,27.360000610351562,23.840206146240234,83378000.0
2016-04-01,26.770000457763672,31.299999237060547,26.5,30.489999771118164,26.567541122436523,68054000.0
2016-05-01,30.469999313354492,30.700000762939453,26.469999313354492,27.229999542236328,23.726930618286133,74674800.0
2016-05-04,,,,,,
2016-06-01,27.229999542236328,29.3799991607666,24.309999465942383,26.670000076293945,24.932777404785156,73749400.0
2016-07-01,26.969999313354492,28.260000228881836,24.979999542236328,25.3799991607666,23.726802825927734,59773600.0
2016-08-01,25.200000762939453,29.049999237060547,24.0,28.200000762939453,26.363117218017578,80958400.0
2016-09-01,28.25,30.190000534057617,27.1200008392334,29.670000076293945,27.737363815307617,78358700.0
2016-10-01,29.700000762939453,33.43000030517578,29.479999542236328,32.27000045776367,30.168001174926758,83980100.0
2016-11-01,32.529998779296875,35.7400016784668,31.530000686645508,34.2599983215332,32.028377532958984,77519500.0
2016-12-01,34.81999969482422,36.5099983215332,34.41999816894531,35.529998779296875,33.21565246582031,61442900.0
2017-01-01,36.08000183105469,37.09000015258789,32.84000015258789,33.619998931884766,31.430063247680664,186867600.0
2017-01-17,,,,,,
2017-02-01,33.689998626708984,33.90999984741211,30.610000610351562,32.31999969482422,30.214744567871094,79604200.0
2017-03-01,32.529998779296875,33.720001220703125,30.729999542236328,32.5,30.383024215698242,101577100.0
2017-04-01,32.83000183105469,34.06999969482422,29.860000610351562,30.1299991607666,28.16739845275879,63719900.0
2017-05-01,30.049999237060547,32.459999084472656,28.420000076293945,28.950000762939453,27.06426239013672,78037700.0
2017-06-01,28.700000762939453,29.450000762939453,26.25,27.200000762939453,25.428255081176758,88175600.0
2017-07-01,27.459999084472656,29.18000030517578,26.329999923706055,28.540000915527344,26.68096923828125,68961900.0
2017-08-01,28.540000915527344,28.549999237060547,25.170000076293945,25.829999923706055,24.147491455078125,52110600.0
2017-09-01,26.040000915527344,28.5,25.459999084472656,27.920000076293945,26.10135269165039,74587100.0
2017-10-01,27.579999923706055,28.049999237060547,24.530000686645508,27.389999389648438,25.605878829956055,76203500.0
2017-11-01,27.809999465942383,30.15999984741211,26.190000534057617,28.639999389648438,26.774452209472656,77295000.0
2017-11-20,,,,,,
2017-12-01,28.920000076293945,31.600000381469727,26.950000762939453,31.309999465942383,29.4141788482666,60613900.0
2018-01-01,31.229999542236328,35.0,31.1200008392334,32.459999084472656,30.49454689025879,67840500.0
2018-02-01,32.439998626708984,33.38999938964844,28.09000015258789,28.81999969482422,27.074951171875,82194500.0
2018-03-01,28.719999313354492,31.360000610351562,28.219999313354492,29.450000762939453,27.66680335998535,62869400.0
2018-03-19,,,,,,
2018-04-01,29.34000015258789,34.11000061035156,28.25,32.959999084472656,31.099855422973633,67075900.0
2018-05-01,32.84000015258789,34.38999938964844,30.43000030517578,31.149999618530273,29.39200210571289,76263200.0
2018-05-21,,,,,,
2018-06-01,32.150001525878906,33.47999954223633,30.559999465942383,31.739999771118164,30.063013076782227,80506000.0
2018-07-01,31.010000228881836,33.599998474121094,29.520000457763672,32.54999923706055,30.830219268798828,81846700.0
2018-08-01,32.18000030517578,32.470001220703125,27.25,30.6299991607666,29.011661529541016,64998100.0
2018-08-20,,,,,,
2018-09-01,30.579999923706055,32.90999984741211,27.600000381469727,31.25,29.736820220947266,60021800.0
2018-10-01,31.8799991607666,31.8799991607666,25.360000610351562,26.299999237060547,25.026506423950195,87950000.0
2018-11-01,26.649999618530273,26.959999084472656,22.389999389648438,23.09000015258789,21.971940994262695,78041100.0
2018-11-19,,,,,,
2018-12-01,24.3799991607666,24.579999923706055,18.200000762939453,19.579999923706055,18.732280731201172,106184800.0
2019-01-01,19.06999969482422,24.1200008392334,19.010000228881836,22.959999084472656,21.9659423828125,86540100.0
2019-02-01,22.920000076293945,24.809999465942383,21.8700008392334,22.290000915527344,21.324951171875,76133400.0
2019-03-01,22.530000686645508,24.0,20.8799991607666,23.520000457763672,22.50170135498047,93671000.0
2019-03-18,,,,,,
2019-04-01,23.700000762939453,25.59000015258789,23.610000610351562,24.59000015258789,23.659626007080078,78870400.0
2019-05-01,24.530000686645508,24.700000762939453,20.799999237060547,20.799999237060547,20.013023376464844,81783400.0
2019-05-20,,,,,,
2019-06-01,20.979999542236328,25.979999542236328,20.920000076293945,25.940000534057617,25.103851318359375,71671100.0
2019-07-01,26.309999465942383,28.56999969482422,24.440000534057617,27.540000915527344,26.652278900146484,70608800.0
2019-08-01,27.209999084472656,27.329999923706055,22.309999465942383,24.84000015258789,24.039310455322266,85166900.0
2019-08-19,,,,,,
2019-09-01,24.239999771118164,26.530000686645508,23.43000030517578,24.139999389648438,23.490398406982422,93480200.0
2019-10-01,24.020000457763672,24.139999389648438,19.540000915527344,19.729999542236328,19.19906997680664,95562700.0
2019-11-01,19.950000762939453,21.280000686645508,18.700000762939453,18.84000015258789,18.333019256591797,60803600.0
2019-11-18,,,,,,
2019-12-01,18.8700008392334,21.56999969482422,18.420000076293945,21.440000534057617,20.997589111328125,67173500.0
2020-01-01,21.450000762939453,21.84000015258789,15.739999771118164,16.510000228881836,16.1693172454834,94447000.0
2020-02-01,16.610000610351562,18.030000686645508,14.34000015258789,14.84000015258789,14.533778190612793,100897600.0
2020-03-01,14.609999656677246,15.199999809265137,4.489999771118164,6.980000019073486,6.835968494415283,171922800.0
2020-03-23,,,,,,
2020-03-26,6.809999942779541,7.295000076293945,6.699999809265137,7.110000133514404,7.110000133514404,2448022.0
