Date,Open,High,Low,Close,Adj Close,Volume
1980-10-01,0.0,2.8518519401550293,2.5740740299224854,2.5740740299224854,0.3148205280303955,4658900.0
1980-11-01,0.0,2.8333332538604736,2.5185184478759766,2.814814805984497,0.3442639708518982,8083400.0
1980-12-01,0.0,3.055555582046509,2.777777671813965,3.0370371341705322,0.37144285440444946,5130000.0
1981-01-01,0.0,3.4814815521240234,3.0,3.0,0.3669130802154541,3749900.0
1981-02-01,0.0,3.2407407760620117,2.9629628658294678,3.0740740299224854,0.37597256898880005,1311000.0
1981-03-01,0.0,3.777777671813965,3.0370371341705322,3.6481480598449707,0.44618406891822815,3292600.0
1981-04-01,0.0,3.7037036418914795,3.2962963581085205,3.370370388031006,0.4122108519077301,1848000.0
1981-05-01,0.0,3.814814805984497,3.2962963581085205,3.7407407760620117,0.45750880241394043,2940800.0
1981-06-01,0.0,4.148148059844971,3.7407407760620117,3.9629628658294678,0.48468759655952454,2669300.0
1981-07-01,0.0,3.944444417953491,3.7407407760620117,3.814814805984497,0.46656838059425354,3280000.0
1981-08-01,0.0,3.8518519401550293,3.5740740299224854,3.6666667461395264,0.4484492242336273,2079400.0
1981-09-01,0.0,3.907407522201538,3.6666667461395264,3.870370388031006,0.4733630418777466,2185900.0
1981-10-01,0.0,4.111111164093018,3.8518519401550293,4.018518447875977,0.49148210883140564,1815100.0
1981-11-01,0.0,4.0740742683410645,3.8888888359069824,4.037036895751953,0.49374717473983765,2285400.0
1981-12-01,0.0,4.05555534362793,3.8888888359069824,3.8888888359069824,0.4756278395652771,1831800.0
1982-01-01,0.0,3.9259259700775146,3.4814815521240234,3.629629611968994,0.44391921162605286,2182000.0
1982-02-01,0.0,3.685185194015503,3.4259259700775146,3.4629628658294678,0.4235353469848633,1319700.0
1982-03-01,0.0,3.555555582046509,3.2037036418914795,3.555555582046509,0.43485966324806213,1902200.0
1982-04-01,0.0,3.8888888359069824,3.5185184478759766,3.814814805984497,0.46656838059425354,1398900.0
1982-05-01,0.0,3.8518519401550293,3.6666667461395264,3.7037036418914795,0.4529786705970764,1347500.0
1982-06-01,0.0,3.7592592239379883,3.314814805984497,3.370370388031006,0.4122108519077301,952700.0
1982-07-01,0.0,3.6666667461395264,3.3333332538604736,3.5185184478759766,0.43032974004745483,847700.0
1982-08-01,0.0,3.555555582046509,3.2592592239379883,3.4629628658294678,0.4235353469848633,1315100.0
1982-09-01,0.0,3.777777671813965,3.3333332538604736,3.7037036418914795,0.4529786705970764,3022700.0
1982-10-01,0.0,4.44444465637207,3.629629611968994,4.092592716217041,0.5005419254302979,3186000.0
1982-11-01,0.0,4.4259257316589355,3.9629628658294678,4.277777671813965,0.5231906175613403,1798500.0
1982-12-01,0.0,4.333333492279053,3.8518519401550293,3.870370388031006,0.4733630418777466,1033700.0
1983-01-01,0.0,4.314815044403076,3.8333332538604736,3.870370388031006,0.4733630418777466,2146900.0
1983-02-01,0.0,4.462963104248047,3.777777671813965,4.259259223937988,0.5209254026412964,1790100.0
1983-03-01,0.0,4.777777671813965,4.092592716217041,4.722222328186035,0.5775480270385742,2541600.0
1983-04-01,0.0,5.259259223937988,4.407407283782959,4.94444465637207,0.6047268509864807,2030800.0
1983-05-01,0.0,5.296296119689941,4.814815044403076,4.981481552124023,0.6092563271522522,4645300.0
1983-06-01,0.0,5.0740742683410645,4.833333492279053,4.94444465637207,0.6047268509864807,9879500.0
1983-07-01,0.0,5.185184955596924,4.851851940155029,5.111111164093018,0.6251108646392822,2187000.0
1983-08-01,0.0,5.166666507720947,4.907407283782959,4.94444465637207,0.6047268509864807,2790400.0
1983-09-01,0.0,5.333333492279053,4.888888835906982,5.185184955596924,0.6341702342033386,3078800.0
1983-10-01,0.0,5.685184955596924,5.037036895751953,5.44444465637207,0.66587895154953,3327300.0
1983-11-01,0.0,6.648148059844971,5.481481552124023,6.592592716217041,0.8063023090362549,3012200.0
1983-12-01,0.0,6.666666507720947,6.111111164093018,6.333333492279053,0.7745941281318665,2631500.0
1984-01-01,0.0,6.518518447875977,6.111111164093018,6.222222328186035,0.7610043287277222,4009500.0
1984-02-01,0.0,6.259259223937988,5.44444465637207,5.777777671813965,0.7066473364830017,1966500.0
1984-03-01,0.0,6.037036895751953,5.777777671813965,5.833333492279053,0.7134420871734619,2085800.0
1984-04-01,0.0,6.259259223937988,5.777777671813965,6.0,0.7338261604309082,2997300.0
1984-05-01,0.0,6.481481552124023,2.8888888359069824,2.944444417953491,0.3601182997226715,4217500.0
1984-05-30,,,,,,
1984-06-01,0.0,3.555555582046509,2.9259259700775146,3.314814805984497,0.40541598200798035,6080800.0
1984-07-01,0.0,3.685185194015503,3.092592477798462,3.6481480598449707,0.44618406891822815,8714400.0
1984-08-01,0.0,4.222222328186035,3.629629611968994,4.185184955596924,0.5118659138679504,8742900.0
1984-09-01,0.0,4.44444465637207,3.870370388031006,4.351851940155029,0.5322504043579102,5839200.0
1984-10-01,0.0,5.0,4.222222328186035,4.796296119689941,0.5866079330444336,7907000.0
1984-11-01,0.0,5.0740742683410645,4.222222328186035,4.5740742683410645,0.5594289302825928,8093900.0
1984-12-01,0.0,4.814815044403076,4.259259223937988,4.629629611968994,0.5662233829498291,5595100.0
1985-01-01,0.0,5.259259223937988,4.333333492279053,5.240740776062012,0.6409650444984436,8057800.0
1985-02-01,0.0,6.648148059844971,5.222222328186035,6.5,0.794978141784668,11631200.0
1985-03-01,0.0,6.592592716217041,5.777777671813965,6.44444465637207,0.7881830930709839,11914700.0
1985-04-01,0.0,7.148148059844971,6.44444465637207,7.0,0.8561301827430725,10218200.0
1985-05-01,0.0,7.833333492279053,6.888888835906982,6.981481552124023,0.8538653254508972,7833400.0
1985-06-01,0.0,7.240740776062012,6.518518447875977,7.129629611968994,0.87198406457901,7083500.0
1985-07-01,0.0,7.518518447875977,6.851851940155029,7.05555534362793,0.8629250526428223,6750900.0
1985-08-01,0.0,7.037036895751953,6.222222328186035,6.759259223937988,0.8266868591308594,8696600.0
1985-09-01,0.0,6.888888835906982,2.7037036418914795,2.814814805984497,0.3442639708518982,10822800.0
1985-09-17,,,,,,
1985-10-01,0.0,3.4629628658294678,2.7407407760620117,3.3888888359069824,0.4144756495952606,26954800.0
1985-11-01,0.0,3.9629628658294678,3.277777671813965,3.5740740299224854,0.4371246099472046,26645300.0
1985-12-01,0.0,3.7407407760620117,3.185185194015503,3.2592592239379883,0.3986215889453888,23719900.0
1986-01-01,0.0,3.7037036418914795,3.1481480598449707,3.222222328186035,0.39409154653549194,30196800.0
1986-01-09,,,,,,
1986-02-01,0.0,4.592592716217041,3.185185194015503,4.592592716217041,0.5790023803710938,32480900.0
1986-03-01,0.0,5.166666507720947,4.314815044403076,4.9259257316589355,0.6210266947746277,21406400.0
1986-04-01,0.0,5.314815044403076,4.388888835906982,4.722222328186035,0.5953453779220581,20692900.0
1986-04-04,,,,,,
1986-05-01,0.0,5.0740742683410645,4.592592716217041,5.05555534362793,0.6509157419204712,12004000.0
1986-06-01,0.0,5.703703880310059,4.537036895751953,5.518518447875977,0.7105233669281006,13399200.0
1986-07-01,0.0,5.629629611968994,4.148148059844971,4.537036895751953,0.5841552019119263,29570000.0
1986-07-10,,,,,,
1986-08-01,0.0,4.740740776062012,4.259259223937988,4.518518447875977,0.5933185815811157,21616600.0
1986-09-01,0.0,4.648148059844971,3.777777671813965,4.0,0.5252329707145691,18811300.0
1986-10-01,0.0,4.481481552124023,3.907407522201538,4.4259257316589355,0.5811605453491211,13910800.0
1986-10-09,,,,,,
1986-11-01,0.0,4.44444465637207,4.111111164093018,4.185184955596924,0.5630903244018555,12212200.0
1986-12-01,0.0,4.333333492279053,3.777777671813965,3.8518519401550293,0.5182427167892456,15883600.0
1987-01-01,0.0,4.537036895751953,3.814814805984497,4.111111164093018,0.5531244277954102,20447200.0
1987-01-08,,,,,,
1987-02-01,0.0,4.888888835906982,3.944444417953491,4.851851940155029,0.6788041591644287,26283600.0
1987-03-01,0.0,4.888888835906982,4.333333492279053,4.388888835906982,0.6140326261520386,22784200.0
1987-04-01,0.0,4.55555534362793,3.944444417953491,4.111111164093018,0.5751696825027466,20246900.0
1987-04-06,,,,,,
1987-05-01,0.0,4.148148059844971,3.5185184478759766,3.9259259700775146,0.5710564851760864,17031400.0
1987-06-01,0.0,4.203703880310059,3.870370388031006,4.203703880310059,0.6114614009857178,18138000.0
1987-07-01,0.0,4.537036895751953,4.092592716217041,4.481481552124023,0.6518660187721252,31645700.0
1987-07-09,,,,,,
1987-08-01,0.0,5.44444465637207,4.259259223937988,4.870370388031006,0.7378392815589905,28670300.0
1987-09-01,0.0,4.907407283782959,4.351851940155029,4.537036895751953,0.6873416304588318,12964000.0
1987-10-01,0.0,4.962963104248047,3.629629611968994,4.185184955596924,0.6340368986129761,29544700.0
1987-10-08,,,,,,
1987-11-01,0.0,4.203703880310059,3.4259259700775146,3.4629628658294678,0.5446470975875854,14271800.0
1987-12-01,0.0,3.7592592239379883,3.222222328186035,3.629629611968994,0.5708597898483276,15822500.0
1988-01-01,3.6481480598449707,4.222222328186035,3.5185184478759766,4.148148059844971,0.6524114608764648,9522500.0
1988-01-07,,,,,,
1988-02-01,4.185184955596924,4.4259257316589355,4.111111164093018,4.407407283782959,0.7247219085693359,7795100.0
1988-03-01,4.407407283782959,4.592592716217041,4.314815044403076,4.314815044403076,0.7094966769218445,7969300.0
1988-04-01,4.296296119689941,4.629629611968994,4.277777671813965,4.481481552124023,0.7369022369384766,6007900.0
1988-04-04,,,,,,
1988-05-01,4.44444465637207,4.611111164093018,4.351851940155029,4.537036895751953,0.7760368585586548,8200300.0
1988-06-01,4.55555534362793,4.94444465637207,4.55555534362793,4.870370388031006,0.8330519795417786,10531100.0
1988-07-01,4.833333492279053,4.962963104248047,4.5740742683410645,4.592592716217041,0.7855393886566162,6710300.0
1988-07-11,,,,,,
1988-08-01,4.592592716217041,4.907407283782959,4.592592716217041,4.703703880310059,0.8397311568260193,6494300.0
1988-09-01,4.666666507720947,4.777777671813965,4.629629611968994,4.685184955596924,0.8364249467849731,5222000.0
1988-10-01,4.666666507720947,4.740740776062012,4.537036895751953,4.629629611968994,0.8265068531036377,6674900.0
1988-10-07,,,,,,
1988-11-01,4.592592716217041,4.666666507720947,4.351851940155029,4.55555534362793,0.849736750125885,6969400.0
1988-12-01,4.537036895751953,4.5740742683410645,4.481481552124023,4.518518447875977,0.8428286910057068,4302800.0
1989-01-01,4.518518447875977,4.796296119689941,4.44444465637207,4.777777671813965,0.8911870121955872,5537800.0
1989-01-05,,,,,,
1989-02-01,4.777777671813965,4.851851940155029,4.666666507720947,4.703703880310059,0.9180457592010498,6572200.0
1989-03-01,4.703703880310059,4.981481552124023,4.685184955596924,4.888888835906982,0.9541899561882019,5867400.0
1989-04-01,4.888888835906982,5.333333492279053,4.833333492279053,5.333333492279053,1.0409340858459473,14376600.0
1989-04-05,,,,,,
1989-05-01,5.333333492279053,5.870370388031006,5.259259223937988,5.833333492279053,1.1867533922195435,15337800.0
1989-06-01,5.796296119689941,6.111111164093018,5.629629611968994,5.777777671813965,1.1754509210586548,7934300.0
1989-07-01,5.777777671813965,6.981481552124023,5.611111164093018,6.962963104248047,1.416569471359253,8391000.0
1989-07-05,,,,,,
1989-08-01,7.0,7.259259223937988,6.44444465637207,6.592592716217041,1.3896822929382324,9141700.0
1989-09-01,6.5740742683410645,7.0,6.44444465637207,6.9259257316589355,1.4599477052688599,7246700.0
1989-10-01,6.962963104248047,7.518518447875977,6.611111164093018,7.037036895751953,1.4833688735961914,12506000.0
1989-10-04,,,,,,
1989-11-01,7.05555534362793,7.962963104248047,6.814815044403076,7.888888835906982,1.7176495790481567,10476000.0
1989-12-01,7.9259257316589355,8.703703880310059,7.592592716217041,8.259259223937988,1.7982910871505737,9467400.0
1990-01-01,8.296296119689941,8.5,6.962963104248047,7.370370388031006,1.6047528982162476,8905800.0
1990-01-04,,,,,,
1990-02-01,7.351851940155029,7.351851940155029,6.666666507720947,7.203703880310059,1.6133919954299927,9657500.0
1990-03-01,7.185184955596924,7.55555534362793,6.5740742683410645,6.703703880310059,1.5014076232910156,13897400.0
1990-04-01,6.777777671813965,6.981481552124023,6.333333492279053,6.462963104248047,1.4474908113479614,11506500.0
1990-04-04,,,,,,
1990-05-01,6.5,7.0740742683410645,6.4259257316589355,7.05555534362793,1.6369397640228271,14147000.0
1990-06-01,7.0740742683410645,7.222222328186035,6.666666507720947,7.0740742683410645,1.6412359476089478,9865500.0
1990-07-01,7.092592716217041,7.518518447875977,6.833333492279053,7.518518447875977,1.7443498373031616,6554200.0
1990-07-03,,,,,,
1990-08-01,7.5,7.592592716217041,6.277777671813965,6.740740776062012,1.617162823677063,10041100.0
1990-09-01,6.703703880310059,6.777777671813965,5.9259257316589355,6.0740742683410645,1.4572235345840454,7005600.0
1990-10-01,6.0740742683410645,6.4259257316589355,5.629629611968994,6.240740776062012,1.4972079992294312,10428100.0
1990-10-03,,,,,,
1990-11-01,6.259259223937988,7.370370388031006,6.240740776062012,6.9259257316589355,1.7256121635437012,9911500.0
1990-12-01,6.962963104248047,7.259259223937988,6.907407283782959,7.240740776062012,1.8040494918823242,6978700.0
1991-01-01,7.203703880310059,7.611111164093018,6.870370388031006,7.611111164093018,1.896328091621399,11358500.0
1991-01-04,,,,,,
1991-02-01,7.629629611968994,8.259259223937988,7.333333492279053,8.222222328186035,2.1174285411834717,13430700.0
1991-03-01,8.222222328186035,8.425926208496094,7.777777671813965,8.38888931274414,2.1603498458862305,9906600.0
1991-04-01,8.351851463317871,8.666666984558105,7.907407283782959,7.9259257316589355,2.0411248207092285,9061500.0
1991-04-04,,,,,,
1991-05-01,7.907407283782959,8.092592239379883,7.370370388031006,8.074073791503906,2.138035297393799,9181800.0
1991-06-01,8.037036895751953,8.222222328186035,7.092592716217041,7.148148059844971,1.8928471803665161,8509900.0
1991-07-01,7.148148059844971,7.481481552124023,6.888888835906982,7.44444465637207,1.9713079929351807,8809800.0
1991-07-03,,,,,,
1991-08-01,7.44444465637207,7.592592716217041,7.0740742683410645,7.44444465637207,2.0477378368377686,8009300.0
1991-09-01,7.462963104248047,7.740740776062012,7.277777671813965,7.388888835906982,2.032456159591675,7153500.0
1991-10-01,7.407407283782959,7.9259257316589355,7.296296119689941,7.851851940155029,2.159803867340088,6142500.0
1991-10-03,,,,,,
1991-11-01,7.851851940155029,8.203703880310059,7.55555534362793,7.777777671813965,2.217541217803955,8010900.0
1991-12-01,7.740740776062012,8.777777671813965,7.648148059844971,8.574073791503906,2.4445745944976807,6503000.0
1992-01-01,8.5,9.11111068725586,8.370369911193848,8.61111068725586,2.4551358222961426,10378600.0
1992-01-06,,,,,,
1992-02-01,8.629630088806152,8.722222328186035,8.074073791503906,8.55555534362793,2.517812728881836,8276900.0
1992-03-01,8.574073791503906,8.907407760620117,8.370369911193848,8.44444465637207,2.4851138591766357,7376800.0
1992-04-01,8.462963104248047,9.037036895751953,8.0,8.425926208496094,2.4796645641326904,18719400.0
1992-04-06,,,,,,
1992-05-01,8.425926208496094,8.870369911193848,8.222222328186035,8.518518447875977,2.5905966758728027,6158500.0
1992-06-01,8.481481552124023,10.05555534362793,8.38888931274414,10.05555534362793,3.058030843734741,16380900.0
1992-07-01,10.037036895751953,10.685185432434082,9.648148536682129,10.648148536682129,3.2382452487945557,13352500.0
1992-07-06,,,,,,
1992-08-01,10.648148536682129,11.222222328186035,10.30555534362793,10.416666984558105,3.256713628768921,10641000.0
1992-08-20,,,,,,
1992-09-01,10.44444465637207,11.86111068725586,10.38888931274414,11.13888931274414,3.482510566711426,9213200.0
1992-10-01,11.222222328186035,12.0,10.972222328186035,11.416666984558105,3.5693562030792236,7219700.0
1992-10-09,,,,,,
1992-11-01,11.5,12.11111068725586,11.13888931274414,11.44444465637207,3.6640913486480713,8556200.0
1992-12-01,11.527777671813965,12.972222328186035,11.30555534362793,12.69444465637207,4.064291954040527,10010100.0
1993-01-01,12.61111068725586,13.777777671813965,12.333333015441895,13.472222328186035,4.313309192657471,6741800.0
1993-01-04,,,,,,
1993-02-01,13.416666984558105,14.38888931274414,12.38888931274414,13.38888931274414,4.3786540031433105,11582100.0
1993-03-01,13.38888931274414,13.833333015441895,13.11111068725586,13.30555534362793,4.351400852203369,8231800.0
1993-04-01,13.333333015441895,13.75,11.666666984558105,12.13888931274414,3.969858407974243,12294800.0
1993-04-02,,,,,,
1993-05-01,12.11111068725586,12.5,11.083333015441895,11.777777671813965,3.9317708015441895,13360400.0
1993-06-01,11.777777671813965,12.38888931274414,11.44444465637207,11.80555534362793,3.9410433769226074,11255200.0
1993-07-01,11.75,12.75,11.472222328186035,12.63888931274414,4.219233989715576,7307600.0
1993-07-02,,,,,,
1993-08-01,12.63888931274414,13.083333015441895,12.61111068725586,12.833333015441895,4.383684158325195,5887600.0
1993-09-01,12.80555534362793,13.277777671813965,12.44444465637207,12.55555534362793,4.288798809051514,6936200.0
1993-10-01,12.55555534362793,12.583333015441895,10.0,10.30555534362793,3.520230531692505,18115200.0
1993-10-04,,,,,,
1993-11-01,10.30555534362793,10.333333015441895,9.13888931274414,9.777777671813965,3.4173591136932373,13597900.0
1993-12-01,9.75,10.19444465637207,9.55555534362793,10.0,3.4950242042541504,12281400.0
1994-01-01,9.916666984558105,10.722222328186035,9.916666984558105,10.583333015441895,3.698901653289795,12649500.0
1994-01-03,,,,,,
1994-02-01,10.583333015441895,11.0,9.44444465637207,9.55555534362793,3.4358975887298584,13849100.0
1994-03-01,9.55555534362793,9.722222328186035,8.777777671813965,8.94444465637207,3.2161567211151123,11782000.0
1994-04-01,8.80555534362793,8.972222328186035,8.222222328186035,8.30555534362793,2.986433267593384,14873200.0
1994-04-04,,,,,,
1994-05-01,8.30555534362793,9.38888931274414,8.166666984558105,9.30555534362793,3.4541327953338623,10629700.0
1994-06-01,9.277777671813965,9.5,8.527777671813965,8.666666984558105,3.2169835567474365,10035400.0
1994-07-01,8.69444465637207,8.75,8.44444465637207,8.63888931274414,3.2066733837127686,11385500.0
1994-07-01,,,,,,
1994-08-01,8.63888931274414,9.61111068725586,8.63888931274414,9.472222328186035,3.6333837509155273,8646700.0
1994-09-01,9.416666984558105,9.80555534362793,9.0,9.75,3.739936113357544,14420300.0
1994-10-01,9.666666984558105,9.88888931274414,8.166666984558105,8.19444465637207,3.1432504653930664,13208400.0
1994-10-03,,,,,,
1994-11-01,8.166666984558105,8.416666984558105,7.19444465637207,7.361111164093018,2.9070851802825928,16444700.0
1994-12-01,7.361111164093018,7.972222328186035,7.333333492279053,7.75,3.0606658458709717,13624400.0
1994-12-30,,,,,,
1995-01-01,7.69444465637207,8.75,7.611111164093018,8.666666984558105,3.5504977703094482,12126100.0
1995-02-01,8.722222328186035,9.5,8.69444465637207,9.30555534362793,3.81223201751709,13820000.0
1995-03-01,9.333333015441895,9.38888931274414,8.916666984558105,9.222222328186035,3.778093099594116,10549100.0
1995-04-01,9.13888931274414,9.333333015441895,8.5,8.666666984558105,3.5504977703094482,9462300.0
1995-04-03,,,,,,
1995-05-01,8.69444465637207,9.05555534362793,8.44444465637207,8.86111068725586,3.743823766708374,10575600.0
1995-06-01,8.86111068725586,8.972222328186035,8.30555534362793,8.38888931274414,3.5443108081817627,13914100.0
1995-07-01,8.333333015441895,8.722222328186035,8.166666984558105,8.55555534362793,3.6147255897521973,10291500.0
1995-07-05,,,,,,
1995-08-01,8.583333015441895,9.083333015441895,8.5,8.88888931274414,3.8852381706237793,10272100.0
1995-09-01,8.88888931274414,9.38888931274414,8.88888931274414,9.36111068725586,4.091644287109375,10455000.0
1995-10-01,9.36111068725586,9.94444465637207,9.19444465637207,9.222222328186035,4.030935287475586,13743700.0
1995-10-04,,,,,,
1995-11-01,9.19444465637207,9.5,9.083333015441895,9.44444465637207,4.258049488067627,14678500.0
1995-12-01,9.5,10.05555534362793,9.416666984558105,10.05555534362793,4.533570766448975,10173600.0
1995-12-29,,,,,,
1996-01-01,10.0,10.527777671813965,9.44444465637207,10.472222328186035,4.863656520843506,15806500.0
1996-01-03,,,,,,
1996-02-01,10.777777671813965,11.083333015441895,10.25,10.30555534362793,4.929197788238525,9223200.0
1996-03-01,10.36111068725586,10.666666984558105,9.777777671813965,10.0,4.783046722412109,13807700.0
1996-04-01,9.972222328186035,10.05555534362793,9.13888931274414,9.55555534362793,4.570468425750732,13096600.0
1996-04-02,,,,,,
1996-05-01,9.527777671813965,9.75,9.11111068725586,9.472222328186035,4.665153503417969,8499100.0
1996-06-01,9.5,9.722222328186035,9.19444465637207,9.722222328186035,4.788278102874756,8397900.0
1996-07-01,9.75,9.75,8.94444465637207,9.472222328186035,4.665153503417969,10136600.0
1996-07-02,,,,,,
1996-08-01,9.5,9.75,9.38888931274414,9.44444465637207,4.794482231140137,13404000.0
1996-09-01,9.38888931274414,10.277777671813965,9.222222328186035,10.19444465637207,5.175223350524902,9085600.0
1996-10-01,10.166666984558105,10.80555534362793,10.11111068725586,10.75,5.457252025604248,12319000.0
1996-10-02,,,,,,
1996-11-01,10.722222328186035,11.583333015441895,10.61111068725586,11.55555534362793,6.037952423095703,12131000.0
1996-12-01,11.55555534362793,11.55555534362793,10.916666984558105,11.222222328186035,5.863780975341797,15383700.0
1996-12-31,,,,,,
1997-01-01,11.277777671813965,11.86111068725586,11.11111068725586,11.5,6.165539264678955,13277400.0
1997-02-01,11.61111068725586,13.19444465637207,11.527777671813965,13.083333015441895,7.014416217803955,20885000.0
1997-03-01,13.027777671813965,13.75,12.277777671813965,12.30555534362793,6.597423076629639,16907200.0
1997-04-01,12.19444465637207,13.88888931274414,11.666666984558105,13.86111068725586,7.4314093589782715,22436400.0
1997-04-02,,,,,,
1997-05-01,13.833333015441895,14.722222328186035,13.61111068725586,14.63888931274414,8.038267135620117,14806300.0
1997-06-01,14.61111068725586,16.31944465637207,14.583333015441895,15.833333015441895,8.694133758544922,18364900.0
1997-06-27,,,,,,
1997-07-01,15.777777671813965,17.77777862548828,15.69444465637207,17.69444465637207,9.896875381469727,19130100.0
1997-08-01,17.68055534362793,17.70833396911621,15.472222328186035,16.83333396911621,9.415237426757812,13101300.0
1997-08-04,,,,,,
1997-09-01,16.72222137451172,18.5,16.69444465637207,17.44444465637207,9.757044792175293,17050000.0
1997-10-01,17.55555534362793,18.55555534362793,15.63888931274414,17.83333396911621,9.974560737609863,14574000.0
1997-10-01,,,,,,
1997-11-01,17.72222137451172,18.41666603088379,17.38888931274414,18.22222137451172,10.28046989440918,10620500.0
1997-12-01,18.33333396911621,19.02777862548828,17.27777862548828,18.75,10.578231811523438,11042000.0
1997-12-30,,,,,,
1998-01-01,18.77777862548828,19.66666603088379,17.0,18.55555534362793,10.555548667907715,10535000.0
1998-02-01,18.63888931274414,21.0,18.0,20.77777862548828,11.819690704345703,20336400.0
1998-03-01,20.61111068725586,21.25,19.88888931274414,20.36111068725586,11.582661628723145,16280000.0
1998-04-01,20.36111068725586,22.13888931274414,19.52777862548828,19.80555534362793,11.266626358032227,22581500.0
1998-04-07,,,,,,
1998-05-01,19.88888931274414,20.69444465637207,18.47222137451172,19.05555534362793,10.91565227508545,15302300.0
1998-06-01,18.83333396911621,20.55555534362793,17.80555534362793,20.33333396911621,11.647605895996094,21433500.0
1998-07-01,20.27777862548828,20.97222137451172,19.16666603088379,19.55555534362793,11.202065467834473,13736300.0
1998-07-08,,,,,,
1998-08-01,19.38888931274414,19.63888931274414,15.88888931274414,15.88888931274414,9.169692993164062,16867100.0
1998-09-01,15.777777671813965,17.16666603088379,15.722222328186035,15.972222328186035,9.217791557312012,15328600.0
1998-10-01,15.722222328186035,19.5,14.13888931274414,19.44444465637207,11.221654891967773,13477100.0
1998-10-21,,,,,,
1998-11-01,19.44444465637207,20.22222137451172,15.833333015441895,16.88888931274414,9.81684398651123,13564400.0
1998-11-09,,,,,,
1998-12-01,16.77777862548828,17.30555534362793,14.666666984558105,15.69444465637207,10.627206802368164,18127800.0
1999-01-01,15.666666984558105,16.27777862548828,14.277777671813965,14.583333015441895,9.874835968017578,17080800.0
1999-01-06,,,,,,
1999-02-01,14.472222328186035,15.55555534362793,13.63888931274414,14.722222328186035,10.025473594665527,18117500.0
1999-03-01,14.94444465637207,15.44444465637207,13.666666984558105,14.05555534362793,9.571484565734863,17574300.0
1999-04-01,14.027777671813965,16.08333396911621,13.666666984558105,15.19444465637207,10.347041130065918,17392300.0
1999-04-07,,,,,,
1999-05-01,15.30555534362793,16.88888931274414,14.55555534362793,14.833333015441895,10.166492462158203,20465300.0
1999-06-01,14.722222328186035,15.527777671813965,14.38888931274414,15.166666984558105,10.394949913024902,13255600.0
1999-07-01,15.25,16.41666603088379,14.55555534362793,14.61111068725586,10.014183044433594,14869600.0
1999-07-07,,,,,,
1999-08-01,14.722222328186035,15.11111068725586,12.666666984558105,12.666666984558105,8.73256778717041,12286300.0
1999-09-01,12.722222328186035,13.722222328186035,10.916666984558105,11.5,7.928251266479492,14642800.0
1999-10-01,11.5,14.11111068725586,11.333333015441895,13.86111068725586,9.556034088134766,19135600.0
1999-10-06,,,,,,
1999-11-01,13.833333015441895,16.0,13.833333015441895,14.11111068725586,9.803836822509766,19968000.0
1999-12-01,14.0,14.61111068725586,11.80555534362793,12.916666984558105,8.973987579345703,16976800.0
2000-01-01,12.80555534362793,12.86111068725586,10.05555534362793,11.19444465637207,7.777451992034912,19685100.0
2000-01-05,,,,,,
2000-02-01,11.11111068725586,11.11111068725586,8.55555534362793,8.80555534362793,6.162719249725342,23580200.0
2000-03-01,8.777777671813965,10.86111068725586,8.333333015441895,10.277777671813965,7.193080425262451,24781600.0
2000-04-01,10.38888931274414,11.63888931274414,9.61111068725586,11.13888931274414,7.795742988586426,21337900.0
2000-04-05,,,,,,
2000-05-01,11.833333015441895,12.333333015441895,10.222222328186035,12.083333015441895,8.530830383300781,18614000.0
2000-06-01,12.222222328186035,12.777777671813965,10.666666984558105,10.972222328186035,7.7463860511779785,17265600.0
2000-07-01,11.05555534362793,11.916666984558105,10.69444465637207,11.05555534362793,7.805217742919922,16706300.0
2000-07-05,,,,,,
2000-08-01,11.166666984558105,12.94444465637207,10.94444465637207,12.479166984558105,8.88064193725586,18024600.0
2000-09-01,12.36111068725586,13.13888931274414,11.916666984558105,12.36111068725586,8.796626091003418,12554400.0
2000-10-01,12.472222328186035,15.333333015441895,12.027777671813965,14.80555534362793,10.536187171936035,17334300.0
2000-10-06,,,,,,
2000-11-01,14.88888931274414,17.22222137451172,14.416666984558105,16.88888931274414,12.103645324707031,25938300.0
2000-12-01,16.77777862548828,18.30555534362793,16.27777862548828,17.08333396911621,12.242995262145996,20145900.0
2001-01-01,16.88888931274414,17.05555534362793,14.472222328186035,15.417778015136719,11.049359321594238,19084900.0
2001-01-05,,,,,,
2001-02-01,15.528888702392578,16.22222137451172,14.822221755981445,15.457777976989746,11.142602920532227,24140400.0
2001-03-01,15.600000381469727,17.373332977294922,15.484444618225098,17.25777816772461,12.440114974975586,28009600.0
2001-04-01,17.266666412353516,17.77777862548828,15.831110954284668,16.84000015258789,12.138965606689453,27731000.0
2001-04-04,,,,,,
2001-05-01,16.933332443237305,17.0222225189209,16.08888816833496,16.85333251953125,12.214303016662598,20763300.0
2001-06-01,16.933332443237305,17.9777774810791,16.724445343017578,17.871110916137695,12.951935768127441,16221400.0
2001-07-01,17.955554962158203,18.58222198486328,17.471111297607422,18.448888778686523,13.37067699432373,15166800.0
2001-07-03,,,,,,
2001-08-01,18.46666717529297,19.22222137451172,18.06222152709961,18.773332595825195,13.673874855041504,23259000.0
2001-09-01,18.817777633666992,18.85333251953125,15.0,17.33333396911621,12.625028610229492,17716200.0
2001-10-01,17.35555648803711,18.0,16.33333396911621,16.45777702331543,11.987300872802734,19887400.0
2001-10-03,,,,,,
2001-11-01,16.35555648803711,17.866666793823242,16.22222137451172,17.53333282470703,12.836729049682617,14283700.0
2001-12-01,17.53333282470703,17.608888626098633,16.422222137451172,17.479999542236328,12.797677040100098,18781600.0
2002-01-01,17.48444366455078,17.48444366455078,16.213333129882812,16.884445190429688,12.361655235290527,16040800.0
2002-01-08,,,,,,
2002-02-01,16.871110916137695,18.177778244018555,16.22222137451172,17.86222267150879,13.14681339263916,14744200.0
2002-03-01,17.866666793823242,18.74222183227539,17.511110305786133,17.906665802001953,13.179523468017578,15062400.0
2002-04-01,17.795555114746094,18.591110229492188,17.46666717529297,18.1733341217041,13.37579345703125,16190900.0
2002-04-03,,,,,,
2002-05-01,18.200000762939453,18.41777801513672,17.622222900390625,17.93777847290039,13.269549369812012,15257000.0
2002-06-01,17.844444274902344,18.133333206176758,16.311111450195312,16.9777774810791,12.559383392333984,19165200.0
2002-07-01,16.88888931274414,16.9777774810791,13.342222213745117,16.106666564941406,11.914979934692383,23074900.0
2002-07-02,,,,,,
2002-08-01,16.0222225189209,16.87555503845215,14.95555591583252,16.600000381469727,12.34662914276123,13503100.0
2002-09-01,16.488889694213867,16.53333282470703,14.866666793823242,15.226666450500488,11.325177192687988,15589700.0
2002-10-01,15.337778091430664,16.49333381652832,14.288888931274414,15.911110877990723,11.83425235748291,25920600.0
2002-10-02,,,,,,
2002-11-01,15.902222633361816,17.0222225189209,15.640000343322754,16.50666618347168,12.346329689025879,12017400.0
2002-12-01,16.511110305786133,16.9022216796875,16.013334274291992,16.23555564880371,12.143549919128418,13778900.0
2003-01-01,16.35555648803711,17.311111450195312,15.333333015441895,15.95555591583252,11.934124946594238,13325300.0
2003-01-06,,,,,,
2003-02-01,16.066667556762695,16.351110458374023,15.128889083862305,16.13777732849121,12.136080741882324,17483800.0
2003-03-01,16.231111526489258,16.675556182861328,14.666666984558105,15.911110877990723,11.965608596801758,18611300.0
2003-04-01,16.0222225189209,17.408889770507812,15.871110916137695,17.22222137451172,12.951606750488281,14931500.0
2003-04-01,,,,,,
2003-05-01,17.191110610961914,17.586666107177734,16.488889694213867,17.164443969726562,12.981587409973145,20327800.0
2003-06-01,17.288888931274414,17.586666107177734,16.29777717590332,16.55555534362793,12.521081924438477,18829900.0
2003-07-01,16.38222312927246,18.31999969482422,16.342222213745117,18.06222152709961,13.6605806350708,21392800.0
2003-07-01,,,,,,
2003-08-01,17.97333335876465,18.328887939453125,17.662221908569336,17.93777847290039,13.640619277954102,18883500.0
2003-09-01,18.22222137451172,18.77777862548828,18.0,18.06222152709961,13.735249519348145,18455700.0
2003-10-01,17.986665725708008,19.55555534362793,17.986665725708008,19.502222061157227,14.830281257629395,17432400.0
2003-10-01,,,,,,
2003-11-01,19.50666618347168,19.77777862548828,19.204444885253906,19.600000381469727,14.995963096618652,13041300.0
2003-12-01,19.675556182861328,20.33333396911621,19.595556259155273,20.239999771118164,15.485620498657227,11777100.0
2004-01-01,20.288888931274414,21.084444046020508,19.8266658782959,21.084444046020508,16.131715774536133,12820900.0
2004-01-05,,,,,,
2004-02-01,21.084444046020508,23.288888931274414,21.0222225189209,23.164443969726562,17.81992530822754,15955900.0
2004-03-01,23.33333396911621,23.92888832092285,22.755556106567383,23.906665802001953,18.39090347290039,17561200.0
2004-03-31,,,,,,
2004-04-01,23.906665802001953,24.475555419921875,22.524444580078125,23.128889083862305,17.875003814697266,19844300.0
2004-05-01,23.128889083862305,24.15999984741211,21.87555503845215,24.084444046020508,18.61349868774414,24715300.0
2004-06-01,24.08888816833496,24.53333282470703,23.33333396911621,23.91111183166504,18.47953987121582,17691000.0
2004-06-30,,,,,,
2004-07-01,24.066667556762695,24.164443969726562,22.38222312927246,23.23555564880371,18.04075813293457,22190700.0
2004-08-01,23.239999771118164,23.46666717529297,22.377777099609375,22.8799991607666,17.764698028564453,19199000.0
2004-09-01,22.822221755981445,23.71555519104004,22.671112060546875,23.635555267333984,18.35133171081543,15980200.0
2004-10-01,23.897777557373047,24.35555648803711,0.6294400095939636,0.6505600214004517,0.5051136612892151,617724142.0
2004-10-04,,,,,,
2004-11-01,24.066667556762695,25.11111068725586,0.6336600184440613,24.404443740844727,19.034820556640625,20378522.0
2004-12-01,24.448888778686523,25.586666107177734,0.5745199918746948,25.39555549621582,19.80786895751953,12483559.0
2005-01-01,25.391111373901367,25.55555534362793,0.5745199918746948,0.692799985408783,0.5403659343719482,70995779.0
2005-01-03,,,,,,
2005-02-01,24.35555648803711,24.804445266723633,0.7012500166893005,23.15999984741211,18.142772674560547,23969372.0
2005-03-01,23.266666412353516,23.942222595214844,0.6125400066375732,23.200000762939453,18.174118041992188,22674124.0
2005-03-30,,,,,,
2005-04-01,23.266666412353516,23.760000228881836,22.244443893432617,23.746665954589844,18.69264030456543,26739700.0
2005-05-01,23.822221755981445,24.51555633544922,0.5914199948310852,0.5914199948310852,0.4655473828315735,35286574.0
2005-06-01,23.413333892822266,24.262222290039062,22.808889389038086,23.200000762939453,18.2623233795166,29053900.0
2005-07-01,23.22222137451172,23.74222183227539,0.4562399983406067,0.4562399983406067,0.3591381013393402,28224395.0
2005-07-01,,,,,,
2005-08-01,23.239999771118164,23.724445343017578,22.577777862548828,23.440000534057617,18.539140701293945,27379000.0
2005-09-01,23.386667251586914,23.706666946411133,0.6336600184440613,23.479999542236328,18.570781707763672,23101266.0
2005-10-01,23.253334045410156,23.959999084472656,22.91111183166504,23.479999542236328,18.570781707763672,18539500.0
2005-10-03,,,,,,
2005-11-01,23.479999542236328,24.497777938842773,0.6378800272941589,24.053333282470703,19.113779067993164,20753399.0
2005-12-01,24.164443969726562,24.893333435058594,0.6885799765586853,24.711111068725586,19.636489868164062,17090436.0
2006-01-01,24.711111068725586,25.164443969726562,0.6885799765586853,24.933332443237305,19.813064575195312,19453868.0
2006-01-03,,,,,,
2006-02-01,24.91111183166504,24.986665725708008,0.692799985408783,24.29777717590332,19.394359588623047,20726554.0
2006-03-01,24.35555648803711,25.946666717529297,24.15999984741211,25.377777099609375,20.25641632080078,24255600.0
2006-04-01,25.488889694213867,26.799999237060547,24.799999237060547,26.71555519104004,21.324222564697266,19817900.0
2006-04-05,,,,,,
2006-05-01,26.733333587646484,27.151111602783203,0.6758999824523926,0.8279799818992615,0.6637600064277649,74542346.0
2006-06-01,26.182222366333008,26.986665725708008,25.30666732788086,26.986665725708008,21.63418197631836,25401400.0
2006-07-01,27.311111450195312,27.831111907958984,0.7772899866104126,26.87555503845215,21.54511070251465,26263714.0
2006-07-05,,,,,,
2006-08-01,26.87555503845215,27.711111068725586,26.546667098999023,27.648889541625977,22.27119255065918,17748800.0
2006-09-01,27.69333267211914,28.275554656982422,0.7181500196456909,28.04888916015625,22.59339141845703,14837070.0
2006-10-01,28.0222225189209,28.671112060546875,27.404443740844727,27.413333892822266,22.081449508666992,15135800.0
2006-10-04,,,,,,
2006-11-01,27.479999542236328,28.479999542236328,0.8871200084686279,28.0977783203125,22.737703323364258,9386048.0
2006-12-01,28.177778244018555,28.706666946411133,0.8448799848556519,28.337778091430664,22.931922912597656,11617138.0
2007-01-01,28.33333396911621,29.106666564941406,0.8448799848556519,28.884445190429688,23.37430763244629,14465812.0
2007-01-03,,,,,,
2007-02-01,28.857778549194336,29.719999313354492,0.9124699831008911,28.408889770507812,23.095422744750977,17031425.0
2007-03-01,28.408889770507812,29.288888931274414,27.786666870117188,29.151111602783203,23.698823928833008,20312800.0
2007-04-01,29.155555725097656,30.755556106567383,28.502222061157227,30.35555648803711,24.677989959716797,20046800.0
2007-04-03,,,,,,
2007-05-01,30.46666717529297,31.351110458374023,0.6758999824523926,0.7603899836540222,0.6209487915039062,17986652.0
2007-06-01,31.226667404174805,31.275554656982422,29.488889694213867,29.77777862548828,24.31709098815918,18755900.0
2007-07-01,29.897777557373047,30.364444732666016,0.7181500196456909,27.351110458374023,22.335420608520508,26531700.0
2007-07-03,,,,,,
2007-08-01,27.34666633605957,28.337778091430664,26.0,27.360000610351562,22.439449310302734,31809400.0
2007-09-01,0.9462699890136719,27.87555503845215,0.7646200060844421,27.697778701782227,22.71647834777832,19742600.0
2007-10-01,27.804445266723633,29.084444046020508,27.688888549804688,28.959999084472656,23.75169563293457,21980700.0
2007-10-03,,,,,,
2007-11-01,28.915555953979492,29.11111068725586,1.0138599872589111,27.413333892822266,22.58766746520996,30603400.0
2007-12-01,27.213333129882812,28.1733341217041,26.46666717529297,26.9022216796875,22.166522979736328,21621500.0
2008-01-01,26.808889389038086,27.733333587646484,1.030750036239624,27.102222442626953,22.331323623657227,38231700.0
2008-01-02,,,,,,
2008-02-01,27.0755558013916,28.364444732666016,1.140589952468872,26.782222747802734,22.1748104095459,27393831.0
2008-03-01,26.817777633666992,27.600000381469727,1.3518099784851074,26.71555519104004,22.119611740112305,37329000.0
2008-04-01,27.0,29.288888931274414,26.92888832092285,28.773332595825195,23.823379516601562,33169000.0
2008-04-02,,,,,,
2008-05-01,28.755556106567383,29.33333396911621,1.1067899465560913,1.4447400569915771,1.2021695375442505,30096807.0
2008-06-01,28.0222225189209,28.106666564941406,26.044445037841797,26.066667556762695,21.690095901489258,34063200.0
2008-07-01,26.0,27.164443969726562,1.5376800298690796,1.5714800357818604,1.307630181312561,50202584.0
2008-07-02,,,,,,
2008-08-01,25.97333335876465,27.017778396606445,25.28444480895996,26.551111221313477,22.211009979248047,33815000.0
2008-09-01,1.655959963798523,28.848888397216797,1.655959963798523,26.577777862548828,22.233314514160156,43038400.0
2008-10-01,26.688888549804688,26.69333267211914,14.102222442626953,18.564443588256836,15.529860496520996,88995800.0
2008-10-01,,,,,,
2008-11-01,18.475555419921875,20.799999237060547,1.258870005607605,16.066667556762695,13.511551856994629,54804900.0
2008-12-01,15.822221755981445,20.106666564941406,1.8756300210952759,19.866666793823242,16.70722007751465,51244951.0
2008-12-30,,,,,,
2009-01-01,2.407910108566284,20.848888397216797,1.757349967956543,13.333333015441895,11.298540115356445,80632300.0
2009-02-01,13.146666526794434,14.35111141204834,1.8840800523757935,9.155555725097656,7.758331298828125,119419554.0
2009-03-01,8.520000457763672,13.204444885253906,7.182222366333008,11.657777786254883,9.878687858581543,134455700.0
2009-04-01,11.422222137451172,14.626667022705078,1.900979995727539,13.035555839538574,11.046204566955566,103166357.0
2009-04-01,,,,,,
2009-05-01,13.026666641235352,17.848888397216797,1.9432200193405151,17.848888397216797,15.308822631835938,92128600.0
2009-06-01,18.0,18.324443817138672,15.51111125946045,16.462223052978516,14.119494438171387,61226500.0
2009-07-01,16.35555648803711,19.342222213745117,1.9432200193405151,17.360000610351562,14.889509201049805,54999900.0
2009-07-01,,,,,,
2009-08-01,17.688888549804688,19.74222183227539,16.93777847290039,18.93777847290039,16.382070541381836,54541500.0
2009-09-01,18.857778549194336,21.0,2.0277099609375,19.302221298217773,16.697330474853516,40887700.0
2009-09-30,,,,,,
2009-10-01,19.204444885253906,20.9244441986084,17.782222747802734,18.044445037841797,15.721954345703125,45677100.0
2009-11-01,18.226667404174805,19.706666946411133,2.407910108566284,19.324443817138672,16.837209701538086,33389100.0
2009-12-01,19.528888702392578,20.239999771118164,2.1122000217437744,19.53333282470703,17.01921272277832,31108400.0
2010-01-01,2.1122000217437744,21.044445037841797,1.7066600322723389,19.955554962158203,17.387088775634766,22950200.0
2010-01-04,,,,,,
2010-02-01,20.12444496154785,20.884445190429688,1.9432200193405151,20.66666603088379,18.146018981933594,31059100.0
2010-03-01,20.79111099243164,24.18666648864746,1.4785399436950684,1.9432200193405151,1.7062113285064697,35389367.0
2010-03-30,,,,,,
2010-04-01,23.91111183166504,25.128889083862305,2.1122000217437744,23.795555114746094,21.026906967163086,26837820.0
2010-05-01,23.942222595214844,24.017778396606445,1.7066600322723389,2.3656599521636963,2.090411424636841,41565956.0
2010-06-01,22.671112060546875,24.079999923706055,21.45777702331543,22.004444122314453,19.444190979003906,41957900.0
2010-06-30,,,,,,
2010-07-01,22.035554885864258,24.435556411743164,1.9432200193405151,2.103749990463257,1.8713111877441406,49323846.0
2010-08-01,24.08888816833496,24.33333396911621,21.0222225189209,21.933332443237305,19.50995445251465,42769200.0
2010-09-01,22.27111053466797,24.808889389038086,2.1122000217437744,23.61777687072754,21.008289337158203,35231008.0
2010-09-29,,,,,,
2010-10-01,23.786666870117188,25.737777709960938,23.29777717590332,25.45777702331543,22.796890258789062,26730900.0
2010-11-01,25.55555534362793,26.608888626098633,2.103749990463257,25.54222297668457,22.872514724731445,28800246.0
2010-12-01,26.02666664123535,27.933332443237305,2.0952999591827393,26.551111221313477,23.77595329284668,26845874.0
2011-01-01,26.84000015258789,28.33333396911621,2.0023701190948486,2.0361599922180176,1.823337435722351,60345584.0
2011-01-04,,,,,,
2011-02-01,27.85333251953125,29.253334045410156,2.1122000217437744,29.0,26.123865127563477,27966203.0
2011-03-01,29.11111068725586,29.55555534362793,27.559999465942383,29.546667098999023,26.616313934326172,33894900.0
2011-03-30,,,,,,
2011-04-01,29.64444351196289,30.24888801574707,2.0023701190948486,29.74222183227539,26.939727783203125,30442537.0
2011-05-01,29.857778549194336,30.11111068725586,1.977020025253296,2.196690082550049,1.989704966545105,86024298.0
2011-05-27,,,,,,
2011-06-01,29.364444732666016,29.391111373901367,27.28444480895996,28.50666618347168,25.918357849121094,44205500.0
2011-07-01,28.53333282470703,29.139999389648438,2.2389299869537354,2.4712700843811035,2.24688720703125,80200058.0
2011-07-05,,,,,,
2011-08-01,27.246665954589844,27.246665954589844,21.84666633605957,25.47333335876465,23.160444259643555,58404100.0
2011-09-01,25.420000076293945,25.486665725708008,2.260050058364868,23.239999771118164,21.129880905151367,41362081.0
2011-10-01,23.133333206176758,28.133333206176758,21.96666717529297,27.286666870117188,24.80912208557129,49127700.0
2011-10-05,,,,,,
2011-11-01,26.266666412353516,28.69333267211914,1.8840800523757935,28.393333435058594,25.950040817260742,47971606.0
2011-12-01,28.266666412353516,29.34000015258789,1.9601199626922607,28.926666259765625,26.437475204467773,39146104.0
2012-01-01,2.0277099609375,30.726667404174805,2.0277099609375,30.446666717529297,27.82668113708496,34130464.0
2012-01-04,,,,,,
2012-02-01,30.733333587646484,32.926666259765625,2.078399896621704,32.2933349609375,29.636398315429688,31611980.0
2012-03-01,32.32666778564453,34.0,32.03333282470703,33.233333587646484,30.499069213867188,25148200.0
2012-04-01,33.186668395996094,33.69333267211914,2.260050058364868,32.473331451416016,29.801584243774414,27298000.0
2012-04-03,,,,,,
2012-05-01,32.48666763305664,33.14666748046875,2.1122000217437744,31.106666564941406,28.67586326599121,31344624.0
2012-06-01,30.593334197998047,33.85333251953125,30.059999465942383,33.70000076293945,31.066547393798828,25999500.0
2012-07-01,33.900001525878906,34.66666793823242,2.4712700843811035,33.16666793823242,30.574888229370117,24659763.0
2012-07-03,,,,,,
2012-08-01,33.22666549682617,34.53333282470703,32.900001525878906,34.119998931884766,31.59382438659668,23525500.0
2012-09-01,3.7385900020599365,35.43333435058594,3.69635009765625,34.233333587646484,31.698760986328125,48193259.0
2012-10-01,34.2933349609375,34.90666580200195,5.407229900360107,33.72666549682617,31.229604721069336,29190455.0
2012-10-03,,,,,,
2012-11-01,33.79999923706055,34.71333312988281,6.1676201820373535,34.65999984741211,32.23597717285156,28727360.0
2012-12-01,34.63999938964844,35.31999969482422,6.1676201820373535,34.4466667175293,32.03756332397461,19230870.0
2013-01-01,6.209869861602783,37.40666580200195,6.209869861602783,37.13999938964844,34.54253005981445,19552031.0
2013-01-02,,,,,,
2013-02-01,37.50666809082031,37.91999816894531,6.6745500564575195,37.459999084472656,34.99251937866211,18131657.0
2013-03-01,37.2066650390625,39.90666580200195,7.223720073699951,7.223720073699951,6.747896194458008,15332681.0
2013-04-01,39.88666534423828,41.52000045776367,38.459999084472656,41.380001068115234,38.65432357788086,17596200.0
2013-04-03,,,,,,
2013-05-01,40.82666778564453,43.82666778564453,11.199999809265137,43.00666809082031,40.34640884399414,20143500.0
2013-05-03,,,,,,
2013-05-15,,,,,,
2013-06-01,42.939998626708984,43.91999816894531,41.67333221435547,43.426666259765625,40.740421295166016,14465200.0
2013-07-01,43.6533317565918,47.82666778564453,8.100000381469727,47.38666534423828,44.455474853515625,14266000.0
2013-07-02,,,,,,
2013-08-01,47.83333206176758,48.72666549682617,45.7933349609375,45.926666259765625,43.253334045410156,11181900.0
2013-09-01,5.75,48.7599983215332,5.699999809265137,48.233333587646484,45.42573165893555,14646800.0
2013-10-01,47.753334045410156,50.526668548583984,46.84000015258789,48.573333740234375,45.74592971801758,15153500.0
2013-10-02,,,,,,
2013-11-01,48.54666519165039,51.253334045410156,6.0,50.66666793823242,47.88673782348633,13050400.0
2013-12-01,50.70000076293945,52.9466667175293,5.449999809265137,52.099998474121094,49.241424560546875,13464300.0
2013-12-31,,,,,,
2014-01-01,5.25,52.62666702270508,5.25,50.099998474121094,47.50590515136719,15810900.0
2014-02-01,50.06666564941406,52.060001373291016,5.550000190734863,51.67333221435547,48.997779846191406,15237900.0
2014-03-01,51.086666107177734,53.619998931884766,50.96666717529297,52.46666717529297,49.75004577636719,12786600.0
2014-04-01,52.413333892822266,53.45333480834961,5.050000190734863,53.13333511352539,50.38218307495117,14993700.0
2014-04-01,,,,,,
2014-05-01,53.073333740234375,54.6533317565918,5.300000190734863,53.95333480834961,51.34566879272461,16147800.0
2014-05-29,,,,,,
2014-06-01,54.106666564941406,55.253334045410156,53.83333206176758,54.61333465576172,52.15753936767578,10112900.0
2014-07-01,54.85333251953125,56.4900016784668,6.849999904632568,52.7400016784668,50.36843490600586,13651000.0
2014-07-02,,,,,,
2014-08-01,52.61000061035156,55.310001373291016,52.04999923706055,54.54999923706055,52.0970458984375,10574600.0
2014-09-01,6.050000190734863,54.91999816894531,6.0,52.369998931884766,50.01507568359375,11701000.0
2014-10-01,52.27000045776367,53.13999938964844,49.709999084472656,52.959999084472656,50.57854080200195,20183100.0
2014-10-01,,,,,,
2014-11-01,52.90999984741211,54.22999954223633,5.900000095367432,53.75,51.45751953125,12372400.0
2014-12-01,53.540000915527344,55.880001068115234,5.699999809265137,54.16999816894531,51.85960388183594,16810000.0
2014-12-31,,,,,,
2015-01-01,5.75,54.599998474121094,0.05000000074505806,50.06999969482422,48.045074462890625,12962200.0
2015-02-01,50.04999923706055,54.36000061035156,0.05000000074505806,53.25,51.096466064453125,13960600.0
2015-03-01,53.25,56.189998626708984,53.119998931884766,54.91999816894531,52.69892883300781,16054800.0
2015-03-31,,,,,,
2015-04-01,54.849998474121094,56.880001068115234,0.08500000089406967,56.11000061035156,53.97274398803711,12543300.0
2015-05-01,56.43000030517578,58.15999984741211,0.09000000357627869,57.06999969482422,54.89618682861328,12791300.0
2015-06-01,57.34000015258789,59.34000015258789,56.779998779296875,58.220001220703125,56.002376556396484,16499200.0
2015-06-30,,,,,,
2015-07-01,59.099998474121094,62.65999984741211,0.10000000149011612,61.61000061035156,59.401920318603516,14752100.0
2015-08-01,61.709999084472656,63.2599983215332,55.59000015258789,58.459999084472656,56.36481857299805,16246400.0
2015-09-01,57.310001373291016,58.779998779296875,0.05000000074505806,56.400001525878906,54.37864685058594,15440000.0
2015-09-30,,,,,,
2015-10-01,56.5,59.189998626708984,55.0099983215332,58.0099983215332,56.064510345458984,16307100.0
2015-11-01,58.18000030517578,61.02000045776367,0.05000000074505806,60.619998931884766,58.58696746826172,11061700.0
2015-12-01,60.97999954223633,61.41999816894531,0.05000000074505806,57.15999984741211,55.243003845214844,14615200.0
2016-01-01,0.05000000074505806,57.189998626708984,0.05000000074505806,54.34000015258789,52.51758575439453,16033500.0
2016-01-04,,,,,,
2016-02-01,53.91999816894531,54.619998931884766,0.05000000074505806,51.220001220703125,49.61941909790039,18672900.0
2016-03-01,51.619998931884766,56.40999984741211,0.05000000074505806,54.15999984741211,52.46753692626953,14235200.0
2016-03-31,,,,,,
2016-04-01,53.9900016784668,58.88999938964844,52.459999084472656,57.88999938964844,56.22461700439453,10759100.0
2016-05-01,58.18000030517578,61.709999084472656,0.029999999329447746,61.630001068115234,59.857017517089844,14099600.0
2016-06-01,61.029998779296875,62.38999938964844,57.4900016784668,61.81999969482422,60.041561126708984,14149300.0
2016-06-29,,,,,,
2016-07-01,61.619998931884766,63.099998474121094,0.029999999329447746,61.869998931884766,60.23392868041992,11921200.0
2016-08-01,62.0,64.73999786376953,60.4900016784668,64.68000030517578,62.96961975097656,11351900.0
2016-09-01,64.83999633789062,65.5999984741211,0.02500000037252903,63.88999938964844,62.20051574707031,10183300.0
2016-10-01,63.63999938964844,65.04000091552734,62.959999084472656,63.40999984741211,61.73320388793945,9851800.0
2016-10-05,,,,,,
2016-11-01,63.720001220703125,71.48999786376953,0.03999999910593033,70.08999633789062,68.3863754272461,12428300.0
2016-12-01,70.56999969482422,75.06999969482422,0.03999999910593033,73.76000213623047,71.9671859741211,10600000.0
2017-01-01,0.03999999910593033,75.23999786376953,0.009999999776482582,73.54000091552734,71.75255584716797,8542900.0
2017-01-04,,,,,,
2017-02-01,74.08999633789062,77.86000061035156,0.009999999776482582,77.52999877929688,75.78907775878906,8077400.0
2017-03-01,78.4800033569336,79.52999877929688,75.3499984741211,77.04000091552734,75.31008911132812,11077200.0
2017-03-30,,,,,,
2017-04-01,77.1500015258789,78.0,0.10000000149011612,76.70999908447266,75.13532257080078,9904500.0
2017-05-01,77.06999969482422,77.76000213623047,0.09000000357627869,75.5,73.95018768310547,9754300.0
2017-06-01,75.7300033569336,77.91000366210938,74.54000091552734,76.5,74.92964172363281,11273700.0
2017-06-30,,,,,,
2017-07-01,77.05999755859375,79.37000274658203,0.09000000357627869,78.97000122070312,77.50125885009766,7153300.0
2017-08-01,79.30000305175781,79.9000015258789,76.25,76.97000122070312,75.53846740722656,8774100.0
2017-09-01,77.27999877929688,80.30000305175781,0.06499999761581421,80.08999633789062,78.60043334960938,8157600.0
2017-10-01,80.16999816894531,86.5,79.79000091552734,84.12999725341797,82.5652847290039,8432800.0
2017-10-05,,,,,,
2017-11-01,84.54000091552734,90.31999969482422,0.10499999672174454,88.8499984741211,87.36064910888672,10289800.0
2017-12-01,89.08999633789062,91.29000091552734,0.10499999672174454,90.70999908447266,89.18949127197266,10336300.0
2018-01-01,0.10499999672174454,93.5999984741211,0.10499999672174454,90.8499984741211,89.32713317871094,11738600.0
2018-01-04,,,,,,
2018-02-01,90.86000061035156,91.4000015258789,80.43000030517578,85.37000274658203,84.0783920288086,15273000.0
2018-03-01,85.44999694824219,87.73999786376953,80.77999877929688,84.16999816894531,82.89654541015625,14358800.0
2018-04-01,84.19999694824219,88.25,81.19000244140625,86.73999786376953,85.42766571044922,12939400.0
2018-04-02,,,,,,
2018-05-01,86.4800033569336,87.2699966430664,82.58999633789062,84.83000183105469,83.70568084716797,10132600.0
2018-06-01,85.87000274658203,86.66999816894531,80.66000366210938,81.41000366210938,80.33101654052734,12990200.0
2018-07-01,81.01000213623047,88.72000122070312,80.9000015258789,88.06999969482422,86.9027328491211,10406400.0
2018-07-03,,,,,,
2018-08-01,88.48999786376953,89.58999633789062,85.72000122070312,87.91999816894531,86.92451477050781,8212500.0
2018-09-01,87.80999755859375,89.45999908447266,81.80000305175781,86.69000244140625,85.70845031738281,10681300.0
2018-10-01,87.22000122070312,89.62000274658203,80.33999633789062,84.66000366210938,83.7014389038086,15072200.0
2018-10-04,,,,,,
2018-11-01,85.13999938964844,88.19000244140625,84.41000366210938,86.41000366210938,85.58863830566406,11461700.0
2018-12-01,87.08999633789062,89.23999786376953,69.68000030517578,74.52999877929688,73.8215560913086,14214600.0
2019-01-01,73.70999908447266,83.88999938964844,73.5199966430664,83.76000213623047,82.96382141113281,11344900.0
2019-01-03,,,,,,
2019-02-01,84.01000213623047,84.51000213623047,79.69999694824219,82.55999755859375,81.9468994140625,9244600.0
2019-03-01,83.11000061035156,84.6500015258789,80.13999938964844,81.94999694824219,81.3414306640625,11281600.0
2019-04-01,82.41999816894531,91.27999877929688,82.41999816894531,87.66000366210938,87.009033203125,10650700.0
2019-04-04,,,,,,
2019-05-01,87.56999969482422,89.41000366210938,85.33000183105469,85.51000213623047,85.04823303222656,9466000.0
2019-06-01,85.43000030517578,89.72000122070312,85.30999755859375,89.45999908447266,88.97689819335938,8951200.0
2019-07-01,90.06999969482422,93.26000213623047,89.98999786376953,91.31999969482422,90.82685852050781,9960600.0
2019-07-03,,,,,,
2019-08-01,91.0999984741211,91.19000244140625,83.66999816894531,88.0999984741211,87.79155731201172,10593600.0
2019-09-01,88.25,96.91999816894531,87.11000061035156,95.76000213623047,95.42475128173828,8821700.0
2019-10-01,96.26000213623047,97.80999755859375,90.66999816894531,97.33000183105469,96.9892578125,8715700.0
2019-10-03,,,,,,
2019-11-01,97.63999938964844,103.52999877929688,97.16999816894531,102.76000213623047,102.59158325195312,9111300.0
2019-12-01,103.30999755859375,107.27999877929688,100.2300033569336,105.25,105.07749938964844,9646200.0
2020-01-01,105.33000183105469,107.37000274658203,102.66000366210938,104.26000213623047,104.08912658691406,9340400.0
2020-01-02,,,,,,
2020-02-01,105.20999908447266,111.43000030517578,90.2699966430664,92.66000366210938,92.66000366210938,8827600.0
2020-03-01,93.16000366210938,96.80999755859375,56.7400016784668,67.81999969482422,67.81999969482422,17152400.0
2020-03-26,68.7300033569336,72.0999984741211,67.07360076904297,72.01000213623047,72.01000213623047,521143.0
