Date,Open,High,Low,Close,Adj Close,Volume
1972-06-01,0.0,4.020511150360107,3.70284104347229,3.9609477519989014,0.37503963708877563,6704000.0
1972-06-05,,,,,,
1972-07-01,3.9609477519989014,4.010583877563477,3.7723312377929688,3.990729331970215,0.37885433435440063,6827600.0
1972-08-01,3.990729331970215,4.685632705688477,3.9758386611938477,4.447380065917969,0.4222060739994049,8136400.0
1972-09-01,4.447380065917969,4.7948317527771,4.228981971740723,4.710450649261475,0.4471803903579712,8619600.0
1972-09-01,,,,,,
1972-10-01,4.710450649261475,5.062865734100342,4.526797294616699,5.062865734100342,0.48176735639572144,10497600.0
1972-11-01,5.077756404876709,5.430171489715576,4.948702812194824,5.077756404876709,0.48318448662757874,10863200.0
1972-12-01,5.077756404876709,5.598933696746826,5.067829132080078,5.569152355194092,0.529944121837616,6947200.0
1972-12-04,,,,,,
1973-01-01,5.5790791511535645,6.551943778991699,5.5790791511535645,5.658496856689453,0.5395304560661316,11983600.0
1973-02-01,5.688278675079346,6.412962913513184,5.320972442626953,5.598933696746826,0.5338519215583801,10304400.0
1973-03-01,5.598933696746826,5.797477722167969,4.973520755767822,5.445062160491943,0.5191802978515625,13168800.0
1973-03-05,,,,,,
1973-04-01,5.42520809173584,5.837186336517334,5.201846122741699,5.266373157501221,0.5031372308731079,6332800.0
1973-05-01,5.266373157501221,5.71806001663208,5.157174110412598,5.420244216918945,0.5178375840187073,9128800.0
1973-06-01,5.410317420959473,6.368290901184082,5.306081771850586,6.005948543548584,0.5737945437431335,8308800.0
1973-06-04,,,,,,
1973-07-01,6.005948543548584,6.626397609710693,5.757768630981445,6.437780857086182,0.6163222193717957,8701200.0
1973-08-01,6.437780857086182,6.68596076965332,6.1101837158203125,6.457635402679443,0.6182230114936829,10550800.0
1973-08-31,,,,,,
1973-09-01,6.467562675476074,6.939104080200195,6.3881449699401855,6.546980381011963,0.6278671026229858,8629200.0
1973-10-01,6.546980381011963,7.3759002685546875,6.149892807006836,7.1475749015808105,0.6854656934738159,15026800.0
1973-11-01,7.1475749015808105,7.499989986419678,6.566834449768066,6.9788126945495605,0.6692811846733093,10887200.0
1973-12-01,6.6760334968566895,7.718388080596924,6.656179428100586,7.668752193450928,0.735447347164154,13106800.0
1973-12-03,,,,,,
1974-01-01,7.668752193450928,7.69853401184082,6.199528694152832,6.606543064117432,0.634590744972229,16236800.0
1974-02-01,6.566834449768066,6.7604146003723145,5.658496856689453,6.715742111206055,0.6450802087783813,10772400.0
1974-03-01,6.586688995361328,6.849759578704834,6.0258026123046875,6.080402374267578,0.5840527415275574,10953200.0
1974-03-04,,,,,,
1974-04-01,6.080402374267578,6.1101837158203125,5.370608329772949,5.837186336517334,0.5617218017578125,12636000.0
1974-05-01,5.837186336517334,6.259091854095459,5.286227226257324,5.360681056976318,0.5158669352531433,13679600.0
1974-06-01,5.598933696746826,6.1697468757629395,5.330899715423584,5.628715515136719,0.5416600704193115,8717200.0
1974-06-03,,,,,,
1974-07-01,5.628715515136719,5.698205471038818,5.206809997558594,5.266373157501221,0.5079197883605957,10116800.0
1974-08-01,5.266373157501221,5.479807376861572,4.308399200439453,4.75015926361084,0.4581332802772522,13350400.0
1974-08-30,,,,,,
1974-09-01,4.75015926361084,4.99833869934082,4.19920015335083,4.28854513168335,0.414676696062088,12879200.0
1974-10-01,4.28854513168335,6.060547828674316,4.1297101974487305,5.88682222366333,0.5692203044891357,19857200.0
1974-11-01,5.866967678070068,6.1101837158203125,5.117465019226074,5.479807376861572,0.529864490032196,12873200.0
1974-12-01,5.400390148162842,5.509589195251465,4.968557357788086,5.440098762512207,0.5260248184204102,12494400.0
1974-12-02,,,,,,
1975-01-01,5.459953308105469,5.598933696746826,4.556579113006592,5.028120517730713,0.4872480034828186,20820000.0
1975-02-01,5.028120517730713,5.628715515136719,4.968557357788086,5.157174110412598,0.4997537434101105,15949600.0
1975-03-01,5.16710090637207,5.896749496459961,4.889139652252197,5.777623176574707,0.5598780512809753,17400000.0
1975-03-03,,,,,,
1975-04-01,5.777623176574707,6.527125835418701,5.38053560256958,6.358363628387451,0.6177235841751099,13004800.0
1975-05-01,6.368290901184082,6.790196418762207,6.249164581298828,6.695888042449951,0.6505151391029358,13260000.0
1975-06-01,6.7256693840026855,7.499989986419678,6.527125835418701,7.445390701293945,0.7233301401138306,9824800.0
1975-06-02,,,,,,
1975-07-01,7.395754814147949,7.395754814147949,6.819977760314941,6.9291768074035645,0.674498438835144,7612000.0
1975-08-01,6.89939546585083,6.89939546585083,6.398072242736816,6.636324882507324,0.6459918022155762,8770000.0
1975-08-29,,,,,,
1975-09-01,6.586688995361328,6.6760334968566895,6.209455966949463,6.229310035705566,0.6075665950775146,10139600.0
1975-10-01,6.229310035705566,6.3881449699401855,5.569152355194092,5.638642311096191,0.5499565005302429,21936000.0
1975-11-01,5.5790791511535645,5.757768630981445,5.276299953460693,5.708132743835449,0.5567341446876526,13987600.0
1975-12-01,5.727987289428711,5.88682222366333,5.38053560256958,5.807404518127441,0.566416323184967,7716400.0
1975-12-01,,,,,,
1976-01-01,5.837186336517334,6.407999515533447,5.837186336517334,6.149892807006836,0.6012002825737,15404400.0
1976-02-01,6.149892807006836,6.586688995361328,5.837186336517334,5.896749496459961,0.5764538049697876,14650000.0
1976-03-01,5.837186336517334,6.1697468757629395,5.296154499053955,5.986093997955322,0.5851876139640808,16722400.0
1976-03-01,,,,,,
1976-04-01,5.986093997955322,6.1697468757629395,5.688278675079346,5.971203327178955,0.5853880047798157,9810800.0
1976-04-30,,,,,,
1976-05-01,5.971203327178955,6.790196418762207,5.926530838012695,6.611506938934326,0.6481599807739258,8712400.0
1976-05-28,,,,,,
1976-06-01,6.611506938934326,7.624080181121826,6.492380619049072,7.579407691955566,0.7449712753295898,13682400.0
1976-07-01,7.564517021179199,7.69853401184082,7.073121070861816,7.311373710632324,0.7186264395713806,7303600.0
1976-08-01,7.311373710632324,7.787878513336182,7.177356719970703,7.743206024169922,0.7610706686973572,8851600.0
1976-08-30,,,,,,
1976-09-01,7.743206024169922,8.29416561126709,7.624080181121826,8.07080364227295,0.7950621843338013,11114400.0
1976-10-01,8.055912971496582,8.055912971496582,7.326264381408691,7.638970851898193,0.752521812915802,8464000.0
1976-11-01,7.594298362731934,7.9070048332214355,7.23691987991333,7.787878513336182,0.7671908736228943,8673200.0
1976-11-29,,,,,,
1976-12-01,7.787878513336182,7.9665679931640625,7.356045722961426,7.758097171783447,0.7687340974807739,12381200.0
1977-01-01,7.728315353393555,7.728315353393555,6.492380619049072,6.790196418762207,0.6728267073631287,17442400.0
1977-02-01,6.924213409423828,7.132684230804443,6.537053108215332,6.611506938934326,0.6551206707954407,11630400.0
1977-02-28,,,,,,
1977-03-01,6.6412882804870605,6.9539947509765625,6.5072712898254395,6.626397609710693,0.6595602035522461,8858000.0
1977-04-01,6.671070098876953,7.385827541351318,6.522161960601807,7.162465572357178,0.7129179239273071,10938000.0
1977-05-01,7.162465572357178,7.9070048332214355,7.1475749015808105,7.296483039855957,0.7262576222419739,11145200.0
1977-05-27,,,,,,
1977-06-01,7.296483039855957,8.011240005493164,7.281591892242432,7.951677322387695,0.7946897745132446,14145600.0
1977-07-01,7.921895503997803,7.951677322387695,7.0135579109191895,7.356045722961426,0.7351620197296143,11442000.0
1977-08-01,7.356045722961426,7.430500030517578,6.7604146003723145,6.998667240142822,0.6994456052780151,11438400.0
1977-08-29,,,,,,
1977-09-01,6.998667240142822,7.132684230804443,6.73063325881958,7.132684230804443,0.7159319519996643,8685200.0
1977-10-01,7.132684230804443,7.445390701293945,6.96888542175293,7.073121070861816,0.7099531888961792,11182400.0
1977-11-01,7.058230400085449,7.7134246826171875,6.924213409423828,7.668752193450928,0.7697388529777527,10962800.0
1977-11-28,,,,,,
1977-12-01,7.668752193450928,7.832551002502441,7.2071380615234375,7.758097171783447,0.7829471230506897,11601600.0
1978-01-01,7.758097171783447,7.787878513336182,6.849759578704834,7.058230400085449,0.7123162150382996,9650000.0
1978-02-01,7.058230400085449,7.356045722961426,6.73063325881958,6.73063325881958,0.6792553067207336,7140800.0
1978-02-27,,,,,,
1978-03-01,6.73063325881958,7.132684230804443,6.537053108215332,6.849759578704834,0.695464551448822,10925200.0
1978-04-01,6.849759578704834,7.2667012214660645,6.492380619049072,7.028448581695557,0.7136077284812927,20498400.0
1978-05-01,7.058230400085449,7.7729878425598145,6.879540920257568,7.341155052185059,0.7453567385673523,13581200.0
1978-05-25,,,,,,
1978-06-01,7.341155052185059,8.189929962158203,7.326264381408691,7.638970851898193,0.7800233960151672,10516000.0
1978-07-01,7.638970851898193,7.683643341064453,7.088011741638184,7.609189033508301,0.7769826650619507,8764800.0
1978-08-01,7.609189033508301,8.874905586242676,7.504953861236572,8.696216583251953,0.8879808187484741,18040800.0
1978-08-28,,,,,,
1978-09-01,8.71110725402832,9.336520195007324,8.100584983825684,8.562199592590332,0.8784648776054382,11552400.0
1978-10-01,8.562199592590332,8.99403190612793,7.817660331726074,7.951677322387695,0.8158261775970459,12384800.0
1978-11-01,8.175039291381836,8.39840030670166,6.998667240142822,7.088011741638184,0.727215588092804,16335200.0
1978-11-27,,,,,,
1978-12-01,7.1475749015808105,8.160147666931152,7.058230400085449,7.862332344055176,0.8124627470970154,8081600.0
1979-01-01,7.862332344055176,7.892114162445068,7.177356719970703,7.281591892242432,0.7524518966674805,13489600.0
1979-02-01,7.251810550689697,7.817660331726074,7.117793560028076,7.430500030517578,0.7678395509719849,10826400.0
1979-02-26,,,,,,
1979-03-01,7.430500030517578,8.338837623596191,7.356045722961426,8.189929962158203,0.852356493473053,15813600.0
1979-04-01,8.175039291381836,8.606871604919434,7.787878513336182,7.98145866394043,0.8306602835655212,17915200.0
1979-05-01,7.98145866394043,8.130366325378418,7.6538615226745605,7.728315353393555,0.8043149709701538,10518400.0
1979-05-24,,,,,,
1979-06-01,7.728315353393555,8.368618965148926,7.638970851898193,7.98145866394043,0.8362256288528442,10640000.0
1979-07-01,7.98145866394043,8.90468692779541,7.743206024169922,8.800451278686523,0.9220315217971802,18416400.0
1979-08-01,8.785560607910156,9.470537185668945,8.5770902633667,9.425864219665527,0.9875560998916626,12198000.0
1979-08-28,,,,,,
1979-09-01,9.396082878112793,10.081058502197266,8.99403190612793,9.887478828430176,1.0418936014175415,11692800.0
1979-10-01,9.425864219665527,9.768352508544922,8.725997924804688,9.008922576904297,0.9493156671524048,21592400.0
1979-11-01,9.008922576904297,9.6343355178833,8.547307968139648,9.425864219665527,0.9932501316070557,10859200.0
1979-11-28,,,,,,
1979-12-01,9.425864219665527,10.125731468200684,9.321629524230957,10.125731468200684,1.0737309455871582,9702400.0
1980-01-01,10.09595012664795,11.94240665435791,9.768352508544922,11.614809036254883,1.2316325902938843,15762400.0
1980-02-01,11.614809036254883,13.029433250427246,11.451010704040527,12.389129638671875,1.3137414455413818,18781200.0
1980-02-27,,,,,,
1980-03-01,12.389129638671875,12.433802604675293,10.125731468200684,10.825597763061523,1.1534370183944702,17771600.0
1980-04-01,10.825597763061523,11.763717651367188,10.542673110961914,11.748826026916504,1.2518043518066406,13951200.0
1980-05-01,11.748826026916504,12.597600936889648,11.52546501159668,12.135986328125,1.2930548191070557,12778000.0
1980-05-29,,,,,,
1980-06-01,12.150877952575684,13.907989501953125,12.135986328125,13.044323921203613,1.3964699506759644,15694400.0
1980-07-01,13.074106216430664,14.47383975982666,12.984761238098145,13.96755313873291,1.4953066110610962,14188800.0
1980-08-01,13.96755313873291,16.037370681762695,13.342140197753906,14.07178783416748,1.5064655542373657,12060800.0
1980-08-29,,,,,,
1980-09-01,14.07178783416748,16.58833122253418,13.997334480285645,15.635320663452148,1.6808972358703613,11561600.0
1980-10-01,15.635320663452148,17.868938446044922,15.441740036010742,16.022480010986328,1.7225199937820435,14306000.0
1980-11-01,16.201169967651367,20.593950271606445,16.201169967651367,20.05788230895996,2.1563522815704346,13398400.0
1980-11-24,,,,,,
1980-12-01,20.05788230895996,20.489715576171875,17.74981117248535,19.89408302307129,2.1426053047180176,12760000.0
1980-12-26,,,,,,
1981-01-01,19.89408302307129,20.132335662841797,17.451995849609375,17.511558532714844,1.8860026597976685,14510400.0
1981-02-01,17.451995849609375,18.196535110473633,16.558547973632812,18.1667537689209,1.9565684795379639,10713200.0
1981-02-25,,,,,,
1981-03-01,18.1667537689209,18.643259048461914,16.439422607421875,18.107189178466797,1.958285927772522,15675200.0
1981-04-01,18.107189178466797,18.107189178466797,14.712091445922852,15.545975685119629,1.6812918186187744,17469200.0
1981-05-01,15.694883346557617,15.96291732788086,14.44405746459961,14.533402442932129,1.5717827081680298,16767200.0
1981-05-28,,,,,,
1981-06-01,14.533402442932129,14.652528762817383,12.806072235107422,14.235587120056152,1.5466166734695435,19341200.0
1981-07-01,14.205805778503418,15.96291732788086,13.520829200744629,15.843791007995605,1.721339464187622,12038400.0
1981-08-01,15.843791007995605,16.79680061340332,14.146242141723633,14.205805778503418,1.5433809757232666,11289600.0
1981-08-31,,,,,,
1981-09-01,14.205805778503418,14.503621101379395,10.51289176940918,11.495682716369629,1.255192518234253,14687200.0
1981-10-01,11.495682716369629,13.699519157409668,11.227648735046387,13.580392837524414,1.4828176498413086,13857600.0
1981-11-01,13.639955520629883,14.265368461608887,12.150877952575684,13.96755313873291,1.5250910520553589,12277600.0
1981-11-24,,,,,,
1981-12-01,13.96755313873291,14.354713439941406,12.35934829711914,12.418911933898926,1.3664838075637817,13698400.0
1982-01-01,12.418911933898926,12.567819595336914,10.870270729064941,12.001969337463379,1.3206063508987427,16863200.0
1982-02-01,11.43612003326416,11.793498992919922,9.113158226013184,9.351410865783691,1.028959035873413,19426000.0
1982-02-24,,,,,,
1982-03-01,9.142939567565918,9.321629524230957,7.624080181121826,7.921895503997803,0.8805547952651978,30246000.0
1982-04-01,8.130366325378418,9.023813247680664,7.7729878425598145,8.279273986816406,0.9202791452407837,21056000.0
1982-05-01,8.189929962158203,9.172720909118652,7.2667012214660645,7.326264381408691,0.8143478035926819,22406800.0
1982-05-26,,,,,,
1982-06-01,7.415608882904053,7.47517204284668,6.492380619049072,6.7008514404296875,0.7537635564804077,29347600.0
1982-07-01,6.611506938934326,6.73063325881958,5.628715515136719,6.015875816345215,0.676712155342102,27568000.0
1982-08-01,6.1350016593933105,6.373254299163818,5.003302574157715,5.866967678070068,0.6599618792533875,35906800.0
1982-08-30,,,,,,
1982-09-01,5.807404518127441,6.522161960601807,5.569152355194092,5.7478413581848145,0.65691739320755,33552000.0
1982-10-01,5.777623176574707,7.832551002502441,5.569152355194092,6.849759578704834,0.7828541398048401,45542400.0
1982-11-01,6.790196418762207,7.98145866394043,6.7008514404296875,7.028448581695557,0.8032763600349426,30560800.0
1982-11-24,,,,,,
1982-12-01,7.296483039855957,8.90468692779541,7.117793560028076,8.428182601928711,0.9766063094139099,33275600.0
1983-01-01,8.48774528503418,9.41097354888916,7.892114162445068,8.160147666931152,0.9455482959747314,40777200.0
1983-02-01,8.07080364227295,8.874905586242676,7.534735202789307,7.534735202789307,0.8730790019035339,25445200.0
1983-02-23,,,,,,
1983-03-01,7.6538615226745605,8.606871604919434,6.96888542175293,8.100584983825684,0.9502525925636292,35655600.0
1983-04-01,8.100584983825684,8.338837623596191,7.385827541351318,8.189929962158203,0.9607336521148682,28091200.0
1983-05-01,8.249492645263672,9.023813247680664,8.041022300720215,8.130366325378418,0.9537460207939148,28310800.0
1983-05-25,,,,,,
1983-06-01,8.160147666931152,10.036386489868164,8.130366325378418,9.708789825439453,1.151352047920227,27843200.0
1983-07-01,9.857697486877441,10.42354679107666,9.291847229003906,9.381192207336426,1.1125030517578125,21767200.0
1983-08-01,9.351410865783691,11.257431030273438,9.142939567565918,10.453328132629395,1.239646315574646,43136800.0
1983-08-29,,,,,,
1983-09-01,10.483110427856445,10.989396095275879,9.679007530212402,10.155512809753418,1.2150095701217651,29866800.0
1983-10-01,10.155512809753418,10.363984107971191,8.845124244689941,8.964250564575195,1.072487473487854,24569600.0
1983-11-01,9.053594589233398,9.559881210327148,8.696216583251953,9.08337688446045,1.086739182472229,20260800.0
1983-11-25,,,,,,
1983-12-01,9.113158226013184,9.947041511535645,8.755779266357422,9.619444847106934,1.1644405126571655,26218400.0
1984-01-01,9.619444847106934,9.82791519165039,8.309056282043457,8.5770902633667,1.0382626056671143,34568000.0
1984-02-01,8.547307968139648,9.202503204345703,7.7729878425598145,9.08337688446045,1.0995490550994873,27048000.0
1984-02-24,,,,,,
1984-03-01,9.08337688446045,10.483110427856445,8.39840030670166,10.215075492858887,1.2515605688095093,37115200.0
1984-04-01,10.215075492858887,10.483110427856445,9.50031852722168,9.82791519165039,1.2041248083114624,34592400.0
1984-05-01,9.768352508544922,10.00660514831543,8.696216583251953,8.815342903137207,1.080063819885254,27393600.0
1984-05-25,,,,,,
1984-06-01,8.755779266357422,8.99403190612793,7.862332344055176,8.011240005493164,0.9936285018920898,21535200.0
1984-07-01,8.011240005493164,8.160147666931152,6.819977760314941,7.058230400085449,0.8754271864891052,28057200.0
1984-08-01,7.058230400085449,8.636652946472168,7.058230400085449,7.862332344055176,0.975159764289856,48315600.0
1984-08-28,,,,,,
1984-09-01,7.862332344055176,8.07080364227295,7.445390701293945,7.832551002502441,0.9847433567047119,26018000.0
1984-10-01,7.7729878425598145,7.892114162445068,6.909322261810303,7.356045722961426,0.9248344898223877,39650000.0
1984-11-01,7.415608882904053,7.7134246826171875,6.671070098876953,6.909322261810303,0.8686701059341431,31805200.0
1984-11-26,,,,,,
1984-12-01,6.790196418762207,7.028448581695557,6.462599277496338,6.790196418762207,0.8664770722389221,32209600.0
1985-01-01,6.819977760314941,7.445390701293945,6.2541279792785645,7.385827541351318,0.9424836039543152,40161600.0
1985-02-01,7.326264381408691,8.279273986816406,6.998667240142822,7.564517021179199,0.9652859568595886,30436000.0
1985-02-26,,,,,,
1985-03-01,7.534735202789307,7.98145866394043,7.058230400085449,7.296483039855957,0.945261538028717,24240000.0
1985-04-01,7.326264381408691,8.07080364227295,7.088011741638184,7.504953861236572,0.9722684025764465,20075200.0
1985-05-01,7.47517204284668,7.594298362731934,7.088011741638184,7.534735202789307,0.9761268496513367,28501600.0
1985-05-28,,,,,,
1985-06-01,7.534735202789307,7.534735202789307,6.73063325881958,6.96888542175293,0.91617351770401,30599200.0
1985-07-01,6.939104080200195,7.23691987991333,6.581725120544434,7.117793560028076,0.9357498288154602,31302800.0
1985-08-01,7.088011741638184,7.2667012214660645,6.522161960601807,6.849759578704834,0.9005125164985657,24086000.0
1985-08-27,,,,,,
1985-09-01,6.819977760314941,6.879540920257568,5.837186336517334,6.075438976287842,0.8113040924072266,25094800.0
1985-10-01,6.1350016593933105,6.522161960601807,5.866967678070068,5.926530838012695,0.7914191484451294,24729200.0
1985-11-01,5.956312656402588,6.73063325881958,5.926530838012695,6.343472957611084,0.8470975160598755,29534400.0
1985-11-25,,,,,,
1985-12-01,6.403036117553711,6.6412882804870605,5.926530838012695,6.551943778991699,0.8893572688102722,29666400.0
1986-01-01,6.522161960601807,6.671070098876953,5.598933696746826,5.807404518127441,0.7882940173149109,35892000.0
1986-02-01,5.896749496459961,5.896749496459961,5.033083915710449,5.420244216918945,0.7357412576675415,41653600.0
1986-02-25,,,,,,
1986-03-01,5.479807376861572,5.837186336517334,5.241555213928223,5.390462875366211,0.7956469058990479,32238800.0
1986-04-01,5.390462875366211,5.688278675079346,5.181992053985596,5.241555213928223,0.7736677527427673,29853200.0
1986-05-01,5.241555213928223,5.330899715423584,4.645923614501953,5.062865734100342,0.7472925782203674,49702400.0
1986-05-27,,,,,,
1986-06-01,5.092647075653076,5.390462875366211,5.062865734100342,5.301117897033691,0.8221213817596436,24108000.0
1986-07-01,5.301117897033691,5.330899715423584,4.139636993408203,4.28854513168335,0.665087103843689,27932000.0
1986-08-01,4.28854513168335,5.330899715423584,4.139636993408203,5.181992053985596,0.8036465048789978,32352400.0
1986-08-26,,,,,,
1986-09-01,5.152210235595703,5.628715515136719,4.824613094329834,5.181992053985596,0.8446305990219116,30562000.0
1986-10-01,5.271336555480957,5.450026035308838,4.913957595825195,5.241555213928223,0.8543397784233093,26788800.0
1986-11-01,5.241555213928223,6.164783477783203,5.092647075653076,5.926530838012695,0.9659862518310547,35058000.0
1986-11-24,,,,,,
1986-12-01,5.896749496459961,6.164783477783203,5.628715515136719,5.807404518127441,0.988039493560791,26802400.0
1987-01-01,5.837186336517334,7.385827541351318,5.837186336517334,7.356045722961426,1.251516342163086,56546000.0
1987-02-01,7.326264381408691,8.279273986816406,7.058230400085449,7.23691987991333,1.2312486171722412,39586800.0
1987-03-01,7.088011741638184,8.696216583251953,7.058230400085449,8.338837623596191,1.4187228679656982,42406800.0
1987-03-02,,,,,,
1987-04-01,8.219711303710938,8.815342903137207,7.385827541351318,8.130366325378418,1.432749629020691,35980000.0
1987-05-01,8.100584983825684,9.41097354888916,8.011240005493164,8.517526626586914,1.5009760856628418,34314000.0
1987-05-27,,,,,,
1987-06-01,8.517526626586914,9.172720909118652,8.338837623596191,9.053594589233398,1.643172025680542,25188000.0
1987-07-01,8.99403190612793,10.661799430847168,8.874905586242676,9.708789825439453,1.762084722518921,38000800.0
1987-08-01,9.947041511535645,10.542673110961914,9.113158226013184,9.649226188659668,1.7512749433517456,35022000.0
1987-08-28,,,,,,
1987-09-01,9.708789825439453,9.887478828430176,8.666434288024902,9.321629524230957,1.7366745471954346,21026000.0
1987-10-01,9.291847229003906,9.768352508544922,4.7948317527771,6.432817459106445,1.1984715461730957,49534800.0
1987-11-01,6.462599277496338,6.879540920257568,5.450026035308838,5.598933696746826,1.0431146621704102,40778000.0
1987-11-24,,,,,,
1987-12-01,5.777623176574707,6.790196418762207,5.479807376861572,5.896749496459961,1.1432358026504517,37848400.0
1988-01-01,5.896749496459961,6.819977760314941,5.807404518127441,6.819977760314941,1.3222267627716064,21644000.0
1988-02-01,7.1475749015808105,7.6538615226745605,6.73063325881958,7.564517021179199,1.4665745496749878,28606800.0
1988-02-29,,,,,,
1988-03-01,7.564517021179199,8.279273986816406,6.998667240142822,8.07080364227295,1.6186507940292358,42006000.0
1988-04-01,8.011240005493164,8.696216583251953,7.921895503997803,8.011240005493164,1.6067050695419312,35129200.0
1988-05-01,7.951677322387695,8.160147666931152,7.326264381408691,7.7134246826171875,1.5469766855239868,21544000.0
1988-05-26,,,,,,
1988-06-01,7.7729878425598145,8.041022300720215,6.96888542175293,6.998667240142822,1.45064377784729,34717600.0
1988-07-01,7.028448581695557,7.23691987991333,6.611506938934326,6.909322261810303,1.4321247339248657,27926800.0
1988-08-01,6.879540920257568,7.028448581695557,6.313691139221191,6.343472957611084,1.3148393630981445,31931200.0
1988-08-26,,,,,,
1988-09-01,6.343472957611084,6.492380619049072,6.015875816345215,6.015875816345215,1.2968755960464478,31724400.0
1988-10-01,5.956312656402588,6.671070098876953,5.926530838012695,6.1350016593933105,1.3225557804107666,29484000.0
1988-11-01,6.1350016593933105,6.522161960601807,5.986093997955322,6.343472957611084,1.3674973249435425,20248400.0
1988-11-25,,,,,,
1988-12-01,6.313691139221191,6.7604146003723145,6.2541279792785645,6.671070098876953,1.498903512954712,28197200.0
1989-01-01,6.7008514404296875,7.2667012214660645,6.551943778991699,7.028448581695557,1.5792009830474854,30814800.0
1989-02-01,7.058230400085449,7.356045722961426,6.671070098876953,6.7604146003723145,1.5189787149429321,23539200.0
1989-02-24,,,,,,
1989-03-01,6.7604146003723145,7.624080181121826,6.581725120544434,7.177356719970703,1.6729319095611572,39314000.0
1989-04-01,7.23691987991333,7.624080181121826,6.939104080200195,7.445390701293945,1.735405683517456,28772800.0
1989-05-01,7.445390701293945,7.594298362731934,6.819977760314941,7.2071380615234375,1.6798735857009888,38474400.0
1989-05-25,,,,,,
1989-06-01,7.2071380615234375,8.160147666931152,7.088011741638184,7.892114162445068,1.9056323766708374,41026800.0
1989-07-01,7.951677322387695,8.457963943481445,7.892114162445068,8.338837623596191,2.013497829437256,35478800.0
1989-08-01,8.338837623596191,9.619444847106934,8.338837623596191,9.351410865783691,2.257995843887329,46148000.0
1989-08-28,,,,,,
1989-09-01,9.321629524230957,9.530099868774414,8.755779266357422,8.964250564575195,2.223011016845703,21283200.0
1989-10-01,8.964250564575195,9.857697486877441,8.279273986816406,8.785560607910156,2.178696870803833,29167600.0
1989-11-01,8.785560607910156,9.768352508544922,8.636652946472168,9.5896635055542,2.3781042098999023,23398800.0
1989-11-27,,,,,,
1989-12-01,9.50031852722168,10.602235794067383,9.470537185668945,10.185294151306152,2.594074249267578,31676800.0
1990-01-01,10.185294151306152,10.244857788085938,9.232284545898438,10.00660514831543,2.5485639572143555,36133600.0
1990-02-01,10.00660514831543,11.406338691711426,9.976823806762695,10.661799430847168,2.715435743331909,62881200.0
1990-02-23,,,,,,
1990-03-01,10.661799430847168,11.138304710388184,10.572454452514648,10.810707092285156,2.81890869140625,38808400.0
1990-04-01,10.721362113952637,10.989396095275879,9.947041511535645,10.185294151306152,2.6558313369750977,32975600.0
1990-05-01,10.274639129638672,12.001969337463379,10.185294151306152,11.763717651367188,3.067408323287964,42453200.0
1990-05-25,,,,,,
1990-06-01,11.763717651367188,11.85306167602539,10.661799430847168,11.465901374816895,3.05692720413208,40891600.0
1990-07-01,11.316993713378906,13.163450241088867,10.959614753723145,13.074106216430664,3.485692024230957,37774000.0
1990-08-01,13.074106216430664,13.997334480285645,11.912625312805176,12.627382278442383,3.3665919303894043,46571600.0
1990-08-29,,,,,,
1990-09-01,12.567819595336914,13.788863182067871,12.091314315795898,12.240221977233887,3.328965902328491,26137600.0
1990-10-01,12.299785614013672,12.95497989654541,10.632018089294434,10.661799430847168,2.8996853828430176,40327200.0
1990-11-01,10.84048843383789,11.763717651367188,10.363984107971191,11.34677505493164,3.085979700088501,41323600.0
1990-11-21,,,,,,
1990-12-01,11.406338691711426,11.406338691711426,10.363984107971191,10.870270729064941,3.028609275817871,31880800.0
1991-01-01,10.92983341217041,11.108522415161133,9.5896635055542,10.810707092285156,3.0120127201080322,46971200.0
1991-02-01,10.92983341217041,13.163450241088867,10.602235794067383,12.746508598327637,3.5513548851013184,50940000.0
1991-02-28,,,,,,
1991-03-01,12.776289939880371,12.984761238098145,10.780925750732422,11.01917839050293,3.1307928562164307,49228800.0
1991-04-01,11.01917839050293,11.01917839050293,9.768352508544922,9.887478828430176,2.8092503547668457,64067200.0
1991-05-01,9.887478828430176,10.691580772399902,9.708789825439453,10.691580772399902,3.0377140045166016,37995200.0
1991-05-30,,,,,,
1991-06-01,10.751144409179688,10.92983341217041,8.517526626586914,8.696216583251953,2.533334732055664,44354400.0
1991-07-01,8.785560607910156,9.798133850097656,8.279273986816406,9.41097354888916,2.7415547370910645,42902400.0
1991-08-01,9.41097354888916,9.947041511535645,8.606871604919434,9.321629524230957,2.715527057647705,35832000.0
1991-08-28,,,,,,
1991-09-01,9.262065887451172,9.381192207336426,7.862332344055176,8.130366325378418,2.4322993755340576,40747600.0
1991-10-01,8.130366325378418,8.457963943481445,7.7729878425598145,8.041022300720215,2.4055724143981934,37828400.0
1991-11-01,8.07080364227295,8.368618965148926,6.939104080200195,7.117793560028076,2.1293764114379883,38199200.0
1991-11-20,,,,,,
1991-12-01,7.088011741638184,7.296483039855957,6.075438976287842,6.790196418762207,2.0986099243164062,48557200.0
1992-01-01,6.790196418762207,7.2667012214660645,6.1945648193359375,6.283909797668457,1.9421354532241821,63564400.0
1992-02-01,6.283909797668457,6.879540920257568,6.075438976287842,6.551943778991699,2.024975061416626,36772800.0
1992-02-27,,,,,,
1992-03-01,6.492380619049072,6.73063325881958,5.420244216918945,5.479807376861572,1.7611209154129028,42809200.0
1992-04-01,5.450026035308838,6.22434663772583,5.181992053985596,6.015875816345215,1.933404564857483,57958000.0
1992-05-01,6.105220317840576,7.504953861236572,6.075438976287842,6.909322261810303,2.220543622970581,62501200.0
1992-05-28,,,,,,
1992-06-01,6.909322261810303,7.23691987991333,6.164783477783203,6.343472957611084,2.1152241230010986,38642400.0
1992-07-01,6.343472957611084,7.6538615226745605,6.075438976287842,7.534735202789307,2.512449264526367,51014400.0
1992-08-01,7.504953861236572,8.457963943481445,7.445390701293945,8.279273986816406,2.7607150077819824,51006000.0
1992-08-27,,,,,,
1992-09-01,8.249492645263672,8.785560607910156,7.6538615226745605,8.160147666931152,2.8089773654937744,44300400.0
1992-10-01,8.189929962158203,8.309056282043457,7.23691987991333,7.326264381408691,2.52192759513855,23726000.0
1992-11-01,7.326264381408691,7.534735202789307,6.909322261810303,7.23691987991333,2.491173028945923,23981600.0
1992-11-25,,,,,,
1992-12-01,7.296483039855957,7.326264381408691,6.611506938934326,6.849759578704834,2.4415552616119385,36098800.0
1993-01-01,6.909322261810303,7.1475749015808105,6.1350016593933105,6.939104080200195,2.4734013080596924,41786000.0
1993-02-01,6.879540920257568,8.696216583251953,6.879540920257568,8.368618965148926,2.982942581176758,39109200.0
1993-02-25,,,,,,
1993-03-01,8.428182601928711,9.142939567565918,8.011240005493164,8.636652946472168,3.17327880859375,41372800.0
1993-04-01,8.5770902633667,9.887478828430176,8.48774528503418,9.619444847106934,3.5343780517578125,55276800.0
1993-05-01,9.559881210327148,10.00660514831543,9.142939567565918,9.679007530212402,3.5562620162963867,24957600.0
1993-05-26,,,,,,
1993-06-01,9.708789825439453,10.483110427856445,8.725997924804688,9.08337688446045,3.4248013496398926,39914800.0
1993-07-01,9.053594589233398,9.5896635055542,8.457963943481445,9.440754890441895,3.5595450401306152,26592000.0
1993-08-01,9.440754890441895,10.066167831420898,9.172720909118652,9.679007530212402,3.649374485015869,31707200.0
1993-08-26,,,,,,
1993-09-01,9.5896635055542,9.738571166992188,8.011240005493164,8.845124244689941,3.4236721992492676,40698400.0
1993-10-01,9.053594589233398,9.50031852722168,7.564517021179199,7.594298362731934,2.9395155906677246,55347600.0
1993-11-01,7.594298362731934,8.636652946472168,7.1475749015808105,7.356045722961426,2.847294569015503,46009200.0
1993-11-24,,,,,,
1993-12-01,7.356045722961426,7.832551002502441,6.849759578704834,7.594298362731934,3.0371994972229004,50584000.0
1994-01-01,7.534735202789307,8.160147666931152,7.2071380615234375,7.683643341064453,3.072932243347168,43567200.0
1994-02-01,7.743206024169922,8.160147666931152,7.296483039855957,7.47517204284668,2.9895577430725098,34204000.0
1994-02-24,,,,,,
1994-03-01,7.415608882904053,7.892114162445068,6.849759578704834,6.96888542175293,2.8796966075897217,50050400.0
1994-04-01,6.819977760314941,7.326264381408691,6.6412882804870605,7.058230400085449,2.9166171550750732,37545600.0
1994-05-01,6.998667240142822,7.564517021179199,6.96888542175293,7.23691987991333,2.990455150604248,31218000.0
1994-05-25,,,,,,
1994-06-01,7.2667012214660645,8.39840030670166,7.2667012214660645,8.07080364227295,3.450906991958618,37801600.0
1994-07-01,8.100584983825684,8.368618965148926,7.98145866394043,8.100584983825684,3.463642120361328,33067600.0
1994-08-01,8.130366325378418,8.279273986816406,6.849759578704834,7.2071380615234375,3.0816216468811035,43391600.0
1994-08-26,,,,,,
1994-09-01,7.326264381408691,7.564517021179199,7.088011741638184,7.504953861236572,3.327312707901001,31584800.0
1994-10-01,7.564517021179199,8.845124244689941,7.415608882904053,8.815342903137207,3.9082717895507812,56557200.0
1994-11-01,8.696216583251953,8.874905586242676,7.7729878425598145,8.309056282043457,3.683809757232666,44577600.0
1994-11-25,,,,,,
1994-12-01,8.338837623596191,8.368618965148926,7.802769184112549,7.892114162445068,3.610384941101074,37550800.0
1995-01-01,7.862332344055176,8.755779266357422,7.832551002502441,8.636652946472168,3.9509854316711426,38166400.0
1995-02-01,8.606871604919434,8.99403190612793,8.130366325378418,8.874905586242676,4.059978485107422,39731600.0
1995-02-24,,,,,,
1995-03-01,8.874905586242676,9.321629524230957,8.48774528503418,8.666434288024902,4.0807294845581055,62209600.0
1995-04-01,8.785560607910156,9.440754890441895,8.606871604919434,9.142939567565918,4.30510139465332,39375600.0
1995-05-01,9.172720909118652,9.440754890441895,8.785560607910156,9.291847229003906,4.375216007232666,39850000.0
1995-05-25,,,,,,
1995-05-26,,,,,,
1995-06-01,9.291847229003906,9.41097354888916,8.39840030670166,8.517526626586914,4.235844135284424,33443600.0
1995-07-01,8.5770902633667,9.708789825439453,8.279273986816406,9.679007530212402,4.813459396362305,57494000.0
1995-08-01,9.708789825439453,10.125731468200684,9.470537185668945,10.09595012664795,5.020808219909668,54202800.0
1995-08-24,,,,,,
1995-08-29,,,,,,
1995-09-01,10.155512809753418,10.780925750732422,9.5896635055542,9.947041511535645,5.210020542144775,46753600.0
1995-10-01,9.976823806762695,10.542673110961914,8.99403190612793,9.887478828430176,5.178822994232178,47369600.0
1995-11-01,9.887478828430176,10.661799430847168,9.619444847106934,10.33420181274414,5.41280460357666,33379200.0
1995-11-28,,,,,,
1995-12-01,10.363984107971191,12.121095657348633,10.363984107971191,12.061532974243164,6.471878528594971,41109200.0
1996-01-01,12.03175163269043,12.90625,10.661799430847168,12.90625,6.9251298904418945,37958000.0
1996-01-24,,,,,,
1996-02-01,12.84375,14.0625,12.40625,13.71875,7.361095428466797,42904400.0
1996-03-01,13.84375,14.8125,12.96875,14.21875,7.629378795623779,44638000.0
1996-03-04,,,,,,
1996-04-01,14.21875,14.84375,13.65625,14.34375,7.83865213394165,43798800.0
1996-05-01,14.34375,14.59375,12.375,13.90625,7.599562644958496,83035200.0
1996-06-01,13.78125,14.09375,12.375,13.875,7.582483291625977,62926800.0
1996-06-03,,,,,,
1996-07-01,13.5625,14.40625,12.875,13.03125,7.251756191253662,74847200.0
1996-08-01,13.0625,14.25,13.0625,13.15625,7.321320056915283,39386800.0
1996-08-30,,,,,,
1996-09-01,13.375,14.15625,12.375,12.90625,7.318997383117676,60667600.0
1996-10-01,12.96875,15.90625,12.8125,14.15625,8.027862548828125,106174800.0
1996-11-01,14.21875,15.90625,13.53125,15.0625,8.541788101196289,55821600.0
1996-11-27,,,,,,
1996-11-29,,,,,,
1996-12-01,15.0625,15.8125,14.0625,15.0625,8.831938743591309,39642000.0
1997-01-01,15.0625,18.5,14.84375,18.09375,10.609319686889648,88976800.0
1997-02-01,18.0,18.40625,15.90625,16.15625,9.473258972167969,56862400.0
1997-03-01,15.875,18.625,15.34375,16.9375,9.931351661682129,73604800.0
1997-03-03,,,,,,
1997-04-01,17.0,18.5,15.8125,17.65625,10.515507698059082,68837600.0
1997-05-01,17.59375,19.59375,16.78125,19.34375,11.520529747009277,57497600.0
1997-06-01,19.5,20.96875,18.15625,19.8125,11.799704551696777,96146800.0
1997-06-02,,,,,,
1997-07-01,19.90625,23.5,19.65625,23.0,13.87742805480957,73970600.0
1997-07-22,,,,,,
1997-08-01,22.8125,24.15625,20.625,23.875,14.405373573303223,45726200.0
1997-08-29,,,,,,
1997-09-01,23.875,26.46875,23.75,26.0,15.769244194030762,41396400.0
1997-10-01,26.25,31.625,25.96875,29.8125,18.081552505493164,73369800.0
1997-11-01,30.25,31.625,26.0,26.96875,16.356792449951172,68348200.0
1997-11-28,,,,,,
1997-12-01,27.1875,29.1875,22.84375,25.9375,15.804153442382812,86968600.0
1998-01-01,25.96875,25.96875,20.375,22.46875,13.690590858459473,101458800.0
1998-02-01,22.6875,24.84375,21.125,23.28125,14.185656547546387,105990600.0
1998-03-01,23.375,26.9375,21.0,25.0625,15.271004676818848,151573800.0
1998-03-02,,,,,,
1998-04-01,25.375,27.90625,24.375,27.375,16.770097732543945,87435200.0
1998-05-01,27.1875,28.625,23.375,23.75,14.549403190612793,77229400.0
1998-06-01,23.5625,23.65625,20.875,22.21875,13.611345291137695,100097400.0
1998-06-01,,,,,,
1998-07-01,22.25,22.84375,17.625,18.125,11.162238121032715,92749200.0
1998-08-01,18.25,18.5,13.0,13.28125,8.179224014282227,114263400.0
1998-09-01,13.75,17.34375,12.75,14.375,8.85280704498291,121790200.0
1998-09-01,,,,,,
1998-10-01,14.25,18.875,12.5,18.0,11.190576553344727,149914600.0
1998-11-01,18.375,19.75,14.28125,14.6875,9.131200790405273,112963200.0
1998-11-27,,,,,,
1998-12-01,14.375,17.125,13.53125,14.8125,9.281281471252441,164694000.0
1999-01-01,15.125,17.9375,14.28125,14.84375,9.300862312316895,135687800.0
1999-02-01,14.625,15.9375,14.0625,14.25,8.92883014678955,90775000.0
1999-03-01,14.25,20.9375,14.0625,19.25,12.061747550964355,160982400.0
1999-03-02,,,,,,
1999-04-01,19.125,22.8125,17.5,21.3125,13.47252082824707,125694200.0
1999-05-01,21.28125,22.5625,19.25,20.6875,13.077428817749023,85076000.0
1999-06-01,20.625,24.1875,19.59375,22.625,14.302205085754395,95729400.0
1999-06-01,,,,,,
1999-07-01,22.875,24.0625,21.28125,23.0625,14.667389869689941,66288600.0
1999-08-01,22.9375,25.875,22.03125,23.1875,14.7468900680542,107992600.0
1999-08-31,,,,,,
1999-09-01,23.21875,25.71875,19.28125,20.5,13.111136436462402,115478600.0
1999-10-01,20.5,21.28125,16.15625,18.84375,12.051851272583008,167228200.0
1999-11-01,19.125,22.25,17.5,19.3125,12.351651191711426,90569400.0
1999-11-29,,,,,,
1999-12-01,19.46875,20.59375,17.0,20.125,12.952116012573242,99510400.0
2000-01-01,20.21875,21.75,17.625,18.0625,11.62473201751709,142114400.0
2000-02-01,18.15625,19.875,16.71875,19.09375,12.288424491882324,115000800.0
2000-02-28,,,,,,
2000-02-29,,,,,,
2000-03-01,19.09375,22.75,17.9375,20.5625,13.428546905517578,182079200.0
2000-04-01,20.5,23.21875,18.75,22.09375,14.428547859191895,119208600.0
2000-05-01,22.03125,26.125,20.0625,25.46875,16.63262176513672,133330000.0
2000-05-30,,,,,,
2000-06-01,25.03125,25.59375,22.65625,23.59375,15.490756034851074,114454400.0
2000-07-01,23.375,23.71875,20.59375,23.0546875,15.136825561523438,123252600.0
2000-08-01,23.25,27.375,22.96875,26.5078125,17.404010772705078,130014000.0
2000-09-01,26.4375,27.59375,22.46875,24.46875,16.065244674682617,104351800.0
2000-09-01,,,,,,
2000-10-01,24.96875,25.53125,17.09375,18.53125,12.224555015563965,215319200.0
2000-11-01,18.75,19.75,16.53125,16.6875,11.008282661437988,140585200.0
2000-11-28,,,,,,
2000-12-01,16.875,19.6875,16.125,18.125,12.038603782653809,127907800.0
2001-01-01,18.46875,21.09375,17.40625,20.594999313354492,13.679169654846191,127170200.0
2001-02-01,20.200000762939453,21.875,19.30500030517578,19.90999984741211,13.224193572998047,110566000.0
2001-02-27,,,,,,
2001-03-01,19.975000381469727,22.950000762939453,17.565000534057617,18.375,12.27996826171875,129876800.0
2001-04-01,18.375,21.75,16.100000381469727,21.604999542236328,14.438568115234375,132414600.0
2001-05-01,21.524999618530273,24.625,19.90999984741211,23.3700008392334,15.618107795715332,136654800.0
2001-06-01,23.3700008392334,23.950000762939453,17.600000381469727,17.799999237060547,11.895697593688965,146342800.0
2001-06-04,,,,,,
2001-07-01,17.625,18.395000457763672,14.619999885559082,17.5049991607666,11.762304306030273,203744200.0
2001-08-01,17.920000076293945,18.2450008392334,13.880000114440918,13.930000305175781,9.36012077331543,174608400.0
2001-09-01,14.0,14.850000381469727,9.675000190734863,11.274999618530273,7.5761237144470215,159667600.0
2001-09-04,,,,,,
2001-10-01,11.125,14.449999809265137,10.270000457763672,12.345000267028809,8.370206832885742,226900600.0
2001-11-01,12.425000190734863,12.449999809265137,9.925000190734863,10.71500015258789,7.265026569366455,229293000.0
2001-11-27,,,,,,
2001-12-01,10.59000015258789,11.390000343322754,5.46999979019165,6.550000190734863,4.494334697723389,615857400.0
2002-01-01,6.525000095367432,7.389999866485596,4.300000190734863,6.875,4.717334270477295,655820800.0
2002-02-01,7.025000095367432,9.0,6.425000190734863,8.25,5.660800933837891,274368000.0
2002-02-26,,,,,,
2002-03-01,8.329999923706055,8.84000015258789,7.75,8.53499984741211,5.9465651512146,212595000.0
2002-04-01,8.585000038146973,9.109999656677246,8.130000114440918,8.494999885559082,5.91869592666626,153162800.0
2002-05-01,8.449999809265137,9.8149995803833,7.744999885559082,9.274999618530273,6.462143421173096,203146200.0
2002-06-01,9.25,9.350000381469727,7.300000190734863,7.96999979019165,5.552913188934326,121249800.0
2002-06-04,,,,,,
2002-07-01,7.900000095367432,7.920000076293945,4.485000133514404,6.599999904632568,4.661981582641602,213182200.0
2002-08-01,6.599999904632568,7.724999904632568,5.650000095367432,7.599999904632568,5.368343353271484,113569400.0
2002-09-01,7.409999847412109,8.0,6.025000095367432,6.454999923706055,4.5595598220825195,90789400.0
2002-09-03,,,,,,
2002-10-01,6.454999923706055,8.220000267028809,6.224999904632568,8.09000015258789,5.810018539428711,149342400.0
2002-11-01,8.0649995803833,10.694999694824219,7.699999809265137,10.6850004196167,7.673677921295166,202060800.0
2002-11-25,,,,,,
2002-12-01,10.5,11.5,8.949999809265137,9.354999542236328,6.808812618255615,250950600.0
2003-01-01,9.524999618530273,10.0,8.600000381469727,9.380000114440918,6.8270087242126465,171258800.0
2003-02-01,9.555000305175781,10.4399995803833,9.3100004196167,10.130000114440918,7.372878551483154,128159600.0
2003-03-01,10.225000381469727,11.050000190734863,9.324999809265137,10.364999771118164,7.543915748596191,203008200.0
2003-03-04,,,,,,
2003-04-01,10.369999885559082,10.880000114440918,9.989999771118164,10.704999923706055,7.887568473815918,136998600.0
2003-05-01,10.75,12.335000038146973,10.5600004196167,11.9350004196167,8.793845176696777,164566200.0
2003-06-01,11.899999618530273,12.6850004196167,10.954999923706055,11.5,8.473332405090332,246847000.0
2003-06-03,,,,,,
2003-07-01,11.5,11.949999809265137,10.25,11.085000038146973,8.255491256713867,231935800.0
2003-08-01,10.989999771118164,12.095000267028809,10.375,12.09000015258789,9.00395393371582,134147000.0
2003-09-01,12.024999618530273,12.949999809265137,11.824999809265137,12.125,9.03002643585205,135161800.0
2003-09-02,,,,,,
2003-10-01,12.125,13.350000381469727,11.550000190734863,11.9399995803833,8.985145568847656,181787200.0
2003-11-01,12.109999656677246,12.345000267028809,11.114999771118164,11.675000190734863,8.785724639892578,95961000.0
2003-11-28,,,,,,
2003-12-01,11.725000381469727,13.600000381469727,11.609999656677246,13.0,9.888420104980469,168705800.0
2004-01-01,13.010000228881836,15.34000015258789,12.899999618530273,15.074999809265137,11.466766357421875,185316200.0
2004-02-01,15.244999885559082,16.059999465942383,14.510000228881836,15.979999542236328,12.155150413513184,143219200.0
2004-03-01,16.0,16.350000381469727,13.805000305175781,15.194999694824219,11.558042526245117,248905600.0
2004-03-02,,,,,,
2004-04-01,15.194999694824219,16.174999237060547,14.529999732971191,14.899999618530273,11.421485900878906,148419600.0
2004-05-01,14.850000381469727,15.354999542236328,13.675000190734863,14.520000457763672,11.130195617675781,145259200.0
2004-06-01,14.675000190734863,15.670000076293945,14.225000381469727,15.130000114440918,11.597785949707031,147587000.0
2004-06-01,,,,,,
2004-07-01,15.045000076293945,16.0,14.510000228881836,15.875,12.274530410766602,122698000.0
2004-08-01,15.765000343322754,15.925000190734863,13.225000381469727,14.585000038146973,11.277105331420898,169544000.0
2004-08-31,,,,,,
2004-09-01,14.614999771118164,16.989999771118164,14.529999732971191,16.844999313354492,13.137750625610352,165961000.0
2004-10-01,16.844999313354492,18.985000610351562,16.540000915527344,18.520000457763672,14.444114685058594,216909400.0
2004-11-01,18.565000534057617,20.844999313354492,17.725000381469727,20.674999237060547,16.12484359741211,197564600.0
2004-11-29,,,,,,
2004-12-01,20.204999923706055,20.600000381469727,18.829999923706055,19.6200008392334,15.396279335021973,165480000.0
2005-01-01,19.375,21.790000915527344,18.59000015258789,20.565000534057617,16.13784408569336,283702600.0
2005-02-01,20.56999969482422,22.645000457763672,20.174999237060547,21.985000610351562,17.252151489257812,172716400.0
2005-03-01,21.875,22.5,20.0,21.625,16.969642639160156,299000400.0
2005-03-01,,,,,,
2005-04-01,22.0,23.1299991607666,20.125,20.795000076293945,16.41164207458496,277343200.0
2005-05-01,20.795000076293945,21.75,19.825000762939453,21.3700008392334,16.865434646606445,186948200.0
2005-05-31,,,,,,
2005-06-01,21.459999084472656,24.69499969482422,21.0,23.90999984741211,18.979869842529297,194334600.0
2005-07-01,24.125,28.399999618530273,22.8799991607666,28.024999618530273,22.246370315551758,256809400.0
2005-08-01,28.225000381469727,31.0,27.469999313354492,31.0,24.607938766479492,262626800.0
2005-08-31,,,,,,
2005-09-01,31.235000610351562,34.88999938964844,31.024999618530273,34.2599983215332,27.309846878051758,275769000.0
2005-10-01,34.439998626708984,34.685001373291016,27.350000381469727,29.549999237060547,23.555334091186523,366167400.0
2005-11-01,29.399999618530273,33.0,27.7450008392334,31.825000762939453,25.368820190429688,321697400.0
2005-11-29,,,,,,
2005-12-01,32.125,34.11000061035156,30.309999465942383,30.979999542236328,24.793506622314453,210584200.0
2006-01-01,31.584999084472656,41.19499969482422,31.350000381469727,39.810001373291016,31.860231399536133,357714800.0
2006-02-01,40.150001525878906,40.845001220703125,33.775001525878906,34.0,27.21044921875,354018600.0
2006-02-28,,,,,,
2006-03-01,34.18000030517578,37.494998931884766,32.470001220703125,36.5099983215332,29.346799850463867,287376400.0
2006-04-01,36.88999938964844,41.98500061035156,36.20000076293945,39.07500076293945,31.408557891845703,282331000.0
2006-05-01,39.38999938964844,41.57500076293945,34.150001525878906,37.29499816894531,29.977785110473633,350760000.0
2006-05-30,,,,,,
2006-06-01,36.875,38.81999969482422,33.92499923706055,37.10499954223633,29.947046279907227,400701200.0
2006-07-01,37.4900016784668,37.93000030517578,29.5,33.36000061035156,26.92450714111328,342549900.0
2006-07-17,,,,,,
2006-08-01,33.400001525878906,34.709999084472656,32.56999969482422,32.619998931884766,26.327255249023438,248086100.0
2006-08-30,,,,,,
2006-09-01,32.81999969482422,33.09000015258789,27.350000381469727,28.450000762939453,23.013031005859375,313792100.0
2006-10-01,28.299999237060547,33.0,26.329999923706055,32.349998474121094,26.167720794677734,389507400.0
2006-11-01,32.130001068115234,34.29999923706055,30.899999618530273,33.7400016784668,27.29208755493164,302177200.0
2006-11-29,,,,,,
2006-12-01,33.650001525878906,33.779998779296875,30.799999237060547,31.049999237060547,25.173873901367188,232198100.0
2007-01-01,30.899999618530273,30.899999618530273,27.649999618530273,29.540000915527344,23.949636459350586,433005100.0
2007-02-01,29.709999084472656,32.29999923706055,29.350000381469727,30.920000076293945,25.06847381591797,300753000.0
2007-02-27,,,,,,
2007-03-01,30.540000915527344,32.720001220703125,29.579999923706055,31.739999771118164,25.7939395904541,643662300.0
2007-04-01,31.799999237060547,33.400001525878906,30.989999771118164,31.770000457763672,25.81831932067871,466820600.0
2007-05-01,31.690000534057617,37.20000076293945,31.0,35.95000076293945,29.215248107910156,448131500.0
2007-05-30,,,,,,
2007-06-01,36.150001525878906,36.7400016784668,33.77000045776367,34.5,28.107566833496094,336102700.0
2007-07-01,34.560001373291016,38.290000915527344,33.79999923706055,36.02000045776367,29.345935821533203,336003200.0
2007-08-01,35.810001373291016,37.79999923706055,30.809999465942383,34.59000015258789,28.18089485168457,451723800.0
2007-08-29,,,,,,
2007-09-01,34.54999923706055,39.16999816894531,34.45000076293945,38.400001525878906,31.370634078979492,216569500.0
2007-10-01,38.400001525878906,41.95000076293945,37.79999923706055,39.41999816894531,32.20390319824219,304458500.0
2007-11-01,39.04999923706055,40.880001068115234,34.41999816894531,36.61000061035156,29.908315658569336,270195600.0
2007-11-29,,,,,,
2007-12-01,36.56999969482422,38.869998931884766,35.939998626708984,37.90999984741211,31.048263549804688,178627400.0
2008-01-01,38.04999923706055,39.66999816894531,30.0,33.16999816894531,27.16621971130371,355705000.0
2008-02-01,33.349998474121094,39.36000061035156,32.880001068115234,38.29999923706055,31.367700576782227,268996300.0
2008-02-28,,,,,,
2008-03-01,38.31999969482422,39.97999954223633,35.150001525878906,39.33000183105469,32.28864669799805,314751000.0
2008-04-01,39.400001525878906,48.33000183105469,38.560001373291016,45.90999984741211,37.690608978271484,336911800.0
2008-05-01,45.43000030517578,50.290000915527344,43.7599983215332,48.58000183105469,39.88260269165039,242188300.0
2008-05-29,,,,,,
2008-06-01,48.58000183105469,53.970001220703125,46.54999923706055,53.06999969482422,43.649085998535156,238513200.0
2008-07-01,53.08000183105469,55.380001068115234,43.209999084472656,44.81999969482422,36.86360168457031,362827900.0
2008-08-01,44.75,46.619998931884766,42.04999923706055,43.939998626708984,36.139827728271484,282900400.0
2008-08-28,,,,,,
2008-09-01,42.36000061035156,46.619998931884766,29.0,32.38999938964844,26.69265365600586,445967300.0
2008-10-01,31.84000015258789,32.09000015258789,15.520000457763672,19.790000915527344,16.308977127075195,694350200.0
2008-11-01,19.209999084472656,20.65999984741211,13.220000267028809,17.600000381469727,14.504192352294922,356227500.0
2008-12-01,16.700000762939453,18.790000915527344,12.800000190734863,18.18000030517578,14.982169151306152,356515500.0
2008-12-01,,,,,,
2009-01-01,18.18000030517578,21.469999313354492,16.15999984741211,17.25,14.288819313049316,361896000.0
2009-02-01,16.889999389648438,20.510000228881836,15.890000343322754,16.309999465942383,13.51018238067627,287732200.0
2009-02-27,,,,,,
2009-03-01,15.850000381469727,18.68000030517578,14.680000305175781,15.470000267028809,12.883817672729492,393835200.0
2009-04-01,15.029999732971191,20.979999542236328,14.819999694824219,20.219999313354492,16.839744567871094,383122500.0
2009-05-01,20.239999771118164,24.239999771118164,20.110000610351562,22.93000030517578,19.096691131591797,307666400.0
2009-05-28,,,,,,
2009-06-01,23.649999618530273,24.760000228881836,20.0,20.700000762939453,17.31011962890625,341412900.0
2009-07-01,21.049999237060547,23.579999923706055,18.110000610351562,22.09000015258789,18.472482681274414,355853600.0
2009-08-01,22.690000534057617,25.709999084472656,21.690000534057617,23.709999084472656,19.827180862426758,325319000.0
2009-08-31,,,,,,
2009-09-01,23.6200008392334,28.579999923706055,23.200000762939453,27.1200008392334,22.76366424560547,266838500.0
2009-10-01,27.1200008392334,31.950000762939453,25.5,29.209999084472656,24.5179386138916,377051300.0
2009-11-01,29.299999237060547,32.0,28.280000686645508,29.360000610351562,24.643850326538086,269413000.0
2009-12-01,29.6299991607666,30.65999984741211,26.549999237060547,30.09000015258789,25.2565860748291,255171700.0
2009-12-01,,,,,,
2010-01-01,30.719999313354492,34.869998931884766,29.010000228881836,29.209999084472656,24.593324661254883,322952600.0
2010-02-01,29.56999969482422,32.150001525878906,27.709999084472656,30.149999618530273,25.384767532348633,283008600.0
2010-02-26,,,,,,
2010-03-01,30.459999084472656,32.83000183105469,29.25,30.1299991607666,25.444259643554688,289525000.0
2010-04-01,30.530000686645508,35.220001220703125,29.059999465942383,30.649999618530273,25.883386611938477,388375900.0
2010-05-01,29.93000030517578,32.369998931884766,24.329999923706055,24.829999923706055,20.96849822998047,522363200.0
2010-05-27,,,,,,
2010-06-01,23.299999237060547,27.739999771118164,21.100000381469727,24.549999237060547,20.80439567565918,546871800.0
2010-07-01,25.18000030517578,31.06999969482422,24.270000457763672,29.8799991607666,25.321197509765625,378896200.0
2010-08-01,30.59000015258789,31.549999237060547,27.360000610351562,28.209999084472656,23.90598487854004,248970700.0
2010-08-30,,,,,,
2010-09-01,28.90999984741211,33.84000015258789,28.690000534057617,33.06999969482422,28.110992431640625,222007100.0
2010-10-01,33.47999954223633,35.88999938964844,28.860000610351562,31.860000610351562,27.082433700561523,394353800.0
2010-11-01,32.119998931884766,38.47999954223633,30.68000030517578,37.84000015258789,32.16569900512695,397132300.0
2010-12-01,38.599998474121094,41.72999954223633,38.599998474121094,40.83000183105469,34.707340240478516,228517900.0
2010-12-01,,,,,,
2011-01-01,41.349998474121094,45.38999938964844,37.68000030517578,45.0,38.34321594238281,305207100.0
2011-02-01,45.2599983215332,48.84000015258789,43.36000061035156,46.939998626708984,39.996253967285156,276369100.0
2011-02-28,,,,,,
2011-03-01,47.5099983215332,50.470001220703125,42.5,49.84000015258789,42.54867172241211,276332300.0
2011-04-01,50.220001220703125,51.45000076293945,44.599998474121094,50.47999954223633,43.09504699707031,249231100.0
2011-05-01,50.75,51.18000030517578,44.470001220703125,50.150001525878906,42.81331253051758,236404100.0
2011-05-27,,,,,,
2011-06-01,49.880001068115234,51.38999938964844,45.189998626708984,51.0,43.616451263427734,260866100.0
2011-07-01,50.9900016784668,57.77000045776367,50.099998474121094,54.72999954223633,46.80644989013672,242389800.0
2011-08-01,55.900001525878906,56.0,36.790000915527344,44.369998931884766,37.94631576538086,411452100.0
2011-08-30,,,,,,
2011-09-01,44.68000030517578,44.84000015258789,30.479999542236328,30.520000457763672,26.15644645690918,376987100.0
2011-10-01,30.059999465942383,39.619998931884766,27.209999084472656,37.36000061035156,32.01850509643555,470046100.0
2011-11-01,34.720001220703125,40.43000030517578,31.799999237060547,36.79999923706055,31.5385684967041,359476800.0
2011-11-30,,,,,,
2011-12-01,36.5099983215332,37.900001525878906,30.31999969482422,34.5099983215332,29.65534210205078,381350800.0
2012-01-01,33.880001068115234,37.95000076293945,33.63999938964844,36.779998779296875,31.606014251708984,388438000.0
2012-02-01,37.27000045776367,39.189998626708984,34.83000183105469,36.59000015258789,31.442747116088867,274232400.0
2012-03-01,36.88999938964844,37.0099983215332,32.02000045776367,33.189998626708984,28.521032333374023,343396600.0
2012-03-05,,,,,,
2012-04-01,33.0,35.06999969482422,31.6200008392334,34.220001220703125,29.479738235473633,295846800.0
2012-05-01,34.2599983215332,35.31999969482422,29.100000381469727,30.059999465942383,25.895998001098633,298514900.0
2012-06-01,29.420000076293945,30.3799991607666,26.280000686645508,28.389999389648438,24.457332611083984,403077400.0
2012-06-04,,,,,,
2012-07-01,28.459999084472656,33.939998626708984,27.6200008392334,33.130001068115234,28.626697540283203,316304300.0
2012-08-01,33.369998931884766,35.47999954223633,32.40999984741211,32.7599983215332,28.306989669799805,232243800.0
2012-08-31,,,,,,
2012-09-01,32.7400016784668,38.0,31.0,33.689998626708984,29.190649032592773,275126600.0
2012-10-01,33.93000030517578,36.0,31.920000076293945,32.290000915527344,27.977624893188477,268741800.0
2012-11-01,32.29999923706055,33.45000076293945,29.829999923706055,33.349998474121094,28.896053314208984,245243500.0
2012-12-01,33.5,35.380001068115234,32.81999969482422,34.689998626708984,30.057096481323242,183319900.0
2012-12-04,,,,,,
2013-01-01,35.47999954223633,41.060001373291016,35.06999969482422,40.68000030517578,35.3432731628418,258173700.0
2013-02-01,40.9900016784668,43.959999084472656,39.4900016784668,41.5099983215332,36.06439971923828,227782900.0
2013-03-01,41.16999816894531,42.63999938964844,38.83000183105469,40.40999984741211,35.108699798583984,219589500.0
2013-03-04,,,,,,
2013-04-01,40.349998474121094,42.81999969482422,36.77000045776367,42.77000045776367,37.273765563964844,283427200.0
2013-05-01,42.0,45.75,41.689998626708984,41.849998474121094,36.47199630737305,226173500.0
2013-06-01,41.93000030517578,44.470001220703125,40.119998931884766,41.720001220703125,36.358707427978516,171319500.0
2013-06-03,,,,,,
2013-07-01,42.029998779296875,46.65999984741211,41.86000061035156,45.189998626708984,39.500762939453125,209332900.0
2013-08-01,45.720001220703125,49.369998931884766,45.34000015258789,48.0,41.956993103027344,242418400.0
2013-08-30,,,,,,
2013-09-01,48.349998474121094,50.5,47.459999084472656,48.150001525878906,42.196773529052734,159336100.0
2013-10-01,48.11000061035156,53.939998626708984,47.9900016784668,53.029998779296875,46.47342300415039,176918400.0
2013-11-01,53.16999816894531,56.52000045776367,52.040000915527344,52.68000030517578,46.16669845581055,164302100.0
2013-12-01,52.83000183105469,52.97999954223633,48.709999084472656,50.75,44.475318908691406,208875100.0
2013-12-04,,,,,,
2014-01-01,50.470001220703125,51.5,47.599998474121094,49.0099983215332,43.07466506958008,187710100.0
2014-02-01,49.06999969482422,57.41999816894531,47.95000076293945,57.0,50.09703826904297,179831800.0
2014-03-01,56.290000915527344,59.9900016784668,54.56999969482422,58.88999938964844,51.758140563964844,157773000.0
2014-03-03,,,,,,
2014-04-01,58.689998626708984,65.11000061035156,57.130001068115234,63.06999969482422,55.57818603515625,186083100.0
2014-05-01,63.130001068115234,64.94000244140625,61.20000076293945,64.63999938964844,56.96168899536133,117408600.0
2014-06-01,64.69000244140625,71.26000213623047,64.37000274658203,71.01000213623047,62.57503890991211,124022500.0
2014-06-02,,,,,,
2014-07-01,71.2699966430664,74.33000183105469,68.51000213623047,68.98999786376953,60.936378479003906,137094500.0
2014-08-01,68.56999969482422,70.5,66.7699966430664,67.61000061035156,59.71747970581055,141509700.0
2014-08-29,,,,,,
2014-09-01,68.16999816894531,68.18000030517578,63.060001373291016,64.51000213623047,57.10648727416992,160761000.0
2014-10-01,64.62999725341797,64.87999725341797,48.16999816894531,55.13999938964844,48.811832427978516,393352800.0
2014-11-01,55.5,58.0,41.869998931884766,42.20000076293945,37.35689926147461,477322400.0
2014-12-01,42.02000045776367,42.130001068115234,37.209999084472656,39.33000183105469,34.816287994384766,565585600.0
2014-12-03,,,,,,
2015-01-01,39.16999816894531,42.04999923706055,37.27000045776367,39.9900016784668,35.559207916259766,387267900.0
2015-02-01,40.91999816894531,44.91999816894531,40.279998779296875,42.939998626708984,38.182350158691406,309079400.0
2015-03-01,42.7599983215332,44.43000030517578,39.27000045776367,43.880001068115234,39.018192291259766,287158300.0
2015-03-02,,,,,,
2015-04-01,44.290000915527344,49.70000076293945,43.4900016784668,48.95000076293945,43.70968246459961,331822600.0
2015-05-01,48.88999938964844,50.20000076293945,44.720001220703125,45.400001525878906,40.53972244262695,241333100.0
2015-06-01,45.349998474121094,46.689998626708984,42.459999084472656,43.06999969482422,38.45914840698242,242643300.0
2015-06-01,,,,,,
2015-07-01,43.22999954223633,43.709999084472656,39.31999969482422,41.790000915527344,37.46472930908203,342760500.0
2015-08-01,41.29999923706055,43.02000045776367,30.93000030517578,38.040000915527344,34.10285568237305,359165200.0
2015-08-31,,,,,,
2015-09-01,38.099998474121094,39.52000045776367,34.36000061035156,35.349998474121094,31.839784622192383,255699700.0
2015-10-01,35.869998931884766,41.279998779296875,34.40999984741211,38.380001068115234,34.56890869140625,265953300.0
2015-11-01,38.209999084472656,40.310001373291016,36.77000045776367,39.849998474121094,35.89293670654297,204010800.0
2015-12-01,39.5,40.52000045776367,33.13999938964844,34.040000915527344,30.659868240356445,298683500.0
2015-12-01,,,,,,
2016-01-01,33.86000061035156,34.72999954223633,27.639999389648438,31.790000915527344,28.763214111328125,278957000.0
2016-02-01,31.290000915527344,33.4900016784668,27.959999084472656,32.279998779296875,29.206546783447266,224042300.0
2016-02-29,,,,,,
2016-03-01,32.56999969482422,36.7400016784668,32.2400016784668,35.720001220703125,32.497310638427734,231521200.0
2016-04-01,35.06999969482422,41.93000030517578,33.2599983215332,41.310001373291016,37.58297348022461,244506800.0
2016-05-01,41.529998779296875,43.20000076293945,38.2400016784668,42.18000030517578,38.374481201171875,228031500.0
2016-05-27,,,,,,
2016-06-01,41.79999923706055,46.689998626708984,41.459999084472656,45.290000915527344,41.37858200073242,218962800.0
2016-07-01,45.20000076293945,46.47999954223633,42.16999816894531,43.65999984741211,39.889339447021484,176164300.0
2016-08-01,43.41999816894531,46.900001525878906,41.47999954223633,43.0099983215332,39.29548263549805,158241900.0
2016-09-01,43.0099983215332,45.08000183105469,40.119998931884766,44.880001068115234,41.00398254394531,174982300.0
2016-09-02,,,,,,
2016-10-01,45.11000061035156,50.22999954223633,44.22999954223633,46.0,42.20305633544922,174610800.0
2016-11-01,46.369998931884766,54.91999816894531,45.08000183105469,53.09000015258789,48.70783615112305,188183700.0
2016-12-01,54.08000183105469,56.08000183105469,52.88999938964844,54.20000076293945,49.72621154785156,175367500.0
2016-12-05,,,,,,
2017-01-01,54.959999084472656,58.779998779296875,53.91999816894531,56.56999969482422,52.07362365722656,181312500.0
2017-02-01,57.18000030517578,57.380001068115234,52.349998474121094,53.459999084472656,49.2108154296875,143183700.0
2017-02-27,,,,,,
2017-03-01,53.970001220703125,55.209999084472656,47.52000045776367,49.209999084472656,45.453365325927734,204293100.0
2017-04-01,49.459999084472656,51.2599983215332,45.099998474121094,45.880001068115234,42.3775749206543,151038900.0
2017-05-01,45.939998626708984,48.31999969482422,43.70000076293945,45.189998626708984,41.74024963378906,219379000.0
2017-06-01,45.29999923706055,46.220001220703125,41.36000061035156,42.709999084472656,39.44957733154297,233073500.0
2017-06-05,,,,,,
2017-07-01,42.939998626708984,46.060001373291016,41.029998779296875,42.439998626708984,39.3565673828125,193154000.0
2017-08-01,42.5,42.95000076293945,38.18000030517578,38.970001220703125,36.138668060302734,166618200.0
2017-09-01,38.9900016784668,46.18000030517578,38.810001373291016,46.029998779296875,42.685733795166016,192161800.0
2017-09-01,,,,,,
2017-10-01,45.22999954223633,45.869998931884766,40.959999084472656,42.7400016784668,39.81869125366211,175661900.0
2017-11-01,43.150001525878906,45.93000030517578,40.720001220703125,41.779998779296875,38.9243049621582,155202800.0
2017-12-01,41.869998931884766,49.290000915527344,41.849998474121094,48.869998931884766,45.52969741821289,171626100.0
2017-12-06,,,,,,
2018-01-01,48.91999816894531,57.86000061035156,48.720001220703125,53.70000076293945,50.23682403564453,207405400.0
2018-02-01,53.630001068115234,54.70000076293945,45.099998474121094,46.41999816894531,43.42631912231445,201516300.0
2018-03-01,45.93000030517578,48.08000183105469,44.209999084472656,46.939998626708984,43.91278076171875,181240100.0
2018-03-06,,,,,,
2018-04-01,46.689998626708984,53.709999084472656,45.20000076293945,52.9900016784668,49.766258239746094,180869200.0
2018-05-01,52.65999984741211,54.90999984741211,49.040000915527344,49.7400016784668,46.7139778137207,154147100.0
2018-06-01,50.0,50.119998931884766,44.40999984741211,45.060001373291016,42.318687438964844,193588800.0
2018-06-05,,,,,,
2018-07-01,44.880001068115234,47.029998779296875,39.470001220703125,42.41999816894531,39.98941421508789,219512300.0
2018-08-01,41.9900016784668,42.47999954223633,38.93000030517578,39.88999938964844,37.60437774658203,142457100.0
2018-09-01,39.91999816894531,41.68000030517578,35.75,40.529998779296875,38.207706451416016,189721500.0
2018-09-04,,,,,,
2018-10-01,40.720001220703125,42.56999969482422,33.72999954223633,34.68000030517578,32.841094970703125,247640800.0
2018-11-01,34.900001525878906,36.5099983215332,30.469999313354492,31.43000030517578,29.763425827026367,227062200.0
2018-12-01,32.349998474121094,33.11000061035156,24.700000762939453,26.579999923706055,25.170595169067383,266269700.0
2018-12-05,,,,,,
2018-12-06,,,,,,
2019-01-01,26.110000610351562,32.369998931884766,26.010000228881836,31.360000610351562,30.04012680053711,225289800.0
2019-02-01,31.5,32.709999084472656,29.399999618530273,30.690000534057617,29.398324966430664,153562200.0
2019-03-01,30.889999389648438,31.479999542236328,27.010000228881836,29.299999237060547,28.06682586669922,223123100.0
2019-03-05,,,,,,
2019-04-01,29.6299991607666,32.29999923706055,28.209999084472656,28.329999923706055,27.296249389648438,196202500.0
2019-05-01,28.3700008392334,28.56999969482422,21.139999389648438,21.290000915527344,20.513137817382812,251365200.0
2019-06-01,21.350000381469727,23.540000915527344,20.979999542236328,22.739999771118164,21.910228729248047,304808100.0
2019-06-04,,,,,,
2019-07-01,23.260000228881836,24.079999923706055,21.219999313354492,23.0,22.34696388244629,295552300.0
2019-08-01,22.709999084472656,22.760000228881836,16.969999313354492,18.84000015258789,18.305076599121094,305760100.0
2019-09-01,18.200000762939453,22.75,18.1299991607666,18.850000381469727,18.314794540405273,293857000.0
2019-09-03,,,,,,
2019-10-01,19.0,20.639999389648438,18.020000457763672,19.25,18.88385581970215,287916200.0
2019-11-01,19.420000076293945,21.520000457763672,19.350000381469727,20.989999771118164,20.59075927734375,191275600.0
2019-12-01,21.100000381469727,25.34000015258789,20.450000762939453,24.469999313354492,24.004568099975586,269496300.0
2019-12-04,,,,,,
2020-01-01,24.690000534057617,25.469999313354492,21.200000762939453,21.809999465942383,21.582019805908203,261274100.0
2020-02-01,21.809999465942383,22.8700008392334,16.299999237060547,16.959999084472656,16.782716751098633,228830700.0
2020-03-01,17.25,17.270000457763672,4.25,6.769999980926514,6.699233055114746,726717000.0
2020-03-03,,,,,,
2020-03-26,6.880000114440918,7.769999980926514,6.755000114440918,7.144999980926514,7.144999980926514,22607639.0
