Date,Open,High,Low,Close,Adj Close,Volume
2014-06-01,26.149999618530273,27.450000762939453,26.059999465942383,26.979999542236328,26.923227310180664,42231400.0
2014-07-01,27.200000762939453,27.200000762939453,25.134000778198242,25.309999465942383,25.256742477416992,14066900.0
2014-08-01,25.059999465942383,26.579999923706055,24.059999465942383,25.010000228881836,24.957372665405273,9253400.0
2014-09-01,0.7799999713897705,25.510000228881836,0.009999999776482582,23.350000381469727,23.300867080688477,6680086.0
2014-10-01,23.31999969482422,25.969999313354492,20.989999771118164,25.540000915527344,25.48625946044922,11051800.0
2014-11-01,25.540000915527344,26.0,23.56999969482422,25.43000030517578,25.376489639282227,7635400.0
2014-12-01,25.450000762939453,26.950000762939453,24.280000686645508,26.43000030517578,26.374385833740234,10373200.0
2015-01-01,0.006500000134110451,27.200000762939453,0.006500000134110451,26.25,26.194765090942383,10550386.0
2015-02-01,26.18000030517578,27.389999389648438,25.670000076293945,26.649999618530273,26.593921661376953,9524700.0
2015-03-01,26.700000762939453,27.5,25.260000228881836,26.899999618530273,26.843395233154297,8323100.0
2015-04-01,26.899999618530273,27.6299991607666,25.40999984741211,25.649999618530273,25.596025466918945,7553900.0
2015-05-01,25.790000915527344,26.850000381469727,0.006599999964237213,0.006599999964237213,0.006586112082004547,11450814.0
2015-06-01,26.719999313354492,27.100000381469727,25.360000610351562,25.56999969482422,25.51619529724121,18572900.0
2015-07-01,25.8799991607666,27.190000534057617,25.615999221801758,26.6200008392334,26.56398582458496,7639300.0
2015-08-01,26.540000915527344,29.979999542236328,26.229999542236328,28.579999923706055,28.519861221313477,12658200.0
2015-09-01,28.34000015258789,29.75,0.009999999776482582,0.009999999776482582,0.00997895747423172,9782800.0
2015-10-01,29.079999923706055,30.8700008392334,0.009999999776482582,0.013000000268220901,0.012972645461559296,7616978.0
2015-11-01,30.690000534057617,30.860000610351562,28.139999389648438,29.5,29.437925338745117,11717600.0
2015-12-01,29.309999465942383,30.5,0.009999999776482582,0.010499999858438969,0.010477905161678791,10976514.0
2016-01-01,29.899999618530273,30.299999237060547,0.009999999776482582,0.009999999776482582,0.00997895747423172,14183850.0
2016-02-01,28.34000015258789,28.979999542236328,0.007499999832361937,0.007499999832361937,0.00748421810567379,11001150.0
2016-03-01,27.950000762939453,35.349998474121094,0.006599999964237213,0.007499999832361937,0.00748421810567379,37021961.0
2016-04-01,35.189998626708984,35.76499938964844,0.006599999964237213,0.006599999964237213,0.006586112082004547,14154415.0
2016-05-01,35.0,35.43000030517578,32.959999084472656,34.369998931884766,34.29767608642578,13799100.0
2016-06-01,34.16999816894531,34.43000030517578,0.0035000001080334187,0.009999999776482582,0.00997895747423172,13160707.0
2016-07-01,32.63999938964844,36.83000183105469,31.899999618530273,35.88999938964844,35.81447982788086,74229500.0
2016-07-13,,,,,,
2016-08-01,34.72999954223633,37.5,32.900001525878906,37.31999969482422,37.24147033691406,32616000.0
2016-09-01,37.5,37.834999084472656,35.08000183105469,37.54999923706055,37.470985412597656,38005700.0
2016-10-01,37.290000915527344,37.849998474121094,35.81999969482422,36.790000915527344,36.71258544921875,35286600.0
2016-11-01,36.900001525878906,37.27000045776367,34.130001068115234,35.939998626708984,35.86437225341797,62500100.0
2016-12-01,35.880001068115234,36.150001525878906,34.20000076293945,35.40999984741211,35.33549118041992,61555100.0
2017-01-01,35.619998931884766,39.97999954223633,35.55500030517578,39.45000076293945,39.36698913574219,46483200.0
2017-02-01,39.599998474121094,40.880001068115234,38.08000183105469,39.79999923706055,39.716251373291016,43390000.0
2017-03-01,40.18000030517578,42.18000030517578,37.81999969482422,41.95000076293945,41.86172866821289,48849800.0
2017-04-01,42.040000915527344,44.0,41.43000030517578,43.400001525878906,43.308677673339844,29719800.0
2017-05-01,43.33000183105469,47.060001373291016,43.02000045776367,45.849998474121094,45.75352096557617,58230900.0
2017-06-01,46.06999969482422,47.91999816894531,44.029998779296875,44.040000915527344,43.947330474853516,147230500.0
2017-07-01,44.209999084472656,46.7400016784668,43.34000015258789,46.650001525878906,46.55183792114258,33078200.0
2017-08-01,46.75,47.22999954223633,44.97999954223633,46.84000015258789,46.74143981933594,45509900.0
2017-09-01,47.0,48.529998779296875,43.849998474121094,44.08000183105469,43.987247467041016,66544000.0
2017-10-01,44.099998474121094,44.779998779296875,42.400001525878906,42.61000061035156,42.52033996582031,46375000.0
2017-11-01,42.810001373291016,44.869998931884766,42.52000045776367,44.619998931884766,44.52610778808594,42722700.0
2017-12-01,44.810001373291016,46.099998474121094,44.38999938964844,45.150001525878906,45.054996490478516,30230500.0
2018-01-01,45.95000076293945,49.189998626708984,44.84000015258789,47.72999954223633,47.62956619262695,50990900.0
2018-02-01,47.650001525878906,47.93000030517578,43.06999969482422,47.04999923706055,46.95099639892578,36831500.0
2018-03-01,47.0099983215332,50.0,45.76499938964844,48.2400016784668,48.138492584228516,47559500.0
2018-04-01,48.13999938964844,49.77000045776367,46.59000015258789,49.130001068115234,49.02661895751953,37248100.0
2018-05-01,49.029998779296875,52.61000061035156,48.0,49.279998779296875,49.17630386352539,44096300.0
2018-06-01,49.470001220703125,53.04999923706055,49.470001220703125,51.59000015258789,51.481441497802734,49334100.0
2018-07-01,50.220001220703125,54.310001373291016,46.16999816894531,53.029998779296875,52.91841125488281,30106700.0
2018-08-01,53.0099983215332,55.150001525878906,52.630001068115234,55.0,54.8842658996582,27620000.0
2018-09-01,54.83000183105469,55.9900016784668,52.93000030517578,53.959999084472656,53.84645462036133,32151400.0
2018-10-01,54.400001525878906,54.880001068115234,48.04999923706055,52.529998779296875,52.419464111328125,43571500.0
2018-11-01,52.54999923706055,53.900001525878906,49.459999084472656,53.369998931884766,53.25769805908203,43507000.0
2018-12-01,53.95000076293945,54.459999084472656,44.52000045776367,47.970001220703125,47.86906051635742,53752600.0
2019-01-01,47.189998626708984,51.9900016784668,46.34000015258789,51.91999816894531,51.81074523925781,47661200.0
2019-02-01,51.83000183105469,53.790000915527344,51.11000061035156,53.16999816894531,53.0581169128418,32364600.0
2019-03-01,53.470001220703125,55.625,52.060001373291016,54.380001068115234,54.26557159423828,43618900.0
2019-04-01,54.72999954223633,57.689998626708984,54.029998779296875,57.2599983215332,57.13951110839844,29273900.0
2019-05-01,57.16999816894531,59.13999938964844,54.33000183105469,57.38999938964844,57.26923751831055,31693200.0
2019-06-01,57.56999969482422,63.83000183105469,57.18000030517578,63.720001220703125,63.58591842651367,39748700.0
2019-07-01,62.93000030517578,66.06999969482422,62.88999938964844,64.41999816894531,64.2844467163086,35728200.0
2019-08-01,64.23999786376953,66.0,61.68299865722656,65.61000061035156,65.47193908691406,37516000.0
2019-09-01,65.05000305175781,68.87999725341797,65.05000305175781,66.87999725341797,66.73926544189453,56111600.0
2019-10-01,67.0,70.81500244140625,64.9000015258789,70.0199966430664,69.8726577758789,31689300.0
2019-11-01,70.54000091552734,73.11000061035156,67.91999816894531,72.6500015258789,72.49713134765625,34401100.0
2019-12-01,72.91000366210938,75.83000183105469,71.56999969482422,75.3499984741211,75.19144439697266,30721300.0
2020-01-01,75.38999938964844,81.27999877929688,74.66000366210938,78.86000061035156,78.69406127929688,51958900.0
2020-02-01,79.1500015258789,81.6500015258789,68.8499984741211,71.23999786376953,71.09009552001953,39425300.0
2020-02-05,,,,,,
2020-03-01,71.69999694824219,74.61499786376953,44.810001373291016,58.20000076293945,58.20000076293945,93597000.0
2020-03-26,58.189998626708984,59.91999816894531,57.88999938964844,59.47999954223633,59.47999954223633,1721650.0
