Date,Open,High,Low,Close,Adj Close,Volume
2006-12-01,25.0,26.059999465942383,21.610000610351562,24.0,24.0,16142000
2007-01-01,23.829999923706055,28.0,23.56999969482422,26.40999984741211,26.40999984741211,3160900
2007-02-01,27.0,27.0,22.6200008392334,23.190000534057617,23.190000534057617,1935000
2007-03-01,23.049999237060547,24.25,17.780000686645508,19.200000762939453,19.200000762939453,6198000
2007-04-01,19.200000762939453,21.709999084472656,17.899999618530273,18.190000534057617,18.190000534057617,2448900
2007-05-01,18.200000762939453,22.43000030517578,17.670000076293945,22.43000030517578,22.43000030517578,3328900
2007-06-01,22.760000228881836,23.940000534057617,19.8799991607666,19.950000762939453,19.950000762939453,3831400
2007-07-01,20.040000915527344,20.40999984741211,18.75,19.170000076293945,19.170000076293945,2890700
2007-08-01,19.059999465942383,20.219999313354492,16.530000686645508,18.469999313354492,18.469999313354492,3460200
2007-09-01,18.440000534057617,19.950000762939453,17.6200008392334,19.65999984741211,19.65999984741211,2028800
2007-10-01,19.719999313354492,22.34000015258789,18.790000915527344,19.040000915527344,19.040000915527344,3803000
2007-11-01,19.25,21.5,18.280000686645508,20.350000381469727,20.350000381469727,3956200
2007-12-01,20.75,20.770000457763672,18.43000030517578,19.989999771118164,19.989999771118164,3156300
2008-01-01,20.0,20.280000686645508,15.479999542236328,17.899999618530273,17.899999618530273,5306300
2008-02-01,18.15999984741211,18.5,16.56999969482422,17.06999969482422,17.06999969482422,2700400
2008-03-01,17.1200008392334,17.139999389648438,13.800000190734863,15.6899995803833,15.6899995803833,3795200
2008-04-01,15.630000114440918,17.18000030517578,14.890000343322754,16.729999542236328,16.729999542236328,2912100
2008-05-01,16.75,20.309999465942383,16.399999618530273,20.09000015258789,20.09000015258789,6558400
2008-06-01,20.170000076293945,20.170000076293945,18.149999618530273,18.809999465942383,18.809999465942383,4812800
2008-07-01,18.889999389648438,19.399999618530273,17.309999465942383,17.760000228881836,17.760000228881836,4304400
2008-08-01,17.799999237060547,21.950000762939453,17.25,20.3700008392334,20.3700008392334,6684300
2008-09-01,21.219999313354492,22.399999618530273,18.0,19.510000228881836,19.510000228881836,6570000
2008-10-01,19.229999542236328,19.65999984741211,12.59000015258789,14.199999809265137,14.199999809265137,6860600
2008-11-01,14.260000228881836,14.369999885559082,11.579999923706055,13.59000015258789,13.59000015258789,5146600
2008-12-01,13.25,13.539999961853027,11.029999732971191,13.180000305175781,13.180000305175781,5212200
2009-01-01,13.3100004196167,13.5600004196167,8.75,9.609999656677246,9.609999656677246,6101600
2009-02-01,9.600000381469727,9.949999809265137,8.100000381469727,8.430000305175781,8.430000305175781,4643200
2009-03-01,8.329999923706055,9.270000457763672,6.789999961853027,8.420000076293945,8.420000076293945,5037700
2009-04-01,8.960000038146973,11.529999732971191,8.359999656677246,11.170000076293945,11.170000076293945,4725600
2009-05-01,11.289999961853027,11.680000305175781,9.5,10.3100004196167,10.3100004196167,4643300
2009-06-01,10.449999809265137,11.800000190734863,10.369999885559082,10.970000267028809,10.970000267028809,4672300
2009-07-01,11.079999923706055,11.25,9.479999542236328,10.729999542236328,10.729999542236328,2837700
2009-08-01,10.770000457763672,12.5,10.449999809265137,12.119999885559082,12.119999885559082,3056100
2009-09-01,12.010000228881836,15.350000381469727,11.180000305175781,15.199999809265137,15.199999809265137,3795100
2009-10-01,15.199999809265137,16.079999923706055,13.430000305175781,13.65999984741211,13.65999984741211,2397300
2009-11-01,13.699999809265137,16.200000762939453,12.979999542236328,14.970000267028809,14.970000267028809,2653200
2009-12-01,15.109999656677246,17.6200008392334,15.0,16.729999542236328,16.729999542236328,2351500
2010-01-01,16.889999389648438,17.420000076293945,13.319999694824219,14.399999618530273,14.399999618530273,3065900
2010-02-01,14.420000076293945,16.3799991607666,14.010000228881836,15.819999694824219,15.819999694824219,1885900
2010-03-01,15.899999618530273,16.440000534057617,14.770000457763672,14.789999961853027,14.789999961853027,3253500
2010-04-01,14.84000015258789,18.350000381469727,14.75,17.510000228881836,17.510000228881836,2208400
2010-05-01,18.399999618530273,19.200000762939453,15.069999694824219,16.81999969482422,16.81999969482422,2575600
2010-06-01,16.610000610351562,17.469999313354492,14.569999694824219,15.229999542236328,15.229999542236328,2855700
2010-07-01,15.239999771118164,16.969999313354492,13.930000305175781,16.110000610351562,16.110000610351562,1962800
2010-08-01,16.469999313354492,23.389999389648438,15.899999618530273,21.65999984741211,21.65999984741211,5240000
2010-09-01,21.6200008392334,25.290000915527344,20.899999618530273,24.139999389648438,24.139999389648438,4988000
2010-10-01,24.329999923706055,24.670000076293945,19.8700008392334,22.5,22.5,5100200
2010-11-01,24.0,28.989999771118164,23.559999465942383,28.65999984741211,28.65999984741211,4972700
2010-12-01,28.989999771118164,33.43000030517578,28.920000076293945,31.6200008392334,31.6200008392334,3511400
2011-01-01,31.829999923706055,36.70000076293945,29.3700008392334,34.650001525878906,34.650001525878906,4953900
2011-02-01,35.15999984741211,58.45000076293945,34.31999969482422,56.91999816894531,56.91999816894531,10807700
2011-03-01,56.18000030517578,61.630001068115234,49.20000076293945,57.68000030517578,57.68000030517578,8234800
2011-04-01,58.59000015258789,70.95999908447266,53.08000183105469,69.45999908447266,69.45999908447266,8673400
2011-05-01,70.06999969482422,76.51000213623047,61.04999923706055,75.1500015258789,75.1500015258789,11228000
2011-06-01,75.30000305175781,78.58999633789062,60.7400016784668,72.70999908447266,72.70999908447266,12882500
2011-07-01,73.01000213623047,76.06999969482422,56.83000183105469,60.189998626708984,60.189998626708984,7886300
2011-08-01,61.11000061035156,68.9000015258789,49.5099983215332,57.97999954223633,57.97999954223633,12824500
2011-09-01,57.880001068115234,64.44999694824219,42.65999984741211,43.439998626708984,43.439998626708984,7499900
2011-10-01,43.06999969482422,58.15999984741211,40.5,52.86000061035156,52.86000061035156,11147000
2011-11-01,51.279998779296875,54.70000076293945,37.43000030517578,38.33000183105469,38.33000183105469,12029500
2011-12-01,38.029998779296875,42.15999984741211,33.33000183105469,33.869998931884766,33.869998931884766,12002300
2012-01-01,34.95000076293945,55.150001525878906,34.66999816894531,52.790000915527344,52.790000915527344,14796500
2012-02-01,53.130001068115234,61.18000030517578,52.189998626708984,52.630001068115234,52.630001068115234,14769300
2012-03-01,52.31999969482422,57.04999923706055,49.689998626708984,52.04999923706055,52.04999923706055,12718600
2012-04-01,51.95000076293945,55.0,45.54999923706055,48.400001525878906,48.400001525878906,9578500
2012-05-01,50.97999954223633,57.5099983215332,41.11000061035156,42.79999923706055,42.79999923706055,14887800
2012-06-01,41.880001068115234,46.150001525878906,37.58000183105469,43.59000015258789,43.59000015258789,12293400
2012-07-01,43.599998474121094,58.369998931884766,39.189998626708984,51.83000183105469,51.83000183105469,12816900
2012-08-01,51.869998931884766,63.66999816894531,51.869998931884766,61.4900016784668,61.4900016784668,16469500
2012-09-01,63.29999923706055,65.7699966430664,55.529998779296875,57.29999923706055,57.29999923706055,9508200
2012-10-01,57.59000015258789,61.5099983215332,52.400001525878906,53.150001525878906,53.150001525878906,10250000
2012-11-01,52.290000915527344,61.880001068115234,51.34000015258789,59.099998474121094,59.099998474121094,10013500
2012-12-01,59.63999938964844,67.0,58.79999923706055,66.6500015258789,66.6500015258789,7155100
2013-01-01,68.75,69.45999908447266,62.310001373291016,65.4800033569336,65.4800033569336,10994600
2013-02-01,66.37000274658203,70.11000061035156,56.88999938964844,59.290000915527344,59.290000915527344,15564800
2013-03-01,58.68000030517578,67.12999725341797,58.540000915527344,66.41000366210938,66.41000366210938,7923300
2013-04-01,66.08000183105469,67.23999786376953,60.27000045776367,63.56999969482422,63.56999969482422,9450300
2013-05-01,60.15999984741211,62.0,54.31999969482422,59.29999923706055,59.29999923706055,13001100
2013-06-01,59.540000915527344,65.77999877929688,57.56999969482422,60.72999954223633,60.72999954223633,9575900
2013-07-01,60.9900016784668,67.80999755859375,57.5,60.900001525878906,60.900001525878906,11622600
2013-08-01,61.220001220703125,61.900001525878906,53.279998779296875,53.7599983215332,53.7599983215332,9515900
2013-09-01,54.209999084472656,61.529998779296875,53.90999984741211,56.349998474121094,56.349998474121094,7756200
2013-10-01,56.5099983215332,66.54000091552734,56.439998626708984,66.2699966430664,66.2699966430664,10161900
2013-11-01,60.5,75.19999694824219,59.02000045776367,72.5199966430664,72.5199966430664,12573000
2013-12-01,72.43000030517578,79.0,69.76000213623047,77.61000061035156,77.61000061035156,6634000
2014-01-01,76.88999938964844,77.56999969482422,65.69999694824219,66.87000274658203,66.87000274658203,8963700
2014-02-01,66.94999694824219,74.76000213623047,63.529998779296875,71.7699966430664,71.7699966430664,9498300
2014-03-01,70.70999908447266,73.9000015258789,66.0999984741211,71.08000183105469,71.08000183105469,6051500
2014-04-01,70.91000366210938,75.7300033569336,61.279998779296875,64.62999725341797,64.62999725341797,10814600
2014-05-01,65.0,65.41000366210938,60.310001373291016,63.099998474121094,63.099998474121094,8189500
2014-06-01,63.29999923706055,69.4000015258789,62.619998931884766,68.80000305175781,68.80000305175781,6047800
2014-07-01,69.0,73.29000091552734,61.47999954223633,67.3499984741211,67.3499984741211,10031400
2014-08-01,67.19000244140625,72.1500015258789,66.30999755859375,68.68000030517578,68.68000030517578,5114000
2014-09-01,68.70999908447266,70.22000122070312,65.83999633789062,68.77999877929688,68.77999877929688,5232900
2014-10-01,68.58999633789062,74.30000305175781,60.75,73.41000366210938,73.41000366210938,10270300
2014-11-01,73.4000015258789,75.20999908447266,69.55000305175781,72.08999633789062,72.08999633789062,5084700
2014-12-01,71.63999938964844,77.98999786376953,68.38999938964844,74.91999816894531,74.91999816894531,16524400
2015-01-01,75.51000213623047,75.88999938964844,69.86000061035156,74.63999938964844,74.63999938964844,6821900
2015-02-01,74.48999786376953,99.22000122070312,73.70999908447266,95.9000015258789,95.9000015258789,10168400
2015-03-01,95.9000015258789,101.69000244140625,90.30999755859375,92.69999694824219,92.69999694824219,8661800
2015-04-01,92.91999816894531,102.48999786376953,86.83999633789062,88.58000183105469,88.58000183105469,9744700
2015-05-01,88.66999816894531,98.0,88.4800033569336,94.83999633789062,94.83999633789062,5440200
2015-06-01,95.7300033569336,98.80999755859375,81.87999725341797,85.18000030517578,85.18000030517578,9831100
2015-07-01,85.80000305175781,96.3499984741211,78.0999984741211,92.22000122070312,92.22000122070312,12236300
2015-08-01,92.70999908447266,96.5,75.04000091552734,84.41999816894531,84.41999816894531,10046800
2015-09-01,82.26000213623047,85.63999938964844,71.62999725341797,75.97000122070312,75.97000122070312,9160900
2015-10-01,76.18000030517578,85.08999633789062,70.20999908447266,82.62000274658203,82.62000274658203,11309700
2015-11-01,82.2699966430664,92.6500015258789,82.01000213623047,91.19000244140625,91.19000244140625,6807000
2015-12-01,91.98999786376953,95.12000274658203,86.58999633789062,89.16000366210938,89.16000366210938,6529900
2016-01-01,87.73999786376953,87.73999786376953,76.63999938964844,80.83000183105469,80.83000183105469,9867500
2016-02-01,80.0199966430664,84.41000366210938,73.55000305175781,82.45999908447266,82.45999908447266,9474000
2016-03-01,83.0,98.26000213623047,82.2699966430664,96.08000183105469,96.08000183105469,6503700
2016-04-01,95.63999938964844,102.9000015258789,83.5999984741211,86.66999816894531,86.66999816894531,8018300
2016-05-01,86.56999969482422,87.47000122070312,80.51000213623047,86.37999725341797,86.37999725341797,6410800
2016-06-01,86.37999725341797,88.55000305175781,76.22000122070312,80.0,80.0,6394000
2016-07-01,80.16999816894531,88.76000213623047,76.63999938964844,84.29000091552734,84.29000091552734,6457500
2016-08-01,84.19000244140625,87.98999786376953,82.5999984741211,86.9800033569336,86.9800033569336,4823800
2016-09-01,87.25,87.44999694824219,80.5199966430664,82.3499984741211,82.3499984741211,4408200
2016-10-01,82.25,98.41999816894531,81.0,97.01000213623047,97.01000213623047,5887600
2016-11-01,97.0,98.9800033569336,92.87999725341797,95.91999816894531,95.91999816894531,4304500
2016-12-01,96.4000015258789,102.45999908447266,93.37999725341797,98.70999908447266,98.70999908447266,4302900
2017-01-01,99.73999786376953,115.19999694824219,95.04000091552734,114.98999786376953,114.98999786376953,5813300
2017-02-01,115.13999938964844,124.2699966430664,111.51000213623047,118.30000305175781,118.30000305175781,5557600
2017-03-01,118.87999725341797,122.0199966430664,116.0199966430664,120.69999694824219,120.69999694824219,5286900
2017-04-01,120.62999725341797,127.94000244140625,116.81999969482422,126.31999969482422,126.31999969482422,3921200
2017-05-01,126.81999969482422,143.80999755859375,125.08999633789062,139.0399932861328,139.0399932861328,6902400
2017-06-01,139.83999633789062,149.2899932861328,136.6199951171875,145.10000610351562,145.10000610351562,7574100
2017-07-01,145.88999938964844,158.61000061035156,144.7100067138672,152.63999938964844,152.63999938964844,6748400
2017-08-01,163.0,175.9499969482422,158.64999389648438,175.7899932861328,175.7899932861328,9419500
2017-09-01,176.6300048828125,187.97999572753906,170.33999633789062,185.05999755859375,185.05999755859375,6271200
2017-10-01,185.11000061035156,219.63999938964844,185.0,212.91000366210938,212.91000366210938,8725800
2017-11-01,214.7100067138672,248.22999572753906,204.13999938964844,233.27000427246094,233.27000427246094,17465500
2017-12-01,228.47999572753906,230.47000122070312,198.41000366210938,214.1300048828125,214.1300048828125,11335700
2018-01-01,214.13999938964844,264.1099853515625,213.5800018310547,251.9499969482422,251.9499969482422,11006700
2018-02-01,251.38999938964844,259.4599914550781,221.5,245.63999938964844,245.63999938964844,9289200
2018-03-01,245.00999450683594,260.6199951171875,223.4499969482422,233.3800048828125,233.3800048828125,19959800
2018-04-01,232.63999938964844,237.8800048828125,210.4499969482422,213.02999877929688,213.02999877929688,8264000
2018-05-01,213.00999450683594,256.7200012207031,213.00999450683594,241.27000427246094,241.27000427246094,8208800
2018-06-01,243.6699981689453,261.7699890136719,208.72000122070312,220.6300048828125,220.6300048828125,8025600
2018-07-01,217.8699951171875,243.42999267578125,161.50999450683594,164.0399932861328,164.0399932861328,10247900
2018-08-01,162.69000244140625,179.7899932861328,158.75,175.47999572753906,175.47999572753906,17512100
2018-09-01,175.7100067138672,176.0800018310547,153.3699951171875,156.07000732421875,156.07000732421875,12831700
2018-10-01,157.02000427246094,158.19000244140625,107.58999633789062,133.5500030517578,133.5500030517578,25202300
2018-11-01,134.17999267578125,146.72000122070312,126.81999969482422,142.14999389648438,142.14999389648438,12533000
2018-12-01,146.4199981689453,150.86000061035156,104.63999938964844,113.29000091552734,113.29000091552734,11417900
2019-01-01,110.61000061035156,136.5399932861328,107.5199966430664,133.0,133.0,9256800
2019-02-01,133.4199981689453,162.22999572753906,133.10000610351562,155.02999877929688,155.02999877929688,10047600
2019-03-01,155.9600067138672,159.77000427246094,142.0,151.77999877929688,151.77999877929688,7923400
2019-04-01,153.44000244140625,182.1699981689453,153.41000366210938,174.72999572753906,174.72999572753906,10324100
2019-05-01,172.10000610351562,176.0800018310547,124.8499984741211,125.16999816894531,125.16999816894531,12788200
2019-06-01,125.52999877929688,155.11000061035156,124.91000366210938,154.25,154.25,8798800
2019-07-01,162.5,166.49000549316406,128.33999633789062,131.00999450683594,131.00999450683594,12662000
2019-08-01,130.00999450683594,130.9600067138672,113.66999816894531,123.7300033569336,123.7300033569336,10580300
2019-09-01,122.08000183105469,150.0,117.19000244140625,135.60000610351562,135.60000610351562,7836200
2019-10-01,137.17999267578125,146.4600067138672,122.73999786376953,134.27999877929688,134.27999877929688,10336000
2019-11-01,134.64999389648438,153.50999450683594,134.64999389648438,142.08999633789062,142.08999633789062,7858500
2019-12-01,142.9499969482422,149.91000366210938,134.42999267578125,144.9199981689453,144.9199981689453,7472400
2020-01-01,146.99000549316406,148.6300048828125,126.76000213623047,127.66999816894531,127.66999816894531,8999300
2020-02-01,129.2899932861328,150.0,118.0,127.63999938964844,127.63999938964844,10645500
2020-03-01,129.2100067138672,133.9600067138672,98.04000091552734,116.75,116.75,11921900
2020-03-26,117.76000213623047,118.9800033569336,113.75,117.69999694824219,117.69999694824219,234369
