Date,Open,High,Low,Close,Adj Close,Volume
1980-03-01,0.5833333134651184,0.59375,0.4375,0.5,0.08978814631700516,1238400.0
1980-04-01,0.5,0.5625,0.4635416567325592,0.5520833134651184,0.09914106875658035,668800.0
1980-05-01,0.5572916865348816,0.5572916865348816,0.5104166865348816,0.5416666865348816,0.09727049618959427,649600.0
1980-06-01,0.5416666865348816,0.6145833134651184,0.5260416865348816,0.5989583134651184,0.1075587049126625,1088000.0
1980-07-01,0.5989583134651184,0.8177083134651184,0.5833333134651184,0.7864583134651184,0.1412292718887329,5196800.0
1980-08-01,0.7864583134651184,1.2083333730697632,0.7760416865348816,1.1197916269302368,0.2010880410671234,11646400.0
1980-09-01,1.1197916269302368,1.1927083730697632,1.03125,1.0416666269302368,0.18705859780311584,5057600.0
1980-10-01,1.0416666269302368,1.4583333730697632,1.0416666269302368,1.34375,0.2413056492805481,7104000.0
1980-11-01,1.34375,1.4427083730697632,1.2395833730697632,1.3177083730697632,0.2366291582584381,3417600.0
1980-12-01,1.328125,1.3854166269302368,1.25,1.3697916269302368,0.2459821105003357,1684800.0
1981-01-01,1.34375,1.34375,1.1145833730697632,1.1145833730697632,0.20015275478363037,2246400.0
1981-02-01,1.09375,1.2916666269302368,1.0,1.2708333730697632,0.22821152210235596,2699200.0
1981-03-01,1.2708333730697632,1.53125,1.15625,1.4375,0.25814089179039,2195200.0
1981-03-17,,,,,,
1981-04-01,1.4375,1.5234375,1.3515625,1.421875,0.2553350031375885,1817600.0
1981-05-01,1.4375,1.5859375,1.40625,1.453125,0.26094675064086914,1984000.0
1981-06-01,1.453125,1.4765625,1.28125,1.3125,0.23569384217262268,1414400.0
1981-07-01,1.28125,1.375,1.140625,1.359375,0.24411152303218842,2272000.0
1981-08-01,1.359375,1.3671875,1.1484375,1.2109375,0.2174556702375412,977600.0
1981-09-01,1.2109375,1.2265625,0.9765625,1.0,0.17957629263401031,1057600.0
1981-10-01,1.0,1.1796875,0.96875,1.0625,0.19079986214637756,1705600.0
1981-11-01,1.0625,1.1796875,1.0,1.1484375,0.20623213052749634,1451200.0
1981-11-18,,,,,,
1981-12-01,1.1484375,1.1484375,0.9609375,1.0,0.19823357462882996,1667200.0
1982-01-01,0.984375,0.984375,0.7265625,0.890625,0.17655175924301147,2072000.0
1982-02-01,0.890625,0.9140625,0.7578125,0.796875,0.15796737372875214,1067200.0
1982-02-17,,,,,,
1982-03-01,0.796875,0.8125,0.6796875,0.78125,0.18508850038051605,1264000.0
1982-04-01,0.7734375,0.8671875,0.734375,0.7578125,0.1795358657836914,715200.0
1982-05-01,0.7578125,0.78125,0.6796875,0.7578125,0.1795358657836914,1006400.0
1982-05-17,,,,,,
1982-06-01,0.7578125,0.859375,0.7421875,0.7734375,0.21899130940437317,2060800.0
1982-07-01,0.7578125,0.7578125,0.53125,0.5546875,0.1570543646812439,931200.0
1982-08-01,0.5546875,0.640625,0.5,0.609375,0.17253856360912323,1371200.0
1982-08-18,,,,,,
1982-09-01,0.609375,0.640625,0.5390625,0.5703125,0.2121383100748062,1126400.0
1982-10-01,0.5703125,0.75,0.5625,0.625,0.23248033225536346,2121600.0
1982-11-01,0.625,0.9453125,0.625,0.859375,0.3196605443954468,4363200.0
1982-11-17,,,,,,
1982-12-01,0.859375,0.8671875,0.6015625,0.796875,0.350925087928772,1534400.0
1983-01-01,0.796875,0.828125,0.7265625,0.7578125,0.33372294902801514,1164800.0
1983-02-01,0.7578125,0.796875,0.6875,0.7109375,0.3130802512168884,868800.0
1983-02-18,,,,,,
1983-03-01,0.7109375,0.765625,0.65625,0.6640625,0.34748464822769165,1024000.0
1983-04-01,0.6640625,0.7421875,0.6171875,0.71875,0.3761011064052582,1937600.0
1983-05-01,0.71875,0.8359375,0.65625,0.765625,0.40062931180000305,3345600.0
1983-05-20,,,,,,
1983-06-01,0.75,0.796875,0.671875,0.7265625,0.4571893811225891,1755200.0
1983-07-01,0.7265625,0.734375,0.6484375,0.71875,0.452273428440094,1840000.0
1983-08-01,0.71875,0.71875,0.6484375,0.671875,0.42277732491493225,800000.0
1983-08-19,,,,,,
1983-09-01,0.6796875,0.6953125,0.625,0.671875,0.5180510878562927,864000.0
1983-10-01,0.65625,0.671875,0.5234375,0.625,0.48190799355506897,1188800.0
1983-11-01,0.625,0.6640625,0.546875,0.578125,0.4457649290561676,1571200.0
1983-11-15,,,,,,
1983-12-01,0.578125,0.6015625,0.53125,0.5859375,0.5683794021606445,1419200.0
1984-01-01,0.578125,0.640625,0.5625,0.609375,0.5911144614219666,819200.0
1984-02-01,0.6015625,0.6015625,0.453125,0.5078125,0.492595374584198,1105600.0
1984-03-01,0.5078125,0.6171875,0.4921875,0.609375,0.5911144614219666,867200.0
1984-04-01,0.609375,0.609375,0.5,0.5546875,0.5380658507347107,796800.0
1984-05-01,0.546875,0.546875,0.4609375,0.4921875,0.47743865847587585,840000.0
1984-06-01,0.484375,0.4921875,0.421875,0.4765625,0.46228185296058655,689600.0
1984-07-01,0.46875,0.46875,0.390625,0.4375,0.42438989877700806,547200.0
1984-08-01,0.4375,0.453125,0.375,0.421875,0.4092331528663635,852800.0
1984-09-01,0.421875,0.4453125,0.3828125,0.4140625,0.4016547203063965,705600.0
1984-10-01,0.4140625,0.4375,0.375,0.4375,0.42438989877700806,1100800.0
1984-11-01,0.4375,0.453125,0.3671875,0.453125,0.4395466148853302,905600.0
1984-12-01,0.453125,0.4609375,0.3359375,0.3515625,0.3410276174545288,1267200.0
1985-01-01,0.34375,0.484375,0.3203125,0.4609375,0.44712507724761963,1788800.0
1985-02-01,0.4609375,0.4609375,0.4140625,0.4296875,0.4168115556240082,1073600.0
1985-03-01,0.4296875,0.453125,0.3828125,0.4453125,0.4319683015346527,742400.0
1985-04-01,0.4375,0.453125,0.3984375,0.4453125,0.4319683015346527,822400.0
1985-05-01,0.4375,0.4375,0.375,0.3984375,0.38649794459342957,729600.0
1985-06-01,0.390625,0.421875,0.375,0.421875,0.4092331528663635,1273600.0
1985-07-01,0.4140625,0.4296875,0.375,0.40625,0.3940763473510742,1203200.0
1985-08-01,0.40625,0.4140625,0.3515625,0.375,0.3637627959251404,659200.0
1985-09-01,0.375,0.375,0.3359375,0.3515625,0.3410276174545288,596800.0
1985-10-01,0.3515625,0.390625,0.3359375,0.375,0.3637627959251404,696000.0
1985-11-01,0.3671875,0.375,0.3359375,0.3671875,0.35618436336517334,971200.0
1985-12-01,0.3671875,0.5,0.3359375,0.5,0.4850170910358429,3881600.0
1986-01-01,0.5,0.5,0.4609375,0.46875,0.4547034800052643,1921600.0
1986-02-01,0.46875,0.46875,0.4296875,0.4375,0.42438989877700806,1286400.0
1986-03-01,0.4375,0.4375,0.390625,0.4296875,0.4168115556240082,1017600.0
1986-04-01,0.421875,0.546875,0.4140625,0.515625,0.500173807144165,1944000.0
1986-05-01,0.515625,0.6640625,0.46875,0.59375,0.5759578347206116,3944000.0
1986-06-01,0.5859375,0.59375,0.5390625,0.5859375,0.5683794021606445,1153600.0
1986-07-01,0.578125,0.578125,0.5,0.515625,0.500173807144165,820800.0
1986-08-01,0.515625,0.515625,0.484375,0.5,0.4850170910358429,571200.0
1986-09-01,0.5,0.5,0.4453125,0.46875,0.4547034800052643,600000.0
1986-10-01,0.46875,0.5703125,0.453125,0.546875,0.5304872989654541,1563200.0
1986-11-01,0.546875,0.6328125,0.4765625,0.59375,0.5759578347206116,1238400.0
1986-12-01,0.59375,0.59375,0.5078125,0.5625,0.5456441640853882,844800.0
1987-01-01,0.5625,0.5703125,0.53125,0.5625,0.5456441640853882,492800.0
1987-02-01,0.5625,0.6328125,0.5546875,0.6328125,0.6138496994972229,976000.0
1987-03-01,0.6328125,0.640625,0.578125,0.6328125,0.6138496994972229,1216000.0
1987-04-01,0.6171875,0.65625,0.5703125,0.625,0.6062713265419006,777600.0
1987-05-01,0.625,0.6484375,0.59375,0.609375,0.5911144614219666,592000.0
1987-06-01,0.609375,0.640625,0.6015625,0.6328125,0.6138496994972229,496000.0
1987-07-01,0.6328125,1.2421875,0.6328125,1.0,0.9700341820716858,6721600.0
1987-08-01,1.0,1.03125,0.8828125,0.9140625,0.886671781539917,2059200.0
1987-09-01,0.9140625,0.921875,0.8359375,0.890625,0.8639366030693054,793600.0
1987-10-01,0.8984375,1.2734375,0.7578125,0.8359375,0.8108879327774048,3296000.0
1987-11-01,0.8359375,0.9921875,0.8125,0.9140625,0.886671781539917,571200.0
1987-12-01,0.9140625,1.1328125,0.875,1.109375,1.0761317014694214,590400.0
1988-01-01,1.109375,1.15625,1.0234375,1.046875,1.0155044794082642,496000.0
1988-02-01,1.03125,1.0859375,0.96875,1.0390625,1.0079258680343628,668800.0
1988-03-01,1.046875,1.0625,1.015625,1.0390625,1.0079258680343628,345600.0
1988-04-01,1.0390625,1.0546875,0.953125,0.9921875,0.9624556303024292,542400.0
1988-05-01,0.9921875,1.0078125,0.9375,0.9765625,0.9472988843917847,611200.0
1988-06-01,0.9765625,1.2421875,0.9453125,1.1953125,1.1594938039779663,1192000.0
1988-07-01,1.2109375,1.46875,1.2109375,1.4453125,1.4020024538040161,1900800.0
1988-08-01,1.4375,1.4375,1.171875,1.2265625,1.189807415008545,660800.0
1988-09-01,1.2265625,1.421875,1.21875,1.234375,1.1973860263824463,724800.0
1988-10-01,1.234375,1.375,1.2265625,1.2890625,1.2504345178604126,1540800.0
1988-11-01,1.2890625,1.390625,1.203125,1.390625,1.3489536046981812,6908800.0
1988-12-01,1.390625,1.4375,1.3046875,1.4375,1.3944242000579834,2203200.0
1989-01-01,1.4375,1.5,1.4140625,1.4140625,1.3716886043548584,5420800.0
1989-02-01,1.4140625,1.5,1.390625,1.5,1.4550511837005615,1289600.0
1989-03-01,1.5,1.7109375,1.4609375,1.578125,1.5308350324630737,2908800.0
1989-04-01,1.578125,1.6953125,1.5625,1.6484375,1.5990407466888428,820800.0
1989-05-01,1.640625,1.6875,1.5703125,1.6875,1.636932611465454,1590400.0
1989-06-01,1.6796875,1.71875,1.6328125,1.65625,1.606618881225586,1590400.0
1989-07-01,1.65625,1.6953125,1.6171875,1.6171875,1.5687267780303955,1289600.0
1989-08-01,1.59375,1.59375,1.390625,1.5625,1.5156781673431396,2889600.0
1989-09-01,1.5625,1.578125,1.4453125,1.5078125,1.4626296758651733,1732800.0
1989-10-01,1.515625,1.6328125,1.390625,1.4140625,1.3716886043548584,5168000.0
1989-11-01,1.421875,1.7734375,1.421875,1.75,1.6975595951080322,3324800.0
1989-12-01,1.75,1.8046875,1.625,1.703125,1.6520893573760986,1481600.0
1990-01-01,1.703125,2.046875,1.671875,2.0,1.9400683641433716,11763200.0
1990-02-01,2.0078125,2.390625,1.984375,2.3125,2.243204116821289,7921600.0
1990-03-01,2.3125,2.5390625,2.3046875,2.515625,2.440241813659668,5540800.0
1990-04-01,2.515625,3.09375,2.296875,2.390625,2.3189876079559326,8474400.0
1990-04-03,,,,,,
1990-05-01,2.34375,3.1875,2.328125,3.109375,3.0161995887756348,6152800.0
1990-06-01,3.109375,3.125,2.625,2.9375,2.8494749069213867,3812000.0
1990-07-01,2.921875,3.40625,2.890625,2.890625,2.8040049076080322,3056800.0
1990-08-01,2.90625,2.96875,1.828125,2.359375,2.2886738777160645,4587200.0
1990-09-01,2.34375,2.578125,2.140625,2.28125,2.212890148162842,1558400.0
1990-10-01,2.296875,2.359375,2.15625,2.34375,2.273517608642578,1858400.0
1990-11-01,2.375,3.09375,2.34375,3.0625,2.970729351043701,3560800.0
1990-12-01,3.078125,3.359375,3.046875,3.1875,3.0919835567474365,1923200.0
1991-01-01,3.171875,3.9375,2.515625,3.859375,3.743725299835205,5260000.0
1991-02-01,3.921875,5.46875,3.6875,4.953125,4.8047003746032715,9752000.0
1991-03-01,4.90625,4.984375,4.25,4.46875,4.334840774536133,5880800.0
1991-04-01,4.5,4.96875,4.390625,4.8125,4.668288707733154,3929600.0
1991-05-01,4.8125,5.875,4.703125,5.75,5.577696800231934,4560400.0
1991-05-29,,,,,,
1991-06-01,6.0,6.1875,4.96875,5.625,5.456441879272461,4509200.0
1991-07-01,5.625,5.8125,5.0,5.8125,5.638322830200195,4538400.0
1991-08-01,5.75,7.0,5.6875,6.84375,6.638670921325684,4974000.0
1991-09-01,6.8125,7.21875,6.375,6.90625,6.699297904968262,2391600.0
1991-10-01,6.84375,7.0,5.78125,6.0625,5.880832672119141,3522000.0
1991-11-01,6.03125,6.34375,5.625,5.84375,5.668636798858643,4822400.0
1991-12-01,5.875,6.75,5.84375,6.75,6.547730445861816,3786400.0
1992-01-01,6.8125,7.75,6.78125,7.6875,7.457137584686279,4254000.0
1992-02-01,7.90625,9.125,7.84375,8.4375,8.184660911560059,3534400.0
1992-03-01,8.46875,8.75,7.34375,7.59375,7.366196155548096,2761200.0
1992-04-01,7.5625,7.6875,6.6875,6.75,6.547730445861816,3044400.0
1992-05-01,6.75,7.0625,5.59375,6.0625,5.880832672119141,4720800.0
1992-06-01,5.96875,6.0625,5.59375,5.84375,5.668636798858643,4850000.0
1992-07-01,5.8125,6.1875,5.40625,5.84375,5.668636798858643,5205200.0
1992-08-01,5.8125,6.75,5.5625,6.375,6.183967113494873,4515200.0
1992-09-01,6.40625,7.28125,6.21875,7.28125,7.063060283660889,4914000.0
1992-10-01,7.25,7.75,6.5625,7.3125,7.093374252319336,3925600.0
1992-11-01,7.25,7.625,6.59375,6.8125,6.6083574295043945,5542000.0
1992-12-01,6.78125,6.90625,6.09375,6.75,6.547730445861816,10983600.0
1993-01-01,6.75,7.125,6.4375,6.84375,6.638670921325684,3780400.0
1993-02-01,6.78125,7.34375,6.4375,7.25,7.032745838165283,3690000.0
1993-03-01,7.25,7.46875,6.75,6.96875,6.75992488861084,3854400.0
1993-04-01,6.90625,7.09375,6.15625,6.5,6.3052215576171875,4084400.0
1993-05-01,6.5,6.625,5.90625,6.125,5.941458702087402,4020000.0
1993-06-01,6.15625,6.1875,5.0,5.5,5.33518648147583,5782800.0
1993-07-01,5.5,6.3125,5.0,5.09375,4.941111087799072,4510800.0
1993-08-01,5.125,6.1875,5.0625,6.125,5.941458702087402,7234800.0
1993-09-01,6.09375,6.1875,5.71875,5.8125,5.638322830200195,3300400.0
1993-10-01,5.8125,5.96875,5.65625,5.90625,5.729264259338379,2518000.0
1993-11-01,5.875,6.65625,5.75,6.21875,6.0323991775512695,4094800.0
1993-12-01,6.21875,6.25,5.5,5.96875,5.789890766143799,4176800.0
1994-01-01,5.90625,6.5,5.8125,6.4375,6.244594097137451,5766800.0
1994-02-01,6.5,6.71875,6.09375,6.09375,5.9111456871032715,3816800.0
1994-03-01,6.15625,6.5,5.84375,6.0,5.820204734802246,4951600.0
1994-04-01,6.0,6.125,5.28125,5.28125,5.122992515563965,2035600.0
1994-05-01,5.3125,5.3125,4.5,4.5625,4.425780296325684,5943600.0
1994-06-01,4.53125,5.375,4.53125,5.125,4.9714250564575195,4970000.0
1994-07-01,5.125,5.3125,4.96875,5.15625,5.00173807144165,2801200.0
1994-08-01,5.15625,6.1875,5.09375,6.0625,5.880832672119141,5192000.0
1994-09-01,6.03125,6.15625,5.65625,6.09375,5.9111456871032715,2887200.0
1994-10-01,6.03125,6.0625,5.28125,5.34375,5.183618068695068,2843200.0
1994-11-01,5.375,5.5,4.46875,4.75,4.607662677764893,4529600.0
1994-12-01,4.6875,4.75,4.21875,4.625,4.486408233642578,4787200.0
1995-01-01,4.6875,4.75,4.3125,4.6875,4.547035217285156,4443600.0
1995-02-01,4.6875,5.125,4.6875,4.9375,4.789544105529785,2644800.0
1995-03-01,4.90625,5.1875,4.625,4.90625,4.75922966003418,4078000.0
1995-04-01,4.9375,5.03125,4.78125,4.9375,4.789544105529785,2832000.0
1995-05-01,4.90625,5.46875,4.90625,5.46875,5.304874420166016,3247200.0
1995-06-01,5.46875,5.5625,5.125,5.5,5.33518648147583,3039600.0
1995-07-01,5.46875,5.78125,5.40625,5.78125,5.6080098152160645,3093200.0
1995-08-01,5.8125,6.34375,5.625,6.34375,6.153653621673584,4710400.0
1995-09-01,6.34375,6.4375,5.875,6.21875,6.0323991775512695,3411600.0
1995-10-01,6.1875,6.1875,5.375,5.46875,5.304874420166016,3110800.0
1995-11-01,5.53125,6.125,5.53125,6.03125,5.850518703460693,5482800.0
1995-12-01,6.0,6.34375,5.84375,6.25,6.062712669372559,3861600.0
1996-01-01,6.40625,6.8125,6.1875,6.8125,6.6083574295043945,6838800.0
1996-02-01,6.78125,7.34375,6.5625,7.125,6.911492824554443,5489600.0
1996-03-01,7.125,7.21875,6.71875,7.0625,6.850865840911865,3902400.0
1996-04-01,7.0625,7.09375,6.40625,6.9375,6.729611396789551,2559600.0
1996-05-01,6.75,6.96875,6.46875,6.71875,6.517416477203369,2236800.0
1996-06-01,6.6875,7.0625,6.5625,6.59375,6.396162986755371,3572400.0
1996-07-01,6.65625,6.84375,4.90625,5.03125,4.880483627319336,8075200.0
1996-08-01,5.0,5.84375,4.96875,5.84375,5.668636798858643,9304400.0
1996-09-01,5.75,6.15625,5.5,5.625,5.456441879272461,4137600.0
1996-10-01,5.59375,5.875,5.5,5.53125,5.365501880645752,3748000.0
1996-11-01,5.53125,6.25,5.3125,6.03125,5.850518703460693,4529600.0
1996-12-01,6.0625,6.125,5.65625,5.90625,5.729264259338379,4236400.0
1997-01-01,5.875,7.0,5.875,6.9375,6.729611396789551,7315200.0
1997-02-01,6.90625,7.125,6.34375,6.4375,6.244594097137451,4767600.0
1997-03-01,6.4375,6.65625,6.0,6.125,5.941458702087402,3031200.0
1997-04-01,6.125,6.375,5.8125,6.375,6.183967113494873,3122400.0
1997-05-01,6.34375,6.71875,6.28125,6.71875,6.517416477203369,3148800.0
1997-06-01,6.71875,6.96875,6.5625,6.71875,6.517416477203369,3342400.0
1997-07-01,6.75,7.25,6.5625,7.0,6.790238380432129,4637200.0
1997-08-01,7.015625,8.09375,6.96875,8.015625,7.775429725646973,5816400.0
1997-09-01,8.078125,8.140625,7.234375,7.65625,7.42682409286499,6681200.0
1997-10-01,7.65625,7.75,6.65625,6.75,6.547730445861816,7604800.0
1997-11-01,6.8125,6.84375,6.234375,6.609375,6.411318778991699,8649200.0
1997-12-01,6.59375,6.671875,6.171875,6.34375,6.153653621673584,7431200.0
1998-01-01,6.34375,6.984375,6.1875,6.734375,6.532573223114014,6865600.0
1998-02-01,6.796875,7.53125,6.71875,7.484375,7.2600998878479,6090800.0
1998-03-01,7.5,8.09375,7.453125,8.09375,7.851215362548828,11308800.0
1998-04-01,8.125,8.5625,7.984375,8.34375,8.09372329711914,5854000.0
1998-05-01,8.328125,8.546875,7.75,8.03125,7.790585517883301,4046000.0
1998-06-01,8.25,8.28125,7.375,8.03125,7.790585517883301,6214400.0
1998-07-01,8.0625,8.3125,7.234375,7.34375,7.123687744140625,8547600.0
1998-08-01,7.3125,7.4375,6.34375,6.375,6.183967113494873,4230800.0
1998-09-01,6.5,7.75,6.28125,7.75,7.517764091491699,6139600.0
1998-10-01,7.6875,8.34375,6.734375,8.15625,7.911839962005615,4298400.0
1998-11-01,8.15625,9.484375,8.09375,9.421875,9.139540672302246,6924800.0
1998-12-01,9.40625,10.1875,9.1796875,10.1875,9.882222175598145,3930800.0
1999-01-01,10.140625,10.6875,9.53125,10.484375,10.17020320892334,6716800.0
1999-02-01,10.484375,10.484375,9.0,9.890625,9.594242095947266,4870800.0
1999-03-01,9.9375,9.953125,8.8125,9.859375,9.563929557800293,5229600.0
1999-04-01,9.828125,10.671875,9.328125,9.859375,9.563929557800293,4925600.0
1999-05-01,9.859375,10.0625,9.0,9.296875,9.018285751342773,3440000.0
1999-06-01,9.265625,9.78125,8.890625,9.5,9.215325355529785,5515600.0
1999-07-01,9.5,9.640625,8.46875,8.59375,8.336231231689453,4558000.0
1999-08-01,8.53125,8.8125,8.03125,8.25,8.00278091430664,5917600.0
1999-09-01,8.25,9.296875,8.078125,8.125,7.881525993347168,5592800.0
1999-10-01,8.1875,8.90625,8.0625,8.875,8.609053611755371,5064400.0
1999-11-01,8.9375,8.9375,7.578125,7.859375,7.623861789703369,6118000.0
1999-12-01,7.828125,8.125,7.3125,8.125,7.881525993347168,5984400.0
2000-01-01,8.140625,8.28125,7.296875,7.375,7.154001235961914,6834400.0
2000-02-01,7.375,7.875,6.75,7.015625,6.805395126342773,7163600.0
2000-03-01,7.015625,8.0625,6.546875,7.96875,7.729959487915039,8795200.0
2000-04-01,8.0,8.078125,7.34375,7.828125,7.5935468673706055,5018800.0
2000-05-01,7.8125,8.53125,7.625,8.3125,8.063406944274902,11791600.0
2000-06-01,8.375,9.203125,8.15625,8.16796875,7.923207759857178,6150000.0
2000-07-01,8.234375,9.171875,8.21875,8.921875,8.654523849487305,9272400.0
2000-08-01,8.84375,9.640625,8.84375,9.5,9.215325355529785,5205200.0
2000-09-01,9.5625,10.09375,9.25,10.078125,9.776124000549316,5272800.0
2000-10-01,10.078125,10.421875,9.4921875,10.34375,10.03378963470459,6534400.0
2000-11-01,10.34375,11.21875,10.125,10.828125,10.503650665283203,7528400.0
2000-12-01,10.859375,12.296875,10.21875,11.546875,11.200861930847168,8350000.0
2001-01-01,11.5625,11.987500190734863,10.5625,11.9375,11.579781532287598,10036000.0
2001-02-01,11.9375,14.640000343322754,11.850000381469727,14.0649995803833,13.64352798461914,16769200.0
2001-03-01,14.0649995803833,14.75,12.425000190734863,14.5,14.065491676330566,21323200.0
2001-04-01,14.5,16.737499237060547,14.100000381469727,16.479999542236328,15.986164093017578,18806000.0
2001-05-01,16.450000762939453,18.917499542236328,15.927499771118164,18.649999618530273,18.091135025024414,22536400.0
2001-06-01,18.649999618530273,18.875,15.0,16.3075008392334,15.818831443786621,35942000.0
2001-07-01,16.174999237060547,17.645000457763672,13.875,14.640000343322754,14.201298713684082,24343200.0
2001-08-01,14.25,15.350000381469727,12.675000190734863,14.654999732971191,14.215848922729492,26576800.0
2001-09-01,14.657500267028809,16.5,13.925000190734863,15.600000381469727,15.132533073425293,15624400.0
2001-10-01,15.662500381469727,18.0,15.180000305175781,16.385000228881836,15.894007682800293,20402000.0
2001-11-01,16.387500762939453,18.924999237060547,16.1875,17.237499237060547,16.720962524414062,17107200.0
2001-12-01,17.207500457763672,17.762500762939453,14.824999809265137,16.5,16.00556182861328,26141200.0
2002-01-01,16.4375,16.877500534057617,14.529999732971191,16.0,15.520546913146973,20863200.0
2002-02-01,16.002500534057617,17.295000076293945,14.899999618530273,16.862499237060547,16.357200622558594,15170800.0
2002-03-01,16.774999618530273,18.25,16.165000915527344,17.822500228881836,17.288433074951172,12822400.0
2002-04-01,17.822500228881836,20.600000381469727,17.31999969482422,19.729999542236328,19.13877296447754,10824800.0
2002-04-02,,,,,,
2002-05-01,19.899999618530273,21.450000762939453,18.975000381469727,19.19499969482422,18.619802474975586,10592400.0
2002-06-01,19.145000457763672,19.375,16.700000762939453,17.389999389648438,16.868892669677734,10664600.0
2002-07-01,17.315000534057617,17.75,14.100000381469727,17.344999313354492,16.825239181518555,17286000.0
2002-08-01,17.274999618530273,18.350000381469727,15.149999618530273,16.8799991607666,16.374176025390625,13994200.0
2002-09-01,16.799999237060547,17.375,14.800000190734863,15.4399995803833,14.977327346801758,10417800.0
2002-10-01,15.5,16.094999313354492,13.050000190734863,15.145000457763672,14.691168785095215,13065200.0
2002-11-01,15.145000457763672,18.399999618530273,15.074999809265137,18.155000686645508,17.610973358154297,12332800.0
2002-12-01,18.950000762939453,18.950000762939453,16.950000762939453,17.799999237060547,17.266603469848633,11672400.0
2003-01-01,17.875,19.600000381469727,17.475000381469727,18.610000610351562,18.052335739135742,12252000.0
2003-02-01,18.625,19.329999923706055,17.950000762939453,18.989999771118164,18.420949935913086,10163400.0
2003-03-01,19.084999084472656,21.25,18.540000915527344,21.0049991607666,20.375568389892578,19124000.0
2003-04-01,21.350000381469727,22.149999618530273,19.2549991607666,20.575000762939453,19.958450317382812,20648800.0
2003-05-01,20.575000762939453,21.424999237060547,13.210000038146973,13.210000038146973,12.814149856567383,16764600.0
2003-06-01,19.950000762939453,21.28499984741211,13.710000038146973,13.710000038146973,13.29916763305664,18017200.0
2003-07-01,21.149999618530273,22.450000762939453,14.039999961853027,14.039999961853027,13.619277954101562,16810800.0
2003-08-01,22.024999618530273,23.905000686645508,14.430000305175781,14.430000305175781,13.997591972351074,9152400.0
2003-09-01,23.540000915527344,24.375,14.720000267028809,14.720000267028809,14.278903007507324,8621600.0
2003-10-01,22.600000381469727,24.969999313354492,16.1200008392334,16.1200008392334,15.636950492858887,13021600.0
2003-11-01,23.149999618530273,23.6200008392334,16.729999542236328,16.729999542236328,16.22867202758789,13127600.0
2003-12-01,22.969999313354492,24.475000381469727,17.5,17.5,16.97559356689453,10474800.0
2004-01-01,23.975000381469727,24.110000610351562,17.920000076293945,17.920000076293945,17.383010864257812,12728400.0
2004-02-01,22.5,22.915000915527344,18.43000030517578,18.43000030517578,17.877731323242188,16317800.0
2004-03-01,22.065000534057617,22.424999237060547,18.899999618530273,18.899999618530273,18.33364486694336,17521800.0
2004-04-01,22.25,22.559999465942383,17.479999542236328,17.479999542236328,16.95619773864746,16226600.0
2004-05-01,20.950000762939453,22.299999237060547,17.700000762939453,17.700000762939453,17.16960334777832,12599200.0
2004-06-01,22.299999237060547,23.579999923706055,18.510000228881836,18.510000228881836,17.95532989501953,19209600.0
2004-07-01,19.635000228881836,20.1200008392334,18.139999389648438,18.139999389648438,17.596416473388672,17583600.0
2004-08-01,19.989999771118164,20.174999237060547,18.360000610351562,18.360000610351562,17.809825897216797,10805200.0
2004-09-01,19.55500030517578,19.885000228881836,18.6299991607666,19.079999923706055,18.50824737548828,10798200.0
2004-10-01,19.145000457763672,20.434999465942383,18.739999771118164,19.049999237060547,18.479148864746094,10974000.0
2004-11-01,20.364999771118164,23.149999618530273,18.875,20.700000762939453,20.0797061920166,22112600.0
2004-12-01,22.985000610351562,24.09000015258789,21.6200008392334,21.6200008392334,20.97214126586914,13370000.0
2005-01-01,23.850000381469727,26.475000381469727,21.010000228881836,21.010000228881836,20.380416870117188,15008000.0
2005-02-01,25.350000381469727,28.204999923706055,21.399999618530273,21.399999618530273,20.75873374938965,14603800.0
2005-03-01,27.889999389648438,28.399999618530273,20.469999313354492,20.469999313354492,19.856595993041992,14691800.0
2005-04-01,25.934999465942383,27.2549991607666,19.43000030517578,19.43000030517578,18.847761154174805,12642800.0
2005-05-01,24.354999542236328,27.09000015258789,20.719999313354492,20.719999313354492,20.099105834960938,13199800.0
2005-06-01,26.174999237060547,28.625,21.43000030517578,21.43000030517578,20.787830352783203,14670800.0
2005-07-01,28.2549991607666,29.920000076293945,23.079999923706055,23.079999923706055,22.388385772705078,17315200.0
2005-08-01,29.399999618530273,31.399999618530273,22.420000076293945,22.420000076293945,21.74816131591797,18094600.0
2005-09-01,31.040000915527344,34.04999923706055,22.549999237060547,22.549999237060547,21.874267578125,21664600.0
2005-10-01,33.95000076293945,34.44499969482422,21.729999542236328,21.729999542236328,21.078842163085938,19826000.0
2005-11-01,32.099998474121094,33.33000183105469,22.68000030517578,22.68000030517578,22.0003719329834,14754200.0
2005-12-01,32.65999984741211,34.70500183105469,22.81999969482422,22.81999969482422,22.13617515563965,11726200.0
2006-01-01,34.400001525878906,42.04999923706055,24.3700008392334,24.3700008392334,23.639732360839844,19125000.0
2006-02-01,42.185001373291016,44.0,24.239999771118164,24.239999771118164,23.513626098632812,16953000.0
2006-03-01,42.94499969482422,44.875,25.09000015258789,25.09000015258789,24.33815574645996,21871800.0
2006-04-01,43.43000030517578,46.6349983215332,24.790000915527344,24.790000915527344,24.04714584350586,22043200.0
2006-05-01,42.7400016784668,45.17499923706055,23.450000762939453,23.450000762939453,22.747299194335938,31051200.0
2006-06-01,39.02000045776367,40.275001525878906,23.600000381469727,23.600000381469727,22.89280128479004,21455800.0
2006-07-01,40.06999969482422,41.61000061035156,22.489999771118164,22.489999771118164,21.816062927246094,19227000.0
2006-08-01,41.25,44.150001525878906,22.579999923706055,22.579999923706055,21.903369903564453,16533600.0
2006-09-01,43.619998931884766,43.72999954223633,22.760000228881836,22.760000228881836,22.077974319458008,26587600.0
2006-10-01,37.3650016784668,39.310001373291016,23.790000915527344,23.790000915527344,23.077117919921875,18953200.0
2006-11-01,37.83000183105469,42.314998626708984,24.549999237060547,24.549999237060547,23.814334869384766,19499200.0
2006-12-01,41.93000030517578,42.93000030517578,24.399999618530273,24.399999618530273,23.668832778930664,10661400.0
2007-01-01,41.150001525878906,46.029998779296875,24.850000381469727,24.850000381469727,24.1053466796875,21132400.0
2007-02-01,45.5,47.33000183105469,24.469999313354492,24.469999313354492,23.736736297607422,15840200.0
2007-03-01,44.75,47.83000183105469,24.40999984741211,24.40999984741211,23.678531646728516,17671100.0
2007-03-16,,,,,,
2007-04-01,46.86000061035156,52.41999816894531,24.170000076293945,24.170000076293945,23.445722579956055,13604900.0
2007-05-01,50.439998626708984,58.650001525878906,25.43000030517578,25.43000030517578,24.667964935302734,16172300.0
2007-06-01,58.5,60.0,25.049999237060547,25.049999237060547,24.299348831176758,19367600.0
2007-07-01,57.88999938964844,67.38999938964844,22.989999771118164,22.989999771118164,22.301084518432617,27526000.0
2007-08-01,61.380001068115234,69.98999786376953,22.959999084472656,22.959999084472656,22.271984100341797,27501700.0
2007-09-01,66.1500015258789,78.29000091552734,23.850000381469727,23.850000381469727,23.135313034057617,17744800.0
2007-10-01,75.58000183105469,89.63999938964844,23.8799991607666,23.8799991607666,23.164413452148438,38690300.0
2007-11-01,86.0,88.69999694824219,21.950000762939453,21.950000762939453,21.29224967956543,32766200.0
2007-12-01,84.19999694824219,99.62000274658203,20.649999618530273,20.649999618530273,20.031200408935547,28602800.0
2008-01-01,95.61000061035156,103.29000091552734,19.40999984741211,19.40999984741211,18.828365325927734,53298400.0
2008-02-01,77.5,84.98999786376953,18.829999923706055,18.829999923706055,18.2657413482666,35821800.0
2008-03-01,80.88999938964844,81.75,18.549999237060547,18.549999237060547,17.994131088256836,42825900.0
2008-04-01,74.97000122070312,93.37000274658203,18.719999313354492,18.719999313354492,18.159040451049805,29133600.0
2008-05-01,86.9000015258789,98.30999755859375,19.389999389648438,19.389999389648438,18.808958053588867,24078700.0
2008-06-01,95.22000122070312,95.25,17.0,17.0,16.490581512451172,24864300.0
2008-07-01,79.26000213623047,86.88999938964844,16.8700008392334,16.8700008392334,16.36447525024414,40184700.0
2008-08-01,77.91999816894531,78.41999816894531,17.219999313354492,17.219999313354492,16.70398712158203,31271700.0
2008-09-01,73.86000061035156,75.01000213623047,15.59000015258789,15.59000015258789,15.122832298278809,47034400.0
2008-10-01,53.91999816894531,54.189998626708984,12.380000114440918,12.380000114440918,12.00902271270752,63385200.0
2008-11-01,36.9900016784668,44.900001525878906,10.960000038146973,10.960000038146973,10.631572723388672,59669600.0
2008-12-01,42.849998474121094,53.95000076293945,11.279999732971191,11.279999732971191,10.941984176635742,75458600.0
2009-01-01,48.959999084472656,54.709999084472656,10.039999961853027,10.039999961853027,9.739141464233398,71670800.0
2009-02-01,37.88999938964844,43.970001220703125,8.739999771118164,8.739999771118164,8.47809886932373,66954500.0
2009-03-01,33.02000045776367,43.189998626708984,9.609999656677246,9.609999656677246,9.322027206420898,70375100.0
2009-04-01,38.150001525878906,47.349998474121094,11.510000228881836,11.510000228881836,11.165093421936035,46830600.0
2009-05-01,38.58000183105469,43.689998626708984,12.149999618530273,12.149999618530273,11.785913467407227,55594000.0
2009-06-01,43.880001068115234,46.310001373291016,12.149999618530273,12.149999618530273,11.785913467407227,42916500.0
2009-07-01,42.20000076293945,43.43000030517578,13.289999961853027,13.289999961853027,12.891753196716309,40344300.0
2009-08-01,41.310001373291016,47.75,13.829999923706055,13.829999923706055,13.415571212768555,33620300.0
2009-09-01,43.720001220703125,49.72999954223633,14.729999542236328,14.729999542236328,14.288602828979492,28235400.0
2009-10-01,45.84000015258789,47.900001525878906,13.619999885559082,13.619999885559082,13.211864471435547,32294100.0
2009-11-01,41.95000076293945,46.18000030517578,13.979999542236328,13.979999542236328,13.561075210571289,60432300.0
2009-12-01,35.40999984741211,38.9900016784668,15.100000381469727,15.100000381469727,14.647514343261719,50635900.0
2010-01-01,38.099998474121094,42.220001220703125,14.710000038146973,14.710000038146973,14.26920223236084,40193500.0
2010-02-01,38.04999923706055,39.709999084472656,15.449999809265137,15.449999809265137,14.987025260925293,32484800.0
2010-03-01,38.90999984741211,46.29999923706055,16.68000030517578,16.68000030517578,16.18016815185547,33273800.0
2010-04-01,45.52000045776367,50.68000030517578,17.729999542236328,17.729999542236328,17.198705673217773,44204000.0
2010-05-01,48.65999984741211,49.290000915527344,16.31999969482422,16.31999969482422,15.830957412719727,43525500.0
2010-06-01,41.40999984741211,43.91999816894531,14.960000038146973,14.960000038146973,14.511711120605469,36759800.0
2010-07-01,35.97999954223633,40.0,16.0,16.0,15.520546913146973,31394900.0
2010-08-01,37.25,37.720001220703125,14.829999923706055,14.829999923706055,14.38560676574707,28594400.0
2010-09-01,35.2400016784668,39.279998779296875,16.700000762939453,16.700000762939453,16.199567794799805,23495600.0
2010-10-01,39.040000915527344,40.81999969482422,17.360000610351562,17.360000610351562,16.83979034423828,22218400.0
2010-11-01,38.83000183105469,43.220001220703125,18.040000915527344,18.040000915527344,17.499420166015625,28593300.0
2010-12-01,39.20000076293945,47.970001220703125,0.18000000715255737,0.20000000298023224,0.1940068006515503,23896800.0
2011-01-01,46.209999084472656,55.72999954223633,0.14000000059604645,19.81999969482422,19.226076126098633,33795000.0
2011-02-01,52.099998474121094,53.18000030517578,47.16999816894531,50.060001373291016,48.559906005859375,20482800.0
2011-03-01,50.20000076293945,51.4900016784668,0.18000000715255737,0.20000000298023224,0.1940068006515503,31223500.0
2011-04-01,51.84000015258789,52.4900016784668,47.52000045776367,49.61000061035156,48.12339401245117,27296300.0
2011-05-01,49.880001068115234,50.189998626708984,0.15000000596046448,21.530000686645508,20.88483238220215,31140400.0
2011-06-01,45.849998474121094,46.060001373291016,40.529998779296875,43.25,41.95397186279297,23984100.0
2011-07-01,43.25,43.959999084472656,20.469999313354492,20.469999313354492,19.856595993041992,23297200.0
2011-08-01,39.650001525878906,39.83000183105469,18.260000228881836,18.260000228881836,17.71282386779785,49571900.0
2011-09-01,37.16999816894531,37.630001068115234,0.10000000149011612,16.200000762939453,15.714552879333496,29459300.0
2011-10-01,32.040000915527344,41.68000030517578,0.10000000149011612,0.10000000149011612,0.09700340032577515,32406500.0
2011-11-01,37.459999084472656,42.619998931884766,0.18000000715255737,0.18000000715255737,0.17460614442825317,36855900.0
2011-12-01,41.369998931884766,43.099998474121094,0.18000000715255737,40.58000183105469,39.36398696899414,26933000.0
2012-01-01,0.18000000715255737,46.439998626708984,0.18000000715255737,44.7599983215332,43.418724060058594,22924300.0
2012-02-01,45.27000045776367,48.16999816894531,0.18000000715255737,46.220001220703125,44.83497619628906,19228000.0
2012-03-01,46.529998779296875,47.54999923706055,44.029998779296875,44.369998931884766,43.04041290283203,22703800.0
2012-04-01,44.209999084472656,45.0,0.10000000149011612,43.83000183105469,42.516597747802734,18886100.0
2012-05-01,41.130001068115234,42.06999969482422,0.10000000149011612,35.52000045776367,34.45561218261719,29440700.0
2012-06-01,34.779998779296875,37.86000061035156,33.61000061035156,37.86000061035156,36.725486755371094,22585900.0
2012-07-01,37.93000030517578,40.560001373291016,0.10000000149011612,38.56999969482422,37.414215087890625,16873100.0
2012-08-01,38.869998931884766,41.790000915527344,37.650001525878906,39.540000915527344,38.35514831542969,15600800.0
2012-09-01,0.10000000149011612,43.900001525878906,0.10000000149011612,40.43000030517578,39.218475341796875,14935400.0
2012-10-01,40.540000915527344,41.7599983215332,0.10000000149011612,38.59000015258789,37.43361282348633,14334000.0
2012-11-01,38.70000076293945,41.25,0.10000000149011612,40.939998626708984,39.713191986083984,20402800.0
2012-12-01,41.279998779296875,43.560001373291016,0.10000000149011612,42.56999969482422,41.294349670410156,15570800.0
2013-01-01,0.10000000149011612,49.40999984741211,0.10000000149011612,48.11000061035156,46.66834259033203,17836300.0
2013-02-01,48.650001525878906,50.47999954223633,0.10000000149011612,48.84000015258789,47.376461029052734,16601400.0
2013-03-01,48.2400016784668,56.529998779296875,0.10000000149011612,0.10000000149011612,0.09700340032577515,21539600.0
2013-04-01,56.11000061035156,56.33000183105469,48.86000061035156,50.47999954223633,48.96732711791992,23383200.0
2013-05-01,50.45000076293945,57.810001373291016,0.10000000149011612,57.0099983215332,55.3016357421875,19593100.0
2013-06-01,57.15999984741211,57.970001220703125,54.58000183105469,55.130001068115234,53.47798538208008,17982900.0
2013-07-01,55.47999954223633,60.84000015258789,0.019999999552965164,59.20000076293945,57.42601776123047,14696400.0
2013-08-01,60.04999923706055,62.33000183105469,57.72999954223633,58.279998779296875,56.5335807800293,17300400.0
2013-09-01,0.004999999888241291,60.470001220703125,0.004999999888241291,58.18000030517578,56.43658447265625,19198600.0
2013-10-01,58.20000076293945,61.20000076293945,55.79999923706055,60.81999969482422,58.99747085571289,14927600.0
2013-11-01,60.790000915527344,64.2699966430664,0.004999999888241291,59.77000045776367,57.978939056396484,18236300.0
2013-12-01,59.70000076293945,63.060001373291016,4.258900165557861,62.9900016784668,61.102447509765625,16229200.0
2014-01-01,4.642590045928955,66.87999725341797,0.004999999888241291,60.709999084472656,58.890769958496094,21247300.0
2014-02-01,60.72999954223633,62.02000045776367,6.791220188140869,60.650001525878906,58.83256912231445,18042485.0
2014-03-01,59.900001525878906,65.58000183105469,59.36000061035156,63.5,61.59716033935547,19399600.0
2014-04-01,63.81999969482422,65.0199966430664,4.218100070953369,57.70000076293945,55.97096633911133,19854100.0
2014-05-01,57.68000030517578,58.5,8.514309883117676,55.06999969482422,53.41978073120117,31813804.0
2014-06-01,55.04999923706055,57.18000030517578,52.84000015258789,53.279998779296875,51.68342208862305,20102800.0
2014-07-01,53.33000183105469,55.0,0.009999999776482582,5.780360221862793,5.607146739959717,23800219.0
2014-08-01,50.58000183105469,54.7400016784668,49.56999969482422,53.90999984741211,52.29453659057617,16898100.0
2014-09-01,0.009999999776482582,54.70000076293945,0.009999999776482582,48.81999969482422,47.35706329345703,22310400.0
2014-10-01,48.810001373291016,48.810001373291016,45.040000915527344,47.45000076293945,46.02812194824219,35693900.0
2014-11-01,47.43000030517578,49.900001525878906,4.569610118865967,46.45000076293945,45.058082580566406,26789704.0
2014-12-01,46.25,47.959999084472656,3.554140090942383,44.689998626708984,43.3508186340332,36219833.0
2015-01-01,3.6713099479675293,45.029998779296875,3.202630043029785,38.099998474121094,36.95829772949219,29143579.0
2015-02-01,38.400001525878906,44.880001068115234,4.061870098114014,44.34000015258789,43.01130294799805,27310068.0
2015-03-01,44.34000015258789,45.43000030517578,42.63999938964844,45.15999984741211,43.806739807128906,25840900.0
2015-04-01,45.189998626708984,48.25,4.569610118865967,42.86000061035156,41.575660705566406,26554592.0
2015-05-01,42.75,44.65999984741211,4.374330043792725,43.2599983215332,41.96366882324219,20673050.0
2015-06-01,43.380001068115234,44.560001373291016,40.5099983215332,40.619998931884766,39.40278244018555,25992100.0
2015-07-01,41.029998779296875,43.27000045776367,4.17903995513916,42.119998931884766,40.85783386230469,33629165.0
2015-08-01,41.900001525878906,44.63999938964844,36.81999969482422,40.40999984741211,39.199073791503906,35732500.0
2015-09-01,39.47999954223633,40.849998474121094,6.444320201873779,37.43000030517578,36.30837631225586,36828323.0
2015-10-01,37.61000061035156,41.810001373291016,36.04999923706055,40.13999938964844,38.937164306640625,26885300.0
2015-11-01,40.119998931884766,44.61000061035156,7.186389923095703,44.13999938964844,42.81730270385742,22145737.0
2015-12-01,44.11000061035156,45.40999984741211,0.23999999463558197,41.95000076293945,40.692928314208984,21993800.0
2016-01-01,0.25,42.119998931884766,0.25,39.22999954223633,38.0544319152832,21484952.0
2016-02-01,38.790000915527344,39.220001220703125,6.358500003814697,38.650001525878906,37.49182891845703,23305643.0
2016-03-01,38.880001068115234,44.77000045776367,0.23000000417232513,43.54999923706055,42.2449836730957,16009900.0
2016-04-01,43.08000183105469,45.29999923706055,40.93000030517578,44.58000183105469,43.24412536621094,14779400.0
2016-05-01,44.619998931884766,50.83000183105469,0.20999999344348907,50.689998626708984,49.17102813720703,28724800.0
2016-06-01,50.470001220703125,53.33000183105469,47.13999938964844,49.810001373291016,48.31739807128906,20277200.0
2016-07-01,49.900001525878906,54.540000915527344,5.534249782562256,53.52000045776367,51.91622543334961,14112190.0
2016-08-01,53.45000076293945,55.88999938964844,52.34000015258789,52.689998626708984,51.11109924316406,18337900.0
2016-09-01,52.720001220703125,53.040000915527344,6.593999862670898,51.720001220703125,50.170162200927734,14818297.0
2016-10-01,51.47999954223633,52.58000183105469,49.619998931884766,51.58000183105469,50.034366607666016,11898500.0
2016-11-01,51.9900016784668,63.41999816894531,0.25,62.0099983215332,60.15181350708008,30215500.0
2016-12-01,62.47999954223633,63.15999984741211,0.26499998569488525,57.0,55.29194259643555,21940000.0
2017-01-01,0.24500000476837158,62.20000076293945,0.24500000476837158,58.54999923706055,56.79548645019531,16510052.0
2017-02-01,58.97999954223633,59.810001373291016,0.4099999964237213,56.40999984741211,54.719627380371094,22037600.0
2017-02-15,,,,,,
2017-03-01,57.349998474121094,58.47999954223633,52.38999938964844,55.279998779296875,53.76365661621094,18429000.0
2017-04-01,55.38999938964844,55.91999816894531,0.3799999952316284,54.91999816894531,53.413543701171875,12425800.0
2017-05-01,55.099998474121094,55.970001220703125,2.75,52.41999816894531,50.982120513916016,22858425.0
2017-05-17,,,,,,
2017-06-01,52.560001373291016,55.65999984741211,51.619998931884766,54.38999938964844,53.04936599731445,18415000.0
2017-07-01,54.63999938964844,55.59000015258789,0.3199999928474426,52.720001220703125,51.4205207824707,13619400.0
2017-08-01,52.9900016784668,54.9900016784668,49.310001373291016,54.4900016784668,53.14690399169922,22851300.0
2017-08-02,,,,,,
2017-09-01,54.7400016784668,58.5099983215332,1.840000033378601,58.27000045776367,56.99427032470703,15165923.0
2017-10-01,58.13999938964844,59.27000045776367,57.56999969482422,58.209999084472656,56.93558883666992,11250500.0
2017-10-12,,,,,,
2017-11-01,58.380001068115234,66.19999694824219,0.5,65.62999725341797,64.35956573486328,16098158.0
2017-12-01,65.87000274658203,69.3499984741211,0.5199999809265137,65.95999908447266,64.68316650390625,17731600.0
2018-01-01,0.6600000262260437,72.18000030517578,0.6600000262260437,69.45999908447266,68.11540985107422,20933466.0
2018-02-01,69.08999633789062,70.19000244140625,56.54999923706055,61.060001373291016,59.878021240234375,32473000.0
2018-02-15,,,,,,
2018-03-01,60.90999984741211,61.36000061035156,55.41999816894531,59.150001525878906,58.141990661621094,28508000.0
2018-04-01,58.83000183105469,61.150001525878906,56.70000076293945,58.09000015258789,57.100059509277344,19015700.0
2018-05-01,58.040000915527344,65.0199966430664,55.209999084472656,64.80000305175781,63.69571304321289,29395000.0
2018-05-17,,,,,,
2018-06-01,65.29000091552734,66.72000122070312,62.63999938964844,63.4900016784668,62.55584716796875,22237200.0
2018-07-01,62.869998931884766,68.04000091552734,62.790000915527344,67.62999725341797,66.63493347167969,17948900.0
2018-08-01,66.93000030517578,73.9000015258789,65.95999908447266,72.69000244140625,71.62049102783203,24012700.0
2018-08-02,,,,,,
2018-09-01,72.4000015258789,77.91000366210938,71.69999694824219,76.5,75.54342651367188,22158100.0
2018-09-27,,,,,,
2018-10-01,76.83999633789062,78.31999969482422,70.54000091552734,75.08999633789062,74.29582977294922,26736300.0
2018-11-01,75.44999694824219,82.23999786376953,61.86000061035156,65.66999816894531,64.97545623779297,38047900.0
2018-12-01,66.66999816894531,68.44000244140625,55.16999816894531,58.459999084472656,57.84170913696289,29846000.0
2019-01-01,57.52000045776367,64.83000183105469,0.27000001072883606,0.27000001072883606,0.26714444160461426,24591456.0
2019-02-01,64.80000305175781,75.23999786376953,64.11000061035156,73.77999877929688,72.99968719482422,36669700.0
2019-02-14,,,,,,
2019-03-01,74.5199966430664,75.80999755859375,70.88999938964844,75.19000244140625,74.5800552368164,22630800.0
2019-04-01,75.80999755859375,81.1500015258789,74.88999938964844,77.94000244140625,77.30774688720703,19119100.0
2019-05-01,78.25,80.44000244140625,73.08000183105469,75.29000091552734,74.67922973632812,22208300.0
2019-05-16,,,,,,
2019-06-01,75.55000305175781,84.5199966430664,75.5,78.30000305175781,77.83709716796875,22097200.0
2019-07-01,85.12000274658203,85.8499984741211,82.05999755859375,82.51000213623047,82.02220153808594,16703000.0
2019-07-25,,,,,,
2019-08-01,82.83999633789062,88.95999908447266,77.55999755859375,88.86000061035156,88.51033782958984,23055300.0
2019-09-01,88.05999755859375,94.0999984741211,87.62000274658203,91.5,91.13994598388672,23565400.0
2019-10-01,92.0199966430664,95.04000091552734,86.23999786376953,93.58000183105469,93.2117691040039,15220400.0
2019-10-03,,,,,,
2019-11-01,94.25,98.08000183105469,89.22000122070312,92.08999633789062,91.90538787841797,22790500.0
2019-12-01,92.44999694824219,93.0,84.47000122070312,90.02999877929688,89.84952545166016,29386000.0
2020-01-01,89.9000015258789,97.93000030517578,88.66000366210938,92.52999877929688,92.34451293945312,17073700.0
2020-01-30,,,,,,
2020-02-01,92.70999908447266,104.0,88.6500015258789,92.33999633789062,92.33999633789062,21676400.0
2020-03-01,92.56999969482422,101.91000366210938,59.290000915527344,73.25,73.25,30414100.0
2020-03-26,74.19000244140625,78.81999969482422,73.52999877929688,77.94000244140625,77.94000244140625,352980.0
