Date,Open,High,Low,Close,Adj Close,Volume
1985-03-01,1.6718800067901611,1.7708300352096558,1.661460041999817,1.7708300352096558,0.04223862290382385,35119200.0
1985-04-01,1.7708300352096558,1.7708300352096558,1.6406199932098389,1.651039958000183,0.03938135877251625,15278400.0
1985-05-01,1.651039958000183,1.776039958000183,1.619789958000183,1.7083300352096558,0.04074782878160477,25444800.0
1985-06-01,1.7031199932098389,1.776039958000183,1.692710041999817,1.776039958000183,0.042362891137599945,25351200.0
1985-06-10,,,,,,
1985-07-01,1.78125,1.875,1.7395800352096558,1.8541699647903442,0.04473242163658142,70375200.0
1985-08-01,1.8541699647903442,1.875,1.7291699647903442,1.7604199647903442,0.04247063398361206,14656800.0
1985-09-01,1.7604199647903442,1.7708300352096558,1.6770800352096558,1.6979199647903442,0.04096284136176109,8217600.0
1985-09-09,,,,,,
1985-10-01,1.7083300352096558,1.817710041999817,1.6666699647903442,1.776039958000183,0.04332732781767845,16401600.0
1985-11-01,1.786460041999817,2.083329916000366,1.776039958000183,2.0,0.048790909349918365,18852000.0
1985-12-01,2.0052099227905273,2.109380006790161,1.9895800352096558,2.041670083999634,0.049807481467723846,13212000.0
1985-12-09,,,,,,
1986-01-01,2.03125,2.239579916000366,1.9895800352096558,2.2239599227905273,0.07163724303245544,13929600.0
1986-02-01,2.208329916000366,2.395829916000366,2.208329916000366,2.390619993209839,0.07700562477111816,19644000.0
1986-03-01,2.385420083999634,2.6197900772094727,2.333329916000366,2.416670083999634,0.0778447836637497,28694400.0
1986-03-10,,,,,,
1986-03-31,,,,,,
1986-04-01,2.416670083999634,2.458329916000366,2.328119993209839,2.4375,0.0986289232969284,21568800.0
1986-05-01,2.447920083999634,2.697920083999634,2.40625,2.697920083999634,0.10916630178689957,38025600.0
1986-06-01,2.6875,2.703119993209839,2.458329916000366,2.666670083999634,0.1079019233584404,27249600.0
1986-06-09,,,,,,
1986-07-01,2.697920083999634,2.7239599227905273,2.34375,2.395829916000366,0.11982004344463348,21048000.0
1986-08-01,2.390619993209839,2.635420083999634,2.3385400772094727,2.59375,0.1297183632850647,16308000.0
1986-09-01,2.59375,2.6197900772094727,2.208329916000366,2.2864599227905273,0.11435017734766006,20234400.0
1986-09-08,,,,,,
1986-10-01,2.2864599227905273,2.427079916000366,2.21875,2.359380006790161,0.14626026153564453,13684800.0
1986-11-01,2.359380006790161,3.0,2.333329916000366,2.65625,0.16466352343559265,41911200.0
1986-12-01,2.541670083999634,2.614579916000366,2.364579916000366,2.385420083999634,0.14787442982196808,22293600.0
1986-12-01,,,,,,
1987-01-01,2.385420083999634,2.645829916000366,2.25,2.59375,0.2009059488773346,48496800.0
1987-01-02,,,,,,
1987-02-01,2.59375,2.791670083999634,2.583329916000366,2.645829916000366,0.2049398124217987,19269600.0
1987-03-01,2.635420083999634,2.71875,2.489579916000366,2.6875,0.20816762745380402,19353600.0
1987-03-09,,,,,,
1987-04-01,2.677079916000366,2.75,2.427079916000366,2.75,0.23759841918945312,31437600.0
1987-05-01,2.75,2.875,2.4375,2.739579916000366,0.23669809103012085,13629600.0
1987-06-01,2.729170083999634,3.1875,2.677079916000366,3.020829916000366,0.26099786162376404,18584400.0
1987-06-08,,,,,,
1987-07-01,3.03125,3.125,2.8125,3.125,0.29857519268989563,19232400.0
1987-08-01,3.104170083999634,3.333329916000366,2.96875,3.09375,0.2955896258354187,21372000.0
1987-09-01,3.09375,7.027068138122559,2.875,6.929470062255859,0.6620698571205139,16117000.0
1987-09-04,,,,,,
1987-09-28,,,,,,
1987-10-01,6.929470062255859,7.189731597900391,4.099123001098633,5.400432109832764,0.5660150051116943,15862000.0
1987-11-01,5.400432109832764,5.7908244132995605,4.944973945617676,5.107637405395508,0.5353274941444397,6991400.0
1987-12-01,5.205235481262207,5.953488349914551,4.944973945617676,5.920955657958984,0.6205707788467407,6864500.0
1987-12-07,,,,,,
1988-01-01,5.888422966003418,6.311347961425781,5.4654974937438965,6.148684501647949,0.6818379759788513,6837900.0
1988-02-01,6.246282577514648,6.6366753578186035,5.660693645477295,6.376413822174072,0.7070910930633545,7396300.0
1988-03-01,6.376413822174072,7.710255146026611,6.311347961425781,7.059600830078125,0.7828503251075745,17222600.0
1988-03-02,,,,,,
1988-03-07,,,,,,
1988-04-01,7.092133522033691,7.6451897621154785,6.701740741729736,7.547591686248779,0.8767850399017334,15552100.0
1988-05-01,7.515058994293213,8.653704643249512,7.515058994293213,8.100647926330566,0.941032350063324,19206900.0
1988-06-01,8.100647926330566,9.499554634094238,8.100647926330566,8.913966178894043,1.0355136394500732,16418200.0
1988-06-01,,,,,,
1988-06-06,,,,,,
1988-07-01,8.94649887084961,9.141695022583008,8.328376770019531,8.556105613708496,1.0294358730316162,8548000.0
1988-08-01,8.52357292175293,8.84890079498291,7.677722454071045,7.970517158508301,0.9589799046516418,7740600.0
1988-09-01,7.937984466552734,9.336891174316406,7.937984466552734,9.239293098449707,1.111634373664856,11940600.0
1988-09-01,,,,,,
1988-09-02,,,,,,
1988-10-01,9.174227714538574,9.98754596710205,9.109162330627441,9.20676040649414,1.1491951942443848,8743300.0
1988-11-01,9.174227714538574,9.369423866271973,8.360909461975098,9.044096946716309,1.1288915872573853,6825800.0
1988-12-01,9.011564254760742,9.467021942138672,8.881433486938477,9.30435848236084,1.1613761186599731,5572300.0
1988-12-01,,,,,,
1988-12-05,,,,,,
1989-01-01,9.239293098449707,9.434489250183105,8.393442153930664,9.434489250183105,1.2185475826263428,12724000.0
1989-02-01,9.369423866271973,9.857415199279785,9.239293098449707,9.499554634094238,1.2269498109817505,10047000.0
1989-03-01,9.467021942138672,9.694751739501953,8.816368103027344,9.20676040649414,1.1891340017318726,7088400.0
1989-03-01,,,,,,
1989-03-06,,,,,,
1989-04-01,9.141695022583008,9.271825790405273,8.653704643249512,9.174227714538574,1.2248855829238892,14469100.0
1989-05-01,9.141695022583008,10.86592960357666,8.913966178894043,10.638199806213379,1.4203457832336426,16903300.0
1989-05-31,,,,,,
1989-06-01,10.638199806213379,11.093658447265625,9.922480583190918,10.052611351013184,1.3445149660110474,7045500.0
1989-06-05,,,,,,
1989-07-01,10.052611351013184,11.972042083740234,9.922480583190918,11.776845932006836,1.6180649995803833,11039400.0
1989-08-01,11.74431324005127,12.817893028259277,11.679247856140137,12.264836311340332,1.6851117610931396,9730700.0
1989-08-29,,,,,,
1989-09-01,12.264836311340332,12.46003246307373,11.516583442687988,12.394967079162598,1.7054784297943115,4968200.0
1989-09-01,,,,,,
1989-10-01,12.394967079162598,13.663743019104004,11.581648826599121,12.720294952392578,1.7925069332122803,9786300.0
1989-11-01,12.655228614807129,13.143219947814941,12.525097846984863,12.88295841217041,1.8154308795928955,5292800.0
1989-11-29,,,,,,
1989-12-01,12.88295841217041,13.989070892333984,12.590163230895996,13.110687255859375,1.8504661321640015,5652200.0
1989-12-04,,,,,,
1990-01-01,13.175752639770508,13.793874740600586,10.670733451843262,11.451518058776855,1.653947114944458,10500400.0
1990-02-01,11.581648826599121,12.525097846984863,11.516583442687988,12.427499771118164,1.7949079275131226,5767700.0
1990-02-28,,,,,,
1990-03-01,12.427499771118164,13.110687255859375,12.329901695251465,12.362434387207031,1.7885318994522095,4356900.0
1990-03-05,,,,,,
1990-04-01,12.264836311340332,13.078154563903809,11.679247856140137,11.809378623962402,1.7506704330444336,5873800.0
1990-05-01,11.841911315917969,14.11920166015625,11.32138729095459,13.858940124511719,2.0545053482055664,10848700.0
1990-05-30,,,,,,
1990-06-01,13.826407432556152,15.095183372497559,13.793874740600586,14.802389144897461,2.197829008102417,9296600.0
1990-06-04,,,,,,
1990-07-01,14.802389144897461,17.112211227416992,14.639724731445312,15.387977600097656,2.3349661827087402,10205600.0
1990-08-01,15.290379524230957,15.485575675964355,12.427499771118164,13.76134204864502,2.088141679763794,10644900.0
1990-08-28,,,,,,
1990-08-31,,,,,,
1990-09-01,13.69627571105957,14.639724731445312,12.752827644348145,12.98055648803711,2.0165138244628906,5931900.0
1990-10-01,13.273350715637207,13.793874740600586,9.857415199279785,9.98754596710205,1.5515525341033936,15715200.0
1990-11-01,10.280340194702148,10.508069038391113,9.662219047546387,10.312872886657715,1.6020923852920532,16243300.0
1990-12-01,10.345405578613281,11.711780548095703,9.922480583190918,11.191256523132324,1.7385482788085938,11825200.0
1990-12-03,,,,,,
1990-12-28,,,,,,
1991-01-01,11.191256523132324,11.516583442687988,9.72728443145752,10.54060173034668,1.691731572151184,14645800.0
1991-02-01,10.54060173034668,12.817893028259277,10.54060173034668,11.711780548095703,1.8797008991241455,16915600.0
1991-03-01,11.646714210510254,13.598677635192871,11.614181518554688,12.362434387207031,1.9841281175613403,12898200.0
1991-03-04,,,,,,
1991-04-01,12.329901695251465,13.273350715637207,12.134705543518066,12.134705543518066,1.999281406402588,8641600.0
1991-04-03,,,,,,
1991-05-01,12.167238235473633,13.24081802368164,12.134705543518066,13.24081802368164,2.185567617416382,7369300.0
1991-06-01,13.208285331726074,13.370948791503906,12.362434387207031,12.492565155029297,2.0620574951171875,8231300.0
1991-06-03,,,,,,
1991-07-01,12.525097846984863,12.752827644348145,10.800864219665527,10.833396911621094,1.8310030698776245,10873900.0
1991-07-01,,,,,,
1991-08-01,10.833396911621094,11.646714210510254,9.824882507324219,10.768331527709961,1.8234244585037231,11507500.0
1991-08-30,,,,,,
1991-09-01,10.833396911621094,10.898462295532227,9.857415199279785,10.08514404296875,1.7582918405532837,9592600.0
1991-10-01,10.117676734924316,10.280340194702148,7.970517158508301,8.686237335205078,1.5144001245498657,22443100.0
1991-10-02,,,,,,
1991-11-01,8.621170997619629,8.94649887084961,8.100647926330566,8.133180618286133,1.421236276626587,15361100.0
1991-12-01,8.133180618286133,9.141695022583008,7.28732967376709,8.94649887084961,1.5633596181869507,15646400.0
1991-12-02,,,,,,
1991-12-31,,,,,,
1992-01-01,8.881433486938477,10.345405578613281,8.751302719116211,9.662219047546387,1.7619789838790894,10479800.0
1992-02-01,9.922480583190918,10.117676734924316,9.434489250183105,9.629685401916504,1.7560468912124634,5725000.0
1992-03-01,9.662219047546387,10.18274211883545,9.20676040649414,9.694751739501953,1.7679110765457153,8739100.0
1992-03-02,,,,,,
1992-04-01,9.564620018005371,9.857415199279785,8.718770027160645,9.467021942138672,1.7855708599090576,8727700.0
1992-04-01,,,,,,
1992-05-01,9.467021942138672,9.532087326049805,8.913966178894043,9.109162330627441,1.7222342491149902,5672300.0
1992-06-01,9.109162330627441,9.30435848236084,7.970517158508301,8.84890079498291,1.6730289459228516,8949800.0
1992-06-01,,,,,,
1992-06-30,,,,,,
1992-07-01,8.84890079498291,8.979031562805176,8.100647926330566,8.783835411071777,1.7256883382797241,8351700.0
1992-08-01,8.751302719116211,9.109162330627441,7.970517158508301,8.94649887084961,1.7576454877853394,10647300.0
1992-08-31,,,,,,
1992-09-01,8.94649887084961,9.759817123413086,8.913966178894043,9.011564254760742,1.8359315395355225,6114000.0
1992-09-30,,,,,,
1992-10-01,9.044096946716309,10.735798835754395,8.718770027160645,10.280340194702148,2.0997233390808105,7373800.0
1992-11-01,10.280340194702148,10.508069038391113,9.759817123413086,10.280340194702148,2.0997233390808105,4771400.0
1992-11-24,,,,,,
1992-12-01,10.215274810791016,11.22378921508789,10.215274810791016,10.768331527709961,2.2760355472564697,8593000.0
1992-12-29,,,,,,
1993-01-01,10.833396911621094,12.46003246307373,10.833396911621094,11.841911315917969,2.5089259147644043,9656600.0
1993-02-01,11.906976699829102,12.590163230895996,10.670733451843262,11.353919982910156,2.4055368900299072,7637800.0
1993-03-01,11.288854598999023,12.232303619384766,11.256321907043457,11.776845932006836,2.49514102935791,7884900.0
1993-03-01,,,,,,
1993-03-31,,,,,,
1993-04-01,11.74431324005127,11.906976699829102,10.996060371398926,11.126191139221191,2.4353673458099365,5912200.0
1993-05-01,11.093658447265625,11.386452674865723,9.72728443145752,10.833396911621094,2.3712785243988037,10047700.0
1993-05-28,,,,,,
1993-06-01,10.898462295532227,11.126191139221191,10.410470962524414,10.768331527709961,2.433551549911499,7794700.0
1993-07-01,10.703266143798828,10.930994987487793,10.08514404296875,10.280340194702148,2.3232693672180176,6524300.0
1993-07-01,,,,,,
1993-08-01,10.215274810791016,12.1021728515625,10.215274810791016,12.037107467651367,2.7268764972686768,5791700.0
1993-08-30,,,,,,
1993-09-01,11.972042083740234,12.1997709274292,10.86592960357666,11.256321907043457,2.6259307861328125,8180500.0
1993-09-29,,,,,,
1993-10-01,11.22378921508789,12.1997709274292,10.800864219665527,12.167238235473633,2.8450698852539062,5760800.0
1993-11-01,12.167238235473633,12.98055648803711,12.037107467651367,12.362434387207031,2.8907127380371094,7226700.0
1993-11-29,,,,,,
1993-12-01,12.362434387207031,13.468546867370605,12.167238235473633,13.436014175415039,3.2375388145446777,4967700.0
1993-12-29,,,,,,
1994-01-01,13.370948791503906,14.054136276245117,12.785360336303711,14.054136276245117,3.393336534500122,8094800.0
1994-02-01,14.02160358428955,14.314397811889648,13.305883407592773,13.598677635192871,3.283367156982422,7128000.0
1994-02-28,,,,,,
1994-03-01,13.533612251281738,14.379463195800781,12.720294952392578,12.98055648803711,3.2204091548919678,10011900.0
1994-03-29,,,,,,
1994-04-01,12.46003246307373,13.045621871948242,11.451518058776855,12.329901695251465,3.06488037109375,9493400.0
1994-05-01,12.264836311340332,12.622695922851562,11.581648826599121,12.362434387207031,3.072968006134033,6557300.0
1994-05-27,,,,,,
1994-06-01,12.264836311340332,12.88295841217041,11.906976699829102,11.939509391784668,3.057833433151245,6099800.0
1994-06-30,,,,,,
1994-07-01,12.0045747756958,12.46003246307373,11.191256523132324,11.256321907043457,2.8891441822052,14868600.0
1994-08-01,11.22378921508789,11.841911315917969,11.061125755310059,11.451518058776855,2.9392449855804443,12502400.0
1994-09-01,11.451518058776855,12.590163230895996,11.191256523132324,12.362434387207031,3.173046112060547,24846400.0
1994-09-02,,,,,,
1994-09-28,,,,,,
1994-10-01,12.362434387207031,13.045621871948242,11.549116134643555,12.55763053894043,3.3354592323303223,32871800.0
1994-11-01,12.427499771118164,12.492565155029297,11.353919982910156,11.972042083740234,3.179919481277466,13700300.0
1994-12-01,11.906976699829102,12.622695922851562,11.646714210510254,12.362434387207031,3.2836103439331055,13047700.0
1994-12-05,,,,,,
1994-12-27,,,,,,
1995-01-01,12.297369003295898,12.948023796081543,12.1021728515625,12.590163230895996,3.4639992713928223,23060300.0
1995-02-01,12.590163230895996,13.598677635192871,12.394967079162598,13.566144943237305,3.732525587081909,32703700.0
1995-02-27,,,,,,
1995-03-01,13.566144943237305,13.956538200378418,13.273350715637207,13.76134204864502,3.8997015953063965,26602300.0
1995-03-29,,,,,,
1995-04-01,13.76134204864502,14.21679973602295,13.273350715637207,13.663743019104004,3.879349708557129,17905900.0
1995-05-01,13.631210327148438,15.160248756408691,13.533612251281738,14.086668968200684,3.9994218349456787,25977200.0
1995-06-01,14.11920166015625,14.509593963623047,13.793874740600586,14.054136276245117,3.9901862144470215,17963300.0
1995-06-06,,,,,,
1995-07-01,13.989070892333984,14.965052604675293,13.891472816467285,14.314397811889648,4.1773786544799805,19285400.0
1995-07-03,,,,,,
1995-08-01,14.281865119934082,15.420510292053223,14.184267044067383,15.387977600097656,4.499014377593994,17534900.0
1995-09-01,15.485575675964355,16.461557388305664,15.453042984008789,16.39649200439453,4.793874740600586,13299900.0
1995-09-06,,,,,,
1995-09-28,,,,,,
1995-10-01,16.3314266204834,16.461557388305664,15.35544490814209,15.810903549194336,4.747743606567383,15462900.0
1995-11-01,15.843436241149902,18.023128509521484,15.843436241149902,16.3314266204834,4.904049873352051,11335100.0
1995-11-15,,,,,,
1995-12-01,16.656753540039062,18.543651580810547,16.3314266204834,18.543651580810547,5.5683393478393555,12814400.0
1995-12-06,,,,,,
1996-01-01,18.283390045166016,18.738847732543945,16.85194969177246,18.41352081298828,5.664991855621338,12136800.0
1996-01-02,,,,,,
1996-02-01,18.478586196899414,20.43054962158203,18.218324661254883,18.803913116455078,5.793234825134277,10809500.0
1996-02-28,,,,,,
1996-03-01,18.934043884277344,20.300418853759766,18.023128509521484,18.60871696472168,5.856942653656006,12232900.0
1996-04-01,18.60871696472168,20.755876541137695,18.41352081298828,20.105222702026367,6.327957630157471,9396300.0
1996-04-01,,,,,,
1996-05-01,20.040157318115234,21.536663055419922,18.283390045166016,20.560680389404297,6.480372905731201,11331400.0
1996-06-01,20.690811157226562,21.47159767150879,20.105222702026367,21.211334228515625,6.685448169708252,8878900.0
1996-06-05,,,,,,
1996-07-01,21.211334228515625,21.47159767150879,18.478586196899414,21.341466903686523,6.861583232879639,20527100.0
1996-07-02,,,,,,
1996-08-01,21.146268844604492,23.358495712280273,21.146268844604492,21.99212074279785,7.0794572830200195,12372500.0
1996-09-01,21.796924591064453,23.293428421020508,21.536663055419922,22.44757843017578,7.226073265075684,12597100.0
1996-09-04,,,,,,
1996-10-01,22.577709197998047,26.091243743896484,22.317447662353516,25.830982208251953,8.472721099853516,16035400.0
1996-10-02,,,,,,
1996-11-01,25.96111297607422,29.14931869506836,25.830982208251953,28.49866485595703,9.358550071716309,14544500.0
1996-12-01,28.49866485595703,28.889057159423828,25.50565528869629,27.52268409729004,9.038056373596191,13443900.0
1996-12-04,,,,,,
1996-12-30,,,,,,
1997-01-01,27.52268409729004,30.906085968017578,26.93709373474121,29.734909057617188,9.923707962036133,17751600.0
1997-02-01,29.734909057617188,31.16634750366211,28.95412254333496,30.580759048461914,10.206001281738281,17622100.0
1997-03-01,30.580759048461914,32.2724609375,28.628795623779297,28.628795623779297,9.55455493927002,43353100.0
1997-03-05,,,,,,
1997-04-01,28.628795623779297,31.81700325012207,28.108272552490234,31.751937866210938,10.748982429504395,28912900.0
1997-04-01,,,,,,
1997-05-01,31.751937866210938,34.02922821044922,31.296478271484375,33.053245544433594,11.199698448181152,37202000.0
1997-06-01,32.92311477661133,37.41263198852539,32.53272247314453,36.208919525146484,12.268966674804688,36963200.0
1997-06-04,,,,,,
1997-06-27,,,,,,
1997-07-01,36.436649322509766,43.88664245605469,36.37158203125,42.16240692138672,14.389101028442383,48184800.0
1997-08-01,42.16240692138672,42.16240692138672,37.9656867980957,40.82856750488281,13.933897972106934,40223700.0
1997-09-01,41.121360778808594,44.7650260925293,41.121360778808594,42.7154655456543,14.577853202819824,35177200.0
1997-09-08,,,,,,
1997-09-29,,,,,,
1997-10-01,42.74799728393555,44.99275588989258,35.39560317993164,39.559791564941406,13.575766563415527,37672100.0
1997-10-23,,,,,,
1997-11-01,41.576820373535156,41.77201461791992,37.087303161621094,40.86109924316406,14.022354125976562,20910000.0
1997-12-01,40.6659049987793,47.367645263671875,40.4056396484375,46.91218566894531,16.098905563354492,31878700.0
1997-12-10,,,,,,
1997-12-30,,,,,,
1998-01-01,46.586856842041016,47.82310104370117,44.11437225341797,46.19646453857422,15.949615478515625,24486400.0
1998-02-01,46.326595306396484,52.8331413269043,46.326595306396484,52.70301055908203,18.196043014526367,17711400.0
1998-03-01,52.0523567199707,59.795143127441406,51.27157211303711,56.8671989440918,19.633752822875977,39476300.0
1998-03-11,,,,,,
1998-04-01,56.73706817626953,59.469818115234375,54.13444900512695,56.8671989440918,19.716333389282227,24256200.0
1998-04-01,,,,,,
1998-05-01,57.12746047973633,59.469818115234375,53.54886245727539,57.64798355102539,19.996192932128906,32800000.0
1998-06-01,57.517852783203125,65.65103149414062,54.654972076416016,65.58596801757812,22.749608993530273,40131600.0
1998-06-10,,,,,,
1998-06-30,,,,,,
1998-07-01,67.9283218383789,71.8322525024414,63.69906997680664,64.4798583984375,22.465787887573242,33305900.0
1998-08-01,64.41478729248047,65.78116607666016,56.346675872802734,57.517852783203125,20.040122985839844,35607400.0
1998-09-01,57.64798355102539,60.640995025634766,52.0523567199707,57.517852783203125,20.040122985839844,44953900.0
1998-09-09,,,,,,
1998-09-30,,,,,,
1998-10-01,56.21654510498047,66.36675262451172,41.90214538574219,64.4798583984375,22.565820693969727,47755300.0
1998-11-01,64.80518341064453,70.79120635986328,62.85321807861328,68.513916015625,23.977615356445312,36767400.0
1998-12-01,66.62701416015625,82.43791961669922,66.62701416015625,78.53398895263672,27.484325408935547,40467400.0
1998-12-09,,,,,,
1998-12-30,,,,,,
1999-01-01,77.55801391601562,82.11259460449219,70.27068328857422,80.29075622558594,28.207935333251953,46784300.0
1999-02-01,80.16062927246094,83.21870422363281,72.93836212158203,77.4929428100586,27.224979400634766,47135500.0
1999-03-01,77.4929428100586,81.20167541503906,73.91434478759766,74.69512939453125,26.242067337036133,83211300.0
1999-03-03,,,,,,
1999-03-10,,,,,,
1999-04-01,76.51696014404297,89.66018676757812,73.2636947631836,84.58507537841797,29.82198715209961,121423700.0
1999-05-01,84.8453369140625,98.05362701416016,84.7802734375,90.96149444580078,32.07011032104492,68036800.0
1999-06-01,92.39292907714844,98.70427703857422,89.92044830322266,98.63921356201172,34.777015686035156,50909200.0
1999-06-09,,,,,,
1999-06-30,,,,,,
1999-07-01,99.81039428710938,108.78942108154297,99.28987121582031,101.6972885131836,35.96186828613281,57670200.0
1999-08-01,102.73833465576172,110.22086334228516,98.11869049072266,105.47108459472656,37.29636001586914,55899500.0
1999-09-01,107.48811340332031,108.984619140625,99.74533081054688,107.48811340332031,38.00959014892578,56703200.0
1999-09-08,,,,,,
1999-09-29,,,,,,
1999-10-01,105.79641723632812,112.1728286743164,80.16062927246094,83.54402923583984,29.620891571044922,161000400.0
1999-10-22,,,,,,
1999-11-01,82.50298309326172,93.95450592041016,72.87329864501953,83.41390228271484,29.574750900268555,129475700.0
1999-12-01,85.88639068603516,86.53704071044922,46.84712219238281,81.20167541503906,28.79039192199707,240885600.0
1999-12-13,,,,,,
1999-12-30,,,,,,
2000-01-01,82.76324462890625,91.35188293457031,66.62701416015625,89.66018676757812,31.94155502319336,122298300.0
2000-02-01,88.22874450683594,88.48900604248047,74.17460632324219,77.03748321533203,27.444677352905273,77221800.0
2000-03-01,80.16062927246094,110.87152099609375,77.03748321533203,104.36497497558594,37.18015670776367,127602400.0
2000-03-08,,,,,,
2000-03-30,,,,,,
2000-04-01,105.92654418945312,105.92654418945312,87.57808685302734,95.64620208740234,34.20013427734375,60284100.0
2000-05-01,95.64620208740234,106.96759033203125,85.3658676147461,97.98856353759766,35.037681579589844,65800500.0
2000-06-01,98.63921356201172,103.06366729736328,87.05756378173828,98.63921356201172,35.27033233642578,75714000.0
2000-06-07,,,,,,
2000-06-28,,,,,,
2000-07-01,98.63921356201172,119.06976318359375,94.86541748046875,110.35099792480469,39.57785415649414,78871700.0
2000-08-01,111.39204406738281,121.28199005126953,109.0496826171875,118.71190643310547,42.57651901245117,45866800.0
2000-09-01,120.11080932617188,123.23395538330078,103.32392883300781,108.00863647460938,38.73774719238281,54465000.0
2000-09-11,,,,,,
2000-09-28,,,,,,
2000-10-01,108.00863647460938,119.19989776611328,92.65319061279297,118.02871704101562,42.44090270996094,99675000.0
2000-11-01,118.67937469482422,122.06277465820312,104.62523651123047,109.83047485351562,39.492950439453125,68583000.0
2000-12-01,111.39204406738281,122.58329772949219,100.9815673828125,115.55622863769531,41.55183792114258,71695600.0
2000-12-06,,,,,,
2000-12-28,,,,,,
2001-01-01,114.51518249511719,131.6091766357422,108.00863647460938,128.2570037841797,46.24866485595703,89006400.0
2001-02-01,128.2570037841797,129.08984375,108.2688980102539,113.78645324707031,41.03067398071289,86370100.0
2001-03-01,113.57823944091797,118.47116088867188,86.19869995117188,90.0089340209961,32.45664978027344,152745600.0
2001-03-07,,,,,,
2001-03-29,,,,,,
2001-04-01,90.2587890625,113.99465942382812,83.59608459472656,111.12136840820312,40.190731048583984,108110400.0
2001-05-01,111.39204406738281,123.46818542480469,105.47889709472656,119.61631774902344,43.2631950378418,80255600.0
2001-06-01,117.63832092285156,119.94944763183594,107.33195495605469,113.49495697021484,41.04922103881836,102813200.0
2001-06-13,,,,,,
2001-07-01,114.51518249511719,115.13980865478516,103.06366729736328,110.76741027832031,40.168819427490234,99773100.0
2001-08-01,110.5592041015625,112.95361328125,107.33195495605469,108.164794921875,39.22500991821289,66461800.0
2001-09-01,107.22785186767578,108.68531799316406,81.70137786865234,94.73529052734375,34.35491943359375,111852400.0
2001-09-12,,,,,,
2001-09-17,,,,,,
2001-09-27,,,,,,
2001-10-01,94.75611114501953,106.10352325439453,93.06961059570312,102.3141098022461,37.34698486328125,94694100.0
2001-11-01,103.16777038574219,124.82154846191406,102.1891860961914,122.42713928222656,44.68867492675781,109864700.0
2001-12-01,121.38609313964844,125.11304473876953,111.39204406738281,122.6353530883789,44.76469039916992,81093000.0
2001-12-12,,,,,,
2001-12-28,,,,,,
2002-01-01,122.42713928222656,122.44795989990234,57.21595001220703,73.18561553955078,26.79551887512207,507262500.0
2002-02-01,73.70613861083984,77.26651763916016,45.80607223510742,60.58894348144531,22.18345832824707,357805700.0
2002-03-01,60.9012565612793,74.6014404296875,60.9012565612793,67.29328918457031,24.63814926147461,143003100.0
2002-03-06,,,,,,
2002-03-27,,,,,,
2002-04-01,66.62701416015625,68.6050033569336,31.751937866210938,38.41463851928711,14.140054702758789,307865700.0
2002-05-01,39.16419219970703,53.926239013671875,36.85306930541992,45.701969146728516,16.822446823120117,242070200.0
2002-06-01,39.14337158203125,39.14337158203125,17.177276611328125,28.129093170166016,10.354047775268555,603238300.0
2002-06-12,,,,,,
2002-06-27,,,,,,
2002-07-01,30.086261749267578,31.023204803466797,14.533018112182617,26.650806427001953,9.963479042053223,395822900.0
2002-08-01,26.442596435546875,36.95717239379883,24.256397247314453,32.668060302734375,12.213045120239258,200015600.0
2002-09-01,31.54372787475586,38.518741607666016,26.921478271484375,29.357528686523438,10.975396156311035,174352200.0
2002-09-11,,,,,,
2002-09-27,,,,,,
2002-10-01,29.357528686523438,33.10529708862305,24.77692222595215,30.10708236694336,11.378653526306152,171501400.0
2002-11-01,29.794769287109375,38.831058502197266,29.565738677978516,36.95717239379883,13.96757984161377,127505700.0
2002-12-01,38.518741607666016,38.93516159057617,31.33551788330078,35.56216812133789,13.440353393554688,121618500.0
2002-12-11,,,,,,
2002-12-30,,,,,,
2003-01-01,36.02022933959961,38.18560791015625,32.54313278198242,33.334327697753906,12.737509727478027,291416400.0
2003-02-01,33.68828582763672,33.792388916015625,28.607975006103516,30.81499481201172,11.774834632873535,110260400.0
2003-03-01,31.33551788330078,31.585369110107422,23.319456100463867,26.775732040405273,10.231385231018066,183954700.0
2003-03-12,,,,,,
2003-03-28,,,,,,
2003-04-01,26.963119506835938,33.00119400024414,26.73409080505371,32.48067092895508,12.582464218139648,148713600.0
2003-05-01,32.584774017333984,38.081504821777344,32.2724609375,36.85306930541992,14.276256561279297,144319100.0
2003-06-01,37.26948547363281,42.05830383300781,36.915531158447266,39.518150329589844,15.308663368225098,134906100.0
2003-06-11,,,,,,
2003-06-27,,,,,,
2003-07-01,39.14337158203125,41.74599075317383,37.79001235961914,38.726951599121094,15.156790733337402,111483300.0
2003-08-01,38.726951599121094,43.286739349365234,36.95717239379883,42.8494987487793,16.770252227783203,89444000.0
2003-09-01,43.057708740234375,45.80607223510742,41.26710891723633,42.53718566894531,16.648014068603516,96953300.0
2003-09-10,,,,,,
2003-09-29,,,,,,
2003-10-01,42.53718566894531,46.888763427734375,42.53718566894531,43.47412872314453,17.172338485717773,108252300.0
2003-11-01,42.68293380737305,47.867347717285156,42.68293380737305,47.784061431884766,18.874767303466797,84152200.0
2003-12-01,47.88816833496094,56.5913200378418,47.825706481933594,55.175498962402344,21.794401168823242,111425100.0
2003-12-10,,,,,,
2003-12-30,,,,,,
2004-01-01,55.904232025146484,59.52707290649414,54.34265899658203,55.696022033691406,22.210752487182617,95822400.0
2004-01-05,,,,,,
2004-02-01,56.00833511352539,61.23439025878906,55.05057144165039,59.48543167114258,23.7219295501709,81202700.0
2004-03-01,59.96431350708008,63.004173278808594,55.48781204223633,59.652000427246094,23.788339614868164,102366100.0
2004-03-10,,,,,,
2004-03-30,,,,,,
2004-04-01,59.88103103637695,62.1505126953125,57.0702018737793,57.15348815917969,22.88788604736328,65261800.0
2004-05-01,57.56990432739258,64.73230743408203,56.00833511352539,64.10768127441406,25.672800064086914,106647000.0
2004-06-01,63.649620056152344,69.25045776367188,63.420589447021484,69.00060272216797,27.632232666015625,85344400.0
2004-06-09,,,,,,
2004-06-29,,,,,,
2004-07-01,68.79239654541016,69.10470581054688,63.08745574951172,64.544921875,25.946044921875,74338100.0
2004-08-01,64.4408187866211,67.06425476074219,61.90066146850586,65.21118927001953,26.213871002197266,85007000.0
2004-09-01,65.33612060546875,66.46044921875,61.42177963256836,63.83700942993164,25.661474227905273,92174400.0
2004-09-08,,,,,,
2004-09-29,,,,,,
2004-10-01,64.12850189208984,66.29388427734375,61.734092712402344,64.85723876953125,26.173879623413086,70288600.0
2004-11-01,65.06544494628906,71.76979064941406,64.23260498046875,70.72874450683594,28.543399810791016,71031700.0
2004-12-01,70.68710327148438,75.82987213134766,69.9167251586914,74.41404724121094,30.0306339263916,84970100.0
2004-12-13,,,,,,
2004-12-30,,,,,,
2005-01-01,74.7055435180664,76.16300964355469,72.45687866210938,75.24688720703125,30.55764389038086,81096000.0
2005-02-01,72.24867248535156,73.24807739257812,68.39679718017578,69.7085189819336,28.308523178100586,102954800.0
2005-03-01,69.83344268798828,75.1844253540039,69.77098083496094,70.37478637695312,28.579090118408203,90309100.0
2005-03-09,,,,,,
2005-03-30,,,,,,
2005-04-01,70.68710327148438,71.79061126708984,63.60797882080078,65.19036865234375,26.641536712646484,93676500.0
2005-05-01,65.48186492919922,65.75253295898438,56.778709411621094,60.2349853515625,24.616409301757812,140156700.0
2005-06-01,60.35991287231445,65.14872741699219,59.173118591308594,60.79715347290039,24.846147537231445,95085400.0
2005-06-08,,,,,,
2005-06-29,,,,,,
2005-07-01,61.02618408203125,64.71148681640625,60.00595474243164,63.441410064697266,26.120458602905273,64301600.0
2005-08-01,63.753726959228516,64.48246002197266,56.154083251953125,57.94468307495117,23.857297897338867,157734300.0
2005-09-01,57.67401123046875,62.233795166015625,57.15348815917969,57.986324310302734,23.874454498291016,97496800.0
2005-09-07,,,,,,
2005-09-28,,,,,,
2005-10-01,57.96550369262695,58.75669860839844,53.426536560058594,54.946468353271484,22.80144500732422,94145600.0
2005-11-01,54.863182067871094,61.40095901489258,53.82213592529297,59.38132858276367,24.641801834106445,109939900.0
2005-12-01,59.652000427246094,61.734092712402344,57.757293701171875,60.08924102783203,24.935562133789062,78864000.0
2005-12-12,,,,,,
2005-12-29,,,,,,
2006-01-01,61.23439025878906,65.1279067993164,53.71803283691406,54.238555908203125,22.692934036254883,172798700.0
2006-02-01,53.926239013671875,54.82154083251953,51.32362365722656,53.69721221923828,22.46644401550293,137176300.0
2006-03-01,53.57228469848633,57.34087371826172,53.09340286254883,55.96669387817383,23.41597557067871,97311200.0
2006-03-08,,,,,,
2006-03-30,,,,,,
2006-04-01,56.091617584228516,56.403934478759766,53.15586471557617,54.863182067871094,23.159311294555664,63733900.0
2006-05-01,55.217140197753906,59.756103515625,55.133853912353516,56.44557571411133,23.82728385925293,71686200.0
2006-06-01,56.44557571411133,58.04878616333008,54.946468353271484,57.257591247558594,24.170059204101562,68651900.0
2006-06-07,,,,,,
2006-06-29,,,,,,
2006-07-01,57.257591247558594,57.840576171875,51.98989486694336,54.32183837890625,23.13020896911621,56668500.0
2006-08-01,54.13444900512695,55.6335563659668,52.69780349731445,54.4467658996582,23.183412551879883,68291300.0
2006-09-01,54.82154083251953,58.44438552856445,54.405120849609375,58.27781677246094,24.81467056274414,62443400.0
2006-09-11,,,,,,
2006-10-01,58.27781677246094,61.9631233215332,57.67401123046875,61.27603530883789,26.22587776184082,72750900.0
2006-10-04,,,,,,
2006-11-01,61.42177963256836,63.920291900634766,60.02677536010742,63.06663513183594,27.088607788085938,62237400.0
2006-12-01,63.06663513183594,66.27305603027344,61.21356964111328,63.2956657409668,27.18698501586914,60693400.0
2006-12-13,,,,,,
2006-12-28,,,,,,
2007-01-01,63.503875732421875,67.29328918457031,60.96371841430664,66.37716674804688,28.7571964263916,86733800.0
2007-02-01,66.37716674804688,69.31291961669922,63.503875732421875,64.19096374511719,27.810054779052734,79799700.0
2007-03-01,63.191558837890625,66.91851043701172,60.69304656982422,65.69007110595703,28.45952796936035,73322200.0
2007-03-14,,,,,,
2007-03-29,,,,,,
2007-04-01,65.7317123413086,68.8548583984375,65.56514739990234,67.93873596191406,29.684295654296875,68478900.0
2007-05-01,67.87627410888672,69.93754577636719,66.52291107177734,69.45866394042969,30.348400115966797,97650500.0
2007-05-16,,,,,,
2007-06-01,69.5627670288086,71.79061126708984,67.37657165527344,70.35396575927734,30.834794998168945,177984100.0
2007-06-13,,,,,,
2007-07-01,27.546106338500977,28.196762084960938,24.45419692993164,24.615558624267578,10.839974403381348,222669300.0
2007-07-02,,,,,,
2007-08-01,24.55830192565918,25.687837600708008,20.7064266204834,22.98632049560547,11.936468124389648,198599100.0
2007-09-01,23.163297653198242,23.855594635009766,21.69542121887207,23.080015182495117,11.98511791229248,105134000.0
2007-09-12,,,,,,
2007-09-27,,,,,,
2007-10-01,23.106040954589844,24.438581466674805,21.086408615112305,21.429954528808594,11.33566951751709,106496700.0
2007-10-03,,,,,,
2007-11-01,21.414339065551758,21.90363121032715,19.498811721801758,20.88861083984375,11.049320220947266,145538600.0
2007-12-01,20.66999053955078,22.4345645904541,20.29521369934082,20.63875961303711,10.917158126831055,123416200.0
2007-12-12,,,,,,
2007-12-31,,,,,,
2008-01-01,20.586706161499023,20.852174758911133,16.141435623168945,20.43054962158203,10.91437816619873,225952300.0
2008-02-01,20.40972900390625,21.851579666137695,20.19110870361328,20.852174758911133,11.13962173461914,162523200.0
2008-03-01,20.820941925048828,23.538074493408203,20.394113540649414,22.929061889648438,12.249130249023438,162577300.0
2008-03-12,,,,,,
2008-03-28,,,,,,
2008-04-01,23.001935958862305,24.959104537963867,22.877010345458984,24.355297088623047,13.13415813446045,125899300.0
2008-05-01,23.82956886291504,24.959104537963867,22.668800354003906,23.522459030151367,12.685032844543457,126807700.0
2008-06-01,23.418354034423828,23.59012794494629,20.66999053955078,20.84176254272461,11.239408493041992,127194200.0
2008-06-11,,,,,,
2008-06-27,,,,,,
2008-07-01,20.550270080566406,24.07942008972168,19.660175323486328,23.194530487060547,12.627376556396484,169837300.0
2008-08-01,23.324661254882812,23.761899948120117,21.57049560546875,22.320051193237305,12.151298522949219,134002000.0
2008-09-01,22.533464431762695,22.99673080444336,17.54684829711914,18.228734970092773,9.92393684387207,159717800.0
2008-09-10,,,,,,
2008-09-29,,,,,,
2008-10-01,18.020524978637695,18.202709197998047,10.951815605163574,13.158835411071777,7.248063564300537,209840300.0
2008-11-01,13.065141677856445,13.814695358276367,7.8963422775268555,10.878942489624023,5.992269992828369,219156800.0
2008-12-01,10.561423301696777,12.33120346069336,9.556812286376953,11.243309020996094,6.192964553833008,197727600.0
2008-12-10,,,,,,
2008-12-31,,,,,,
2009-01-01,11.503570556640625,12.919394493103027,10.54060173034668,10.941405296325684,6.151779651641846,184384500.0
2009-02-01,10.649911880493164,13.174450874328613,10.197056770324707,10.436497688293457,5.86789608001709,247308400.0
2009-03-01,10.30116081237793,10.915379524230957,8.979031562805176,10.181441307067871,5.724490642547607,706120000.0
2009-03-11,,,,,,
2009-04-01,10.009668350219727,13.023499488830566,9.733790397644043,12.367639541625977,7.0493059158325195,273076300.0
2009-04-28,,,,,,
2009-05-01,12.27915096282959,14.382065773010254,12.27915096282959,14.371655464172363,8.265050888061523,226176800.0
2009-06-01,14.642327308654785,15.147235870361328,13.299376487731934,13.523201942443848,7.7771100997924805,141119000.0
2009-06-10,,,,,,
2009-07-01,13.658537864685059,16.37567138671875,13.138014793395996,15.73022174835205,9.129142761230469,158196200.0
2009-07-29,,,,,,
2009-08-01,15.855147361755371,16.96906852722168,15.620911598205566,16.495391845703125,9.638985633850098,123430500.0
2009-09-01,16.391286849975586,18.39009666442871,16.07897186279297,17.94765281677246,10.487605094909668,132852300.0
2009-09-09,,,,,,
2009-10-01,17.895599365234375,18.796106338500977,17.22933006286621,17.463565826416016,10.284177780151367,135512900.0
2009-10-28,,,,,,
2009-11-01,17.541643142700195,19.43114471435547,17.146045684814453,18.671180725097656,11.059976577758789,118623700.0
2009-12-01,18.874183654785156,19.0667781829834,18.213119506835938,18.572280883789062,11.001388549804688,97365500.0
2009-12-09,,,,,,
2010-01-01,18.728437423706055,20.23795509338379,18.34845542907715,18.442150115966797,11.002656936645508,154595200.0
2010-01-27,,,,,,
2010-02-01,18.577486038208008,19.20211410522461,17.614517211914062,18.770078659057617,11.259881019592285,122321400.0
2010-03-01,18.832542419433594,19.98810386657715,18.832542419433594,19.91002655029297,11.943714141845703,170796700.0
2010-03-10,,,,,,
2010-04-01,19.92043685913086,21.13846206665039,19.92043685913086,20.19110870361328,12.193153381347656,197507300.0
2010-05-01,20.326444625854492,20.857379913330078,17.69780158996582,18.83774757385254,11.375870704650879,300101300.0
2010-05-17,,,,,,
2010-06-01,18.75446319580078,20.39931869506836,18.11942481994629,18.338045120239258,11.130515098571777,301183900.0
2010-06-09,,,,,,
2010-07-01,18.285993576049805,19.982898712158203,17.817522048950195,19.925642013549805,12.181046485900879,221902500.0
2010-07-28,,,,,,
2010-08-01,20.050567626953125,20.326444625854492,18.75446319580078,19.405118942260742,11.93065071105957,477245900.0
2010-09-01,19.70181655883789,20.846967697143555,18.931442260742188,19.11882972717285,11.754638671875,239898400.0
2010-09-08,,,,,,
2010-10-01,19.196908950805664,20.321239471435547,18.884593963623047,19.925642013549805,12.329960823059082,188579200.0
2010-10-27,,,,,,
2010-11-01,20.029747009277344,20.925046920776367,19.31662940979004,19.722637176513672,12.271297454833984,162971500.0
2010-12-01,19.982898712158203,22.20033073425293,19.93084716796875,21.57049560546875,13.421021461486816,166134200.0
2010-12-08,,,,,,
2011-01-01,21.690216064453125,23.616153717041016,21.62775421142578,23.335071563720703,14.629278182983398,173589300.0
2011-01-26,,,,,,
2011-02-01,23.548486709594727,24.63637924194336,23.080015182495117,23.60053825378418,14.86551284790039,145390600.0
2011-03-01,23.709848403930664,24.07942008972168,22.330461502075195,23.30384063720703,14.678628921508789,145231700.0
2011-03-09,,,,,,
2011-04-01,23.423561096191406,27.785547256469727,23.3923282623291,25.370317459106445,16.089588165283203,409696700.0
2011-04-27,,,,,,
2011-05-01,25.406755447387695,26.963119506835938,24.77692222595215,25.687837600708008,16.374202728271484,156018400.0
2011-06-01,25.49003791809082,25.82317352294922,23.85038948059082,25.72947883605957,16.400745391845703,156714000.0
2011-06-08,,,,,,
2011-07-01,25.87002182006836,26.33328628540039,22.850984573364258,23.05398941040039,14.791287422180176,138722500.0
2011-07-27,,,,,,
2011-08-01,23.288223266601562,23.309045791625977,19.46237564086914,21.643369674682617,13.961091995239258,238128800.0
2011-09-01,21.67460060119629,24.037778854370117,19.889205932617188,21.211334228515625,13.682404518127441,271779300.0
2011-09-07,,,,,,
2011-10-01,21.018741607666016,24.542686462402344,19.936052322387695,23.709848403930664,15.413116455078125,134377300.0
2011-10-26,,,,,,
2011-11-01,22.88221549987793,25.25580406188965,22.77811050415039,24.964309692382812,16.319007873535156,143784600.0
2011-12-01,24.8289737701416,25.042388916015625,23.095630645751953,24.313655853271484,15.893681526184082,102988400.0
2011-12-07,,,,,,
2012-01-01,24.709253311157227,26.728885650634766,24.678022384643555,26.520675659179688,17.464183807373047,112867000.0
2012-01-25,,,,,,
2012-02-01,26.61957550048828,27.327486038208008,25.04759407043457,26.97353172302246,17.853017807006836,108782700.0
2012-03-01,27.046403884887695,29.49286460876465,26.67683219909668,29.243013381958008,19.35512351989746,138842900.0
2012-03-07,,,,,,
2012-04-01,29.13890838623047,30.06023597717285,27.598159790039062,29.21698760986328,19.46875,116885300.0
2012-04-25,,,,,,
2012-05-01,29.14931869506836,29.498069763183594,27.129688262939453,27.671031951904297,18.523387908935547,112605200.0
2012-06-01,27.249408721923828,28.269634246826172,26.270824432373047,27.50967025756836,18.415369033813477,103510900.0
2012-06-06,,,,,,
2012-07-01,27.639801025390625,28.993162155151367,26.395750045776367,28.597564697265625,19.272228240966797,120604300.0
2012-07-25,,,,,,
2012-08-01,28.72769546508789,30.25282859802246,27.785547256469727,29.347118377685547,19.87443733215332,100287300.0
2012-09-01,29.305477142333984,29.826000213623047,28.22799301147461,29.28465461730957,19.832138061523438,223229800.0
2012-09-05,,,,,,
2012-10-01,29.130889892578125,30.638744354248047,27.675392150878906,28.136125564575195,19.17255401611328,110304000.0
2012-10-01,,,,,,
2012-10-12,,,,,,
2012-11-01,28.146596908569336,30.20942497253418,27.403141021728516,29.706806182861328,20.354042053222656,77961000.0
2012-12-01,29.72774887084961,31.078533172607422,28.98429298400879,30.628273010253906,20.985389709472656,60805000.0
2012-12-05,,,,,,
2013-01-01,31.162303924560547,32.94240951538086,30.97382164001465,31.654449462890625,21.82919692993164,62125800.0
2013-01-23,,,,,,
2013-02-01,31.832460403442383,33.95811462402344,31.371726989746094,33.51832580566406,23.226036071777344,55081500.0
2013-03-01,33.29842758178711,34.02094268798828,32.26177978515625,33.50785446166992,23.218774795532227,46949000.0
2013-03-06,,,,,,
2013-04-01,33.61256408691406,34.50261688232422,32.062828063964844,33.633506774902344,23.437631607055664,79382100.0
2013-04-24,,,,,,
2013-05-01,33.48691177368164,36.324607849121094,32.97382354736328,35.403141021728516,24.798595428466797,67522100.0
2013-06-01,35.413612365722656,36.460731506347656,33.19371795654297,34.50261688232422,24.167810440063477,100583800.0
2013-06-05,,,,,,
2013-07-01,35.21466064453125,37.43455505371094,35.047119140625,36.450260162353516,25.67028045654297,60694700.0
2013-07-24,,,,,,
2013-08-01,36.69110107421875,37.643978118896484,34.460731506347656,34.596858978271484,24.47684097290039,53464700.0
2013-09-01,35.03664779663086,37.539268493652344,34.38743591308594,36.628273010253906,25.914043426513672,47117900.0
2013-09-04,,,,,,
2013-10-01,36.65968704223633,38.67015838623047,35.68586349487305,38.27225112915039,27.22716522216797,54154600.0
2013-10-23,,,,,,
2013-11-01,38.28272247314453,40.596858978271484,36.41884994506836,39.937171936035156,28.53763198852539,60380500.0
2013-12-01,40.0,43.392669677734375,38.848167419433594,42.97382354736328,30.70750617980957,55749100.0
2013-12-12,,,,,,
2014-01-01,42.80628204345703,44.062828063964844,40.99476623535156,42.39790725708008,30.46815299987793,57136200.0
2014-01-22,,,,,,
2014-02-01,42.5759162902832,44.93193817138672,41.25654602050781,44.167537689208984,31.863080978393555,50697100.0
2014-03-01,44.41884994506836,46.178009033203125,43.570682525634766,44.39790725708008,32.02927780151367,58358800.0
2014-03-05,,,,,,
2014-04-01,44.628273010253906,45.07853317260742,42.0523567199707,42.82722473144531,31.046428680419922,70756000.0
2014-04-23,,,,,,
2014-05-01,42.890052795410156,46.345550537109375,42.04188537597656,45.69633483886719,33.2668342590332,55608100.0
2014-06-01,45.69633483886719,48.83769607543945,45.141361236572266,47.74869155883789,34.760948181152344,87929800.0
2014-06-04,,,,,,
2014-07-01,47.842933654785156,48.26177978515625,45.151832580566406,45.18324661254883,33.05376052856445,58126300.0
2014-07-23,,,,,,
2014-08-01,45.141361236572266,47.371726989746094,44.439788818359375,46.722511291503906,34.316131591796875,39438700.0
2014-09-01,46.722511291503906,47.35078430175781,45.549739837646484,46.67015838623047,34.27769470214844,64608100.0
2014-09-03,,,,,,
2014-10-01,46.56544494628906,46.9005241394043,39.9476432800293,44.952880859375,33.17426681518555,96418900.0
2014-10-22,,,,,,
2014-11-01,44.93193817138672,46.178009033203125,43.20418930053711,44.92146682739258,33.29763412475586,58065500.0
2014-12-01,44.71204376220703,46.952880859375,43.151832580566406,45.926700592041016,34.042755126953125,47401500.0
2014-12-10,,,,,,
2015-01-01,46.062828063964844,46.31413650512695,41.76963424682617,42.73298263549805,31.857866287231445,52707500.0
2015-01-21,,,,,,
2015-02-01,42.69110107421875,45.45549774169922,42.366493225097656,44.20942306518555,33.0999870300293,58332700.0
2015-03-01,44.20942306518555,46.073299407958984,43.4240837097168,45.08900451660156,33.758541107177734,41986200.0
2015-03-04,,,,,,
2015-04-01,45.00523376464844,45.74869155883789,41.109947204589844,41.23560333251953,31.052270889282227,56759500.0
2015-04-22,,,,,,
2015-05-01,41.28795623779297,43.07853317260742,40.869110107421875,42.26177978515625,31.97903060913086,59081400.0
2015-06-01,42.29319381713867,42.628273010253906,40.03141403198242,40.29319381713867,30.48941421508789,45772000.0
2015-06-03,,,,,,
2015-07-01,40.54450225830078,40.83769607543945,37.61256408691406,39.78010559082031,30.287511825561523,67627800.0
2015-07-22,,,,,,
2015-08-01,39.78010559082031,41.470001220703125,35.61256408691406,41.150001525878906,31.500085830688477,67702400.0
2015-09-01,37.08900451660156,38.76439666748047,34.617801666259766,35.03664779663086,26.82035255432129,48853400.0
2015-09-02,,,,,,
2015-10-01,35.109947204589844,39.36125564575195,34.63874435424805,38.157066345214844,29.41516876220703,53679300.0
2015-10-21,,,,,,
2015-11-01,38.198951721191406,39.382198333740234,35.73822021484375,36.97382354736328,28.663419723510742,61503100.0
2015-12-01,37.05759048461914,37.19371795654297,32.29319381713867,33.392669677734375,25.887178421020508,65396000.0
2015-12-09,,,,,,
2016-01-01,32.92146682739258,36.40837860107422,30.303665161132812,36.01047134399414,28.151208877563477,99271500.0
2016-01-20,,,,,,
2016-02-01,35.801048278808594,37.151832580566406,34.4712028503418,36.83769607543945,28.992637634277344,85082700.0
2016-03-01,37.109947204589844,38.67015838623047,36.93193817138672,38.439788818359375,30.253538131713867,53087400.0
2016-03-09,,,,,,
2016-04-01,38.178009033203125,42.0,36.29319381713867,40.335079193115234,31.992769241333008,60979700.0
2016-04-20,,,,,,
2016-05-01,40.48167419433594,45.08900451660156,38.450260162353516,44.628273010253906,35.596702575683594,64971200.0
2016-06-01,44.356021881103516,46.0523567199707,41.68586349487305,44.607330322265625,35.58000564575195,71991600.0
2016-06-08,,,,,,
2016-07-01,44.75392532348633,48.30366516113281,42.21989440917969,47.71727752685547,38.30489730834961,63943200.0
2016-07-20,,,,,,
2016-08-01,47.71727752685547,48.366493225097656,45.560211181640625,45.73822021484375,36.89124298095703,72324800.0
2016-08-03,,,,,,
2016-09-01,45.79057693481445,48.970001220703125,43.529998779296875,46.529998779296875,37.76222229003906,191191200.0
2016-09-01,,,,,,
2016-09-02,,,,,,
2016-09-06,,,,,,
2016-10-01,46.31999969482422,46.86000061035156,39.15999984741211,40.31999969482422,32.722389221191406,116592700.0
2016-10-31,,,,,,
2016-11-01,40.810001373291016,46.16999816894531,40.619998931884766,44.97999954223633,40.89677047729492,126617000.0
2016-12-01,45.099998474121094,45.90999984741211,40.9900016784668,41.189998626708984,37.45082092285156,116928500.0
2016-12-12,,,,,,
2017-01-01,41.630001068115234,44.70000076293945,41.470001220703125,43.97999954223633,40.217464447021484,120900300.0
2017-02-01,43.20000076293945,43.31999969482422,40.630001068115234,41.939998626708984,38.351993560791016,121387000.0
2017-03-01,42.25,42.849998474121094,40.439998626708984,42.119998931884766,38.51658630371094,104506100.0
2017-03-20,,,,,,
2017-04-01,42.150001525878906,43.61000061035156,40.36000061035156,41.56999969482422,38.24143600463867,81050400.0
2017-05-01,41.77000045776367,43.040000915527344,41.099998474121094,41.7599983215332,38.416229248046875,93018200.0
2017-06-01,41.970001220703125,43.709999084472656,40.779998779296875,43.36000061035156,39.88811492919922,121750800.0
2017-06-26,,,,,,
2017-07-01,43.61000061035156,44.369998931884766,38.650001525878906,38.95000076293945,36.04671096801758,102502500.0
2017-08-01,39.099998474121094,40.0,36.7400016784668,39.59000015258789,36.63901138305664,131694800.0
2017-09-01,39.66999816894531,41.189998626708984,38.95000076293945,40.290000915527344,37.28683090209961,92264000.0
2017-09-22,,,,,,
2017-10-01,40.41999816894531,42.599998474121094,40.209999084472656,41.38999938964844,38.54587173461914,87505400.0
2017-11-01,41.7599983215332,41.849998474121094,34.5099983215332,37.63999938964844,35.05354690551758,135074200.0
2017-12-01,37.72999954223633,38.349998474121094,36.52000045776367,38.11000061035156,35.49125671386719,110143500.0
2017-12-15,,,,,,
2018-01-01,38.31999969482422,41.529998779296875,37.75,39.130001068115234,36.69620132446289,149466600.0
2018-02-01,38.790000915527344,40.20000076293945,35.43000030517578,36.869998931884766,34.57677459716797,103964200.0
2018-03-01,36.869998931884766,39.689998626708984,33.88999938964844,35.2400016784668,33.04815673828125,115275600.0
2018-03-16,,,,,,
2018-04-01,35.060001373291016,35.13999938964844,32.88999938964844,33.869998931884766,31.987844467163086,107222600.0
2018-05-01,34.59000015258789,36.88999938964844,33.470001220703125,33.560001373291016,31.695068359375,109188000.0
2018-06-01,33.77000045776367,35.41999816894531,32.900001525878906,33.45000076293945,31.591184616088867,89138200.0
2018-06-22,,,,,,
2018-07-01,33.150001525878906,37.650001525878906,32.93000030517578,37.5099983215332,35.6959114074707,78859800.0
2018-08-01,36.95000076293945,40.33000183105469,36.369998931884766,37.77000045776367,35.943336486816406,125570800.0
2018-09-01,37.75,38.90999984741211,34.9900016784668,35.0,33.30730438232422,89519000.0
2018-09-21,,,,,,
2018-10-01,35.279998779296875,36.58000183105469,30.600000381469727,31.969999313354492,30.63699722290039,128959500.0
2018-11-01,32.220001220703125,35.7400016784668,32.09000015258789,34.779998779296875,33.329830169677734,117104100.0
2018-12-01,35.0,35.630001068115234,28.299999237060547,29.649999618530273,28.41373062133789,123595400.0
2018-12-14,,,,,,
2019-01-01,29.299999237060547,33.880001068115234,29.15999984741211,33.77000045776367,32.62587356567383,105491900.0
2019-02-01,33.720001220703125,36.18000030517578,32.900001525878906,35.27000045776367,34.07505798339844,80330200.0
2019-03-01,35.439998626708984,37.25,34.7400016784668,36.939998626708984,35.68846893310547,74479200.0
2019-03-15,,,,,,
2019-04-01,37.2400016784668,37.58000183105469,35.689998626708984,37.5,36.49298858642578,111302700.0
2019-05-01,39.029998779296875,39.84000015258789,37.959999084472656,38.52000045776367,37.485599517822266,217303300.0
2019-06-01,39.40999984741211,41.400001525878906,38.5,41.310001373291016,40.20067596435547,190612400.0
2019-06-21,,,,,,
2019-07-01,41.68000030517578,42.849998474121094,40.630001068115234,42.439998626708984,41.572593688964844,88577200.0
2019-08-01,42.16999816894531,43.220001220703125,40.9900016784668,42.689998626708984,41.81748580932617,100431400.0
2019-09-01,42.41999816894531,44.650001525878906,41.84000015258789,43.88999938964844,42.99296188354492,87247800.0
2019-09-13,,,,,,
2019-10-01,44.11000061035156,44.130001068115234,41.290000915527344,43.33000183105469,42.69498825073242,121995900.0
2019-11-01,43.68000030517578,44.81999969482422,41.5099983215332,42.83000183105469,42.20231628417969,87173000.0
2019-12-01,42.790000915527344,42.880001068115234,40.2400016784668,40.709999084472656,40.11338424682617,103426200.0
2019-12-13,,,,,,
2020-01-01,40.90999984741211,42.34000015258789,39.22999954223633,39.45000076293945,39.11392593383789,105412300.0
2020-02-01,39.58000183105469,42.650001525878906,35.58000183105469,36.56999969482422,36.258460998535156,114217800.0
2020-03-01,36.810001373291016,39.47999954223633,22.780000686645508,26.1299991607666,25.907398223876953,182605700.0
2020-03-13,,,,,,
2020-03-26,26.40999984741211,27.229999542236328,25.81999969482422,26.989999771118164,26.989999771118164,4094615.0
