Date,Open,High,Low,Close,Adj Close,Volume
1962-01-01,0.0,0.22337962687015533,0.20891202986240387,0.2152777761220932,6.053599008737365e-07,5270400.0
1962-02-01,0.0,0.25925925374031067,0.21469907462596893,0.22453702986240387,6.31396460448741e-07,17020800.0
1962-02-13,,,,,,
1962-03-01,0.0,0.2447916716337204,0.22337962687015533,0.2239583283662796,6.312681080089533e-07,5616000.0
1962-04-01,0.0,0.22627314925193787,0.19907407462596893,0.19907407462596893,5.611272513306176e-07,3585600.0
1962-05-01,0.0,0.21412037312984467,0.1597222238779068,0.18287037312984467,5.154540758667281e-07,11188800.0
1962-05-22,,,,,,
1962-06-01,0.0,0.18518517911434174,0.1510416716337204,0.1796875,5.079372726868314e-07,13910400.0
1962-07-01,0.0,0.1840277761220932,0.1631944477558136,0.1727430522441864,4.883069095740211e-07,14558400.0
1962-08-01,0.0,0.17418982088565826,0.16203702986240387,0.16377314925193787,4.629507941444899e-07,6264000.0
1962-08-21,,,,,,
1962-09-01,0.0,0.1666666716337204,0.15740740299224854,0.15914352238178253,4.514184013260092e-07,5356800.0
1962-10-01,0.0,0.16087962687015533,0.1423611044883728,0.15740740299224854,4.4649382857642195e-07,5745600.0
1962-11-01,0.0,0.1753472238779068,0.15509259700775146,0.1736111044883728,4.924564791508601e-07,10540800.0
1962-11-21,,,,,,
1962-12-01,0.0,0.1753472238779068,0.16956017911434174,0.16956017911434174,4.827061843570846e-07,7992000.0
1963-01-01,0.0,0.18952547013759613,0.1701388955116272,0.18692129850387573,5.321305138750176e-07,11361600.0
1963-02-01,0.0,0.19328702986240387,0.18634259700775146,0.18981482088565826,5.403676937021373e-07,4881600.0
1963-02-19,,,,,,
1963-03-01,0.0,0.19212962687015533,0.18287037312984467,0.19039352238178253,5.443518489300914e-07,6048000.0
1963-04-01,0.0,0.19502314925193787,0.1805555522441864,0.1927083283662796,5.509699008143798e-07,11448000.0
1963-05-01,0.0,0.20949074625968933,0.1875,0.20196759700775146,5.774431883764919e-07,11836800.0
1963-05-21,,,,,,
1963-06-01,0.0,0.20775462687015533,0.19733797013759613,0.20196759700775146,5.790575414721388e-07,5875200.0
1963-07-01,0.0,0.203125,0.1927083283662796,0.2013888955116272,5.773986799795239e-07,3974400.0
1963-08-01,0.0,0.22106482088565826,0.20081017911434174,0.2204861044883728,6.321513978946314e-07,9806400.0
1963-08-20,,,,,,
1963-09-01,0.0,0.22685185074806213,0.21296297013759613,0.21296297013759613,6.122774607320025e-07,5961600.0
1963-10-01,0.0,0.2881944477558136,0.20891202986240387,0.24710647761821747,7.104418386916223e-07,87825600.0
1963-11-01,0.0,0.2638888955116272,0.21990740299224854,0.24710647761821747,7.104418386916223e-07,20563200.0
1963-11-26,,,,,,
1963-12-01,0.0,0.2534722089767456,0.23321759700775146,0.2361111044883728,6.806240548939968e-07,10929600.0
1964-01-01,0.0,0.2708333432674408,0.23726852238178253,0.24363425374031067,7.023107855275157e-07,22204800.0
1964-02-01,0.0,0.28067129850387573,0.24537037312984467,0.26620370149612427,7.673710342714912e-07,20520000.0
1964-02-25,,,,,,
1964-03-01,0.0,0.2690972089767456,0.24768517911434174,0.24768517911434174,7.167761850723764e-07,8769600.0
1964-04-01,0.0,0.2534722089767456,0.2222222238779068,0.23032407462596893,6.665346745649003e-07,11923200.0
1964-05-01,0.0,0.2482638955116272,0.2204861044883728,0.2326388955116272,6.732340693815786e-07,13089600.0
1964-05-19,,,,,,
1964-06-01,0.0,0.23842592537403107,0.22106482088565826,0.23495370149612427,6.816383120167302e-07,10022400.0
1964-07-01,0.0,0.23842592537403107,0.23321759700775146,0.234375,6.799598395446083e-07,5961600.0
1964-08-01,0.0,0.23495370149612427,0.2256944477558136,0.22974537312984467,6.665284217888257e-07,4708800.0
1964-08-18,,,,,,
1964-09-01,0.0,0.24537037312984467,0.2291666716337204,0.234375,6.817115263402229e-07,12528000.0
1964-10-01,0.0,0.2430555522441864,0.2326388955116272,0.2430555522441864,7.069603498166543e-07,7171200.0
1964-11-01,0.0,0.2630208432674408,0.2430555522441864,0.2569444477558136,7.473581149497477e-07,9158400.0
1964-11-23,,,,,,
1964-12-01,0.0,0.2638888955116272,0.24363425374031067,0.2586805522441864,7.541099193986156e-07,9504000.0
1965-01-01,0.0,0.28125,0.25723379850387573,0.28009259700775146,8.165311555785593e-07,13132800.0
1965-02-01,0.0,0.2951388955116272,0.27459490299224854,0.28761574625968933,8.384628813473682e-07,10713600.0
1965-02-23,,,,,,
1965-03-01,0.0,0.2951388955116272,0.28240740299224854,0.28703704476356506,8.405011726608791e-07,6393600.0
1965-04-01,0.0,0.3125,0.28703704476356506,0.2986111044883728,8.743934927224473e-07,8899200.0
1965-05-01,0.0,0.31712964177131653,0.29629629850387573,0.30960649251937866,9.065893777915335e-07,6955200.0
1965-05-18,,,,,,
1965-06-01,0.0,0.31192129850387573,0.27662035822868347,0.28761574625968933,8.440874808002263e-07,11318400.0
1965-07-01,0.0,0.3203125,0.28587964177131653,0.3203125,9.400458793606958e-07,11923200.0
1965-08-01,0.0,0.34953704476356506,0.32060185074806213,0.3472222089767456,1.0190199191129068e-06,9763200.0
1965-08-17,,,,,,
1965-09-01,0.0,0.3958333432674408,0.34606480598449707,0.37962964177131653,1.1163809858771856e-06,9547200.0
1965-10-01,0.0,0.3819444477558136,0.3368055522441864,0.34837964177131653,1.0244838222206454e-06,8510400.0
1965-11-01,0.0,0.38483795523643494,0.33796295523643494,0.3819444477558136,1.123188098972605e-06,10368000.0
1965-11-22,,,,,,
1965-12-01,0.0,0.40740740299224854,0.3802083432674408,0.39872685074806213,1.1748289807655965e-06,40608000.0
1966-01-01,0.0,0.43518519401550293,0.40046295523643494,0.43287035822868347,1.2754304634654545e-06,6048000.0
1966-02-01,0.0,0.46759259700775146,0.42939814925193787,0.43865740299224854,1.2924815564474557e-06,13046400.0
1966-02-21,,,,,,
1966-03-01,0.0,0.43287035822868347,0.39814814925193787,0.42939814925193787,1.2690875337284524e-06,17928000.0
1966-04-01,0.0,0.4392361044883728,0.4270833432674408,0.4340277910232544,1.2827712225771393e-06,12182400.0
1966-05-01,0.0,0.44675925374031067,0.38310185074806213,0.39699074625968933,1.1733077371900436e-06,12528000.0
1966-05-17,,,,,,
1966-06-01,0.0,0.4513888955116272,0.39814814925193787,0.4340277910232544,1.2854133046857896e-06,18273600.0
1966-07-01,0.0,0.44212964177131653,0.39699074625968933,0.40162035822868347,1.1894346698682057e-06,15033600.0
1966-08-01,0.0,0.4045138955116272,0.33796295523643494,0.3559027910232544,1.0540388757362962e-06,8078400.0
1966-08-16,,,,,,
1966-09-01,0.0,0.35648149251937866,0.3368055522441864,0.3368055522441864,9.99520011646382e-07,7214400.0
1966-10-01,0.0,0.3784722089767456,0.32175925374031067,0.37384259700775146,1.1094327874161536e-06,11059200.0
1966-11-01,0.0,0.39699074625968933,0.37384259700775146,0.39120370149612427,1.1609535022216733e-06,8337600.0
1966-11-21,,,,,,
1966-12-01,0.0,0.41782405972480774,0.39120370149612427,0.3958333432674408,1.1771270465033012e-06,11448000.0
1967-01-01,0.0,0.43634259700775146,0.3819444477558136,0.43634259700775146,1.2975930303582572e-06,11016000.0
1967-02-01,0.0,0.4496527910232544,0.43287035822868347,0.44675925374031067,1.32857007884013e-06,11577600.0
1967-02-20,,,,,,
1967-03-01,0.0,0.5162037014961243,0.4461805522441864,0.5138888955116272,1.5329703728639288e-06,18878400.0
1967-04-01,0.0,0.5763888955116272,0.48148149251937866,0.5416666865348816,1.6158331845872453e-06,12657600.0
1967-05-01,0.0,0.5659722089767456,0.5138888955116272,0.5243055820465088,1.5640437140973518e-06,10713600.0
1967-05-17,,,,,,
1967-06-01,0.0,0.5590277910232544,0.5173611044883728,0.5381944179534912,1.607808599146665e-06,9936000.0
1967-06-19,,,,,,
1967-07-01,0.0,0.5416666865348816,0.4826388955116272,0.5060763955116272,1.511860205027915e-06,12916800.0
1967-08-01,0.0,0.5373263955116272,0.5017361044883728,0.5364583134651184,1.602622205609805e-06,24364800.0
1967-08-14,,,,,,
1967-09-01,0.0,0.6336805820465088,0.5381944179534912,0.5911458134651184,1.7696083887130953e-06,16588800.0
1967-10-01,0.0,0.6579861044883728,0.5842013955116272,0.6024305820465088,1.8033897504210472e-06,14400000.0
1967-11-01,0.0,0.6076388955116272,0.5590277910232544,0.6024305820465088,1.8033897504210472e-06,11577600.0
1967-11-20,,,,,,
1967-12-01,0.0,0.6666666865348816,0.6032986044883728,0.6371527910232544,1.910747641886701e-06,8409600.0
1968-01-01,0.0,0.6397569179534912,0.5694444179534912,0.5894097089767456,1.7675724848231766e-06,12470400.0
1968-02-01,0.0,0.5902777910232544,0.5295138955116272,0.5572916865348816,1.6712534716134542e-06,8092800.0
1968-02-16,,,,,,
1968-03-01,0.0,0.5642361044883728,0.5173611044883728,0.5642361044883728,1.696324488875689e-06,7560000.0
1968-04-01,0.0,0.625,0.5746527910232544,0.6111111044883728,1.8372492149865138e-06,10296000.0
1968-05-01,0.0,0.6284722089767456,0.5902777910232544,0.6267361044883728,1.8842258668883005e-06,8942400.0
1968-05-20,,,,,,
1968-06-01,0.0,0.6597222089767456,0.6171875,0.6423611044883728,1.9345195596542908e-06,5918400.0
1968-07-01,0.0,0.6753472089767456,0.6128472089767456,0.6258680820465088,1.884850462374743e-06,8467200.0
1968-08-01,0.0,0.6475694179534912,0.6119791865348816,0.6319444179534912,1.9031490410270635e-06,3369600.0
1968-08-19,,,,,,
1968-09-01,0.0,0.6458333134651184,0.5954861044883728,0.6041666865348816,1.822573949539219e-06,6206400.0
1968-10-01,0.0,0.6232638955116272,0.5963541865348816,0.5963541865348816,1.7990068954532035e-06,6408000.0
1968-11-01,0.0,0.7118055820465088,0.5902777910232544,0.6727430820465088,2.0294471596571384e-06,24854400.0
1968-11-18,,,,,,
1968-12-01,0.0,0.75,0.6744791865348816,0.7395833134651184,2.2347519461618504e-06,9288000.0
1969-01-01,0.0,0.7743055820465088,0.7013888955116272,0.7586805820465088,2.2924548375158338e-06,14846400.0
1969-02-01,0.0,0.7690972089767456,0.7135416865348816,0.75,2.2662250103167025e-06,6350400.0
1969-02-14,,,,,,
1969-03-01,0.0,0.8194444179534912,0.7326388955116272,0.8194444179534912,2.4816756649670424e-06,7790400.0
1969-04-01,0.0,0.8923611044883728,0.78125,0.8559027910232544,2.592089458630653e-06,15350400.0
1969-05-01,0.0,0.8715277910232544,0.8333333134651184,0.84375,2.5552858460287098e-06,7675200.0
1969-05-19,,,,,,
1969-06-01,0.0,0.8420138955116272,0.7743055820465088,0.7864583134651184,2.385627794865286e-06,11822400.0
1969-07-01,0.0,0.828125,0.7569444179534912,0.8159722089767456,2.475154815329006e-06,28857600.0
1969-08-01,0.0,0.96875,0.8125,0.9270833134651184,2.812196044033044e-06,22809600.0
1969-08-18,,,,,,
1969-09-01,0.0,1.0590277910232544,0.9097222089767456,0.9652777910232544,2.9325192372198217e-06,13219200.0
1969-10-01,0.0,1.0763888359069824,0.9583333134651184,1.0659722089767456,3.238430736018927e-06,22190400.0
1969-11-01,0.0,1.09375,0.9861111044883728,1.046875,3.1804138416191563e-06,22608000.0
1969-11-17,,,,,,
1969-12-01,0.0,1.2569444179534912,1.03125,1.25,3.802665560215246e-06,23918400.0
1970-01-01,1.25,1.2534722089767456,1.0729166269302368,1.0972222089767456,3.3378967145836214e-06,22579200.0
1970-02-01,1.109375,1.2152777910232544,1.0503472089767456,1.1067708730697632,3.3669439289951697e-06,36158400.0
1970-02-16,,,,,,
1970-03-01,1.1067708730697632,1.1232638359069824,1.0416666269302368,1.0729166269302368,3.2700029350962723e-06,20448000.0
1970-04-01,1.0694444179534912,1.0694444179534912,0.9340277910232544,0.9930555820465088,3.0266046451288275e-06,25934400.0
1970-05-01,0.9930555820465088,1.0104166269302368,0.7760416865348816,0.90625,2.7620412765827496e-06,23385600.0
1970-05-18,,,,,,
1970-05-22,,,,,,
1970-06-01,0.90625,1.0572916269302368,0.9010416865348816,0.9713541865348816,2.9660579912160756e-06,17193600.0
1970-07-01,0.9713541865348816,1.0520833730697632,0.9348958134651184,1.0286458730697632,3.1410008887178265e-06,17308800.0
1970-08-01,1.0260416269302368,1.03125,0.890625,1.0130208730697632,3.0932892514101695e-06,15768000.0
1970-08-17,,,,,,
1970-09-01,1.0182291269302368,1.125,1.0052083730697632,1.0989583730697632,3.3619155601627426e-06,16300800.0
1970-10-01,1.0989583730697632,1.1927083730697632,1.0625,1.1822916269302368,3.616846697696019e-06,12830400.0
1970-11-01,1.1822916269302368,1.2447916269302368,1.1510416269302368,1.2239583730697632,3.7443116980284685e-06,16848000.0
1970-11-16,,,,,,
1970-12-01,1.2239583730697632,1.234375,1.1354166269302368,1.1875,3.637906502262922e-06,21561600.0
1971-01-01,1.1875,1.375,1.1796875,1.34375,4.1165803850162774e-06,21758400.0
1971-02-01,1.34375,1.484375,1.3333333730697632,1.46875,4.499514488998102e-06,15225600.0
1971-02-22,,,,,,
1971-03-01,1.46875,1.6770833730697632,1.4583333730697632,1.609375,4.939843165630009e-06,18014400.0
1971-04-01,1.609375,1.7604166269302368,1.5677083730697632,1.7604166269302368,5.403452178143198e-06,12379200.0
1971-05-01,1.7604166269302368,1.8854166269302368,1.6927083730697632,1.8020833730697632,5.531342139875051e-06,12796800.0
1971-05-17,,,,,,
1971-06-01,1.8020833730697632,2.03125,1.765625,2.0052082538604736,6.161748842714587e-06,18566400.0
1971-07-01,2.0052082538604736,2.0572917461395264,1.9322916269302368,1.9583333730697632,6.017708074068651e-06,9830400.0
1971-08-01,1.9583333730697632,2.0572917461395264,1.7708333730697632,1.9010416269302368,5.8416549109097105e-06,16017600.0
1971-08-23,,,,,,
1971-09-01,1.9010416269302368,1.9114583730697632,1.8359375,1.8828125,5.791783678432694e-06,8870400.0
1971-10-01,1.8828125,1.8932291269302368,1.7630208730697632,1.875,5.767756192653906e-06,12600000.0
1971-11-01,1.875,1.96875,1.8177083730697632,1.9635416269302368,6.040119842509739e-06,11668800.0
1971-11-19,,,,,,
1971-12-01,1.9895833730697632,2.0807292461395264,1.9791666269302368,2.0520832538604736,6.319505700957961e-06,16852800.0
1972-01-01,2.0520832538604736,2.0572917461395264,1.9635416269302368,2.0546875,6.327529263217002e-06,14049600.0
1972-02-01,2.046875,2.25,2.0364582538604736,2.1458332538604736,6.6082106968679e-06,18739200.0
1972-02-18,,,,,,
1972-03-01,2.15625,2.3932292461395264,2.15625,2.3020832538604736,7.422699582093628e-06,25468800.0
1972-04-01,2.3020832538604736,2.4791667461395264,2.2864582538604736,2.4270832538604736,7.825745342415757e-06,18484800.0
1972-05-01,2.4270832538604736,2.671875,2.3619792461395264,2.4895832538604736,8.0272693594452e-06,17472000.0
1972-05-22,,,,,,
1972-06-01,2.4895832538604736,2.625,2.484375,2.5572917461395264,8.592009180574678e-06,16891200.0
1972-07-01,2.5572917461395264,2.6197917461395264,2.4947917461395264,2.5364582538604736,8.52201810630504e-06,14764800.0
1972-08-01,2.5364582538604736,2.7421875,2.515625,2.5729167461395264,8.64450976223452e-06,27878400.0
1972-08-21,,,,,,
1972-09-01,2.578125,2.6354167461395264,2.5026042461395264,2.59375,9.061783202923834e-06,12787200.0
1972-10-01,2.59375,2.6953125,2.5052082538604736,2.6953125,9.416614375368226e-06,17059200.0
1972-11-01,2.703125,2.7708332538604736,2.5416667461395264,2.578125,9.007199878396932e-06,43905600.0
1972-11-17,,,,,,
1972-12-01,2.578125,2.7291667461395264,2.578125,2.71875,9.874706847767811e-06,19243200.0
1973-01-01,2.71875,2.7552082538604736,2.6145832538604736,2.6354167461395264,9.572030648996588e-06,27676800.0
1973-02-01,2.6354167461395264,2.6666667461395264,2.421875,2.5208332538604736,9.155856787401717e-06,28444800.0
1973-02-16,,,,,,
1973-03-01,2.5182292461395264,2.6666667461395264,2.4088542461395264,2.5286457538604736,9.557928933645599e-06,27561600.0
1973-04-01,2.5130207538604736,2.640625,2.4270832538604736,2.46875,9.331533874501474e-06,21561600.0
1973-05-01,2.46875,2.5104167461395264,2.3046875,2.4140625,9.124823918682523e-06,35404800.0
1973-05-21,,,,,,
1973-06-01,2.4088542461395264,2.5260417461395264,2.3229167461395264,2.3723957538604736,9.468142707191873e-06,29668800.0
1973-07-01,2.3723957538604736,2.5,2.25,2.4609375,9.821515050134622e-06,26515200.0
1973-08-01,2.4557292461395264,2.4869792461395264,2.3177082538604736,2.4791667461395264,9.894269169308245e-06,16689600.0
1973-08-20,,,,,,
1973-09-01,2.4791667461395264,2.5416667461395264,2.34375,2.46875,1.0397882761026267e-05,15902400.0
1973-10-01,2.4583332538604736,2.5885417461395264,2.3541667461395264,2.5182292461395264,1.060626618709648e-05,21192000.0
1973-11-01,2.515625,2.5729167461395264,2.3932292461395264,2.4322917461395264,1.0244321856589522e-05,15196800.0
1973-11-16,,,,,,
1973-12-01,2.4166667461395264,2.5104167461395264,2.109375,2.3489582538604736,1.0415452379675116e-05,26577600.0
1974-01-01,2.34375,2.3645832538604736,1.9947916269302368,2.2109375,9.803464308788534e-06,29280000.0
1974-02-01,2.203125,2.2083332538604736,2.0338542461395264,2.125,9.422409675607923e-06,17457600.0
1974-02-15,,,,,,
1974-03-01,2.125,2.40625,2.046875,2.2708332538604736,1.0708949048421346e-05,24787200.0
1974-04-01,2.2708332538604736,2.3229167461395264,2.1901042461395264,2.2708332538604736,1.0708949048421346e-05,14380800.0
1974-05-01,2.2708332538604736,2.4427082538604736,2.25,2.3958332538604736,1.1298434401396662e-05,20462400.0
1974-05-20,,,,,,
1974-06-01,2.3958332538604736,2.4869792461395264,2.328125,2.359375,1.1882586477440782e-05,19171200.0
1974-07-01,2.359375,2.3802082538604736,2.0182292461395264,2.046875,1.0308732271369081e-05,28310400.0
1974-08-01,2.0442707538604736,2.0442707538604736,1.6510416269302368,1.7890625,9.010305802803487e-06,40622400.0
1974-08-19,,,,,,
1974-09-01,1.7890625,1.8020833730697632,1.5364583730697632,1.5729166269302368,8.906736184144393e-06,41457600.0
1974-10-01,1.5729166269302368,1.9479166269302368,1.5234375,1.8125,1.0263394869980402e-05,48393600.0
1974-11-01,1.8125,1.90625,1.7083333730697632,1.75,9.909477739711292e-06,26164800.0
1974-11-18,,,,,,
1974-12-01,1.7395833730697632,1.7760416269302368,1.6276041269302368,1.6848958730697632,1.0756451047200244e-05,33715200.0
1975-01-01,1.6927083730697632,1.7473958730697632,1.5052083730697632,1.6197916269302368,1.0340823791921139e-05,53952000.0
1975-02-01,1.6197916269302368,1.9791666269302368,1.59375,1.9583333730697632,1.2502083336585201e-05,43017600.0
1975-02-14,,,,,,
1975-03-01,1.9583333730697632,2.0598957538604736,1.8177083730697632,1.890625,1.349727335764328e-05,32928000.0
1975-04-01,1.8854166269302368,1.96875,1.8125,1.8854166269302368,1.3460083209793083e-05,28401600.0
1975-05-01,1.8854166269302368,2.0390625,1.8776041269302368,1.9817708730697632,1.4147971342026722e-05,24182400.0
1975-05-19,,,,,,
1975-06-01,1.9817708730697632,2.078125,1.9401041269302368,2.0286457538604736,1.612513733562082e-05,24974400.0
1975-07-01,2.0260417461395264,2.0260417461395264,1.8411458730697632,1.8541666269302368,1.47382579598343e-05,24667200.0
1975-08-01,1.8541666269302368,1.8697916269302368,1.7005208730697632,1.7942708730697632,1.4262151125876699e-05,26006400.0
1975-08-18,,,,,,
1975-09-01,1.7942708730697632,1.7994791269302368,1.6328125,1.6458333730697632,1.47798618854722e-05,25915200.0
1975-10-01,1.65625,1.8854166269302368,1.65625,1.8645833730697632,1.6744257663958706e-05,39504000.0
1975-11-01,1.8645833730697632,1.9765625,1.8489583730697632,1.9635416269302368,1.763291766110342e-05,21873600.0
1975-11-17,,,,,,
1975-12-01,1.9583333730697632,1.9583333730697632,1.8046875,1.8697916269302368,1.87707701115869e-05,26371200.0
1976-01-01,1.8723958730697632,2.0104167461395264,1.8072916269302368,2.0026042461395264,2.0104085706407204e-05,38438400.0
1976-02-01,2.0,2.0052082538604736,1.7552083730697632,1.7760416269302368,1.7829615899245255e-05,39600000.0
1976-02-13,,,,,,
1976-03-01,1.7760416269302368,1.890625,1.7135416269302368,1.8697916269302368,2.0957284505129792e-05,44318400.0
1976-04-01,1.8697916269302368,1.8958333730697632,1.7708333730697632,1.8177083730697632,2.0373534425743856e-05,31598400.0
1976-05-01,1.8125,1.8645833730697632,1.7630208730697632,1.7994791269302368,2.0169205527054146e-05,22056000.0
1976-05-17,,,,,,
1976-06-01,1.7994791269302368,1.8020833730697632,1.71875,1.75,2.2794831238570623e-05,30292800.0
1976-07-01,1.75,1.8463541269302368,1.7369791269302368,1.7942708730697632,2.3371496354229748e-05,33105600.0
1976-08-01,1.7942708730697632,1.8567708730697632,1.7682291269302368,1.8541666269302368,2.415167364233639e-05,26400000.0
1976-08-16,,,,,,
1976-09-01,1.8541666269302368,1.9947916269302368,1.8463541269302368,1.8854166269302368,2.8533802833408117e-05,27739200.0
1976-10-01,1.8854166269302368,1.8932291269302368,1.765625,1.7864583730697632,2.70361706498079e-05,23049600.0
1976-11-01,1.7864583730697632,1.7890625,1.6223958730697632,1.625,2.4592682166257873e-05,27984000.0
1976-11-15,,,,,,
1976-12-01,1.6145833730697632,1.6510416269302368,1.4895833730697632,1.625,2.8884955099783838e-05,69758400.0
1977-01-01,1.6015625,1.6276041269302368,1.3645833730697632,1.4114583730697632,2.5089180780923925e-05,37008000.0
1977-02-01,1.421875,1.4895833730697632,1.3567708730697632,1.3854166269302368,2.4626278900541365e-05,31996800.0
1977-02-18,,,,,,
1977-03-01,1.3958333730697632,1.5078125,1.3880208730697632,1.3958333730697632,3.0301605875138193e-05,39148800.0
1977-04-01,1.4010416269302368,1.4322916269302368,1.296875,1.3151041269302368,2.8549064154503867e-05,36052800.0
1977-05-01,1.3151041269302368,1.421875,1.2942708730697632,1.3541666269302368,2.9397086109383963e-05,39825600.0
1977-05-16,,,,,,
1977-06-01,1.3567708730697632,1.5286458730697632,1.3567708730697632,1.4713541269302368,4.309120777179487e-05,46435200.0
1977-07-01,1.4713541269302368,1.4765625,1.421875,1.4322916269302368,4.194718349026516e-05,35577600.0
1977-08-01,1.4322916269302368,1.5703125,1.421875,1.5052083730697632,4.408265158417635e-05,41539200.0
1977-08-15,,,,,,
1977-09-01,1.5078125,1.5416666269302368,1.4817708730697632,1.53125,5.8831101341638714e-05,25344000.0
1977-10-01,1.53125,1.5494791269302368,1.4479166269302368,1.5286458730697632,5.873108239029534e-05,40963200.0
1977-11-01,1.5182291269302368,1.5572916269302368,1.4479166269302368,1.5416666269302368,5.9231311752228066e-05,38083200.0
1977-11-14,,,,,,
1977-12-01,1.5442708730697632,1.6067708730697632,1.5026041269302368,1.5989583730697632,7.954184547998011e-05,33052800.0
1978-01-01,1.5963541269302368,1.5963541269302368,1.4322916269302368,1.453125,7.22872355254367e-05,34598400.0
1978-02-01,1.453125,1.4869791269302368,1.3645833730697632,1.3958333730697632,6.94372138241306e-05,19392000.0
1978-02-10,,,,,,
1978-03-01,1.3958333730697632,1.4739583730697632,1.3880208730697632,1.4166666269302368,9.937882714439183e-05,32256000.0
1978-04-01,1.4114583730697632,1.59375,1.3671875,1.59375,0.00011180125147802755,53544000.0
1978-05-01,1.59375,1.6614583730697632,1.5208333730697632,1.6015625,0.00011234931298531592,52209600.0
1978-05-15,,,,,,
1978-06-01,1.609375,1.7369791269302368,1.609375,1.6953125,0.0001622838171897456,56894400.0
1978-07-01,1.6979166269302368,1.7682291269302368,1.6666666269302368,1.7682291269302368,0.00016926377429626882,38054400.0
1978-08-01,1.7682291269302368,1.84375,1.7447916269302368,1.7604166269302368,0.00016851583495736122,40233600.0
1978-08-14,,,,,,
1978-09-01,1.7630208730697632,1.8541666269302368,1.7057291269302368,1.7317708730697632,0.00021679940982721746,29846400.0
1978-10-01,1.7317708730697632,1.7708333730697632,1.4895833730697632,1.53125,0.0001916963083203882,50659200.0
1978-11-01,1.5677083730697632,1.640625,1.5494791269302368,1.6119791269302368,0.00020180268620606512,30057600.0
1978-11-13,,,,,,
1978-12-01,1.6197916269302368,1.6302083730697632,1.484375,1.5364583730697632,0.00026310369139537215,32428800.0
1979-01-01,1.5364583730697632,1.6119791269302368,1.515625,1.5807291269302368,0.00027068445342592895,38577600.0
1979-02-01,1.5703125,1.5703125,1.40625,1.421875,0.00024348228180315346,45436800.0
1979-02-20,,,,,,
1979-03-01,1.421875,1.5,1.4036458730697632,1.4296875,0.0003695329651236534,53380800.0
1979-04-01,1.4296875,1.484375,1.4166666269302368,1.4505208730697632,0.0003749176685232669,46305600.0
1979-05-01,1.4505208730697632,1.4765625,1.4192708730697632,1.4505208730697632,0.0003749176685232669,47779200.0
1979-05-21,,,,,,
1979-06-01,1.4479166269302368,1.5286458730697632,1.4270833730697632,1.4947916269302368,0.0005869048181921244,42331200.0
1979-07-01,1.4947916269302368,1.5208333730697632,1.46875,1.5104166269302368,0.0005930395564064384,44323200.0
1979-08-01,1.5104166269302368,1.6223958730697632,1.5,1.6067708730697632,0.0006308716256171465,48859200.0
1979-08-20,,,,,,
1979-09-01,1.6041666269302368,1.6041666269302368,1.5234375,1.5442708730697632,0.000884854409378022,30427200.0
1979-10-01,1.5338541269302368,1.5546875,1.3489583730697632,1.4192708730697632,0.0008132306393235922,64795200.0
1979-11-01,1.4192708730697632,1.5598958730697632,1.4088541269302368,1.5572916269302368,0.0008923152927309275,57153600.0
1979-11-16,,,,,,
1979-12-01,1.5572916269302368,1.6744791269302368,1.5520833730697632,1.6510416269302368,0.0014384149108082056,49713600.0
1980-01-01,1.6458333730697632,1.7005208730697632,1.5625,1.5703125,0.0013680828269571066,64075200.0
1980-02-01,1.5625,1.5885416269302368,1.4270833730697632,1.4296875,0.0012455679243430495,64550400.0
1980-02-15,,,,,,
1980-03-01,1.4296875,1.4817708730697632,1.375,1.4791666269302368,0.0019104349194094539,59716800.0
1980-04-01,1.4791666269302368,1.59375,1.4583333730697632,1.5807291269302368,0.0020416094921529293,52876800.0
1980-05-01,1.5807291269302368,1.7057291269302368,1.5651041269302368,1.6666666269302368,0.002152603818103671,58526400.0
1980-05-19,,,,,,
1980-06-01,1.6640625,1.71875,1.6302083730697632,1.6354166269302368,0.003243965096771717,45398400.0
1980-07-01,1.6354166269302368,1.6979166269302368,1.6276041269302368,1.6875,0.0033472771756350994,56678400.0
1980-08-01,1.6875,1.7864583730697632,1.6458333730697632,1.6536458730697632,0.003280125791206956,52036800.0
1980-08-18,,,,,,
1980-09-01,1.6536458730697632,1.7578125,1.59375,1.6875,0.005026808474212885,73776000.0
1980-10-01,1.6875,1.78125,1.5703125,1.765625,0.005259532481431961,90374400.0
1980-11-01,1.78125,1.96875,1.6875,1.890625,0.005631886422634125,102964800.0
1980-11-17,,,,,,
1980-12-01,1.890625,2.1119792461395264,1.7734375,2.078125,0.009148882701992989,90432000.0
1981-01-01,2.078125,2.1276042461395264,1.9296875,1.9947916269302368,0.008782006800174713,68164800.0
1981-02-01,1.9869791269302368,2.1666667461395264,1.9557291269302368,2.1458332538604736,0.009446963667869568,56068800.0
1981-02-13,,,,,,
1981-03-01,2.1432292461395264,2.2291667461395264,2.0963542461395264,2.1614582538604736,0.013343815691769123,71784000.0
1981-04-01,2.1614582538604736,2.3411457538604736,2.1041667461395264,2.2213542461395264,0.013713586144149303,74577600.0
1981-05-01,2.2213542461395264,2.40625,2.1614582538604736,2.390625,0.014758581295609474,50608000.0
1981-05-19,,,,,,
1981-05-22,,,,,,
1981-06-01,2.390625,2.4609375,2.15625,2.1875,0.019030390307307243,55489600.0
1981-07-01,2.1875,2.1953125,1.8828125,2.1015625,0.018282759934663773,45369600.0
1981-08-01,2.1015625,2.1328125,1.859375,1.8671875,0.01624378375709057,51406400.0
1981-08-17,,,,,,
1981-09-01,1.8671875,2.09375,1.765625,2.0625,0.020189393311738968,64641600.0
1981-10-01,2.0625,2.296875,2.0234375,2.2734375,0.022254202514886856,66739200.0
1981-11-01,2.2890625,2.375,2.109375,2.359375,0.02309544011950493,55824000.0
1981-11-16,,,,,,
1981-12-01,2.359375,2.359375,2.125,2.3203125,0.025263037532567978,39112000.0
1982-01-01,2.296875,2.3828125,2.109375,2.3671875,0.025773411616683006,63142400.0
1982-02-01,2.3203125,2.4453125,2.25,2.3125,0.02517797239124775,68702400.0
1982-02-22,,,,,,
1982-03-01,2.3359375,2.3671875,2.03125,2.3125,0.02773086540400982,81691200.0
1982-04-01,2.3203125,2.5234375,2.2890625,2.5,0.029979338869452477,69136000.0
1982-05-01,2.5234375,2.6328125,2.375,2.453125,0.02941722981631756,58992000.0
1982-05-17,,,,,,
1982-06-01,2.4765625,2.546875,2.34375,2.46875,0.03282114490866661,66788800.0
1982-07-01,2.453125,2.6875,2.375,2.4765625,0.03292502090334892,61944000.0
1982-08-01,2.5546875,2.84375,2.375,2.8125,0.037391189485788345,110089600.0
1982-08-16,,,,,,
1982-09-01,2.7734375,2.9921875,2.65625,2.6953125,0.03998040407896042,99291200.0
1982-10-01,2.6796875,2.78125,2.421875,2.7421875,0.04067569598555565,377984000.0
1982-11-01,2.765625,3.0,2.71875,2.90625,0.04310926795005798,146779200.0
1982-11-15,,,,,,
1982-12-01,2.890625,3.203125,2.7890625,3.1015625,0.05025387182831764,119531200.0
1983-01-01,3.109375,3.2109375,2.875,3.0234375,0.048988062888383865,97712000.0
1983-02-01,3.0234375,3.0546875,2.8125,2.9609375,0.04797540232539177,110156800.0
1983-02-18,,,,,,
1983-03-01,3.03125,3.1640625,2.7890625,2.9609375,0.052496105432510376,194897600.0
1983-04-01,2.90625,3.1640625,2.796875,3.1328125,0.05554338917136192,142796800.0
1983-05-01,3.09375,3.21875,2.859375,2.875,0.050972480326890945,126734400.0
1983-05-16,,,,,,
1983-06-01,2.875,3.09375,2.8359375,3.078125,0.05996202677488327,175396800.0
1983-07-01,3.09375,3.109375,2.671875,2.75,0.053570155054330826,115204800.0
1983-08-01,2.7421875,2.7890625,2.5078125,2.5703125,0.050069842487573624,147844800.0
1983-08-15,,,,,,
1983-09-01,2.5859375,2.8671875,2.5234375,2.8203125,0.06106856092810631,119371200.0
1983-10-01,2.796875,3.0,2.703125,2.7421875,0.059376899152994156,108156800.0
1983-11-01,2.734375,2.796875,2.59375,2.6484375,0.057346925139427185,96512000.0
1983-11-14,,,,,,
1983-12-01,2.6484375,2.6484375,2.4375,2.5546875,0.06141052395105362,145131200.0
1984-01-01,2.53125,2.6796875,2.328125,2.3984375,0.05765455588698387,167750400.0
1984-02-01,2.3984375,2.5,2.1328125,2.2421875,0.053898535668849945,143464000.0
1984-02-17,,,,,,
1984-03-01,2.2421875,2.2734375,2.0859375,2.1875,0.059854306280612946,113312000.0
1984-04-01,2.1953125,2.4140625,2.1796875,2.3359375,0.06391582638025284,96528000.0
1984-05-01,2.3359375,2.375,1.8828125,1.9140625,0.0523725226521492,154416000.0
1984-05-21,,,,,,
1984-06-01,1.9140625,2.0703125,1.8359375,1.875,0.0596560537815094,174718400.0
1984-07-01,1.875,1.9296875,1.75,1.828125,0.058164652436971664,132137600.0
1984-08-01,1.828125,2.140625,1.828125,2.109375,0.06711308658123016,185096000.0
1984-08-20,,,,,,
1984-09-01,2.1015625,2.1796875,1.984375,2.03125,0.07546980679035187,107636800.0
1984-10-01,2.0078125,2.1171875,1.890625,2.03125,0.07546980679035187,118153600.0
1984-11-01,2.03125,2.2890625,2.015625,2.21875,0.08243627101182938,152955200.0
1984-11-16,,,,,,
1984-12-01,2.2109375,2.328125,2.109375,2.2578125,0.09777969121932983,120768000.0
1985-01-01,2.2421875,2.453125,2.1953125,2.4375,0.10556141287088394,141102400.0
1985-02-01,2.390625,2.5078125,2.3125,2.4609375,0.10657642781734467,131019200.0
1985-02-15,,,,,,
1985-03-01,2.4375,2.6328125,2.421875,2.625,0.12939801812171936,149992000.0
1985-04-01,2.609375,2.796875,2.5234375,2.7421875,0.13517478108406067,183592000.0
1985-05-01,2.7265625,2.9609375,2.6796875,2.9375,0.14480262994766235,136675200.0
1985-05-24,,,,,,
1985-06-01,2.9609375,2.9921875,2.8046875,2.8984375,0.16069215536117554,113316800.0
1985-07-01,2.90625,3.0703125,2.8125,2.8828125,0.15982599556446075,150539200.0
1985-08-01,2.921875,2.96875,2.765625,2.921875,0.16199161112308502,104529600.0
1985-08-19,,,,,,
1985-09-01,2.921875,3.0,2.671875,2.7734375,0.17334550619125366,111371200.0
1985-10-01,2.765625,2.984375,2.6953125,2.9375,0.1835998296737671,128929600.0
1985-11-01,2.9296875,3.1640625,2.9140625,3.1171875,0.19483065605163574,224345600.0
1985-11-18,,,,,,
1985-12-01,3.1015625,3.453125,3.015625,3.2890625,0.22955195605754852,171881600.0
1986-01-01,3.28125,3.375,3.078125,3.359375,0.23445913195610046,132534400.0
1986-02-01,3.359375,3.4375,2.859375,3.109375,0.21701104938983917,576472000.0
1986-02-24,,,,,,
1986-03-01,3.1171875,3.65625,3.0078125,3.5859375,0.2801271677017212,274787200.0
1986-04-01,3.609375,4.3359375,3.3046875,4.1171875,0.32162776589393616,318836800.0
1986-05-01,4.0546875,4.40625,4.0,4.2734375,0.33383363485336304,161201600.0
1986-05-23,,,,,,
1986-06-01,4.2578125,4.609375,4.1015625,4.5390625,0.38575801253318787,143424000.0
1986-07-01,4.5390625,4.5546875,4.0234375,4.2578125,0.3618558347225189,174428800.0
1986-08-01,4.265625,4.65625,4.1875,4.6171875,0.3923976719379425,144096000.0
1986-08-18,,,,,,
1986-09-01,4.59375,4.6171875,3.765625,4.0,0.3683299124240875,194441600.0
1986-10-01,4.03125,4.3828125,3.8671875,4.359375,0.4014222323894501,123788800.0
1986-11-01,4.375,4.4296875,4.046875,4.28125,0.39422836899757385,130014400.0
1986-11-17,,,,,,
1986-12-01,4.21875,4.5,4.078125,4.1015625,0.411018043756485,170254400.0
1987-01-01,4.1015625,4.9296875,4.1015625,4.7265625,0.47364941239356995,249284800.0
1987-02-01,4.7109375,5.53125,4.671875,5.390625,0.5401950478553772,193604800.0
1987-02-23,,,,,,
1987-03-01,5.4375,5.90625,5.3359375,5.53125,0.5936765670776367,208251200.0
1987-04-01,5.484375,5.7578125,5.1953125,5.4453125,0.5844525098800659,224408000.0
1987-05-01,5.421875,5.6484375,5.015625,5.375,0.5769056081771851,148656000.0
1987-05-22,,,,,,
1987-06-01,5.3984375,5.953125,5.3125,5.7421875,0.6709930896759033,133956800.0
1987-07-01,5.75,6.046875,5.5703125,5.953125,0.6956416964530945,159984000.0
1987-08-01,5.9375,6.5859375,5.78125,6.234375,0.7285072207450867,175347200.0
1987-08-17,,,,,,
1987-09-01,6.25,6.28125,5.59375,5.96875,0.7475486397743225,219763200.0
1987-10-01,6.0,6.21875,3.453125,5.0,0.6262184977531433,344299200.0
1987-11-01,4.953125,5.0390625,4.421875,4.5625,0.5714242458343506,143969600.0
1987-11-16,,,,,,
1987-12-01,4.609375,5.0234375,4.375,4.6796875,0.6420608162879944,153884800.0
1988-01-01,4.7421875,4.9921875,4.3515625,4.8984375,0.6720739603042603,242632000.0
1988-02-01,4.9375,5.21875,4.75,5.203125,0.7138773202896118,147928000.0
1988-02-17,,,,,,
1988-03-01,5.2109375,5.4140625,4.8359375,4.9609375,0.741534411907196,156260800.0
1988-04-01,4.9296875,5.2578125,4.7109375,4.734375,0.7076685428619385,148171200.0
1988-05-01,4.75,4.875,4.328125,4.859375,0.7263532280921936,147083200.0
1988-05-18,,,,,,
1988-06-01,4.890625,5.109375,4.8046875,4.9609375,0.8351240754127502,178225600.0
1988-07-01,4.96875,5.0234375,4.75,5.0,0.8416996002197266,108262400.0
1988-08-01,5.0,5.1484375,4.921875,5.0625,0.8522216081619263,120308800.0
1988-08-17,,,,,,
1988-09-01,5.0390625,5.421875,4.984375,5.3671875,1.0044317245483398,123940800.0
1988-10-01,5.359375,5.5078125,5.265625,5.4375,1.017590045928955,109171200.0
1988-11-01,5.4375,5.5,5.0390625,5.375,1.005893588066101,113971200.0
1988-11-16,,,,,,
1988-12-01,5.375,5.46875,5.265625,5.3203125,1.101873755455017,87448000.0
1989-01-01,5.3125,5.75,5.1875,5.7265625,1.1860105991363525,131144000.0
1989-02-01,5.7265625,5.765625,5.34375,5.3828125,1.1148179769515991,111040000.0
1989-02-14,,,,,,
1989-03-01,5.421875,5.84375,5.3203125,5.671875,1.2909069061279297,144632000.0
1989-04-01,5.6796875,6.0546875,5.6171875,6.0078125,1.367365837097168,108467200.0
1989-05-01,5.96875,6.46875,5.859375,6.171875,1.4047060012817383,137480800.0
1989-05-11,,,,,,
1989-05-22,,,,,,
1989-06-01,6.21875,6.71875,5.890625,5.984375,1.427711844444275,131359200.0
1989-07-01,6.09375,6.78125,5.984375,6.671875,1.5917308330535889,106146400.0
1989-08-01,6.65625,6.671875,6.171875,6.546875,1.5619090795516968,137716000.0
1989-08-16,,,,,,
1989-09-01,6.578125,6.859375,6.25,6.84375,1.709285020828247,106166400.0
1989-10-01,6.78125,7.078125,6.3125,6.921875,1.728798270225525,132754400.0
1989-11-01,6.875,7.15625,6.546875,7.0625,1.7639195919036865,94060000.0
1989-11-15,,,,,,
1989-12-01,7.125,7.4375,6.9375,7.421875,1.9348530769348145,94146400.0
1990-01-01,7.34375,7.59375,6.390625,6.546875,1.7067437171936035,136120000.0
1990-02-01,6.78125,7.078125,6.5,6.703125,1.74747633934021,92084000.0
1990-02-13,,,,,,
1990-03-01,6.734375,7.1875,6.71875,7.015625,1.9084733724594116,93845600.0
1990-04-01,6.96875,7.421875,6.9375,7.078125,1.9254761934280396,94313600.0
1990-05-01,7.125,8.046875,7.09375,7.984375,2.172003984451294,126883200.0
1990-05-16,,,,,,
1990-06-01,8.0625,8.53125,7.859375,8.46875,2.411288261413574,108437600.0
1990-07-01,8.46875,9.265625,8.4375,8.828125,2.5136148929595947,116019200.0
1990-08-01,8.796875,8.84375,7.5,8.203125,2.3356575965881348,168426400.0
1990-08-15,,,,,,
1990-09-01,8.078125,8.34375,7.5625,7.90625,2.3454697132110596,102738400.0
1990-10-01,8.0,8.6875,7.921875,8.046875,2.3871872425079346,136454400.0
1990-11-01,8.03125,8.796875,7.96875,8.71875,2.5865061283111572,117522400.0
1990-11-14,,,,,,
1990-12-01,8.84375,9.015625,8.6875,8.96875,2.774585723876953,93742400.0
1991-01-01,8.921875,9.578125,8.171875,9.5625,2.9582679271698,148303200.0
1991-02-01,9.53125,10.359375,9.375,10.265625,3.175787925720215,125629600.0
1991-02-12,,,,,,
1991-03-01,10.140625,12.4375,10.125,11.984375,3.838207483291626,178516000.0
1991-04-01,11.953125,12.546875,11.640625,11.8125,3.78316068649292,151252000.0
1991-05-01,11.78125,12.03125,11.109375,11.328125,3.628031015396118,120423200.0
1991-05-15,,,,,,
1991-06-01,11.15625,11.25,10.25,10.4375,3.4627485275268555,147764800.0
1991-07-01,10.5625,11.453125,10.21875,11.453125,3.799691915512085,108432000.0
1991-08-01,11.453125,11.671875,10.625,11.609375,3.851529598236084,88289600.0
1991-08-14,,,,,,
1991-09-01,11.640625,11.703125,11.0,11.046875,3.7966115474700928,76906400.0
1991-10-01,11.0625,11.9375,10.59375,11.890625,4.086594581604004,117614400.0
1991-11-01,11.859375,12.515625,11.5625,12.046875,4.140293121337891,96635200.0
1991-11-13,,,,,,
1991-12-01,11.90625,14.53125,11.90625,14.3125,5.082402229309082,118049600.0
1992-01-01,14.0625,14.671875,12.78125,13.4375,4.7716898918151855,143755200.0
1992-02-01,13.34375,13.71875,12.0625,12.65625,4.494264125823975,112514400.0
1992-02-11,,,,,,
1992-03-01,12.59375,12.828125,11.75,12.1875,4.4618754386901855,108916800.0
1992-04-01,12.125,12.84375,11.109375,11.859375,4.3417463302612305,164190400.0
1992-05-01,11.796875,12.21875,11.5,12.109375,4.433274269104004,99303200.0
1992-05-13,,,,,,
1992-06-01,12.0625,12.25,10.75,11.1875,4.260826587677002,143238000.0
1992-06-10,,,,,,
1992-07-01,11.15625,12.40625,11.15625,12.3125,4.6892876625061035,84928800.0
1992-08-01,12.21875,12.8125,12.03125,12.34375,4.701188087463379,67834400.0
1992-08-12,,,,,,
1992-09-01,12.3125,13.21875,11.625,11.78125,4.5725908279418945,80918000.0
1992-10-01,11.84375,12.75,10.8125,12.5,4.851554870605469,92159200.0
1992-11-01,12.4375,12.96875,11.90625,12.59375,4.887942314147949,67899600.0
1992-11-10,,,,,,
1992-12-01,12.5625,13.6875,12.4375,12.625,4.993344783782959,82614400.0
1993-01-01,12.5625,12.59375,10.875,11.0,4.350640773773193,113930800.0
1993-02-01,11.09375,11.53125,9.40625,10.625,4.202323913574219,161588800.0
1993-02-09,,,,,,
1993-03-01,10.71875,11.1875,9.65625,10.65625,4.302897930145264,160477200.0
1993-04-01,10.65625,10.96875,9.59375,10.90625,4.403844833374023,115748800.0
1993-05-01,11.0,11.4375,10.5625,11.15625,4.504792213439941,92354000.0
1993-05-12,,,,,,
1993-06-01,11.125,11.4375,10.125,10.375,4.288727283477783,108939600.0
1993-07-01,10.3125,10.34375,9.03125,9.125,3.772010564804077,129280400.0
1993-08-01,9.15625,10.25,8.90625,10.1875,4.211216926574707,137678800.0
1993-08-11,,,,,,
1993-09-01,10.15625,10.4375,9.40625,9.84375,4.18846321105957,115323600.0
1993-10-01,9.8125,10.65625,9.625,10.53125,4.480989456176758,90568400.0
1993-11-01,10.53125,11.40625,10.46875,10.90625,4.640549182891846,90893200.0
1993-11-09,,,,,,
1993-12-01,10.9375,11.375,10.59375,11.21875,4.891481399536133,86742000.0
1994-01-01,11.1875,11.4375,10.03125,10.59375,4.618974685668945,98402800.0
1994-02-01,10.5625,10.78125,10.0,10.03125,4.373722553253174,85927200.0
1994-02-09,,,,,,
1994-03-01,10.03125,10.21875,9.0,9.4375,4.217748641967773,106467600.0
1994-04-01,9.125,10.46875,9.0625,10.34375,4.622765064239502,102322800.0
1994-05-01,10.34375,11.21875,10.125,11.0625,4.943983554840088,90794800.0
1994-05-11,,,,,,
1994-06-01,11.03125,11.0625,10.5625,10.71875,4.927681922912598,77763600.0
1994-07-01,10.78125,11.90625,10.5625,11.75,5.40177059173584,100252000.0
1994-08-01,11.75,12.65625,11.65625,12.53125,5.760933876037598,136172000.0
1994-08-10,,,,,,
1994-09-01,12.53125,13.09375,12.09375,12.9375,6.095385551452637,95790000.0
1994-10-01,12.96875,14.03125,12.375,13.65625,6.434019088745117,103617200.0
1994-11-01,13.5625,14.125,12.8125,13.34375,6.2867865562438965,109474000.0
1994-11-08,,,,,,
1994-12-01,13.40625,13.9375,13.03125,13.6875,6.592691898345947,87551600.0
1995-01-01,13.65625,14.875,13.40625,14.53125,6.999093055725098,91209600.0
1995-02-01,14.59375,14.59375,13.875,14.1875,6.833524703979492,86100400.0
1995-02-08,,,,,,
1995-03-01,14.15625,15.75,14.09375,14.875,7.311203479766846,101681200.0
1995-04-01,14.84375,16.28125,14.59375,16.25,7.987025737762451,91005200.0
1995-05-01,16.1875,16.90625,15.40625,16.53125,8.125266075134277,112846400.0
1995-05-10,,,,,,
1995-06-01,16.5,17.8125,16.34375,16.875,8.462191581726074,75038000.0
1995-07-01,16.8125,17.9375,16.09375,17.9375,8.994998931884766,87112400.0
1995-08-01,17.875,17.875,16.71875,17.25,8.65024185180664,65398800.0
1995-08-11,,,,,,
1995-09-01,17.25,18.71875,17.09375,18.53125,9.470694541931152,68438800.0
1995-10-01,18.40625,21.03125,18.28125,20.375,10.41297721862793,92542400.0
1995-11-01,20.3125,21.8125,19.90625,21.65625,11.067777633666992,72781200.0
1995-11-10,,,,,,
1995-12-01,21.71875,23.09375,21.28125,21.375,11.104151725769043,95390400.0
1996-01-01,21.375,24.125,20.78125,24.0,12.467832565307617,123280400.0
1996-02-01,24.0625,25.09375,23.09375,23.375,12.143147468566895,156618400.0
1996-02-15,,,,,,
1996-03-01,23.5625,24.5625,22.75,23.0625,12.145014762878418,122030800.0
1996-04-01,23.28125,23.8125,21.40625,23.125,12.177933692932129,118370000.0
1996-05-01,23.0,24.59375,22.09375,24.34375,12.819744110107422,98430800.0
1996-05-17,,,,,,
1996-06-01,24.25,25.375,23.75,24.75,13.247331619262695,83213200.0
1996-06-12,,,,,,
1996-07-01,24.875,25.0,22.0625,23.875,12.778986930847168,79048800.0
1996-08-01,23.875,26.6875,23.875,24.625,13.180418968200684,65203800.0
1996-08-16,,,,,,
1996-09-01,24.3125,25.875,24.125,25.625,13.814481735229492,62727600.0
1996-10-01,25.625,26.4375,23.5625,24.625,13.275376319885254,93335800.0
1996-11-01,24.875,27.0,24.4375,26.625,14.353588104248047,82136200.0
1996-11-15,,,,,,
1996-12-01,26.5625,26.875,24.0,24.875,13.511067390441895,84063000.0
1997-01-01,24.9375,29.25,24.3125,28.875,15.683699607849121,126250200.0
1997-02-01,29.0,31.375,28.3125,28.75,15.615814208984375,94141200.0
1997-02-13,,,,,,
1997-03-01,28.5,30.6875,26.375,26.4375,14.404715538024902,105654600.0
1997-04-01,26.4375,30.75,25.5625,30.5625,16.65226173400879,105851200.0
1997-05-01,30.3125,31.3125,29.125,30.0,16.345773696899414,89750200.0
1997-05-16,,,,,,
1997-06-01,30.125,33.25,29.375,32.1875,17.66351890563965,102868600.0
1997-07-01,32.1875,32.9375,30.0,31.0625,17.04615592956543,118577400.0
1997-08-01,31.0,31.25,27.96875,28.34375,15.554186820983887,126425600.0
1997-08-15,,,,,,
1997-09-01,28.375,30.28125,27.5625,28.84375,15.947498321533203,119904600.0
1997-10-01,29.0625,31.0625,26.5,28.6875,15.861104965209961,129242000.0
1997-11-01,29.21875,32.5,29.09375,31.46875,17.398847579956055,93621600.0
1997-11-14,,,,,,
1997-12-01,31.6875,33.65625,31.5625,32.9375,18.3455810546875,95667000.0
1998-01-01,32.53125,34.71875,31.6875,33.46875,18.6414737701416,102829400.0
1998-02-01,34.25,37.75,34.03125,37.6875,20.991241455078125,82795000.0
1998-02-12,,,,,,
1998-03-01,37.59375,38.21875,35.53125,36.71875,20.582557678222656,83395000.0
1998-04-01,36.65625,38.75,34.03125,35.75,20.03953742980957,101515800.0
1998-05-01,36.25,36.34375,34.0625,34.53125,19.356355667114258,69146400.0
1998-05-15,,,,,,
1998-06-01,34.9375,38.9375,33.53125,37.0,20.884868621826172,94330000.0
1998-07-01,36.875,39.6875,35.40625,38.625,21.80211639404297,109580400.0
1998-08-01,38.59375,38.90625,34.4375,34.5,19.473730087280273,87899800.0
1998-08-14,,,,,,
1998-09-01,34.5625,40.40625,34.0625,39.125,22.231096267700195,116230200.0
1998-10-01,38.5625,42.34375,36.3125,40.75,23.1544189453125,123883600.0
1998-11-01,40.71875,44.875,40.3125,40.625,23.083393096923828,85487400.0
1998-11-13,,,,,,
1998-12-01,40.53125,42.1875,38.09375,41.9375,23.97110939025879,131225200.0
1999-01-01,41.46875,43.15625,38.5,42.5625,24.328353881835938,109601400.0
1999-02-01,42.4375,44.0625,40.8125,42.6875,24.399805068969727,85177400.0
1999-02-11,,,,,,
1999-03-01,42.375,47.0,41.84375,46.75,26.882265090942383,98503400.0
1999-04-01,46.625,51.5,44.4375,48.75,28.03230857849121,104470800.0
1999-05-01,48.71875,49.0,43.90625,46.3125,26.630693435668945,97097400.0
1999-05-14,,,,,,
1999-06-01,46.21875,49.0,44.625,49.0,28.342689514160156,83921200.0
1999-07-01,48.6875,49.75,45.53125,45.53125,26.336299896240234,85808200.0
1999-08-01,45.96875,52.9375,45.15625,51.125,29.571849822998047,103887600.0
1999-08-13,,,,,,
1999-09-01,51.125,51.3125,45.0,45.9375,26.7292537689209,101840000.0
1999-10-01,46.0625,53.21875,46.0625,52.375,30.474992752075195,126584800.0
1999-11-01,52.625,53.4375,50.90625,51.875,30.184049606323242,91710200.0
1999-11-12,,,,,,
1999-12-01,51.625,51.71875,45.0625,46.625,27.27642250061035,142567200.0
2000-01-01,46.5625,48.46875,40.25,43.03125,25.17401123046875,153516200.0
2000-02-01,42.71875,43.15625,35.03125,36.0,21.060619354248047,186522000.0
2000-02-11,,,,,,
2000-03-01,36.125,41.125,33.0625,35.125,20.69731903076172,279805400.0
2000-04-01,35.3125,42.21875,35.0,41.25,24.306468963623047,170787400.0
2000-05-01,41.125,45.0,40.9375,44.75,26.368837356567383,120208200.0
2000-05-19,,,,,,
2000-06-01,44.625,50.9921875,41.25,50.9375,30.233444213867188,149885600.0
2000-07-01,50.625,50.71875,45.125,46.53125,27.618154525756836,134047800.0
2000-08-01,46.25,49.4375,45.625,45.9765625,27.288936614990234,100354600.0
2000-08-18,,,,,,
2000-09-01,46.25,48.90625,45.15625,46.96875,28.06298065185547,96535000.0
2000-10-01,47.09375,48.75,45.15625,46.0625,27.52152442932129,142009400.0
2000-11-01,46.0,51.5,44.59375,50.0,29.87411117553711,138432000.0
2000-11-17,,,,,,
2000-12-01,49.625,52.96875,47.625,52.53125,31.601213455200195,139899600.0
2001-01-01,52.0,52.34375,45.1875,46.564998626708984,28.012096405029297,168446600.0
2001-02-01,46.564998626708984,49.125,46.564998626708984,48.665000915527344,29.275394439697266,116971800.0
2001-02-15,,,,,,
2001-03-01,48.900001525878906,49.92499923706055,40.25,43.73500061035156,26.486875534057617,295296000.0
2001-04-01,43.75,48.349998474121094,42.595001220703125,48.2400016784668,29.2152042388916,209600800.0
2001-05-01,48.29999923706055,51.0,47.90999984741211,48.474998474121094,29.357519149780273,184641400.0
2001-05-18,,,,,,
2001-06-01,48.47999954223633,54.20000076293945,48.29999923706055,49.959999084472656,30.474811553955078,187599900.0
2001-06-13,,,,,,
2001-07-01,50.099998474121094,54.97999954223633,50.0,54.099998474121094,33.00014877319336,164167000.0
2001-08-01,54.099998474121094,57.599998474121094,52.29999923706055,52.709999084472656,32.15226745605469,163136000.0
2001-08-17,,,,,,
2001-09-01,55.349998474121094,57.15999984741211,50.20000076293945,55.400001525878906,33.90430450439453,176432200.0
2001-10-01,55.400001525878906,59.65999984741211,53.04999923706055,57.90999984741211,35.44039535522461,181677000.0
2001-11-01,57.58000183105469,60.970001220703125,57.5099983215332,58.25,35.64848327636719,144831900.0
2001-11-16,,,,,,
2001-12-01,57.81999969482422,60.18000030517578,55.41999816894531,59.099998474121094,36.277496337890625,169195500.0
2002-01-01,58.900001525878906,60.099998474121094,56.599998474121094,57.5099983215332,35.30149459838867,131885400.0
2002-02-01,57.2599983215332,60.970001220703125,54.70000076293945,60.900001525878906,37.382423400878906,131715000.0
2002-02-14,,,,,,
2002-03-01,60.900001525878906,65.88999938964844,60.599998474121094,64.94999694824219,39.992347717285156,154776300.0
2002-04-01,64.19999694824219,65.29000091552734,61.779998779296875,63.86000061035156,39.321197509765625,160057900.0
2002-05-01,63.970001220703125,64.62999725341797,59.15999984741211,61.349998474121094,37.77568435668945,162571200.0
2002-05-17,,,,,,
2002-06-01,61.099998474121094,61.7400016784668,52.0,52.2599983215332,32.28792190551758,185599200.0
2002-07-01,51.70000076293945,54.849998474121094,41.400001525878906,52.599998474121094,32.49797439575195,343494700.0
2002-08-01,53.0,56.5,49.75,54.310001373291016,33.554473876953125,159253500.0
2002-08-16,,,,,,
2002-09-01,53.880001068115234,56.25,51.45000076293945,54.08000183105469,33.53519821166992,146893100.0
2002-10-01,54.95000076293945,61.29999923706055,54.29999923706055,58.75,36.43109130859375,223245600.0
2002-11-01,58.33000183105469,61.2400016784668,56.29999923706055,57.02000045776367,35.358306884765625,134767300.0
2002-11-15,,,,,,
2002-12-01,56.59000015258789,57.06999969482422,53.0,53.709999084472656,33.4190673828125,143258800.0
2003-01-01,54.25,57.54999923706055,51.540000915527344,53.61000061035156,33.356849670410156,157116600.0
2003-02-01,53.5,53.95000076293945,49.099998474121094,52.45000076293945,32.635101318359375,139008100.0
2003-02-13,,,,,,
2003-03-01,53.15999984741211,58.68000030517578,51.5,57.869998931884766,36.15572738647461,160153900.0
2003-04-01,57.869998931884766,59.08000183105469,53.95000076293945,56.36000061035156,35.21229934692383,159363100.0
2003-05-01,56.36000061035156,57.52000045776367,52.54999923706055,54.349998474121094,33.95650100708008,161675800.0
2003-05-16,,,,,,
2003-06-01,54.349998474121094,55.56999969482422,50.75,51.70000076293945,32.44129943847656,216949500.0
2003-07-01,51.70000076293945,54.2400016784668,50.54999923706055,51.790000915527344,32.49777603149414,180959900.0
2003-08-01,50.95000076293945,52.25,49.0,49.58000183105469,31.11100959777832,154672000.0
2003-08-15,,,,,,
2003-09-01,49.779998779296875,52.5,49.09000015258789,49.52000045776367,31.220279693603516,197900400.0
2003-10-01,49.709999084472656,51.150001525878906,48.04999923706055,50.33000183105469,31.730958938598633,200619900.0
2003-11-01,50.08000183105469,52.88999938964844,48.2599983215332,49.29999923706055,31.081579208374023,164719400.0
2003-11-14,,,,,,
2003-12-01,50.29999923706055,51.7400016784668,48.790000915527344,51.65999984741211,32.7254753112793,185895500.0
2004-01-01,51.65999984741211,54.040000915527344,50.43000030517578,53.41999816894531,33.84040069580078,172050600.0
2004-02-01,53.40999984741211,54.900001525878906,52.790000915527344,53.90999984741211,34.15081787109375,126994200.0
2004-02-12,,,,,,
2004-03-01,54.4900016784668,54.4900016784668,49.25,50.720001220703125,32.27174377441406,172924700.0
2004-04-01,51.04999923706055,54.77000045776367,49.900001525878906,54.029998779296875,34.3777961730957,166843100.0
2004-05-01,54.220001220703125,56.38999938964844,54.02000045776367,55.709999084472656,35.44674301147461,140688600.0
2004-05-14,,,,,,
2004-06-01,55.22999954223633,57.279998779296875,54.5,55.70000076293945,35.62522888183594,125332400.0
2004-07-01,55.349998474121094,58.13999938964844,54.43000030517578,55.27000045776367,35.35020065307617,141900800.0
2004-08-01,55.0,58.099998474121094,54.369998931884766,58.099998474121094,37.160247802734375,107083900.0
2004-08-13,,,,,,
2004-09-01,58.0,58.79999923706055,56.09000015258789,56.33000183105469,36.21146774291992,110410900.0
2004-10-01,56.38999938964844,58.47999954223633,54.810001373291016,58.380001068115234,37.5293083190918,139893100.0
2004-11-01,58.349998474121094,61.4900016784668,57.810001373291016,60.31999969482422,38.77642822265625,123981200.0
2004-11-12,,,,,,
2004-12-01,60.33000183105469,64.25,59.599998474121094,63.41999816894531,40.96189498901367,173950700.0
2005-01-01,63.349998474121094,64.9800033569336,61.20000076293945,64.69999694824219,41.78862380981445,136191800.0
2005-02-01,64.61000061035156,66.88999938964844,64.5199966430664,65.5999984741211,42.369903564453125,107556700.0
2005-02-11,,,,,,
2005-03-01,66.47000122070312,68.68000030517578,66.12000274658203,67.16000366210938,43.56524658203125,158100100.0
2005-04-01,67.31999969482422,69.98999786376953,66.6500015258789,68.62999725341797,44.518802642822266,158634500.0
2005-05-01,68.68000030517578,68.87000274658203,66.76000213623047,67.0999984741211,43.52631759643555,125789400.0
2005-05-13,,,,,,
2005-06-01,67.0999984741211,67.61000061035156,64.43000030517578,65.0,42.37078857421875,162476400.0
2005-07-01,64.81999969482422,65.43000030517578,62.66999816894531,63.959999084472656,41.6928596496582,149908400.0
2005-08-01,64.25,65.3499984741211,61.650001525878906,63.38999938964844,41.3212776184082,138029400.0
2005-08-19,,,,,,
2005-09-01,63.18000030517578,65.33000183105469,62.849998474121094,63.279998779296875,41.462554931640625,139445700.0
2005-10-01,63.18000030517578,64.5999984741211,60.529998779296875,62.619998931884766,41.030094146728516,224158000.0
2005-11-01,62.47999954223633,63.779998779296875,60.0,61.75,40.46004867553711,241169500.0
2005-11-18,,,,,,
2005-12-01,61.849998474121094,62.060001373291016,59.7599983215332,60.099998474121094,39.585174560546875,189869600.0
2006-01-01,61.06999969482422,63.099998474121094,57.45000076293945,57.540000915527344,37.899017333984375,220695200.0
2006-02-01,57.66999816894531,59.709999084472656,56.70000076293945,57.650001525878906,37.971466064453125,183341700.0
2006-02-24,,,,,,
2006-03-01,57.619998931884766,61.099998474121094,57.45000076293945,59.220001220703125,39.22649383544922,181202600.0
2006-04-01,59.4900016784668,59.7599983215332,57.31999969482422,58.61000061035156,38.822452545166016,171133300.0
2006-05-01,58.709999084472656,60.93000030517578,58.189998626708984,60.220001220703125,39.88887023925781,196603700.0
2006-05-25,,,,,,
2006-06-01,60.25,62.0,58.970001220703125,59.91999816894531,39.9365234375,199396300.0
2006-07-01,60.130001068115234,63.0,59.68000030517578,62.54999923706055,41.689422607421875,134968800.0
2006-08-01,62.380001068115234,65.12999725341797,62.290000915527344,64.66000366210938,43.095726013183594,150477100.0
2006-08-25,,,,,,
2006-09-01,64.87000274658203,65.04000091552734,63.25,64.94000244140625,43.53350067138672,128522300.0
2006-10-01,65.0,69.41000366210938,64.5,67.4000015258789,45.18259048461914,189511300.0
2006-11-01,67.37999725341797,69.02999877929688,65.22000122070312,65.91000366210938,44.183753967285156,196072100.0
2006-11-24,,,,,,
2006-12-01,65.91000366210938,67.25,65.29000091552734,66.0199966430664,44.507442474365234,157532600.0
2007-01-01,66.12999725341797,68.22000122070312,65.9000015258789,66.80000305175781,45.03330612182617,175594400.0
2007-02-01,66.80000305175781,67.1500015258789,62.720001220703125,62.93000030517578,42.4243278503418,192375400.0
2007-02-23,,,,,,
2007-03-01,62.349998474121094,62.93000030517578,59.869998931884766,60.2599983215332,40.86088943481445,318147400.0
2007-04-01,60.2599983215332,65.44999694824219,60.029998779296875,64.22000122070312,43.546058654785156,248968100.0
2007-05-01,64.52999877929688,64.94000244140625,61.650001525878906,63.27000045776367,42.901885986328125,280281700.0
2007-05-24,,,,,,
2007-06-01,63.349998474121094,63.77000045776367,60.72999954223633,61.619998931884766,42.05659484863281,259962000.0
2007-07-01,61.939998626708984,63.880001068115234,59.720001220703125,60.5,41.29216766357422,290358700.0
2007-08-01,60.5099983215332,62.97999954223633,60.310001373291016,61.790000915527344,42.17262268066406,331077300.0
2007-08-24,,,,,,
2007-09-01,61.630001068115234,65.75,61.2599983215332,65.69999694824219,45.142879486083984,220556400.0
2007-10-01,65.66000366210938,66.80000305175781,63.54999923706055,65.16999816894531,44.778717041015625,232885800.0
2007-11-01,64.80000305175781,68.75,63.72999954223633,67.73999786376953,46.5445671081543,284874000.0
2007-11-23,,,,,,
2007-12-01,67.62000274658203,68.5,66.55000305175781,66.69999694824219,46.11503601074219,197170400.0
2008-01-01,66.55999755859375,68.8499984741211,61.720001220703125,63.13999938964844,43.65372085571289,339978400.0
2008-02-01,63.349998474121094,64.06999969482422,61.36000061035156,61.959999084472656,42.837894439697266,218925600.0
2008-02-22,,,,,,
2008-03-01,62.0,65.80999755859375,61.16999816894531,64.87000274658203,45.147308349609375,274621800.0
2008-04-01,65.12999725341797,67.73999786376953,64.51000213623047,67.08999633789062,46.69234848022461,221952400.0
2008-05-01,67.12999725341797,68.31999969482422,64.54000091552734,66.73999786376953,46.448753356933594,219962000.0
2008-05-22,,,,,,
2008-06-01,66.55000305175781,67.0999984741211,63.099998474121094,64.33999633789062,45.094024658203125,228287700.0
2008-07-01,63.75,69.25,63.7400016784668,68.47000122070312,47.988624572753906,308621600.0
2008-08-01,68.5,71.9000015258789,67.93000030517578,70.43000030517578,49.36233139038086,224063800.0
2008-08-22,,,,,,
2008-09-01,71.08999633789062,72.76000213623047,66.9000015258789,69.27999877929688,48.8716926574707,367504200.0
2008-10-01,69.06999969482422,69.06999969482422,52.060001373291016,61.34000015258789,43.27064514160156,640425500.0
2008-11-01,61.4900016784668,63.0099983215332,54.4900016784668,58.58000183105469,41.32368850708008,375653400.0
2008-11-21,,,,,,
2008-12-01,57.65999984741211,60.25,54.95000076293945,59.83000183105469,42.55622100830078,315194900.0
2009-01-01,60.130001068115234,61.0,55.09000015258789,57.689998626708984,41.034080505371094,349391400.0
2009-02-01,57.25,59.130001068115234,49.939998626708984,50.0,35.56428146362305,308348500.0
2009-02-20,,,,,,
2009-03-01,49.029998779296875,53.70000076293945,46.25,52.599998474121094,37.723899841308594,423319700.0
2009-04-01,52.29999923706055,54.130001068115234,50.119998931884766,52.36000061035156,37.551761627197266,306396300.0
2009-05-01,52.529998779296875,56.47999954223633,51.66999816894531,55.15999984741211,39.55987548828125,257261500.0
2009-05-21,,,,,,
2009-06-01,55.75,57.22999954223633,54.540000915527344,56.79999923706055,41.096492767333984,301738000.0
2009-07-01,56.81999969482422,62.470001220703125,55.709999084472656,60.88999938964844,44.05573272705078,270356100.0
2009-08-01,61.15999984741211,61.4900016784668,59.5,60.439998626708984,43.730140686035156,211869300.0
2009-08-21,,,,,,
2009-09-01,60.349998474121094,61.540000915527344,59.279998779296875,60.88999938964844,44.412784576416016,197460800.0
2009-10-01,60.93000030517578,62.7400016784668,58.779998779296875,59.04999923706055,43.0706787109375,280297200.0
2009-11-01,59.150001525878906,63.439998626708984,58.79999923706055,62.84000015258789,45.83509826660156,233417400.0
2009-11-20,,,,,,
2009-12-01,62.95000076293945,65.41000366210938,62.95000076293945,64.41000366210938,47.35190963745117,212286400.0
2010-01-01,64.70999908447266,65.94999694824219,62.220001220703125,62.86000061035156,46.2123908996582,245125300.0
2010-02-01,63.2599983215332,64.69999694824219,61.88999938964844,63.0,46.315330505371094,213341500.0
2010-02-19,,,,,,
2010-03-01,63.27000045776367,65.48999786376953,63.02000045776367,65.19999694824219,48.299434661865234,249947500.0
2010-04-01,65.37000274658203,66.19999694824219,64.20999908447266,64.30000305175781,47.632728576660156,235860700.0
2010-05-01,65.16000366210938,65.62000274658203,58.189998626708984,58.29999923706055,43.187984466552734,357775800.0
2010-05-27,,,,,,
2010-06-01,58.209999084472656,60.150001525878906,57.54999923706055,59.060001373291016,44.15061569213867,357343400.0
2010-07-01,59.06999969482422,61.72999954223633,56.86000061035156,58.09000015258789,43.425479888916016,310708000.0
2010-08-01,58.5,60.25,56.9900016784668,57.02000045776367,42.6255989074707,239384600.0
2010-08-27,,,,,,
2010-09-01,57.66999816894531,62.70000076293945,57.439998626708984,61.959999084472656,46.75532913208008,209239500.0
2010-10-01,62.09000015258789,64.2300033569336,61.29999923706055,63.7400016784668,48.098533630371094,208721800.0
2010-11-01,63.880001068115234,64.91999816894531,61.25,61.54999923706055,46.445953369140625,221392600.0
2010-11-26,,,,,,
2010-12-01,62.18000030517578,63.15999984741211,61.560001373291016,61.849998474121094,47.073978424072266,212152900.0
2011-01-01,62.630001068115234,63.540000915527344,59.689998626708984,59.77000045776367,45.49089050292969,257253400.0
2011-02-01,59.70000076293945,61.45000076293945,59.36000061035156,61.439998626708984,46.761924743652344,199932400.0
2011-02-25,,,,,,
2011-03-01,61.25,61.5,57.5,59.25,45.50293731689453,254534800.0
2011-04-01,59.630001068115234,65.97000122070312,59.060001373291016,65.72000122070312,50.471797943115234,270819500.0
2011-05-01,65.91999816894531,67.37000274658203,64.80000305175781,67.29000091552734,51.677513122558594,270892200.0
2011-05-26,,,,,,
2011-06-01,67.0199966430664,67.36000061035156,64.69000244140625,66.5199966430664,51.52925109863281,231770300.0
2011-07-01,66.4800033569336,68.05000305175781,64.12999725341797,64.79000091552734,50.189109802246094,202614600.0
2011-08-01,65.27999877929688,66.2300033569336,59.08000183105469,65.80000305175781,50.97151184082031,491488700.0
2011-08-26,,,,,,
2011-09-01,65.66000366210938,66.13999938964844,61.0,63.689998626708984,49.77655792236328,264862000.0
2011-10-01,63.650001525878906,65.86000061035156,60.83000183105469,64.38999938964844,50.323631286621094,251590300.0
2011-11-01,63.68000030517578,65.48999786376953,61.04999923706055,64.72000122070312,50.58154296875,236914800.0
2011-11-25,,,,,,
2011-12-01,64.68000030517578,66.31999969482422,62.849998474121094,65.58000183105469,51.72932434082031,210285200.0
2012-01-01,65.58999633789062,66.0,64.33999633789062,65.91000366210938,51.989627838134766,212136100.0
2012-02-01,65.97000122070312,66.31999969482422,64.0199966430664,65.08000183105469,51.334930419921875,192370000.0
2012-02-24,,,,,,
2012-03-01,65.11000061035156,66.18000030517578,64.12000274658203,65.95999908447266,52.48865509033203,208163900.0
2012-04-01,66.04000091552734,66.30000305175781,62.7599983215332,65.0999984741211,51.804290771484375,229665900.0
2012-05-01,64.91000366210938,65.48999786376953,62.0,62.43000030517578,49.679595947265625,278010100.0
2012-05-24,,,,,,
2012-06-01,62.040000915527344,67.69999694824219,61.709999084472656,67.55999755859375,54.28523635864258,451142100.0
2012-07-01,67.41999816894531,69.69999694824219,67.0,69.22000122070312,55.61907196044922,273347200.0
2012-08-01,69.4800033569336,69.75,66.8499984741211,67.43000030517578,54.180789947509766,224101500.0
2012-08-24,,,,,,
2012-09-01,67.48999786376953,69.63999938964844,66.97000122070312,68.91000366210938,55.873138427734375,200224200.0
2012-10-01,68.91999816894531,72.73999786376953,67.80000305175781,70.81999969482422,57.421783447265625,267146700.0
2012-11-01,71.0999984741211,71.9000015258789,68.51000213623047,69.7300033569336,56.537994384765625,211662500.0
2012-11-23,,,,,,
2012-12-01,69.80000305175781,71.62000274658203,69.18000030517578,70.0999984741211,57.340614318847656,232603000.0
2013-01-01,71.0199966430664,74.80000305175781,70.30000305175781,73.91999816894531,60.46531295776367,209813800.0
2013-02-01,74.13999938964844,77.0199966430664,73.55999755859375,76.11000061035156,62.256717681884766,177978400.0
2013-02-22,,,,,,
2013-03-01,75.79000091552734,81.58999633789062,75.7300033569336,81.52999877929688,67.22362518310547,193396300.0
2013-04-01,81.38999938964844,85.88999938964844,80.30999755859375,85.2300033569336,70.27437591552734,218722300.0
2013-05-01,84.5,89.98999786376953,83.87999725341797,84.18000030517578,69.40860748291016,220724300.0
2013-05-23,,,,,,
2013-06-01,84.27999877929688,87.81999969482422,82.12000274658203,85.86000061035156,71.32599639892578,210552200.0
2013-07-01,85.72000122070312,94.41999816894531,85.5,93.5,77.6727066040039,200315600.0
2013-08-01,94.16000366210938,94.4000015258789,85.8499984741211,86.41000366210938,71.78289031982422,204260800.0
2013-08-23,,,,,,
2013-09-01,86.88999938964844,90.72000122070312,86.0,86.69000244140625,72.55806732177734,158876500.0
2013-10-01,86.58999633789062,93.44999694824219,85.5,92.61000061035156,77.51301574707031,173024000.0
2013-11-01,92.37999725341797,95.98999786376953,92.27999877929688,94.66000366210938,79.22881317138672,131026200.0
2013-11-22,,,,,,
2013-12-01,94.41000366210938,94.79000091552734,89.7699966430664,91.58999633789062,77.1944580078125,151086000.0
2014-01-01,91.13999938964844,95.37999725341797,88.1500015258789,88.47000122070312,74.56483459472656,192804300.0
2014-02-01,88.75,92.98999786376953,86.08999633789062,92.12000274658203,77.64114379882812,162234700.0
2014-02-21,,,,,,
2014-03-01,91.12999725341797,98.5999984741211,90.83000183105469,98.2300033569336,83.38655853271484,181324400.0
2014-04-01,98.30999755859375,101.9800033569336,96.05000305175781,101.29000091552734,85.98416137695312,180242400.0
2014-05-01,100.7699966430664,101.54000091552734,98.87999725341797,101.45999908447266,86.12847900390625,124656300.0
2014-05-22,,,,,,
2014-06-01,101.54000091552734,106.0,101.01000213623047,104.62000274658203,89.429931640625,123927200.0
2014-07-01,105.1500015258789,106.73999786376953,100.05000305175781,100.08999633789062,85.55766296386719,148795100.0
2014-08-01,99.76000213623047,104.41999816894531,98.80000305175781,103.7300033569336,88.6691665649414,120163600.0
2014-08-22,,,,,,
2014-09-01,103.30000305175781,108.7699966430664,103.0199966430664,106.58999633789062,91.73018646240234,130571800.0
2014-10-01,105.9800033569336,108.18000030517578,95.0999984741211,107.77999877929688,92.75428009033203,232630100.0
2014-11-01,107.83000183105469,109.48999786376953,106.5999984741211,108.25,93.15878295898438,125669200.0
2014-11-21,,,,,,
2014-12-01,107.88999938964844,108.98999786376953,102.5,104.56999969482422,90.57789611816406,175446100.0
2015-01-01,105.05000305175781,106.5,100.08999633789062,100.13999938964844,86.74066162109375,195025900.0
2015-02-01,100.48999786376953,103.33000183105469,97.1500015258789,102.51000213623047,88.79354095458984,191367400.0
2015-02-20,,,,,,
2015-03-01,102.51000213623047,103.41000366210938,98.22000122070312,100.5999984741211,87.74909210205078,177464600.0
2015-04-01,100.45999908447266,102.13999938964844,98.04000091552734,99.19999694824219,86.52792358398438,171578200.0
2015-05-01,99.62000274658203,104.4800033569336,98.66000366210938,100.13999938964844,87.34784698486328,143779800.0
2015-05-21,,,,,,
2015-06-01,100.27999877929688,100.83999633789062,97.01000213623047,97.45999908447266,85.63011932373047,170023700.0
2015-07-01,98.30000305175781,101.36000061035156,96.63999938964844,100.20999908447266,88.04631042480469,151835800.0
2015-08-01,100.0,101.0,81.79000091552734,93.9800033569336,82.57252502441406,194654400.0
2015-08-21,,,,,,
2015-09-01,92.29000091552734,96.19000244140625,89.9000015258789,93.3499984741211,82.64643096923828,202039800.0
2015-10-01,93.43000030517578,102.12000274658203,91.76000213623047,101.02999877929688,89.44583129882812,191690900.0
2015-11-01,101.18000030517578,103.0,99.73999786376953,101.23999786376953,89.63175964355469,126172600.0
2015-11-20,,,,,,
2015-12-01,101.7300033569336,105.48999786376953,100.30999755859375,102.72000122070312,91.61245727539062,162039600.0
2016-01-01,101.70999908447266,104.75,94.27999877929688,104.44000244140625,93.14647674560547,211278000.0
2016-02-01,103.61000061035156,106.91999816894531,99.77999877929688,105.20999908447266,93.83318328857422,201552000.0
2016-02-19,,,,,,
2016-03-01,105.9000015258789,109.55999755859375,105.44000244140625,108.19999694824219,97.19921875,172970400.0
2016-04-01,108.0,114.19000244140625,107.69000244140625,112.08000183105469,100.68474578857422,158186600.0
2016-05-01,112.22000122070312,115.0,111.69999694824219,112.69000244140625,101.23273468017578,141096900.0
2016-05-20,,,,,,
2016-06-01,112.69000244140625,121.41000366210938,112.06999969482422,121.30000305175781,109.74532318115234,167571400.0
2016-07-01,121.30000305175781,126.06999969482422,120.79000091552734,125.2300033569336,113.30095672607422,131996000.0
2016-08-01,125.30999755859375,125.9000015258789,118.33000183105469,119.33999633789062,107.97203826904297,138570700.0
2016-08-19,,,,,,
2016-09-01,119.19000244140625,119.97000122070312,117.04000091552734,118.12999725341797,107.59030151367188,130378400.0
2016-10-01,118.0,120.19999694824219,112.98999786376953,115.98999786376953,105.64122009277344,140054500.0
2016-11-01,114.76000213623047,122.5,111.30000305175781,111.30000305175781,101.36968231201172,171310900.0
2016-11-18,,,,,,
2016-12-01,111.36000061035156,117.30000305175781,109.31999969482422,115.20999908447266,105.65591430664062,138044800.0
2017-01-01,115.77999877929688,117.0,110.76000213623047,113.25,103.85845947265625,143312500.0
2017-02-01,112.4800033569336,122.87999725341797,112.47000122070312,122.20999908447266,112.07542419433594,133814500.0
2017-02-24,,,,,,
2017-03-01,122.48999786376953,129.0,122.38999938964844,124.55000305175781,114.9771728515625,166544900.0
2017-04-01,124.7300033569336,125.80999755859375,120.94999694824219,123.47000122070312,113.98018646240234,106205200.0
2017-05-01,123.4000015258789,128.8000030517578,122.33999633789062,128.25,118.3927993774414,112541500.0
2017-05-25,,,,,,
2017-06-01,128.32000732421875,137.0,128.1199951171875,132.2899932861328,122.93212890625,145558900.0
2017-07-01,132.7899932861328,137.0800018310547,129.57000732421875,132.72000122070312,123.33171081542969,107885800.0
2017-08-01,133.1699981689453,134.97000122070312,130.89999389648438,132.3699951171875,123.00647735595703,107061100.0
2017-08-25,,,,,,
2017-09-01,132.60000610351562,135.7899932861328,129.0500030517578,130.00999450683594,121.58192443847656,116205400.0
2017-10-01,130.16000366210938,144.35000610351562,130.02000427246094,139.41000366210938,130.37257385253906,123841100.0
2017-11-01,139.8300018310547,141.8699951171875,136.60000610351562,139.3300018310547,130.29774475097656,93742200.0
2017-11-27,,,,,,
2017-12-01,139.57000732421875,143.8000030517578,138.60000610351562,139.72000122070312,131.46261596679688,114023200.0
2018-01-01,139.66000366210938,148.32000732421875,138.10000610351562,138.19000244140625,130.02304077148438,170954200.0
2018-02-01,137.52999877929688,140.6699981689453,122.1500015258789,129.8800048828125,122.20417022705078,177033700.0
2018-02-26,,,,,,
2018-03-01,129.11000061035156,135.6999969482422,124.9000015258789,128.14999389648438,121.34849548339844,151837800.0
2018-04-01,127.81999969482422,132.8800048828125,123.54000091552734,126.48999786376953,119.776611328125,144094200.0
2018-05-01,126.31999969482422,127.61000061035156,118.62000274658203,119.62000274658203,113.27122497558594,177634800.0
2018-05-25,,,,,,
2018-06-01,120.37999725341797,124.8499984741211,119.97000122070312,121.33999633789062,115.75209045410156,138683200.0
2018-07-01,121.33999633789062,132.63999938964844,120.11000061035156,132.52000427246094,126.41724395751953,145735900.0
2018-08-01,132.38999938964844,137.42999267578125,128.92999267578125,134.69000244140625,128.48731994628906,123996800.0
2018-08-27,,,,,,
2018-09-01,134.69000244140625,143.1300048828125,133.44000244140625,138.1699981689453,132.68544006347656,122168800.0
2018-10-01,138.25999450683594,141.42999267578125,132.22999572753906,139.99000549316406,134.43319702148438,167964600.0
2018-11-01,140.07000732421875,148.75,139.0,146.89999389648438,141.06890869140625,152746600.0
2018-11-26,,,,,,
2018-12-01,145.57000732421875,148.99000549316406,121.0,129.0500030517578,124.71664428710938,289169400.0
2019-01-01,128.1300048828125,135.19000244140625,125.0,133.0800018310547,128.611328125,174392900.0
2019-02-01,134.02000427246094,137.9499969482422,131.25999450683594,136.63999938964844,132.05177307128906,119453700.0
2019-02-25,,,,,,
2019-03-01,137.22000122070312,140.0,135.74000549316406,139.7899932861328,135.99197387695312,137354500.0
2019-04-01,139.99000549316406,141.4499969482422,134.4199981689453,141.1999969482422,137.36367797851562,124329800.0
2019-05-01,140.9499969482422,142.35000610351562,128.52000427246094,131.14999389648438,127.58674621582031,159034100.0
2019-05-24,,,,,,
2019-06-01,131.5,144.97999572753906,131.0399932861328,139.27999877929688,136.4229736328125,150883000.0
2019-07-01,140.1999969482422,142.47000122070312,127.83999633789062,130.22000122070312,127.54882049560547,159848500.0
2019-08-01,130.25999450683594,134.10000610351562,126.62999725341797,128.36000061035156,125.72696685791016,175116200.0
2019-08-26,,,,,,
2019-09-01,127.98999786376953,132.77999877929688,126.33999633789062,129.3800048828125,127.67564392089844,122925900.0
2019-10-01,130.02000427246094,137.49000549316406,126.0999984741211,132.0399932861328,130.30059814453125,206653800.0
2019-11-01,132.0500030517578,138.6300048828125,129.67999267578125,137.49000549316406,135.67881774902344,127753600.0
2019-11-25,,,,,,
2019-12-01,137.72000122070312,147.83999633789062,136.16000366210938,145.8699951171875,144.9457244873047,127761600.0
2020-01-01,145.8699951171875,151.19000244140625,141.3800048828125,148.8699951171875,147.9267120361328,150462900.0
2020-02-01,149.4199981689453,154.5,130.82000732421875,134.47999572753906,133.62789916992188,147293500.0
2020-02-24,,,,,,
2020-03-01,134.77999877929688,143.63999938964844,109.16000366210938,119.4000015258789,119.4000015258789,291223700.0
2020-03-26,120.56999969482422,126.1500015258789,120.37999725341797,123.5199966430664,123.5199966430664,6519930.0
