Date,Open,High,Low,Close,Adj Close,Volume
1987-11-01,6.154910087585449,6.56984806060791,5.670815944671631,5.774550437927246,0.4092373549938202,1721200.0
1987-11-24,,,,,,
1987-12-01,5.739972114562988,6.327800750732422,5.428769111633301,5.878284931182861,0.4391331672668457,2163000.0
1987-12-23,,,,,,
1988-01-01,5.809128761291504,6.36237907409668,5.601659774780273,6.189488410949707,0.46844688057899475,1841000.0
1988-02-01,6.2586445808410645,6.2586445808410645,5.670815944671631,5.947441101074219,0.4501279592514038,1187600.0
1988-02-24,,,,,,
1988-03-01,5.982019424438477,6.224066257476807,5.705394268035889,5.947441101074219,0.4774209260940552,2737600.0
1988-03-25,,,,,,
1988-04-01,5.878284931182861,6.085753917694092,5.567081451416016,5.878284931182861,0.478393018245697,2031600.0
1988-05-01,5.878284931182861,5.947441101074219,5.670815944671631,5.8437066078186035,0.4755789637565613,2502000.0
1988-05-24,,,,,,
1988-06-01,5.8437066078186035,6.154910087585449,5.601659774780273,5.8437066078186035,0.505332887172699,3832600.0
1988-06-24,,,,,,
1988-07-01,5.8437066078186035,5.982019424438477,5.636238098144531,5.739972114562988,0.5035996437072754,2430200.0
1988-08-01,5.774550437927246,5.878284931182861,5.497925281524658,5.8437066078186035,0.5127009749412537,2834800.0
1988-08-24,,,,,,
1988-09-01,5.8437066078186035,5.947441101074219,5.739972114562988,5.8437066078186035,0.5454013347625732,2737800.0
1988-09-26,,,,,,
1988-10-01,5.878284931182861,6.085753917694092,5.774550437927246,5.8437066078186035,0.5531653165817261,3354000.0
1988-11-01,5.8437066078186035,5.947441101074219,5.532503604888916,5.567081451416016,0.5269798040390015,2534600.0
1988-11-22,,,,,,
1988-12-01,5.567081451416016,5.670815944671631,5.394190788269043,5.497925281524658,0.5542858839035034,2427200.0
1988-12-23,,,,,,
1989-01-01,5.497925281524658,5.982019424438477,5.428769111633301,5.982019424438477,0.6122750043869019,4468200.0
1989-02-01,5.982019424438477,6.2586445808410645,5.982019424438477,6.120331764221191,0.6264313459396362,4021200.0
1989-02-22,,,,,,
1989-03-01,6.085753917694092,6.56984806060791,5.982019424438477,6.5006914138793945,0.71160888671875,3104800.0
1989-03-27,,,,,,
1989-04-01,6.5006914138793945,6.742738723754883,6.36237907409668,6.431535243988037,0.7132923603057861,3688800.0
1989-05-01,6.431535243988037,7.192254543304443,6.396956920623779,7.05394172668457,0.7823209762573242,3726600.0
1989-05-23,,,,,,
1989-06-01,7.05394172668457,7.710926532745361,6.950207233428955,7.192254543304443,0.8474215865135193,2906000.0
1989-06-26,,,,,,
1989-07-01,7.192254543304443,8.091286659240723,7.1576762199401855,7.814661026000977,0.9320644736289978,3491000.0
1989-08-01,7.814661026000977,7.883817195892334,7.503458023071289,7.814661026000977,0.9320644736289978,4913400.0
1989-08-23,,,,,,
1989-09-01,7.849239349365234,8.091286659240723,7.745504856109619,7.918395519256592,0.9973613023757935,3769600.0
1989-09-25,,,,,,
1989-10-01,7.95297384262085,8.229598999023438,7.192254543304443,7.365145206451416,0.9380729794502258,2651600.0
1989-11-01,7.468879699707031,7.607192039489746,7.123098373413086,7.468879699707031,0.9512847065925598,1641400.0
1989-11-21,,,,,,
1989-12-01,7.503458023071289,7.849239349365234,6.984785556793213,7.295989036560059,0.9821060299873352,3598800.0
1989-12-22,,,,,,
1990-01-01,7.365145206451416,7.641770362854004,6.466113567352295,7.1576762199401855,0.9756126403808594,3232000.0
1990-02-01,7.123098373413086,7.261410713195801,6.9156293869018555,7.088520050048828,0.9661862850189209,1682600.0
1990-02-28,,,,,,
1990-03-01,7.088520050048828,7.1576762199401855,6.60442590713501,6.639004230499268,0.966075599193573,1893800.0
1990-03-26,,,,,,
1990-04-01,6.60442590713501,7.261410713195801,6.431535243988037,7.192254543304443,1.0600154399871826,4282400.0
1990-05-01,7.192254543304443,7.330566883087158,6.81189489364624,7.261410713195801,1.0702083110809326,3622400.0
1990-05-22,,,,,,
1990-06-01,7.295989036560059,8.091286659240723,7.295989036560059,7.607192039489746,1.1942296028137207,3437400.0
1990-06-25,,,,,,
1990-07-01,7.5726141929626465,7.607192039489746,6.708160400390625,6.742738723754883,1.0716516971588135,1693600.0
1990-08-01,6.708160400390625,6.846473217010498,5.809128761291504,5.947441101074219,0.9452515244483948,4229800.0
1990-08-22,,,,,,
1990-09-01,5.947441101074219,6.36237907409668,5.290456295013428,5.532503604888916,0.9486814737319946,3534000.0
1990-09-24,,,,,,
1990-10-01,5.497925281524658,5.878284931182861,4.6680498123168945,4.77178430557251,0.8320374488830566,2910400.0
1990-11-01,4.806362152099609,6.154910087585449,4.737205982208252,6.120331764221191,1.0671783685684204,3110800.0
1990-11-20,,,,,,
1990-12-01,6.085753917694092,6.673582077026367,5.774550437927246,6.431535243988037,1.2121756076812744,3266600.0
1990-12-24,,,,,,
1991-01-01,6.535269737243652,7.019363880157471,5.739972114562988,6.950207233428955,1.3291605710983276,4565800.0
1991-02-01,6.9156293869018555,7.95297384262085,6.846473217010498,7.883817195892334,1.5077049732208252,5382000.0
1991-02-27,,,,,,
1991-03-01,7.849239349365234,8.575380325317383,7.503458023071289,8.471646308898926,1.7233953475952148,5811400.0
1991-03-22,,,,,,
1991-04-01,8.471646308898926,9.54356861114502,8.437067985534668,9.197787284851074,1.8939085006713867,7787200.0
1991-05-01,9.128630638122559,9.716459274291992,8.229598999023438,9.716459274291992,2.0007076263427734,5097800.0
1991-05-21,,,,,,
1991-06-01,9.785615921020508,10.304287910461426,9.197787284851074,9.370677947998047,2.035709857940674,7600200.0
1991-06-24,,,,,,
1991-07-01,9.405256271362305,10.511756896972656,9.370677947998047,10.477178573608398,2.299407958984375,5187000.0
1991-08-01,10.477178573608398,11.341631889343262,10.096818923950195,10.650069236755371,2.3373517990112305,6235000.0
1991-08-27,,,,,,
1991-09-01,10.684647560119629,11.58367919921875,10.200552940368652,11.410788536071777,2.616215467453003,4270400.0
1991-09-24,,,,,,
1991-10-01,11.37621021270752,11.652835845947266,10.995850563049316,11.479944229125977,2.656358242034912,7699000.0
1991-11-01,11.479944229125977,12.309820175170898,10.408021926879883,10.511756896972656,2.432328939437866,5739200.0
1991-11-26,,,,,,
1991-12-01,10.511756896972656,12.309820175170898,9.923928260803223,12.309820175170898,2.977405548095703,5945200.0
1991-12-24,,,,,,
1992-01-01,12.240663528442383,12.448132514953613,11.272476196289062,12.171507835388184,2.9697139263153076,7730000.0
1992-02-01,12.206086158752441,14.10788345336914,12.171507835388184,13.485477447509766,3.2903082370758057,5736400.0
1992-02-26,,,,,,
1992-03-01,13.485477447509766,13.520055770874023,12.033195495605469,12.413554191589355,3.1420655250549316,16067600.0
1992-03-25,,,,,,
1992-04-01,12.448132514953613,13.433609962463379,12.06777286529541,13.070539474487305,3.3364176750183105,8430200.0
1992-04-15,,,,,,
1992-05-01,13.018671989440918,14.211618423461914,13.018671989440918,13.744812965393066,3.5085349082946777,8121200.0
1992-05-27,,,,,,
1992-06-01,13.744812965393066,13.796680450439453,12.344398498535156,13.433609962463379,3.558391809463501,7924600.0
1992-06-24,,,,,,
1992-07-01,13.485477447509766,14.419087409973145,13.329875946044922,14.211618423461914,3.797111749649048,10830600.0
1992-08-01,14.211618423461914,14.419087409973145,12.5,13.174273490905762,3.5199503898620605,8090600.0
1992-08-26,,,,,,
1992-09-01,13.122406959533691,14.004149436950684,12.863070487976074,13.796680450439453,3.8347179889678955,9007200.0
1992-09-24,,,,,,
1992-10-01,13.796680450439453,14.574688911437988,13.589211463928223,14.211618423461914,3.9814186096191406,6766200.0
1992-11-01,14.211618423461914,15.24896240234375,14.05601692199707,15.24896240234375,4.272031307220459,5519800.0
1992-11-24,,,,,,
1992-12-01,15.19709587097168,16.234439849853516,15.04149341583252,16.0269718170166,4.649725437164307,9539200.0
1992-12-24,,,,,,
1993-01-01,16.078838348388672,16.75311279296875,15.404563903808594,16.649377822875977,4.863138198852539,9217400.0
1993-02-01,16.545642852783203,17.53112030029297,15.975103378295898,17.323652267456055,5.060086250305176,10403000.0
1993-02-24,,,,,,
1993-03-01,17.427385330200195,19.08713722229004,17.323652267456055,18.568464279174805,5.608877658843994,10373000.0
1993-03-23,,,,,,
1993-03-25,,,,,,
1993-04-01,18.672199249267578,18.77593421936035,15.04149341583252,16.130704879760742,4.907090663909912,11440400.0
1993-05-01,16.234439849853516,16.701244354248047,14.315352439880371,16.39004135131836,4.985983371734619,9993200.0
1993-05-25,,,,,,
1993-06-01,16.39004135131836,17.634855270385742,14.834024429321289,17.323652267456055,5.365270614624023,9376200.0
1993-06-24,,,,,,
1993-07-01,17.323652267456055,17.4792537689209,16.078838348388672,16.234439849853516,5.067080497741699,5820600.0
1993-08-01,16.182573318481445,16.85684585571289,15.612032890319824,16.130704879760742,5.034702301025391,8138000.0
1993-08-25,,,,,,
1993-09-01,16.078838348388672,16.80497932434082,15.508298873901367,15.715767860412598,4.991276741027832,11652200.0
1993-09-24,,,,,,
1993-10-01,15.767634391784668,16.234439849853516,14.05601692199707,14.315352439880371,4.584029674530029,30589200.0
1993-11-01,14.315352439880371,14.834024429321289,13.589211463928223,14.470953941345215,4.633855819702148,18125200.0
1993-11-23,,,,,,
1993-12-01,14.522821426391602,14.98962688446045,14.419087409973145,14.678422927856445,4.793376922607422,10033600.0
1993-12-27,,,,,,
1994-01-01,14.626556396484375,15.663900375366211,14.419087409973145,15.352697372436523,5.0575737953186035,16144800.0
1994-02-01,15.352697372436523,15.819501876831055,14.315352439880371,15.767634391784668,5.194264888763428,27845800.0
1994-02-22,,,,,,
1994-03-01,16.0269718170166,16.5,14.75,15.0,5.050332069396973,39597800.0
1994-03-02,,,,,,
1994-04-01,14.875,16.6875,14.75,15.8125,5.323891639709473,20394800.0
1994-05-01,15.875,16.4375,14.75,16.25,5.471192359924316,17995200.0
1994-05-24,,,,,,
1994-06-01,16.25,16.875,15.625,15.9375,5.477262020111084,16643800.0
1994-07-01,16.0,16.25,15.5625,16.25,5.584659576416016,10642400.0
1994-08-01,16.1875,16.75,15.875,16.4375,5.6490960121154785,11038800.0
1994-08-25,,,,,,
1994-09-01,16.375,16.4375,15.0625,15.25,5.343453407287598,12448600.0
1994-10-01,15.3125,15.3125,13.75,14.3125,5.014962673187256,18000800.0
1994-11-01,14.1875,14.3125,12.0625,12.1875,4.2703857421875,23010600.0
1994-11-25,,,,,,
1994-12-01,12.25,12.875,11.8125,12.5,4.494363784790039,21714200.0
1995-01-01,12.5,13.9375,12.375,13.9375,5.011216163635254,19913800.0
1995-02-01,13.9375,14.625,13.75,14.5,5.213461875915527,13500200.0
1995-02-22,,,,,,
1995-03-01,14.5,14.75,13.875,14.125,5.2139105796813965,22554800.0
1995-04-01,14.125,14.5,13.0,13.375,4.9370646476745605,19841200.0
1995-05-01,13.375,15.3125,13.375,15.25,5.629178524017334,27755800.0
1995-05-23,,,,,,
1995-05-24,,,,,,
1995-06-01,15.3125,16.0625,14.6875,15.6875,6.084675312042236,28734000.0
1995-07-01,15.8125,16.125,15.1875,16.0,6.20588493347168,13282000.0
1995-08-01,16.0,16.0625,15.3125,15.5,6.011951923370361,13396000.0
1995-08-22,,,,,,
1995-08-25,,,,,,
1995-09-01,15.5,17.5625,15.4375,17.125,6.963217735290527,27780600.0
1995-10-01,17.0625,18.125,16.625,16.875,6.86156702041626,23947200.0
1995-11-01,16.9375,18.4375,16.8125,18.4375,7.496894836425781,18370800.0
1995-11-24,,,,,,
1995-12-01,18.4375,18.625,17.625,18.125,7.521848678588867,14787200.0
1996-01-01,17.9375,18.4375,16.6875,18.3125,7.599660873413086,18977400.0
1996-02-01,18.3125,18.875,18.0,18.8125,7.8071608543396,17560400.0
1996-02-23,,,,,,
1996-03-01,18.875,19.5625,17.5,19.3125,8.179327964782715,18653800.0
1996-04-01,19.375,19.6875,18.4375,19.3125,8.179327964782715,13387800.0
1996-05-01,19.1875,20.0625,18.375,19.375,8.205803871154785,17641000.0
1996-05-31,,,,,,
1996-06-01,19.25,20.125,19.0,19.375,8.366782188415527,16400200.0
1996-07-01,19.4375,19.625,18.125,19.3125,8.339791297912598,14451800.0
1996-08-01,19.25,20.5,19.25,20.0625,8.663664817810059,17142200.0
1996-08-23,,,,,,
1996-09-01,19.9375,22.1875,19.8125,22.0,9.680336952209473,21826200.0
1996-10-01,21.9375,23.6875,21.84375,23.3125,10.257854461669922,18866000.0
1996-11-01,23.375,26.4375,22.75,26.1875,11.522895812988281,18658200.0
1996-11-22,,,,,,
1996-11-29,,,,,,
1996-12-01,26.0625,27.125,24.375,25.25,11.452253341674805,26627600.0
1997-01-01,25.3125,26.5,24.625,26.1875,11.877460479736328,20582400.0
1997-02-01,26.1875,28.1875,25.75,26.75,12.132586479187012,18715200.0
1997-02-28,,,,,,
1997-03-01,26.6875,28.0,24.3125,24.375,11.228056907653809,19968600.0
1997-04-01,24.125,26.125,23.9375,26.0625,12.005383491516113,20165200.0
1997-05-01,26.0,27.4375,25.875,27.1875,12.523599624633789,16567600.0
1997-05-22,,,,,,
1997-06-01,27.25,29.21875,26.875,27.9375,13.074355125427246,14346400.0
1997-07-01,27.875,31.34375,27.625,31.09375,14.551434516906738,20281000.0
1997-08-01,30.90625,31.21875,28.875,30.3125,14.185824394226074,20077800.0
1997-08-28,,,,,,
1997-09-01,30.25,32.71875,29.9375,31.8125,15.098519325256348,17449400.0
1997-10-01,32.0,33.8125,28.5,30.59375,14.520096778869629,19955400.0
1997-11-01,30.90625,34.375,29.8125,33.71875,16.003246307373047,13447600.0
1997-11-28,,,,,,
1997-12-01,34.125,36.59375,33.9375,35.40625,17.01530647277832,19295600.0
1998-01-01,35.09375,35.40625,31.5625,32.5,15.618642807006836,26482200.0
1998-02-01,32.625,35.1875,32.625,35.03125,16.83509635925293,17970400.0
1998-02-12,,,,,,
1998-03-01,35.03125,39.25,34.25,37.8125,18.427608489990234,19170200.0
1998-03-09,,,,,,
1998-04-01,37.75,44.875,36.625,39.75,19.37183380126953,21978300.0
1998-05-01,40.1875,40.5,36.3125,37.9375,18.488513946533203,13325800.0
1998-05-29,,,,,,
1998-06-01,37.875,39.0,34.4375,35.625,17.469053268432617,20557600.0
1998-07-01,35.375,39.5,33.3125,34.0,16.672222137451172,25039400.0
1998-08-01,33.9375,34.375,25.5,25.5,12.504159927368164,21622200.0
1998-08-28,,,,,,
1998-09-01,25.625,32.9375,24.75,28.875,14.27684497833252,25488400.0
1998-10-01,28.625,32.0,23.375,30.3125,14.987593650817871,26256600.0
1998-11-01,31.5,34.0625,29.6875,30.6875,15.173002243041992,15939400.0
1998-11-27,,,,,,
1998-12-01,30.4375,32.5,30.0,32.0,15.936745643615723,17701900.0
1999-01-01,31.75,33.8125,29.8125,31.875,15.874496459960938,20387200.0
1999-02-01,31.875,32.75,29.8125,32.25,16.06125259399414,17432100.0
1999-02-26,,,,,,
1999-03-01,32.0,34.1875,29.6875,30.3125,15.21999740600586,20238100.0
1999-04-01,29.75,32.1875,29.125,30.9375,15.5338134765625,22650200.0
1999-05-01,31.0,38.125,30.5625,34.75,17.448081970214844,36778800.0
1999-05-27,,,,,,
1999-06-01,34.75,35.125,31.875,32.125,16.248849868774414,19788100.0
1999-07-01,32.375,33.5,31.25,31.5,15.932737350463867,18683700.0
1999-08-01,31.875,32.125,28.5,29.0,14.668225288391113,14744200.0
1999-08-27,,,,,,
1999-09-01,29.0,30.5,25.1875,25.8125,13.168010711669922,18524200.0
1999-10-01,25.625,28.75,23.6875,27.9375,14.252054214477539,23032500.0
1999-11-01,28.0,29.75,25.0,27.0,13.773797035217285,16253700.0
1999-12-01,26.0,26.8125,21.0,22.125,11.286863327026367,30040700.0
1999-12-01,,,,,,
2000-01-01,21.5,22.125,19.8125,21.0,10.817121505737305,26024300.0
2000-02-01,20.9375,21.0625,16.5625,16.9375,8.72452163696289,32479800.0
2000-02-25,,,,,,
2000-03-01,17.0,19.6875,15.5625,19.0,9.946633338928223,41348800.0
2000-04-01,19.25,19.9375,17.0,18.5,9.68487548828125,27114200.0
2000-05-01,18.5625,21.1875,17.625,21.0,10.99364948272705,26091000.0
2000-05-25,,,,,,
2000-06-01,20.9375,23.0,17.609375,17.625,9.351499557495117,32163000.0
2000-07-01,18.0,19.875,17.5,17.5625,9.318336486816406,16720000.0
2000-08-01,17.8125,20.5625,17.75,20.203125,10.719400405883789,19237300.0
2000-08-25,,,,,,
2000-09-01,20.1875,27.0625,20.0,25.3125,13.623481750488281,35461100.0
2000-10-01,25.4375,26.625,21.5,24.6875,13.287104606628418,28786500.0
2000-11-01,24.625,25.375,22.0625,24.9375,13.42165470123291,20598300.0
2000-11-24,,,,,,
2000-12-01,24.9375,28.5,24.6875,28.0,15.257721900939941,32886600.0
2001-01-01,27.5625,29.25,26.3125,26.65999984741211,14.527532577514648,30680600.0
2001-02-01,26.700000762939453,27.93000030517578,24.649999618530273,26.0,14.167880058288574,24189000.0
2001-02-23,,,,,,
2001-03-01,26.25,27.579999923706055,22.649999618530273,25.799999237060547,14.222664833068848,28578900.0
2001-04-01,25.600000381469727,26.43000030517578,22.100000381469727,23.18000030517578,12.778348922729492,27747600.0
2001-05-01,23.18000030517578,24.920000076293945,22.899999618530273,23.780000686645508,13.109110832214355,24241100.0
2001-05-24,,,,,,
2001-06-01,23.829999923706055,26.200000762939453,23.549999237060547,26.049999237060547,14.533711433410645,27817500.0
2001-07-01,26.049999237060547,26.8700008392334,25.200000762939453,26.75,14.924251556396484,20063400.0
2001-08-01,26.75,28.149999618530273,24.8799991607666,25.100000381469727,14.003690719604492,24528000.0
2001-08-24,,,,,,
2001-09-01,25.049999237060547,25.399999618530273,22.200000762939453,24.139999389648438,13.613866806030273,20999000.0
2001-10-01,23.899999618530273,24.030000686645508,20.489999771118164,21.260000228881836,11.989675521850586,35521500.0
2001-11-01,21.299999237060547,23.899999618530273,21.100000381469727,22.899999618530273,12.914563179016113,17071100.0
2001-11-23,,,,,,
2001-12-01,22.850000381469727,24.520000457763672,22.559999465942383,24.34000015258789,13.905083656311035,23537600.0
2002-01-01,24.200000762939453,25.5,23.610000610351562,24.610000610351562,14.059329986572266,21204400.0
2002-02-01,24.700000762939453,25.479999542236328,22.920000076293945,25.079999923706055,14.327834129333496,23121100.0
2002-03-01,25.0,27.260000228881836,24.899999618530273,26.649999618530273,15.224752426147461,23365800.0
2002-03-01,,,,,,
2002-04-01,26.65999984741211,28.149999618530273,25.950000762939453,28.110000610351562,16.253246307373047,24608000.0
2002-05-01,28.0,29.399999618530273,26.8799991607666,27.299999237060547,15.784905433654785,32657400.0
2002-05-30,,,,,,
2002-06-01,27.299999237060547,27.989999771118164,25.959999084472656,27.299999237060547,15.959908485412598,24636900.0
2002-07-01,27.149999618530273,27.290000915527344,20.959999084472656,26.260000228881836,15.351898193359375,44223100.0
2002-08-01,26.200000762939453,27.170000076293945,25.110000610351562,26.829999923706055,15.685129165649414,28524100.0
2002-08-23,,,,,,
2002-09-01,26.5,27.350000381469727,23.860000610351562,24.969999313354492,14.762207984924316,26771800.0
2002-10-01,25.010000228881836,25.920000076293945,21.25,24.43000030517578,14.442962646484375,33480400.0
2002-11-01,24.079999923706055,26.75,23.260000228881836,26.09000015258789,15.424349784851074,23339200.0
2002-11-29,,,,,,
2002-12-01,26.5,26.530000686645508,24.790000915527344,25.139999389648438,15.032052993774414,18740400.0
2003-01-01,25.469999313354492,27.110000610351562,23.43000030517578,24.049999237060547,14.380305290222168,28129900.0
2003-02-01,24.049999237060547,24.68000030517578,23.329999923706055,23.729999542236328,14.188971519470215,22036500.0
2003-02-28,,,,,,
2003-03-01,24.020000457763672,24.3799991607666,22.309999465942383,22.559999465942383,13.663898468017578,32458900.0
2003-04-01,22.760000228881836,24.299999237060547,22.559999465942383,24.110000610351562,14.602691650390625,33359600.0
2003-05-01,24.049999237060547,26.520000457763672,23.799999237060547,26.399999618530273,15.989676475524902,32841500.0
2003-06-01,26.399999618530273,27.420000076293945,25.15999984741211,25.270000457763672,15.30527114868164,27065200.0
2003-06-02,,,,,,
2003-07-01,25.270000457763672,27.229999542236328,24.860000610351562,26.90999984741211,16.489057540893555,25310900.0
2003-08-01,26.90999984741211,27.8799991607666,26.049999237060547,27.229999542236328,16.68514633178711,20264900.0
2003-08-28,,,,,,
2003-09-01,27.239999771118164,27.350000381469727,25.350000381469727,25.56999969482422,15.84604549407959,27769400.0
2003-10-01,25.579999923706055,28.75,25.549999237060547,28.25,17.506881713867188,34746500.0
2003-11-01,29.049999237060547,29.229999542236328,27.43000030517578,27.790000915527344,17.221817016601562,28337700.0
2003-11-28,,,,,,
2003-12-01,28.0,29.40999984741211,27.690000534057617,29.31999969482422,18.36930274963379,23896600.0
2004-01-01,29.31999969482422,31.950000762939453,28.6299991607666,31.09000015258789,19.47821807861328,42628600.0
2004-02-01,31.030000686645508,33.0,30.5,32.41999816894531,20.311477661132812,25847200.0
2004-02-27,,,,,,
2004-03-01,32.41999816894531,33.22999954223633,29.790000915527344,30.290000915527344,19.158689498901367,33210700.0
2004-04-01,30.469999313354492,30.65999984741211,28.229999542236328,29.700000762939453,18.78551483154297,36245500.0
2004-05-01,29.739999771118164,32.27000045776367,29.040000915527344,31.40999984741211,19.867103576660156,36935100.0
2004-05-27,,,,,,
2004-06-01,31.100000381469727,31.299999237060547,29.56999969482422,29.889999389648438,19.0892391204834,33180600.0
2004-07-01,29.899999618530273,30.600000381469727,29.0,30.18000030517578,19.27445411682129,24494900.0
2004-08-01,30.100000381469727,32.02000045776367,29.649999618530273,31.350000381469727,20.02166748046875,22632100.0
2004-08-27,,,,,,
2004-09-01,31.299999237060547,31.979999542236328,30.81999969482422,31.600000381469727,20.37912368774414,17881200.0
2004-10-01,31.600000381469727,33.63999938964844,31.350000381469727,33.59000015258789,21.662494659423828,23173900.0
2004-11-01,33.720001220703125,34.5,32.939998626708984,33.290000915527344,21.469011306762695,20832600.0
2004-11-26,,,,,,
2004-12-01,33.529998779296875,34.2400016784668,32.65999984741211,33.900001525878906,22.066307067871094,21504600.0
2005-01-01,33.88999938964844,34.02000045776367,31.1299991607666,33.41999816894531,21.75385856628418,36374700.0
2005-02-01,33.41999816894531,34.0,32.11000061035156,33.0,21.4804744720459,28174000.0
2005-02-25,,,,,,
2005-03-01,32.939998626708984,34.04999923706055,31.0,32.45000076293945,21.3330078125,30586700.0
2005-04-01,32.779998779296875,33.400001525878906,31.520000457763672,33.15999984741211,21.799772262573242,33330500.0
2005-05-01,33.15999984741211,33.79999923706055,31.8799991607666,32.7599983215332,21.53680419921875,26897800.0
2005-05-26,,,,,,
2005-06-01,32.66999816894531,33.619998931884766,32.5099983215332,33.150001525878906,22.00983238220215,22554600.0
2005-07-01,33.189998626708984,35.0,32.66999816894531,34.2400016784668,22.733531951904297,25303500.0
2005-08-01,34.43000030517578,34.540000915527344,32.45000076293945,33.119998931884766,21.989917755126953,23116900.0
2005-08-26,,,,,,
2005-09-01,33.099998474121094,33.66999816894531,31.649999618530273,32.25,21.621976852416992,31127900.0
2005-10-01,32.25,32.72999954223633,30.100000381469727,32.2400016784668,21.61528205871582,29339300.0
2005-11-01,32.150001525878906,33.9900016784668,32.040000915527344,33.15999984741211,22.23209571838379,26093800.0
2005-11-25,,,,,,
2005-12-01,33.349998474121094,34.04999923706055,32.68000030517578,32.93000030517578,22.2924861907959,26433500.0
2006-01-01,33.18000030517578,36.41999816894531,32.900001525878906,35.38999938964844,23.957820892333984,39464600.0
2006-02-01,35.47999954223633,37.65999984741211,34.93000030517578,37.27000045776367,25.230533599853516,30411800.0
2006-02-24,,,,,,
2006-03-01,36.869998931884766,37.66999816894531,35.900001525878906,36.79999923706055,25.1434326171875,34065600.0
2006-04-01,36.7599983215332,38.310001373291016,36.060001373291016,38.220001220703125,26.113636016845703,34141700.0
2006-05-01,38.0,38.099998474121094,35.20000076293945,35.720001220703125,24.40552520751953,36183900.0
2006-05-25,,,,,,
2006-06-01,35.869998931884766,36.7400016784668,34.2400016784668,35.68000030517578,24.61400604248047,29710400.0
2006-07-01,35.75,37.33000183105469,34.47999954223633,36.900001525878906,25.455625534057617,24507900.0
2006-08-01,36.75,38.150001525878906,36.58000183105469,36.790000915527344,25.379745483398438,29565400.0
2006-08-25,,,,,,
2006-09-01,36.900001525878906,37.70000076293945,36.209999084472656,37.439998626708984,26.06829833984375,22511600.0
2006-10-01,37.560001373291016,37.95000076293945,36.18000030517578,37.13999938964844,25.859413146972656,40226100.0
2006-11-01,37.150001525878906,37.40999984741211,35.86000061035156,36.099998474121094,25.135299682617188,28271400.0
2006-11-24,,,,,,
2006-12-01,36.06999969482422,38.630001068115234,35.72999954223633,38.029998779296875,26.728252410888672,32792400.0
2007-01-01,37.790000915527344,38.29999923706055,37.0,38.16999816894531,26.82664680480957,29770200.0
2007-02-01,38.16999816894531,39.900001525878906,37.41999816894531,37.720001220703125,26.51038360595703,33673800.0
2007-02-23,,,,,,
2007-03-01,37.2400016784668,38.970001220703125,35.939998626708984,37.470001220703125,26.578474044799805,42142300.0
2007-04-01,37.459999084472656,38.959999084472656,35.5099983215332,35.68000030517578,25.308788299560547,57212300.0
2007-05-01,35.52000045776367,37.0,35.2400016784668,35.61000061035156,25.25913429260254,47518500.0
2007-05-24,,,,,,
2007-06-01,35.61000061035156,36.5,34.150001525878906,34.33000183105469,24.598464965820312,47038300.0
2007-07-01,34.540000915527344,37.09000015258789,33.70000076293945,34.689998626708984,24.856412887573242,77806500.0
2007-08-01,34.5,37.0099983215332,31.3799991607666,33.29999923706055,23.860431671142578,87550300.0
2007-08-24,,,,,,
2007-09-01,33.06999969482422,35.59000015258789,31.8799991607666,32.33000183105469,23.41289520263672,43373800.0
2007-10-01,33.060001373291016,34.04999923706055,27.760000228881836,28.450000762939453,20.603057861328125,69707100.0
2007-11-01,28.06999969482422,28.520000457763672,23.420000076293945,26.34000015258789,19.07503318786621,88159000.0
2007-11-23,,,,,,
2007-12-01,26.459999084472656,26.459999084472656,21.040000915527344,23.450000762939453,17.238107681274414,94343900.0
2008-01-01,23.530000686645508,26.979999542236328,19.0,26.139999389648438,19.215532302856445,141747500.0
2008-02-01,26.110000610351562,27.229999542236328,21.8799991607666,22.049999237060547,16.20897102355957,91603900.0
2008-02-29,,,,,,
2008-03-01,21.899999618530273,24.729999542236328,20.190000534057617,21.950000762939453,16.397005081176758,110422900.0
2008-04-01,22.809999465942383,25.229999542236328,22.18000030517578,24.1299991607666,18.02549171447754,98803900.0
2008-05-01,24.100000381469727,26.1200008392334,19.209999084472656,19.469999313354492,14.544400215148926,86006500.0
2008-05-22,,,,,,
2008-06-01,19.43000030517578,19.510000228881836,10.0,10.979999542236328,8.34088134765625,396709300.0
2008-07-01,10.869999885559082,12.800000190734863,7.929999828338623,10.550000190734863,8.014237403869629,359993600.0
2008-08-01,10.5600004196167,13.119999885559082,10.119999885559082,12.010000228881836,9.12331485748291,222403200.0
2008-08-28,,,,,,
2008-09-01,12.550000190734863,15.25,8.6899995803833,11.9399995803833,9.22373104095459,258995100.0
2008-10-01,11.9399995803833,15.199999809265137,5.75,12.40999984741211,9.586810111999512,296713700.0
2008-11-01,12.399999618530273,13.850000381469727,4.989999771118164,9.380000114440918,7.246114730834961,194358200.0
2008-11-28,,,,,,
2008-12-01,8.869999885559082,9.119999885559082,7.199999809265137,8.520000457763672,6.627732753753662,137734400.0
2009-01-01,8.489999771118164,8.960000038146973,5.710000038146973,7.28000020980835,5.663133144378662,217969000.0
2009-02-01,7.039999961853027,9.3100004196167,4.829999923706055,7.010000228881836,5.453099250793457,304214200.0
2009-02-27,,,,,,
2009-03-01,6.78000020980835,9.350000381469727,5.070000171661377,7.869999885559082,6.169999122619629,279685200.0
2009-04-01,7.539999961853027,17.299999237060547,5.730000019073486,6.150000095367432,4.821536540985107,405965200.0
2009-05-01,6.190000057220459,8.270000457763672,4.71999979019165,5.0,3.919950008392334,455961800.0
2009-05-29,,,,,,
2009-06-01,5.099999904632568,6.21999979019165,4.400000095367432,5.239999771118164,4.116291522979736,838705300.0
2009-07-01,5.170000076293945,5.929999828338623,4.400000095367432,5.78000020980835,4.540487289428711,706561900.0
2009-08-01,6.0,7.0,5.809999942779541,6.659999847412109,5.231773853302002,542140300.0
2009-08-28,,,,,,
2009-09-01,6.610000133514404,7.070000171661377,5.760000228881836,6.5,5.113855361938477,448583800.0
2009-10-01,6.449999809265137,6.849999904632568,5.289999961853027,5.389999866485596,4.240566253662109,464592900.0
2009-11-01,5.380000114440918,6.010000228881836,5.309999942779541,5.860000133514404,4.6103386878967285,284379000.0
2009-11-27,,,,,,
2009-12-01,5.929999828338623,6.289999961853027,5.369999885559082,5.550000190734863,4.373884201049805,270423000.0
2010-01-01,5.659999847412109,7.75,5.650000095367432,7.179999828338623,5.658469200134277,448481500.0
2010-02-01,7.230000019073486,7.539999961853027,6.630000114440918,7.150000095367432,5.634825229644775,352283000.0
2010-02-26,,,,,,
2010-03-01,7.159999847412109,8.1899995803833,6.900000095367432,7.75,6.116428375244141,352843900.0
2010-04-01,7.809999942779541,9.84000015258789,7.71999979019165,9.020000457763672,7.118734836578369,599817300.0
2010-05-01,9.09000015258789,9.180000305175781,7.170000076293945,8.020000457763672,6.329517841339111,417249800.0
2010-05-27,,,,,,
2010-06-01,8.050000190734863,8.5600004196167,7.46999979019165,7.690000057220459,6.076956272125244,273519800.0
2010-07-01,7.619999885559082,8.640000343322754,7.139999866485596,8.460000038146973,6.685444355010986,283880400.0
2010-08-01,8.569999694824219,8.90999984741211,7.130000114440918,7.369999885559082,5.824080467224121,271531900.0
2010-08-27,,,,,,
2010-09-01,7.489999771118164,8.5,7.449999809265137,7.960000038146973,6.2989044189453125,250032500.0
2010-10-01,8.149999618530273,8.729999542236328,7.929999828338623,8.199999809265137,6.488820552825928,288017100.0
2010-11-01,8.239999771118164,8.760000228881836,7.449999809265137,7.53000020980835,5.958635330200195,291380900.0
2010-11-26,,,,,,
2010-12-01,7.670000076293945,8.920000076293945,7.599999904632568,8.850000381469727,7.012392997741699,255755300.0
2011-01-01,8.960000038146973,9.140000343322754,8.3100004196167,8.899999618530273,7.052008628845215,287991100.0
2011-02-01,9.0,9.770000457763672,8.949999809265137,9.140000343322754,7.242175579071045,258248500.0
2011-02-25,,,,,,
2011-03-01,9.199999809265137,9.5,8.460000038146973,8.880000114440918,7.043957710266113,450613800.0
2011-04-01,8.899999618530273,9.100000381469727,8.270000457763672,8.670000076293945,6.87737512588501,267285100.0
2011-05-01,8.739999771118164,8.84000015258789,8.25,8.470000267028809,6.718728542327881,223781000.0
2011-05-26,,,,,,
2011-06-01,8.40999984741211,8.449999809265137,7.820000171661377,8.329999923706055,6.631528854370117,273548400.0
2011-07-01,8.34000015258789,8.479999542236328,7.690000057220459,8.039999961853027,6.400660037994385,259175600.0
2011-08-01,8.170000076293945,8.199999809265137,5.940000057220459,6.639999866485596,5.2861175537109375,385633700.0
2011-08-26,,,,,,
2011-09-01,6.610000133514404,6.690000057220459,5.630000114440918,5.929999828338623,4.743292808532715,320473200.0
2011-10-01,5.730000019073486,7.739999771118164,5.590000152587891,7.059999942779541,5.647159576416016,398651500.0
2011-11-01,6.769999980926514,7.570000171661377,6.599999904632568,7.289999961853027,5.831132888793945,308384100.0
2011-11-25,,,,,,
2011-12-01,7.210000038146973,7.889999866485596,7.0,7.690000057220459,6.178875923156738,215139000.0
2012-01-01,7.840000152587891,8.4399995803833,7.670000076293945,7.769999980926514,6.243155479431152,310349800.0
2012-02-01,7.940000057220459,8.300000190734863,7.78000020980835,8.100000381469727,6.508307933807373,239922400.0
2012-02-24,,,,,,
2012-03-01,8.149999618530273,8.819999694824219,7.599999904632568,8.5,6.855222225189209,317518400.0
2012-04-01,8.390000343322754,8.539999961853027,7.71999979019165,8.039999961853027,6.484233856201172,343598200.0
2012-05-01,8.020000457763672,8.25,7.360000133514404,7.5,6.048725128173828,259530900.0
2012-05-24,,,,,,
2012-06-01,7.340000152587891,7.920000076293945,6.800000190734863,7.739999771118164,6.2837347984313965,278294800.0
2012-07-01,7.800000190734863,8.229999542236328,7.460000038146973,7.980000019073486,6.478578567504883,250676600.0
2012-08-01,8.029999732971191,8.449999809265137,7.820000171661377,8.430000305175781,6.843911170959473,235045500.0
2012-08-24,,,,,,
2012-09-01,8.399999618530273,9.119999885559082,8.300000190734863,8.739999771118164,7.13838005065918,245568000.0
2012-10-01,8.779999732971191,9.010000228881836,8.180000305175781,8.420000076293945,6.877021312713623,327491600.0
2012-11-01,8.420000076293945,8.640000343322754,7.960000038146973,8.079999923706055,6.599326133728027,246454900.0
2012-11-23,,,,,,
2012-12-01,8.149999618530273,8.569999694824219,7.809999942779541,8.420000076293945,6.918498992919922,228646300.0
2013-01-01,8.619999885559082,9.5,8.569999694824219,9.399999618530273,7.723740577697754,405359800.0
2013-02-01,9.470000267028809,9.640000343322754,9.140000343322754,9.390000343322754,7.715524196624756,225440000.0
2013-03-01,9.260000228881836,10.1899995803833,9.199999809265137,9.960000038146973,8.183877944946289,267822800.0
2013-03-01,,,,,,
2013-04-01,9.920000076293945,10.260000228881836,9.289999961853027,9.970000267028809,8.23595142364502,247537000.0
2013-05-01,9.949999809265137,11.0,9.84000015258789,10.779999732971191,8.905071258544922,192770400.0
2013-05-23,,,,,,
2013-06-01,10.800000190734863,11.09000015258789,10.239999771118164,11.039999961853027,9.167015075683594,234972100.0
2013-07-01,11.069999694824219,12.5,11.0600004196167,12.279999732971191,10.196642875671387,247040800.0
2013-08-01,12.390000343322754,12.630000114440918,11.510000228881836,11.670000076293945,9.690133094787598,206273900.0
2013-08-23,,,,,,
2013-09-01,11.789999961853027,12.239999771118164,11.050000190734863,11.399999618530273,9.508283615112305,216271700.0
2013-10-01,11.390000343322754,12.800000190734863,11.239999771118164,12.539999961853027,10.459111213684082,260925600.0
2013-11-01,12.550000190734863,13.100000381469727,12.369999885559082,12.75,10.634263038635254,188005400.0
2013-11-29,,,,,,
2013-12-01,12.819999694824219,13.550000190734863,12.489999771118164,13.420000076293945,11.24119758605957,179301800.0
2014-01-01,13.430000305175781,14.140000343322754,12.710000038146973,12.760000228881836,10.688350677490234,271623600.0
2014-02-01,12.75,13.220000267028809,12.25,13.170000076293945,11.031786918640137,178337100.0
2014-02-28,,,,,,
2014-03-01,13.0600004196167,14.699999809265137,12.930000305175781,14.239999771118164,11.978708267211914,269242700.0
2014-04-01,14.319999694824219,14.59000015258789,12.9399995803833,13.640000343322754,11.473986625671387,220648100.0
2014-05-01,13.619999885559082,13.9399995803833,12.899999618530273,13.6899995803833,11.516047477722168,174770700.0
2014-05-22,,,,,,
2014-05-23,,,,,,
2014-06-01,13.699999809265137,14.520000457763672,13.59000015258789,14.329999923706055,12.173019409179688,151759300.0
2014-07-01,14.350000381469727,14.619999885559082,13.510000228881836,13.539999961853027,11.501932144165039,224814500.0
2014-08-01,13.5,13.779999732971191,12.970000267028809,13.609999656677246,11.561397552490234,155315300.0
2014-08-28,,,,,,
2014-08-29,,,,,,
2014-09-01,13.649999618530273,14.210000038146973,13.300000190734863,13.329999923706055,11.432848930358887,170884600.0
2014-10-01,13.350000381469727,13.630000114440918,11.550000190734863,13.199999809265137,11.32135009765625,320907400.0
2014-11-01,13.1899995803833,13.65999984741211,13.100000381469727,13.5,11.57865047454834,160999800.0
2014-11-28,,,,,,
2014-12-01,13.4399995803833,14.180000305175781,13.0,13.899999618530273,11.97889232635498,203858600.0
2015-01-01,14.0,14.050000190734863,12.039999961853027,12.989999771118164,11.194659233093262,246715900.0
2015-02-01,13.09000015258789,14.300000190734863,12.970000267028809,13.930000305175781,12.004745483398438,176152000.0
2015-02-27,,,,,,
2015-03-01,13.930000305175781,14.739999771118164,13.739999771118164,14.15999984741211,12.259429931640625,224733800.0
2015-04-01,14.09000015258789,14.619999885559082,13.899999618530273,14.449999809265137,12.510506629943848,218593800.0
2015-05-01,14.520000457763672,15.109999656677246,14.289999961853027,14.579999923706055,12.623059272766113,204946900.0
2015-05-29,,,,,,
2015-06-01,14.640000343322754,15.699999809265137,14.350000381469727,15.020000457763672,13.069965362548828,187961700.0
2015-07-01,15.270000457763672,15.460000038146973,14.619999885559082,14.84000015258789,12.913335800170898,194033500.0
2015-08-01,14.829999923706055,15.09000015258789,12.670000076293945,13.739999771118164,11.956147193908691,221222000.0
2015-08-28,,,,,,
2015-09-01,13.420000076293945,13.90999984741211,12.649999618530273,13.010000228881836,11.382429122924805,208472000.0
2015-10-01,13.0,14.010000228881836,12.369999885559082,12.420000076293945,10.866238594055176,324588600.0
2015-11-01,12.699999809265137,13.510000228881836,12.5,13.109999656677246,11.469919204711914,300315800.0
2015-11-27,,,,,,
2015-12-01,13.170000076293945,13.470000267028809,12.5,13.1899995803833,11.606103897094727,306968800.0
2016-01-01,12.989999771118164,13.079999923706055,10.779999732971191,11.15999984741211,9.819873809814453,356993600.0
2016-02-01,11.25,11.25,9.880000114440918,10.550000190734863,9.283123970031738,343726800.0
2016-02-26,,,,,,
2016-03-01,10.600000381469727,11.739999771118164,10.569999694824219,11.039999961853027,9.782919883728027,301222400.0
2016-04-01,10.960000038146973,12.680000305175781,10.600000381469727,12.289999961853027,10.89058780670166,275204500.0
2016-05-01,12.369999885559082,13.079999923706055,11.630000114440918,12.819999694824219,11.360238075256348,241860200.0
2016-05-26,,,,,,
2016-06-01,12.670000076293945,12.979999542236328,10.210000038146973,11.050000190734863,9.856425285339355,331138200.0
2016-07-01,10.970000267028809,11.90999984741211,10.380000114440918,11.699999809265137,10.436213493347168,341476000.0
2016-07-27,,,,,,
2016-08-01,11.680000305175781,12.600000381469727,11.350000381469727,12.5600004196167,11.285950660705566,386188000.0
2016-09-01,12.600000381469727,12.640000343322754,11.890000343322754,12.170000076293945,10.93550968170166,314769200.0
2016-10-01,12.109999656677246,14.380000114440918,12.0600004196167,14.119999885559082,12.68770694732666,329907400.0
2016-11-01,14.210000038146973,17.59000015258789,13.829999923706055,17.309999465942383,15.554123878479004,404276200.0
2016-11-25,,,,,,
2016-12-01,17.420000076293945,18.6200008392334,17.420000076293945,18.270000457763672,16.49677848815918,275168900.0
2017-01-01,18.510000228881836,18.770000457763672,17.610000610351562,17.969999313354492,16.225893020629883,246294900.0
2017-02-01,18.190000534057617,19.209999084472656,17.579999923706055,18.770000457763672,16.948253631591797,193384100.0
2017-02-24,,,,,,
2017-03-01,19.100000381469727,19.530000686645508,16.540000915527344,17.780000686645508,16.12625503540039,279332800.0
2017-04-01,17.84000015258789,18.950000762939453,16.90999984741211,18.239999771118164,16.543466567993164,199722100.0
2017-05-01,18.389999389648438,19.09000015258789,17.399999618530273,17.469999313354492,15.845085144042969,189142900.0
2017-05-25,,,,,,
2017-06-01,17.579999923706055,19.100000381469727,17.200000762939453,18.739999771118164,17.086793899536133,244664900.0
2017-07-01,18.899999618530273,19.479999542236328,17.729999542236328,18.040000915527344,16.448543548583984,224431800.0
2017-08-01,18.15999984741211,18.700000762939453,16.989999771118164,17.209999084472656,15.691764831542969,242840100.0
2017-08-25,,,,,,
2017-09-01,17.270000457763672,18.940000534057617,16.280000686645508,18.81999969482422,17.252649307250977,207531700.0
2017-10-01,18.8799991607666,19.030000686645508,17.760000228881836,18.25,16.730121612548828,270709200.0
2017-11-01,18.329999923706055,19.3799991607666,17.399999618530273,18.979999542236328,17.399322509765625,233569100.0
2017-11-27,,,,,,
2017-12-01,19.010000228881836,20.579999923706055,18.540000915527344,20.170000076293945,18.597869873046875,183390900.0
2018-01-01,20.31999969482422,21.989999771118164,20.040000915527344,21.399999618530273,19.731998443603516,207653900.0
2018-02-01,21.3700008392334,22.219999313354492,19.639999389648438,21.1299991607666,19.483041763305664,207988000.0
2018-02-26,,,,,,
2018-03-01,21.18000030517578,22.399999618530273,19.0,19.549999237060547,18.116907119750977,215585600.0
2018-04-01,19.559999465942383,20.600000381469727,18.719999313354492,19.920000076293945,18.45978355407715,205283100.0
2018-05-01,19.889999389648438,20.780000686645508,19.010000228881836,19.440000534057617,18.014972686767578,178467500.0
2018-05-25,,,,,,
2018-06-01,19.770000457763672,21.049999237060547,19.450000762939453,19.540000915527344,18.214576721191406,203470600.0
2018-07-01,19.469999313354492,21.420000076293945,19.3799991607666,20.8700008392334,19.454360961914062,195257200.0
2018-08-01,21.020000457763672,21.90999984741211,20.850000381469727,21.06999969482422,19.64079475402832,177543700.0
2018-08-27,,,,,,
2018-09-01,21.06999969482422,21.5,19.65999984741211,19.889999389648438,18.68993377685547,225250900.0
2018-10-01,20.020000457763672,20.739999771118164,16.479999542236328,18.15999984741211,17.064311981201172,343746300.0
2018-11-01,18.290000915527344,18.959999084472656,17.649999618530273,18.34000015258789,17.23345184326172,221229200.0
2018-11-26,,,,,,
2018-12-01,18.649999618530273,18.760000228881836,13.65999984741211,14.779999732971191,14.021110534667969,255524200.0
2019-01-01,14.529999732971191,17.06999969482422,14.5,16.469999313354492,15.624336242675781,260568300.0
2019-02-01,16.549999237060547,17.979999542236328,16.270000457763672,17.65999984741211,16.753236770629883,222539800.0
2019-03-01,17.770000457763672,17.889999389648438,14.819999694824219,15.75,14.941305160522461,339741200.0
2019-03-04,,,,,,
2019-04-01,15.960000038146973,17.65999984741211,15.930000305175781,17.549999237060547,16.81210708618164,247717700.0
2019-05-01,17.540000915527344,17.84000015258789,15.949999809265137,15.970000267028809,15.298540115356445,211862900.0
2019-05-24,,,,,,
2019-06-01,15.9399995803833,17.780000686645508,15.859999656677246,17.75,17.180496215820312,185976400.0
2019-07-01,17.940000534057617,18.610000610351562,17.049999237060547,18.3700008392334,17.780603408813477,181663400.0
2019-08-01,18.399999618530273,18.399999618530273,15.680000305175781,16.600000381469727,16.067394256591797,197015000.0
2019-08-26,,,,,,
2019-09-01,16.459999084472656,18.489999771118164,16.110000610351562,17.84000015258789,17.46985626220703,192202400.0
2019-10-01,18.0,18.600000381469727,16.59000015258789,17.969999313354492,17.597156524658203,210849700.0
2019-11-01,18.190000534057617,19.540000915527344,18.059999465942383,19.389999389648438,18.987693786621094,161090200.0
2019-12-01,19.329999923706055,20.530000686645508,18.540000915527344,20.239999771118164,19.82006072998047,166944900.0
2019-12-02,,,,,,
2020-01-01,20.360000610351562,20.3700008392334,18.56999969482422,18.709999084472656,18.498294830322266,210369100.0
2020-02-01,18.889999389648438,20.239999771118164,15.84000015258789,16.350000381469727,16.165000915527344,178370900.0
2020-03-01,16.209999084472656,17.329999923706055,7.449999809265137,9.819999694824219,9.70888614654541,337095000.0
2020-03-02,,,,,,
2020-03-26,10.020000457763672,10.949999809265137,9.645000457763672,10.845000267028809,10.845000267028809,11398246.0
