Date,Open,High,Low,Close,Adj Close,Volume
1991-11-01,4.44444465637207,4.472222328186035,4.416666507720947,4.44444465637207,0.16771268844604492,7801400.0
1991-12-01,4.44444465637207,4.777777671813965,4.277777671813965,4.777777671813965,0.18029111623764038,3024600.0
1992-01-01,4.75,5.361111164093018,4.69444465637207,5.25,0.1981106549501419,2801400.0
1992-01-24,,,,,,
1992-02-01,5.25,5.5,5.222222328186035,5.333333492279053,0.2076205164194107,1821000.0
1992-03-01,5.388888835906982,5.638888835906982,5.19444465637207,5.25,0.20437636971473694,1993200.0
1992-04-01,5.222222328186035,5.416666507720947,4.916666507720947,5.416666507720947,0.21086439490318298,1697400.0
1992-04-24,,,,,,
1992-05-01,5.416666507720947,5.777777671813965,5.361111164093018,5.722222328186035,0.24340271949768066,817800.0
1992-06-01,5.722222328186035,5.777777671813965,5.55555534362793,5.638888835906982,0.23985816538333893,1321600.0
1992-07-01,5.638888835906982,6.166666507720947,5.611111164093018,6.027777671813965,0.25640004873275757,7000200.0
1992-07-24,,,,,,
1992-08-01,6.05555534362793,6.083333492279053,5.75,5.833333492279053,0.26819270849227905,1096800.0
1992-09-01,5.833333492279053,6.083333492279053,5.80555534362793,6.05555534362793,0.278409481048584,804600.0
1992-10-01,6.027777671813965,6.416666507720947,6.027777671813965,6.30555534362793,0.28990358114242554,1711400.0
1992-10-26,,,,,,
1992-11-01,6.30555534362793,6.333333492279053,6.027777671813965,6.19444465637207,0.3062893748283386,2542800.0
1992-12-01,6.222222328186035,6.916666507720947,6.222222328186035,6.888888835906982,0.34062671661376953,2028600.0
1993-01-01,6.888888835906982,7.333333492279053,6.777777671813965,7.30555534362793,0.36122915148735046,1819600.0
1993-01-26,,,,,,
1993-02-01,7.25,7.472222328186035,7.19444465637207,7.277777671813965,0.38494381308555603,2072600.0
1993-03-01,7.277777671813965,7.583333492279053,6.94444465637207,7.583333492279053,0.4011055827140808,3511200.0
1993-04-01,7.611111164093018,7.833333492279053,7.416666507720947,7.44444465637207,0.39375945925712585,10786600.0
1993-04-26,,,,,,
1993-05-01,7.44444465637207,7.472222328186035,6.833333492279053,6.888888835906982,0.38848769664764404,3307400.0
1993-06-01,6.888888835906982,7.611111164093018,6.80555534362793,7.611111164093018,0.4292166829109192,2358800.0
1993-07-01,7.583333492279053,8.05555534362793,7.416666507720947,8.0,0.4511473774909973,4240200.0
1993-07-26,,,,,,
1993-08-01,7.94444465637207,8.472222328186035,7.888888835906982,8.222222328186035,0.49377691745758057,3977000.0
1993-09-01,8.25,8.722222328186035,8.11111068725586,8.222222328186035,0.49377691745758057,3780000.0
1993-10-01,8.19444465637207,8.222222328186035,7.916666507720947,8.13888931274414,0.4887720048427582,2776200.0
1993-10-26,,,,,,
1993-11-01,8.13888931274414,8.13888931274414,7.0,7.083333492279053,0.4514933228492737,3750400.0
1993-12-01,7.111111164093018,7.833333492279053,7.111111164093018,7.80555534362793,0.4975277781486511,4324000.0
1994-01-01,7.777777671813965,8.0,7.5,7.94444465637207,0.5063809752464294,2599800.0
1994-01-26,,,,,,
1994-02-01,7.94444465637207,8.61111068725586,7.861111164093018,8.527777671813965,0.5799658894538879,2452000.0
1994-03-01,8.527777671813965,8.63888931274414,7.972222328186035,7.972222328186035,0.5421833395957947,2433800.0
1994-04-01,7.916666507720947,8.083333015441895,7.861111164093018,7.972222328186035,0.5421833395957947,1861600.0
1994-04-26,,,,,,
1994-05-01,7.972222328186035,8.30555534362793,7.972222328186035,8.13888931274414,0.5904505848884583,1453800.0
1994-06-01,8.13888931274414,8.222222328186035,7.80555534362793,7.972222328186035,0.5783597826957703,2498000.0
1994-07-01,8.0,8.25,7.94444465637207,8.222222328186035,0.5964961647987366,1327000.0
1994-07-26,,,,,,
1994-08-01,8.222222328186035,8.416666984558105,8.0,8.11111068725586,0.626844584941864,1659000.0
1994-09-01,8.11111068725586,8.25,8.0,8.05555534362793,0.6225508451461792,1982600.0
1994-10-01,8.05555534362793,8.36111068725586,8.0,8.13888931274414,0.6289910078048706,1659200.0
1994-10-26,,,,,,
1994-11-01,8.13888931274414,8.19444465637207,7.333333492279053,7.69444465637207,0.6326315999031067,3270400.0
1994-12-01,7.638888835906982,8.5,7.638888835906982,8.416666984558105,0.6920121312141418,1522000.0
1994-12-23,,,,,,
1995-01-01,8.472222328186035,8.472222328186035,7.861111164093018,8.027777671813965,0.7048143744468689,6895400.0
1995-02-01,8.027777671813965,8.472222328186035,8.0,8.44444465637207,0.7413966059684753,3339600.0
1995-03-01,8.44444465637207,8.666666984558105,8.44444465637207,8.527777671813965,0.748712956905365,1363800.0
1995-03-28,,,,,,
1995-04-01,8.5,8.5,8.277777671813965,8.38888931274414,0.7854593396186829,2133600.0
1995-05-01,8.38888931274414,8.75,8.333333015441895,8.583333015441895,0.803665280342102,1788400.0
1995-06-01,8.583333015441895,8.88888931274414,8.38888931274414,8.44444465637207,0.7906609177589417,1657200.0
1995-06-29,,,,,,
1995-07-01,8.472222328186035,8.88888931274414,8.416666984558105,8.86111068725586,0.8842443823814392,1629600.0
1995-08-01,8.88888931274414,9.166666984558105,8.88888931274414,9.027777671813965,0.9008763432502747,1576600.0
1995-09-01,9.05555534362793,9.13888931274414,8.80555534362793,8.88888931274414,0.8870163559913635,2715000.0
1995-09-28,,,,,,
1995-10-01,8.86111068725586,8.88888931274414,7.888888835906982,8.19444465637207,0.8700850009918213,2052000.0
1995-11-01,8.13888931274414,8.88888931274414,8.13888931274414,8.88888931274414,0.9438208341598511,2020400.0
1995-12-01,8.916666984558105,9.38888931274414,8.916666984558105,9.083333015441895,0.964467465877533,1615000.0
1995-12-22,,,,,,
1995-12-28,,,,,,
1996-01-01,9.041666984558105,9.125,8.666666984558105,8.666666984558105,0.9615082144737244,7671600.0
1996-02-01,8.666666984558105,9.125,8.416666984558105,9.083333015441895,1.0077348947525024,5483000.0
1996-03-01,9.083333015441895,9.333333015441895,8.958333015441895,9.0,0.9984894394874573,2554200.0
1996-03-28,,,,,,
1996-04-01,8.916666984558105,9.083333015441895,8.541666984558105,8.666666984558105,1.003633975982666,3232200.0
1996-05-01,8.666666984558105,9.291666984558105,8.666666984558105,9.125,1.0567113161087036,2271400.0
1996-06-01,9.166666984558105,9.5,8.875,9.416666984558105,1.0904866456985474,4661200.0
1996-06-27,,,,,,
1996-07-01,9.333333015441895,9.416666984558105,8.833333015441895,9.291666984558105,1.1220760345458984,5661800.0
1996-08-01,9.25,9.875,9.208333015441895,9.666666984558105,1.1673613786697388,2280800.0
1996-09-01,9.666666984558105,10.083333015441895,9.333333015441895,9.916666984558105,1.1975520849227905,3121800.0
1996-09-27,,,,,,
1996-10-01,9.916666984558105,9.958333015441895,9.625,9.625,1.2090948820114136,2687000.0
1996-11-01,9.666666984558105,9.791666984558105,9.458333015441895,9.708333015441895,1.2195631265640259,2972200.0
1996-12-01,9.75,11.625,9.75,11.625,1.4603348970413208,3800800.0
1996-12-30,,,,,,
1997-01-01,11.541666984558105,11.541666984558105,10.708333015441895,10.916666984558105,1.4246482849121094,3434400.0
1997-02-01,10.958333015441895,11.416666984558105,10.583333015441895,11.208333015441895,1.4627116918563843,2989000.0
1997-03-01,11.208333015441895,11.375,10.791666984558105,10.833333015441895,1.4137734174728394,3102600.0
1997-03-27,,,,,,
1997-04-01,10.75,10.833333015441895,10.083333015441895,10.375,1.4077937602996826,2812000.0
1997-05-01,10.375,10.791666984558105,10.25,10.5,1.4247550964355469,3474400.0
1997-06-01,10.541666984558105,11.125,10.458333015441895,10.583333015441895,1.4360618591308594,3209600.0
1997-06-27,,,,,,
1997-07-01,10.645833015441895,11.708333015441895,10.583333015441895,11.333333015441895,1.6015520095825195,4809800.0
1997-08-01,11.375,11.75,11.166666984558105,11.229166984558105,1.5868321657180786,2849400.0
1997-09-01,11.145833015441895,12.0625,11.0,11.604166984558105,1.6398242712020874,8939400.0
1997-09-29,,,,,,
1997-10-01,11.5625,11.75,10.166666984558105,10.666666984558105,1.5648400783538818,8740600.0
1997-11-01,10.666666984558105,11.458333015441895,10.583333015441895,11.458333015441895,1.6809810400009155,3290600.0
1997-12-01,11.479166984558105,11.833333015441895,11.041666984558105,11.75,1.7237699031829834,3039000.0
1997-12-30,,,,,,
1998-01-01,11.75,11.791666984558105,11.145833015441895,11.5,1.7593491077423096,6115800.0
1998-02-01,11.541666984558105,11.770833015441895,11.458333015441895,11.708333015441895,1.7912216186523438,3514800.0
1998-03-01,11.666666984558105,11.979166984558105,11.583333015441895,11.791666984558105,1.803970217704773,3586200.0
1998-03-30,,,,,,
1998-04-01,11.791666984558105,12.395833015441895,11.625,12.354166984558105,1.969932198524475,9040400.0
1998-05-01,12.375,13.333333015441895,12.333333015441895,12.979166984558105,2.069592237472534,9106800.0
1998-06-01,12.9375,13.666666984558105,12.375,13.666666984558105,2.179217576980591,7789800.0
1998-06-16,,,,,,
1998-06-29,,,,,,
1998-07-01,13.604166984558105,13.875,12.0625,12.333333015441895,2.0473318099975586,8973600.0
1998-08-01,12.3125,13.083333015441895,11.583333015441895,11.833333015441895,1.9643330574035645,9131800.0
1998-09-01,11.875,13.0625,11.708333015441895,12.666666984558105,2.1026651859283447,8381000.0
1998-09-29,,,,,,
1998-10-01,12.604166984558105,13.416666984558105,11.25,13.270833015441895,2.2889914512634277,6449000.0
1998-11-01,13.333333015441895,13.395833015441895,12.5625,12.895833015441895,2.224309206008911,6173600.0
1998-11-12,,,,,,
1998-12-01,12.9375,13.354166984558105,12.625,13.229166984558105,2.284729242324829,10170600.0
1998-12-30,,,,,,
1999-01-01,12.9375,13.291666984558105,12.708333015441895,13.0,2.3484530448913574,7353800.0
1999-02-01,12.9375,13.020833015441895,12.5625,12.583333015441895,2.273181438446045,7326400.0
1999-03-01,12.583333015441895,13.083333015441895,12.125,12.291666984558105,2.2204930782318115,10680000.0
1999-04-01,12.0625,13.25,11.854166984558105,13.083333015441895,2.363507032394409,8691000.0
1999-04-01,,,,,,
1999-05-01,13.083333015441895,13.583333015441895,12.8125,13.3125,2.528322696685791,7092600.0
1999-06-01,13.270833015441895,13.333333015441895,12.729166984558105,13.25,2.5164527893066406,6490000.0
1999-07-01,12.833333015441895,13.0,12.333333015441895,12.5,2.374011516571045,4770000.0
1999-07-01,,,,,,
1999-08-01,12.5,12.5,12.0,12.416666984558105,2.4700355529785156,3409400.0
1999-09-01,12.395833015441895,12.395833015441895,11.375,11.916666984558105,2.3705713748931885,4718000.0
1999-10-01,11.708333015441895,11.791666984558105,11.020833015441895,11.375,2.2628183364868164,5063400.0
1999-10-01,,,,,,
1999-11-01,11.375,11.770833015441895,11.0,11.083333015441895,2.3216934204101562,7935200.0
1999-12-01,11.083333015441895,11.541666984558105,10.291666984558105,11.291666984558105,2.3653347492218018,16931800.0
1999-12-30,,,,,,
2000-01-01,11.354166984558105,12.0,11.083333015441895,11.75,2.612659454345703,7171200.0
2000-02-01,11.75,11.895833015441895,10.916666984558105,11.479166984558105,2.5524377822875977,6497600.0
2000-03-01,11.395833015441895,12.5,11.270833015441895,12.5,2.779423952102661,6849800.0
2000-04-01,12.3125,13.458333015441895,12.083333015441895,13.270833015441895,2.9508213996887207,4509800.0
2000-04-03,,,,,,
2000-05-01,13.25,14.083333015441895,13.25,13.5,3.16910719871521,5974200.0
2000-06-01,13.5,14.229166984558105,13.395833015441895,13.671875,3.2094547748565674,7240800.0
2000-07-01,13.4375,14.291666984558105,13.4375,13.75,3.2277936935424805,9289200.0
2000-07-03,,,,,,
2000-08-01,13.75,14.1875,13.041666984558105,13.541666984558105,3.34013032913208,14057000.0
2000-09-01,13.625,14.166666984558105,13.416666984558105,14.083333015441895,3.4737355709075928,6799000.0
2000-10-01,13.875,13.916666984558105,13.0,13.416666984558105,3.309298515319824,5256600.0
2000-10-02,,,,,,
2000-11-01,13.375,13.75,13.083333015441895,13.75,3.5636069774627686,6239000.0
2000-12-01,13.708333015441895,14.916666984558105,13.5625,14.729166984558105,3.817380666732788,8556000.0
2000-12-28,,,,,,
2001-01-01,14.708333015441895,15.041666984558105,14.25,14.649999618530273,3.989990711212158,5942000.0
2001-02-01,14.649999618530273,14.649999618530273,13.583333015441895,13.949999809265137,3.799342155456543,7565200.0
2001-03-01,14.0,14.5,13.800000190734863,14.333333015441895,3.90374755859375,10748200.0
2001-04-01,14.166666984558105,14.666666984558105,13.666666984558105,14.666666984558105,3.9945292472839355,6617200.0
2001-04-02,,,,,,
2001-05-01,14.633333206176758,14.699999809265137,14.033333778381348,14.243332862854004,4.0844035148620605,9709000.0
2001-06-01,14.283333778381348,15.783333778381348,14.226666450500488,15.783333778381348,4.52601432800293,14391800.0
2001-07-01,15.543333053588867,15.699999809265137,15.34333324432373,15.600000381469727,4.4734392166137695,10424800.0
2001-07-02,,,,,,
2001-08-01,15.633333206176758,16.649999618530273,15.600000381469727,15.989999771118164,4.804444789886475,9371200.0
2001-09-01,15.916666984558105,16.316667556762695,14.75,16.183332443237305,4.8625311851501465,12680600.0
2001-10-01,15.993332862854004,16.65999984741211,15.666666984558105,16.296667098999023,4.8965864181518555,10501800.0
2001-10-01,,,,,,
2001-11-01,16.309999465942383,16.733333587646484,16.00666618347168,16.53333282470703,5.199001789093018,8664800.0
2001-12-01,16.58333396911621,17.03333282470703,16.2549991607666,16.344999313354492,5.139780044555664,12298600.0
2001-12-24,,,,,,
2001-12-28,,,,,,
2002-01-01,16.225000381469727,16.719999313354492,14.5,15.260000228881836,4.9532904624938965,29726200.0
2002-02-01,15.300000190734863,15.864999771118164,15.0,15.510000228881836,5.034440994262695,10053000.0
2002-03-01,15.5,16.75,15.475000381469727,16.350000381469727,5.307098865509033,10768200.0
2002-04-01,16.375,16.80500030517578,15.675000190734863,16.049999237060547,5.209721565246582,12546600.0
2002-04-01,,,,,,
2002-05-01,16.049999237060547,16.364999771118164,15.600000381469727,15.949999809265137,5.3473286628723145,10394600.0
2002-06-01,15.899999618530273,16.934999465942383,15.5,16.7450008392334,5.613858222961426,10108800.0
2002-07-01,16.600000381469727,16.600000381469727,12.979999542236328,16.06999969482422,5.387558937072754,17536800.0
2002-07-01,,,,,,
2002-08-01,15.975000381469727,16.225000381469727,15.024999618530273,15.875,5.492757320404053,11038000.0
2002-09-01,15.975000381469727,16.260000228881836,15.475000381469727,15.550000190734863,5.380307197570801,7285200.0
2002-10-01,15.289999961853027,15.399999618530273,13.885000228881836,15.149999618530273,5.2419047355651855,14426400.0
2002-10-01,,,,,,
2002-11-01,15.100000381469727,15.84000015258789,15.005000114440918,15.675000190734863,5.611197471618652,8543800.0
2002-12-01,15.680000305175781,16.040000915527344,15.319999694824219,15.319999694824219,5.484121322631836,11685600.0
2002-12-30,,,,,,
2003-01-01,15.5,15.949999809265137,15.125,15.699999809265137,5.8177947998046875,13150800.0
2003-02-01,15.664999961853027,17.0,15.574999809265137,16.850000381469727,6.243941307067871,10367600.0
2003-03-01,16.899999618530273,18.0,16.649999618530273,17.559999465942383,6.5070366859436035,13581800.0
2003-04-01,17.295000076293945,18.579999923706055,17.235000610351562,18.100000381469727,6.707140922546387,12060400.0
2003-04-01,,,,,,
2003-05-01,18.149999618530273,19.469999313354492,17.924999237060547,18.700000762939453,7.149332046508789,12251600.0
2003-06-01,18.825000762939453,19.725000381469727,18.450000762939453,18.950000762939453,7.244909763336182,12697800.0
2003-07-01,18.75,20.604999542236328,18.604999542236328,20.46500015258789,7.824121952056885,9200400.0
2003-07-01,,,,,,
2003-08-01,20.46500015258789,20.875,20.0049991607666,20.84000015258789,8.201193809509277,5982000.0
2003-09-01,20.924999237060547,21.674999237060547,20.125,20.485000610351562,8.061487197875977,16225000.0
2003-10-01,20.225000381469727,21.09000015258789,20.1299991607666,20.829999923706055,8.197254180908203,14247000.0
2003-10-01,,,,,,
2003-11-01,20.8799991607666,22.024999618530273,20.799999237060547,22.0,8.89208984375,8487000.0
2003-12-01,22.049999237060547,22.93000030517578,21.78499984741211,22.375,9.043657302856445,9155600.0
2003-12-30,,,,,,
2004-01-01,22.450000762939453,23.2450008392334,21.875,23.065000534057617,9.560197830200195,10454200.0
2004-02-01,23.0,23.989999771118164,22.950000762939453,23.475000381469727,9.730134963989258,9105000.0
2004-03-01,23.4950008392334,25.65999984741211,23.479999542236328,25.489999771118164,10.565327644348145,10791400.0
2004-04-01,25.329999923706055,25.594999313354492,19.915000915527344,21.3700008392334,8.857637405395508,24312200.0
2004-04-01,,,,,,
2004-05-01,21.420000076293945,23.0049991607666,19.764999389648438,22.975000381469727,9.740714073181152,18863400.0
2004-06-01,22.975000381469727,23.325000762939453,22.2450008392334,22.75,9.645317077636719,14897600.0
2004-07-01,22.524999618530273,24.4950008392334,22.415000915527344,24.049999237060547,10.196478843688965,13990400.0
2004-07-01,,,,,,
2004-08-01,24.049999237060547,25.25,23.174999237060547,25.15999984741211,10.941214561462402,13338000.0
2004-09-01,25.15999984741211,25.899999618530273,24.5,25.649999618530273,11.15429973602295,11368800.0
2004-10-01,25.290000915527344,27.469999313354492,25.264999389648438,27.274999618530273,11.860956192016602,9374400.0
2004-10-01,,,,,,
2004-11-01,27.274999618530273,28.700000762939453,26.2549991607666,28.440000534057617,12.648658752441406,13577600.0
2004-12-01,28.479999542236328,29.639999389648438,28.25,28.9950008392334,12.895493507385254,12630800.0
2004-12-30,,,,,,
2005-01-01,28.950000762939453,29.09000015258789,25.899999618530273,26.489999771118164,12.032195091247559,15093600.0
2005-02-01,26.549999237060547,28.454999923706055,26.299999237060547,26.55500030517578,12.06171703338623,12920200.0
2005-03-01,26.55500030517578,27.9950008392334,26.125,26.950000762939453,12.241133689880371,14314800.0
2005-04-01,27.125,27.7450008392334,26.170000076293945,27.69499969482422,12.579524993896484,14525400.0
2005-04-01,,,,,,
2005-05-01,27.69499969482422,29.399999618530273,27.350000381469727,28.8799991607666,13.421564102172852,10394200.0
2005-06-01,28.9950008392334,29.9950008392334,28.610000610351562,29.454999923706055,13.688791275024414,11321600.0
2005-07-01,29.200000762939453,32.8849983215332,29.190000534057617,32.83000183105469,15.257268905639648,13637600.0
2005-07-01,,,,,,
2005-08-01,32.35499954223633,33.349998474121094,30.209999084472656,31.6200008392334,15.005706787109375,19101100.0
2005-08-24,,,,,,
2005-09-01,31.780000686645508,32.75,30.040000915527344,31.420000076293945,14.910795211791992,14960300.0
2005-10-01,31.290000915527344,31.549999237060547,27.809999465942383,29.6200008392334,14.056571960449219,16866800.0
2005-10-03,,,,,,
2005-11-01,29.5,31.690000534057617,28.6200008392334,31.450000762939453,15.083447456359863,14734200.0
2005-12-01,31.600000381469727,33.209999084472656,30.299999237060547,32.08000183105469,15.385597229003906,13705900.0
2005-12-29,,,,,,
2006-01-01,32.38999938964844,35.220001220703125,32.02000045776367,35.09000015258789,17.00075912475586,15000000.0
2006-02-01,35.0,36.4900016784668,33.650001525878906,35.93000030517578,17.40772819519043,17195500.0
2006-03-01,35.939998626708984,42.0,35.720001220703125,40.63999938964844,19.689672470092773,51569500.0
2006-04-01,40.56999969482422,40.56999969482422,36.25,37.130001068115234,17.989112854003906,28108200.0
2006-04-03,,,,,,
2006-05-01,37.279998779296875,37.63999938964844,34.20000076293945,35.849998474121094,17.511159896850586,18859000.0
2006-06-01,35.95000076293945,38.029998779296875,35.06999969482422,36.4900016784668,17.823780059814453,15371700.0
2006-07-01,36.54999923706055,39.720001220703125,36.18000030517578,39.2400016784668,19.16703224182129,14784000.0
2006-07-03,,,,,,
2006-08-01,39.2400016784668,41.790000915527344,36.849998474121094,41.54999923706055,20.480571746826172,13002300.0
2006-09-01,41.54999923706055,43.150001525878906,40.310001373291016,42.869998931884766,21.131221771240234,17804300.0
2006-10-01,42.5,45.5,42.130001068115234,44.43000030517578,21.900175094604492,19860700.0
2006-10-02,,,,,,
2006-11-01,44.68000030517578,46.7400016784668,42.150001525878906,46.380001068115234,23.054960250854492,22353200.0
2006-12-01,46.34000015258789,47.130001068115234,44.20000076293945,44.95000076293945,22.3441219329834,18730200.0
2006-12-28,,,,,,
2007-01-01,45.02000045776367,49.93000030517578,43.59000015258789,49.599998474121094,24.852750778198242,20309900.0
2007-02-01,49.650001525878906,53.599998474121094,48.93000030517578,50.27000045776367,25.188457489013672,29882200.0
2007-03-01,49.400001525878906,51.41999816894531,47.040000915527344,48.7400016784668,24.421829223632812,31791300.0
2007-04-01,48.630001068115234,50.36000061035156,47.470001220703125,48.06999969482422,24.08612060546875,19870800.0
2007-04-02,,,,,,
2007-05-01,48.279998779296875,49.369998931884766,42.41999816894531,46.290000915527344,23.366817474365234,30498700.0
2007-06-01,46.29999923706055,46.93000030517578,36.91999816894531,38.06999969482422,19.217424392700195,40734300.0
2007-07-01,38.0,40.900001525878906,33.7400016784668,37.33000183105469,18.8438777923584,41578400.0
2007-07-02,,,,,,
2007-08-01,37.25,44.810001373291016,36.459999084472656,42.81999969482422,21.821537017822266,53910700.0
2007-09-01,42.790000915527344,47.58000183105469,40.02000045776367,45.209999084472656,23.039508819580078,33092500.0
2007-10-01,44.61000061035156,47.689998626708984,40.13999938964844,41.52000045776367,21.15903663635254,34747600.0
2007-10-01,,,,,,
2007-11-01,41.189998626708984,41.27000045776367,35.08000183105469,39.4900016784668,20.30417823791504,48587400.0
2007-12-01,39.65999984741211,42.150001525878906,34.7400016784668,36.400001525878906,18.715425491333008,29990700.0
2007-12-28,,,,,,
2008-01-01,36.439998626708984,36.9900016784668,29.0,35.849998474121094,18.634632110595703,64284100.0
2008-02-01,35.70000076293945,37.599998474121094,32.720001220703125,33.77000045776367,17.553462982177734,43178700.0
2008-03-01,33.790000915527344,40.18000030517578,32.0099983215332,39.16999816894531,20.360355377197266,53533300.0
2008-04-01,39.849998474121094,42.29999923706055,37.779998779296875,39.90999984741211,20.744998931884766,40689700.0
2008-04-02,,,,,,
2008-05-01,39.84000015258789,42.220001220703125,38.68000030517578,39.349998474121094,20.653806686401367,28548600.0
2008-06-01,39.33000183105469,40.290000915527344,34.20000076293945,34.52000045776367,18.118667602539062,38595300.0
2008-07-01,33.90999984741211,37.709999084472656,29.540000915527344,35.290000915527344,18.52281951904297,88116900.0
2008-07-01,,,,,,
2008-08-01,35.119998931884766,38.20000076293945,33.9900016784668,37.13999938964844,19.722370147705078,46022900.0
2008-09-01,37.59000015258789,47.79999923706055,33.83000183105469,36.939998626708984,19.616167068481445,116166700.0
2008-10-01,36.31999969482422,37.060001373291016,16.649999618530273,22.579999923706055,11.990601539611816,166360400.0
2008-10-01,,,,,,
2008-11-01,22.6200008392334,23.299999237060547,9.5600004196167,14.149999618530273,7.604619979858398,179331000.0
2008-12-01,13.869999885559082,20.020000457763672,11.5,18.280000686645508,9.824204444885254,188195300.0
2008-12-30,,,,,,
2009-01-01,18.479999542236328,20.899999618530273,14.079999923706055,14.380000114440918,7.924448013305664,155227500.0
2009-02-01,14.119999885559082,14.520000457763672,8.600000381469727,8.850000381469727,4.8770060539245605,184718700.0
2009-03-01,8.260000228881836,9.600000381469727,6.329999923706055,7.619999885559082,4.199184894561768,255687200.0
2009-04-01,7.639999866485596,12.359999656677246,7.03000020980835,12.020000457763672,6.623911380767822,407402900.0
2009-04-02,,,,,,
2009-05-01,11.949999809265137,12.460000038146973,9.859999656677246,11.6899995803833,6.860124588012695,232813900.0
2009-06-01,11.850000381469727,12.979999542236328,9.210000038146973,10.050000190734863,5.897712230682373,168127700.0
2009-07-01,10.109999656677246,10.279999732971191,8.15999984741211,9.84000015258789,5.774475574493408,195993200.0
2009-07-01,,,,,,
2009-08-01,9.9399995803833,12.739999771118164,9.890000343322754,12.550000190734863,7.409039497375488,185372200.0
2009-09-01,12.5,15.869999885559082,11.010000228881836,13.039999961853027,7.698314666748047,226719300.0
2009-10-01,12.930000305175781,14.199999809265137,11.539999961853027,12.640000343322754,7.462172031402588,175201100.0
2009-10-01,,,,,,
2009-11-01,12.510000228881836,13.289999961853027,11.539999961853027,12.319999694824219,7.3068766593933105,145630900.0
2009-12-01,12.430000305175781,14.220000267028809,12.130000114440918,13.529999732971191,8.024515151977539,182677500.0
2009-12-30,,,,,,
2010-01-01,13.619999885559082,14.390000343322754,12.399999618530273,12.619999885559082,7.572280406951904,135846800.0
2010-02-01,12.720000267028809,14.09000015258789,12.489999771118164,13.890000343322754,8.334309577941895,114879500.0
2010-03-01,13.949999809265137,16.440000534057617,13.869999885559082,15.640000343322754,9.38434886932373,109413100.0
2010-03-31,,,,,,
2010-04-01,15.789999961853027,16.719999313354492,14.8100004196167,15.59000015258789,9.448599815368652,135214600.0
2010-05-01,15.760000228881836,16.709999084472656,13.069999694824219,14.300000190734863,8.666770935058594,148566500.0
2010-06-01,14.130000114440918,15.619999885559082,13.029999732971191,13.4399995803833,8.145551681518555,142553100.0
2010-06-29,,,,,,
2010-07-01,13.470000267028809,15.5600004196167,12.510000228881836,15.069999694824219,9.235209465026855,126331400.0
2010-08-01,15.359999656677246,15.619999885559082,14.0,14.90999984741211,9.13715648651123,98274400.0
2010-09-01,15.170000076293945,17.049999237060547,15.050000190734863,15.739999771118164,9.645796775817871,107147000.0
2010-10-01,15.75,17.5,15.640000343322754,17.209999084472656,10.54664134979248,95780600.0
2010-10-01,,,,,,
2010-11-01,17.309999465942383,18.399999618530273,15.609999656677246,16.65999984741211,10.31443977355957,98928800.0
2010-12-01,16.940000534057617,18.40999984741211,16.450000762939453,18.040000915527344,11.168817520141602,93218300.0
2010-12-30,,,,,,
2011-01-01,18.270000457763672,18.43000030517578,17.520000457763672,18.09000015258789,11.31220531463623,105223100.0
2011-02-01,18.209999084472656,19.469999313354492,17.959999084472656,19.3799991607666,12.118880271911621,72686000.0
2011-03-01,19.399999618530273,19.5,16.979999542236328,18.34000015258789,11.468541145324707,76254800.0
2011-04-01,18.299999237060547,19.670000076293945,17.280000686645508,19.540000915527344,12.21893310546875,74081100.0
2011-04-01,,,,,,
2011-05-01,19.709999084472656,19.799999237060547,18.5,19.510000228881836,12.321102142333984,69341500.0
2011-06-01,19.450000762939453,19.469999313354492,17.010000228881836,18.639999389648438,11.771669387817383,116111300.0
2011-07-01,18.459999084472656,20.309999465942383,18.3799991607666,19.030000686645508,12.017969131469727,87120400.0
2011-07-01,,,,,,
2011-08-01,19.229999542236328,19.31999969482422,14.600000381469727,17.700000762939453,11.287032127380371,147039100.0
2011-09-01,17.760000228881836,17.860000610351562,14.539999961853027,15.029999732971191,9.584410667419434,86554200.0
2011-10-01,14.649999618530273,17.93000030517578,13.550000190734863,17.469999313354492,11.140364646911621,102013900.0
2011-10-03,,,,,,
2011-11-01,16.850000381469727,17.59000015258789,14.5600004196167,15.770000457763672,10.178194999694824,90663000.0
2011-12-01,15.720000267028809,17.079999923706055,15.289999961853027,16.239999771118164,10.481539726257324,66824800.0
2011-12-30,,,,,,
2012-01-01,16.690000534057617,19.0,16.209999084472656,18.25,11.915868759155273,79505000.0
2012-02-01,18.3799991607666,18.950000762939453,18.1299991607666,18.40999984741211,12.02033805847168,64614200.0
2012-03-01,18.399999618530273,19.899999618530273,17.969999313354492,19.260000228881836,12.575323104858398,98901300.0
2012-04-01,19.190000534057617,19.440000534057617,17.780000686645508,19.40999984741211,12.673259735107422,62464400.0
2012-04-02,,,,,,
2012-05-01,19.420000076293945,19.959999084472656,17.600000381469727,17.950000762939453,11.836762428283691,63236600.0
2012-06-01,17.540000915527344,19.030000686645508,17.15999984741211,19.030000686645508,12.54894733428955,64748000.0
2012-07-01,18.770000457763672,19.690000534057617,18.6200008392334,19.489999771118164,12.852286338806152,76491600.0
2012-07-02,,,,,,
2012-08-01,19.56999969482422,20.479999542236328,19.350000381469727,20.31999969482422,13.534743309020996,69831900.0
2012-09-01,20.329999923706055,21.15999984741211,20.100000381469727,20.270000457763672,13.501439094543457,57309700.0
2012-10-01,20.239999771118164,20.950000762939453,19.399999618530273,19.520000457763672,13.001879692077637,62899600.0
2012-10-01,,,,,,
2012-11-01,19.510000228881836,19.780000686645508,18.110000610351562,19.260000228881836,12.950087547302246,67713000.0
2012-12-01,19.34000015258789,19.829999923706055,18.920000076293945,19.31999969482422,12.990428924560547,67393200.0
2012-12-28,,,,,,
2013-01-01,19.639999389648438,20.889999389648438,19.40999984741211,20.770000457763672,14.117973327636719,66054800.0
2013-02-01,20.93000030517578,21.979999542236328,20.809999465942383,21.770000457763672,14.797698974609375,65915000.0
2013-03-01,21.670000076293945,22.489999771118164,21.540000915527344,22.399999618530273,15.225932121276855,50308600.0
2013-04-01,22.200000762939453,23.780000686645508,22.040000915527344,23.780000686645508,16.163957595825195,59104200.0
2013-04-01,,,,,,
2013-05-01,23.739999771118164,25.09000015258789,22.020000457763672,22.149999618530273,15.198484420776367,84185800.0
2013-06-01,22.149999618530273,22.360000610351562,20.25,21.43000030517578,14.704444885253906,96746600.0
2013-07-01,21.299999237060547,23.239999771118164,21.030000686645508,22.549999237060547,15.472952842712402,56092500.0
2013-07-01,,,,,,
2013-08-01,22.65999984741211,22.950000762939453,19.889999389648438,20.030000686645508,13.87983512878418,67027700.0
2013-09-01,20.229999542236328,21.3700008392334,19.68000030517578,20.18000030517578,13.983781814575195,72878000.0
2013-10-01,19.959999084472656,21.770000457763672,19.219999313354492,21.479999542236328,14.88461971282959,100809800.0
2013-10-01,,,,,,
2013-11-01,21.530000686645508,21.829999923706055,20.610000610351562,20.6200008392334,14.438932418823242,64284800.0
2013-12-01,20.579999923706055,21.209999084472656,19.709999084472656,19.75,13.829723358154297,62734600.0
2013-12-30,,,,,,
2014-01-01,19.770000457763672,21.079999923706055,19.610000610351562,20.90999984741211,14.80750846862793,70658700.0
2014-02-01,20.860000610351562,22.299999237060547,20.299999237060547,22.260000228881836,15.763521194458008,63558700.0
2014-03-01,22.170000076293945,22.700000762939453,21.299999237060547,21.8799991607666,15.494418144226074,63287500.0
2014-03-28,,,,,,
2014-04-01,21.700000762939453,22.959999084472656,21.40999984741211,22.920000076293945,16.400482177734375,48778400.0
2014-04-01,,,,,,
2014-05-01,22.90999984741211,23.239999771118164,22.5,22.920000076293945,16.570892333984375,55682100.0
2014-06-01,22.90999984741211,23.6299991607666,22.270000457763672,22.979999542236328,16.61426544189453,55015700.0
2014-07-01,22.920000076293945,23.81999969482422,22.360000610351562,22.3799991607666,16.180469512939453,40096900.0
2014-07-01,,,,,,
2014-08-01,22.3799991607666,23.75,22.040000915527344,23.489999771118164,17.150917053222656,53092900.0
2014-09-01,23.540000915527344,23.65999984741211,21.540000915527344,21.90999984741211,15.997306823730469,56112800.0
2014-10-01,21.700000762939453,24.989999771118164,21.559999465942383,24.950000762939453,18.216917037963867,82154100.0
2014-10-01,,,,,,
2014-11-01,25.0,25.770000457763672,24.420000076293945,25.450000762939453,18.774791717529297,51896800.0
2014-12-01,25.40999984741211,26.040000915527344,24.84000015258789,25.139999389648438,18.54610252380371,78871700.0
2014-12-26,,,,,,
2014-12-30,,,,,,
2015-01-01,25.260000228881836,28.540000915527344,25.200000762939453,27.649999618530273,20.782012939453125,62855300.0
2015-02-01,27.649999618530273,28.100000381469727,26.0,26.280000686645508,19.752304077148438,61560300.0
2015-03-01,26.260000228881836,27.950000762939453,25.25,26.850000381469727,20.180721282958984,53944100.0
2015-04-01,26.549999237060547,27.059999465942383,24.06999969482422,24.100000381469727,18.11379623413086,46439300.0
2015-04-01,,,,,,
2015-05-01,24.139999389648438,25.030000686645508,23.68000030517578,23.959999084472656,18.170991897583008,56656100.0
2015-06-01,23.989999771118164,24.3799991607666,22.479999542236328,22.540000915527344,17.094079971313477,57453000.0
2015-07-01,22.450000762939453,24.989999771118164,22.299999237060547,24.709999084472656,18.739782333374023,71127000.0
2015-07-01,,,,,,
2015-08-01,24.700000762939453,25.700000762939453,22.520000457763672,23.049999237060547,17.66899299621582,81171800.0
2015-09-01,22.639999389648438,24.489999771118164,22.06999969482422,24.43000030517578,18.72684097290039,74212900.0
2015-10-01,24.34000015258789,27.239999771118164,23.979999542236328,26.770000457763672,20.520566940307617,73131600.0
2015-10-01,,,,,,
2015-11-01,26.709999084472656,27.329999923706055,25.260000228881836,26.09000015258789,20.197731018066406,51858300.0
2015-12-01,26.299999237060547,27.1299991607666,24.979999542236328,26.459999084472656,20.484167098999023,74427400.0
2015-12-30,,,,,,
2015-12-31,,,,,,
2016-01-01,26.170000076293945,27.209999084472656,24.75,27.190000534057617,21.45520782470703,74372000.0
2016-02-01,26.989999771118164,28.079999923706055,26.059999465942383,26.75,21.10801124572754,68473800.0
2016-03-01,27.020000457763672,29.110000610351562,26.889999389648438,28.780000686645508,22.709854125976562,54474900.0
2016-04-01,28.489999771118164,28.809999465942383,27.729999542236328,28.1200008392334,22.189058303833008,48796700.0
2016-04-01,,,,,,
2016-05-01,28.139999389648438,29.969999313354492,26.790000915527344,28.18000030517578,22.435184478759766,71804900.0
2016-06-01,28.040000915527344,31.3799991607666,28.020000457763672,31.3799991607666,24.98282814025879,56556200.0
2016-07-01,31.100000381469727,32.2400016784668,30.440000534057617,32.099998474121094,25.556045532226562,50369300.0
2016-07-01,,,,,,
2016-08-01,32.06999969482422,32.20000076293945,29.31999969482422,30.049999237060547,24.119962692260742,57590100.0
2016-09-01,30.059999465942383,30.700000762939453,28.34000015258789,28.950000762939453,23.23703956604004,49845300.0
2016-10-01,28.6299991607666,29.229999542236328,25.969999313354492,26.610000610351562,21.358816146850586,73253300.0
2016-10-03,,,,,,
2016-11-01,26.5,26.6200008392334,24.760000228881836,25.540000915527344,20.68214225769043,101017300.0
2016-12-01,25.459999084472656,26.6299991607666,24.350000381469727,25.15999984741211,20.374418258666992,76134100.0
2016-12-29,,,,,,
2017-01-01,25.3799991607666,26.15999984741211,24.559999465942383,24.809999465942383,20.312944412231445,88607300.0
2017-02-01,24.8799991607666,25.149999618530273,24.020000457763672,24.479999542236328,20.042762756347656,91639400.0
2017-03-01,24.110000610351562,24.110000610351562,21.459999084472656,22.09000015258789,18.085969924926758,99211400.0
2017-04-01,21.81999969482422,23.030000686645508,20.18000030517578,20.290000915527344,16.612241744995117,76370300.0
2017-04-03,,,,,,
2017-05-01,20.31999969482422,20.899999618530273,17.139999389648438,17.540000915527344,14.538403511047363,117306400.0
2017-06-01,17.489999771118164,19.889999389648438,17.020000457763672,18.760000228881836,15.549626350402832,241341300.0
2017-07-01,18.18000030517578,21.239999771118164,17.600000381469727,20.18000030517578,16.726621627807617,110752700.0
2017-07-03,,,,,,
2017-08-01,20.299999237060547,20.780000686645508,19.0,19.440000534057617,16.3538875579834,114380900.0
2017-09-01,19.6299991607666,20.6299991607666,19.1299991607666,19.260000228881836,16.202463150024414,111218900.0
2017-10-01,19.549999237060547,19.790000915527344,17.760000228881836,18.15999984741211,15.277087211608887,74029200.0
2017-10-02,,,,,,
2017-10-03,,,,,,
2017-11-01,18.219999313354492,19.530000686645508,17.959999084472656,18.520000457763672,16.021564483642578,87292700.0
2017-12-01,18.559999465942383,19.3799991607666,17.829999923706055,18.149999618530273,15.701478004455566,74574100.0
2017-12-29,,,,,,
2018-01-01,18.239999771118164,18.3700008392334,15.460000038146973,15.90999984741211,13.976700782775879,118421500.0
2018-02-01,15.899999618530273,15.949999809265137,13.699999809265137,14.960000038146973,13.142139434814453,130462800.0
2018-03-01,14.880000114440918,15.420000076293945,13.6899995803833,14.399999618530273,12.650186538696289,102045600.0
2018-04-01,14.149999618530273,14.779999732971191,13.15999984741211,14.510000228881836,12.746820449829102,88488600.0
2018-04-02,,,,,,
2018-05-01,14.520000457763672,15.470000267028809,13.859999656677246,15.460000038146973,13.850701332092285,85515600.0
2018-06-01,15.449999809265137,17.959999084472656,15.3100004196167,16.989999771118164,15.221439361572266,101265200.0
2018-07-01,16.700000762939453,17.34000015258789,15.949999809265137,16.690000534057617,14.952668190002441,74701300.0
2018-07-02,,,,,,
2018-08-01,16.639999389648438,17.540000915527344,16.010000228881836,17.110000610351562,15.585805892944336,68728800.0
2018-09-01,17.110000610351562,17.65999984741211,16.360000610351562,16.739999771118164,15.248764991760254,59619700.0
2018-10-01,16.520000457763672,16.579999923706055,14.680000305175781,16.09000015258789,14.656667709350586,104536100.0
2018-10-01,,,,,,
2018-11-01,16.170000076293945,16.5,15.3100004196167,16.350000381469727,15.146858215332031,67046200.0
2018-12-01,16.459999084472656,17.110000610351562,14.289999961853027,14.649999618530273,13.571954727172852,87611500.0
2018-12-31,,,,,,
2019-01-01,14.5,17.5,14.319999694824219,17.010000228881836,16.058040618896484,98031900.0
2019-02-01,17.149999618530273,17.940000534057617,16.829999923706055,17.59000015258789,16.60558319091797,65885700.0
2019-03-01,17.610000610351562,18.639999389648438,17.020000457763672,18.5,17.46465492248535,70919300.0
2019-04-01,18.139999389648438,18.559999465942383,16.8799991607666,17.389999389648438,16.416772842407227,69449500.0
2019-04-01,,,,,,
2019-05-01,17.399999618530273,18.43000030517578,17.09000015258789,17.399999618530273,16.67864990234375,91663200.0
2019-06-01,17.450000762939453,19.290000915527344,17.260000228881836,18.479999542236328,17.713876724243164,72781800.0
2019-07-01,18.309999465942383,19.43000030517578,17.559999465942383,19.209999084472656,18.413610458374023,74287100.0
2019-07-01,,,,,,
2019-08-01,19.200000762939453,19.299999237060547,18.030000686645508,18.3799991607666,17.889066696166992,78044500.0
2019-09-01,18.360000610351562,20.950000762939453,18.260000228881836,20.8799991607666,20.322290420532227,88391600.0
2019-10-01,20.600000381469727,21.81999969482422,20.15999984741211,21.15999984741211,20.59481430053711,87094900.0
2019-10-01,,,,,,
2019-11-01,21.600000381469727,21.860000610351562,20.65999984741211,21.6200008392334,21.328542709350586,67836100.0
2019-12-01,21.579999923706055,21.59000015258789,20.059999465942383,20.709999084472656,20.430809020996094,74678400.0
2019-12-31,,,,,,
2020-01-01,20.780000686645508,20.780000686645508,18.90999984741211,19.049999237060547,19.049999237060547,84468000.0
2020-02-01,19.110000610351562,19.899999618530273,16.790000915527344,17.350000381469727,17.350000381469727,79386200.0
2020-03-01,17.389999389648438,18.389999389648438,9.010000228881836,11.1899995803833,11.1899995803833,138497800.0
2020-03-26,11.390000343322754,11.789999961853027,10.600000381469727,11.164999961853027,11.164999961853027,3052266.0
