Date,Open,High,Low,Close,Adj Close,Volume
1985-12-01,0.0,0.0052083334885537624,0.0032552082557231188,0.0032552082557231188,0.0026631627697497606,409070400.0
1986-01-01,0.0,0.005859375,0.0032552082557231188,0.0045572915114462376,0.0037284279242157936,608486400.0
1986-02-01,0.0,0.0065104165114462376,0.00390625,0.0052083334885537624,0.004261060617864132,591489600.0
1986-03-01,0.0,0.0078125,0.0045572915114462376,0.0065104165114462376,0.005326325539499521,615494400.0
1986-04-01,0.0,0.0078125,0.0065104165114462376,0.0065104165114462376,0.005326325539499521,554452800.0
1986-05-01,0.0,0.0078125,0.0065104165114462376,0.0065104165114462376,0.005326325539499521,312206400.0
1986-06-01,0.0,0.0078125,0.0065104165114462376,0.0065104165114462376,0.005326325539499521,247963200.0
1986-07-01,0.0,0.0078125,0.0065104165114462376,0.0065104165114462376,0.005326325539499521,333705600.0
1986-08-01,0.0,0.0078125,0.0045572915114462376,0.0045572915114462376,0.0037284279242157936,700771200.0
1986-09-01,0.0,0.0065104165114462376,0.0045572915114462376,0.0045572915114462376,0.0037284279242157936,306782400.0
1986-10-01,0.0,0.0065104165114462376,0.0026041667442768812,0.0032552082557231188,0.0026631627697497606,460804800.0
1986-11-01,0.0,0.0052083334885537624,0.0032552082557231188,0.0032552082557231188,0.0026631627697497606,301252800.0
1986-12-01,0.0,0.0045572915114462376,0.001953125,0.001953125,0.0015978977316990495,334502400.0
1987-01-01,0.0,0.00390625,0.001953125,0.0026041667442768812,0.002130530308932066,201019200.0
1987-02-01,0.0,0.0052083334885537624,0.0026041667442768812,0.0032552082557231188,0.0026631627697497606,248803200.0
1987-03-01,0.0,0.0052083334885537624,0.0032552082557231188,0.0032552082557231188,0.0026631627697497606,262502400.0
1987-04-01,0.0,0.0052083334885537624,0.0032552082557231188,0.0032552082557231188,0.0026631627697497606,248236800.0
1987-05-01,0.0,0.0045572915114462376,0.0032552082557231188,0.0032552082557231188,0.0026631627697497606,231835200.0
1987-06-01,0.0,0.0045572915114462376,0.0026041667442768812,0.0026041667442768812,0.002130530308932066,189984000.0
1987-07-01,0.0,0.00390625,0.0026041667442768812,0.0026041667442768812,0.002130530308932066,213331200.0
1987-08-01,0.0,0.0045572915114462376,0.0026041667442768812,0.0026041667442768812,0.002130530308932066,196180800.0
1987-09-01,0.0,0.00390625,0.0013020833721384406,0.001953125,0.0015978977316990495,128462400.0
1987-10-01,0.0,0.0026041667442768812,0.0006510416860692203,0.0006510416860692203,0.0005326325772330165,136195200.0
1987-11-01,0.0,0.001953125,0.0006510416860692203,0.0006510416860692203,0.0005326325772330165,152942400.0
1987-12-01,0.0,0.001953125,0.0006510416860692203,0.0006510416860692203,0.0005326325772330165,215601600.0
1988-01-01,0.0,0.0026041667442768812,0.0006510416860692203,0.0013020833721384406,0.001065265154466033,418176000.0
1988-02-01,0.0,0.09375,0.0013020833721384406,0.0625,0.05113272741436958,341155200.0
1988-02-29,,,,,,
1988-03-01,0.0,0.1302083283662796,0.0677083358168602,0.09375,0.07669909298419952,7800000.0
1988-04-01,0.0,0.1328125,0.078125,0.1119791641831398,0.0916128009557724,7622400.0
1988-05-01,0.0,0.1302083283662796,0.0989583358168602,0.0989583358168602,0.08096015453338623,5659200.0
1988-06-01,0.0,0.125,0.0963541641831398,0.0989583358168602,0.08096015453338623,5217600.0
1988-07-01,0.0,0.125,0.0989583358168602,0.1041666641831398,0.08522120863199234,7152000.0
1988-08-01,0.0,0.125,0.1015625,0.1015625,0.08309068530797958,4790400.0
1988-09-01,0.0,0.1197916641831398,0.0911458358168602,0.0911458358168602,0.07456856220960617,2851200.0
1988-10-01,0.0,0.1614583283662796,0.0859375,0.1458333283662796,0.1193096935749054,15436800.0
1988-11-01,0.0,0.1692708283662796,0.1328125,0.1380208283662796,0.11291810125112534,16046400.0
1988-12-01,0.0,0.1432291716337204,0.0911458358168602,0.0963541641831398,0.07882961630821228,11510400.0
1989-01-01,0.0,0.1041666641831398,0.0833333358168602,0.0859375,0.07030750066041946,5942400.0
1989-02-01,0.0,0.1171875,0.0859375,0.0989583358168602,0.08096015453338623,10838400.0
1989-03-01,0.0,0.1145833358168602,0.0911458358168602,0.0911458358168602,0.07456856220960617,5217600.0
1989-04-01,0.0,0.1041666641831398,0.0755208358168602,0.0755208358168602,0.06178538128733635,5323200.0
1989-05-01,0.0,0.0833333358168602,0.0625,0.0651041641831398,0.05326325446367264,5592000.0
1989-06-01,0.0,0.0833333358168602,0.0651041641831398,0.0651041641831398,0.05326325446367264,3979200.0
1989-07-01,0.0,0.0807291641831398,0.0598958320915699,0.0598958320915699,0.04900219663977623,2020800.0
1989-08-01,0.0,0.0729166641831398,0.0494791679084301,0.0494791679084301,0.040480077266693115,2769600.0
1989-09-01,0.0,0.0729166641831398,0.0442708320915699,0.0572916679084301,0.046871669590473175,7089600.0
1989-10-01,0.0,0.0703125,0.046875,0.046875,0.03834954649209976,3201600.0
1989-11-01,0.0,0.0572916679084301,0.0390625,0.0390625,0.0319579541683197,2620800.0
1989-12-01,0.0,0.0520833320915699,0.0390625,0.0390625,0.0319579541683197,1680000.0
1990-01-01,0.0390625,0.0520833320915699,0.0390625,0.0390625,0.0319579541683197,3475200.0
1990-02-01,0.0,0.0677083358168602,0.0390625,0.046875,0.03834954649209976,7305600.0
1990-03-01,0.0,0.1145833358168602,0.046875,0.0885416641831398,0.07243803143501282,15283200.0
1990-04-01,0.0,0.1041666641831398,0.0833333358168602,0.0833333358168602,0.06817696988582611,4795200.0
1990-05-01,0.0,0.0963541641831398,0.0833333358168602,0.0833333358168602,0.06817696988582611,1478400.0
1990-06-01,0.0,0.125,0.0807291641831398,0.0807291641831398,0.06604643911123276,11745600.0
1990-07-01,0.0,0.0885416641831398,0.078125,0.078125,0.0639159083366394,1382400.0
1990-08-01,0.0,0.0833333358168602,0.0625,0.0677083358168602,0.05539378896355629,5630400.0
1990-09-01,0.0677083358168602,0.0807291641831398,0.0572916679084301,0.0572916679084301,0.046871669590473175,1027200.0
1990-10-01,0.0,0.0729166641831398,0.0364583320915699,0.0364583320915699,0.02982742339372635,2529600.0
1990-11-01,0.0,0.0911458358168602,0.046875,0.0494791679084301,0.040480077266693115,15393600.0
1990-11-08,,,,,,
1990-12-01,0.0,0.0572916679084301,0.0390625,0.0390625,0.0390625,3624000.0
1991-01-01,0.0,0.046875,0.03125,0.0364583320915699,0.0364583320915699,4444800.0
1991-02-01,0.0364583320915699,0.0416666679084301,0.02864583395421505,0.03125,0.03125,1718400.0
1991-03-01,0.0,0.0520833320915699,0.0338541679084301,0.0390625,0.0390625,4214400.0
1991-04-01,0.0,0.0416666679084301,0.02864583395421505,0.02864583395421505,0.02864583395421505,1603200.0
1991-05-01,0.0,0.0364583320915699,0.02864583395421505,0.03125,0.03125,950400.0
1991-06-01,0.0,0.0416666679084301,0.03125,0.0364583320915699,0.0364583320915699,1689600.0
1991-07-01,0.0,0.0416666679084301,0.0364583320915699,0.0364583320915699,0.0364583320915699,230400.0
1991-08-01,0.0364583320915699,0.0416666679084301,0.0364583320915699,0.0390625,0.0390625,1209600.0
1991-09-01,0.0390625,0.0416666679084301,0.0390625,0.0390625,0.0390625,681600.0
1991-10-01,0.0,0.0416666679084301,0.0338541679084301,0.0338541679084301,0.0338541679084301,1267200.0
1991-11-01,0.0,0.0572916679084301,0.0338541679084301,0.046875,0.046875,3451200.0
1991-12-01,0.046875,0.0572916679084301,0.046875,0.046875,0.046875,1276800.0
1992-01-01,0.0,0.0546875,0.0416666679084301,0.0416666679084301,0.0416666679084301,638400.0
1992-02-01,0.0,0.0703125,0.03125,0.0546875,0.0546875,1780800.0
1992-03-01,0.0,0.0703125,0.0546875,0.0572916679084301,0.0572916679084301,1377600.0
1992-04-01,0.0,0.0677083358168602,0.0416666679084301,0.0416666679084301,0.0416666679084301,1982400.0
1992-05-01,0.0,0.0572916679084301,0.0338541679084301,0.0338541679084301,0.0338541679084301,1488000.0
1992-06-01,0.0338541679084301,0.046875,0.02604166604578495,0.03125,0.03125,9494400.0
1992-07-01,0.03125,0.0625,0.02864583395421505,0.0598958320915699,0.0598958320915699,9705600.0
1992-08-01,0.0598958320915699,0.0677083358168602,0.0494791679084301,0.0520833320915699,0.0520833320915699,5433600.0
1992-09-01,0.0598958320915699,0.0625,0.046875,0.0625,0.0625,4862400.0
1992-10-01,0.0625,0.0625,0.0494791679084301,0.0598958320915699,0.0598958320915699,6513600.0
1992-11-01,0.0546875,0.1119791641831398,0.0546875,0.0989583358168602,0.0989583358168602,12494400.0
1992-12-01,0.1067708358168602,0.1067708358168602,0.0885416641831398,0.0924479141831398,0.0924479141831398,4267200.0
1993-01-01,0.09375,0.0963541641831398,0.0729166641831398,0.0885416641831398,0.0885416641831398,5352000.0
1993-02-01,0.0885416641831398,0.0885416641831398,0.0677083358168602,0.0677083358168602,0.0677083358168602,1228800.0
1993-03-01,0.0729166641831398,0.0729166641831398,0.0572916679084301,0.0625,0.0625,5073600.0
1993-04-01,0.0677083358168602,0.0677083358168602,0.0598958320915699,0.0598958320915699,0.0598958320915699,6729600.0
1993-05-01,0.0625,0.0651041641831398,0.0520833320915699,0.0598958320915699,0.0598958320915699,3192000.0
1993-06-01,0.0625,0.0755208358168602,0.0598958320915699,0.0598958320915699,0.0598958320915699,9307200.0
1993-07-01,0.0677083358168602,0.0677083358168602,0.0520833320915699,0.0598958320915699,0.0598958320915699,4641600.0
1993-08-01,0.0572916679084301,0.0729166641831398,0.0572916679084301,0.0638020858168602,0.0638020858168602,7176000.0
1993-09-01,0.0651041641831398,0.0651041641831398,0.0546875,0.0559895820915699,0.0559895820915699,4713600.0
1993-10-01,0.0546875,0.0546875,0.0442708320915699,0.0494791679084301,0.0494791679084301,8222400.0
1993-11-01,0.0520833320915699,0.0703125,0.0481770820915699,0.0651041641831398,0.0651041641831398,18700800.0
1993-12-01,0.0651041641831398,0.0651041641831398,0.0520833320915699,0.0546875,0.0546875,11116800.0
1994-01-01,0.0559895820915699,0.0572916679084301,0.0494791679084301,0.0494791679084301,0.0494791679084301,10099200.0
1994-02-01,0.0494791679084301,0.0559895820915699,0.0494791679084301,0.0546875,0.0546875,8236800.0
1994-03-01,0.0533854179084301,0.0651041641831398,0.0533854179084301,0.0572916679084301,0.0572916679084301,17227200.0
1994-04-01,0.0625,0.0625,0.0520833320915699,0.05859375,0.05859375,7483200.0
1994-05-01,0.05859375,0.05859375,0.05078125,0.0520833320915699,0.0520833320915699,6100800.0
1994-06-01,0.0520833320915699,0.0546875,0.0442708320915699,0.0494791679084301,0.0494791679084301,9264000.0
1994-07-01,0.0520833320915699,0.0651041641831398,0.0494791679084301,0.0625,0.0625,10224000.0
1994-08-01,0.0625,0.0651041641831398,0.0546875,0.0598958320915699,0.0598958320915699,10828800.0
1994-09-01,0.0598958320915699,0.0625,0.0546875,0.0559895820915699,0.0559895820915699,3758400.0
1994-10-01,0.0559895820915699,0.0572916679084301,0.0416666679084301,0.0442708320915699,0.0442708320915699,12225600.0
1994-11-01,0.0436197929084301,0.046875,0.0384114570915699,0.0390625,0.0390625,11544000.0
1994-12-01,0.0442708320915699,0.0442708320915699,0.03515625,0.0390625,0.0390625,4147200.0
1995-01-01,0.0377604179084301,0.04296875,0.0338541679084301,0.0390625,0.0390625,1608000.0
1995-02-01,0.0338541679084301,0.0416666679084301,0.0338541679084301,0.0403645820915699,0.0403645820915699,1920000.0
1995-03-01,0.0377604179084301,0.0403645820915699,0.02994791604578495,0.0338541679084301,0.0338541679084301,6811200.0
1995-04-01,0.0325520820915699,0.0325520820915699,0.02734375,0.03125,0.03125,12854400.0
1995-05-01,0.03125,0.0338541679084301,0.02864583395421505,0.02864583395421505,0.02864583395421505,5640000.0
1995-06-01,0.02864583395421505,0.03125,0.02473958395421505,0.02604166604578495,0.02604166604578495,4828800.0
1995-07-01,0.02473958395421505,0.0364583320915699,0.02473958395421505,0.02864583395421505,0.02864583395421505,14246400.0
1995-08-01,0.02864583395421505,0.08594000339508057,0.02473958395421505,0.08594000339508057,0.08594000339508057,9491200.0
1995-09-01,0.02864583395421505,0.03125,0.0234375,0.02408854104578495,0.02408854104578495,5016000.0
1995-10-01,0.02994791604578495,0.02994791604578495,0.01822916604578495,0.01953125,0.01953125,8318400.0
1995-11-01,0.0234375,0.0234375,0.01822916604578495,0.01822916604578495,0.01822916604578495,6830400.0
1995-12-01,0.01822916604578495,0.02018229104578495,0.012369791977107525,0.014322916977107525,0.014322916977107525,12278400.0
1996-01-01,0.014322916977107525,0.02018229104578495,0.013020833022892475,0.015625,0.015625,20990400.0
1996-02-01,0.014322916977107525,0.01822916604578495,0.013671875,0.015625,0.015625,12000000.0
1996-03-01,0.013671875,0.015625,0.013020833022892475,0.014973958022892475,0.014973958022892475,6960000.0
1996-04-01,0.014973958022892475,0.025390625,0.013020833022892475,0.025390625,0.025390625,18273600.0
1996-05-01,0.025390625,0.0559895820915699,0.02083333395421505,0.0338541679084301,0.0338541679084301,78907200.0
1996-06-01,0.0338541679084301,0.0533854179084301,0.02473958395421505,0.04296875,0.04296875,36763200.0
1996-07-01,0.04296875,0.0520833320915699,0.0390625,0.0390625,0.0390625,28953600.0
1996-08-01,0.0390625,0.046875,0.03515625,0.0416666679084301,0.0416666679084301,15470400.0
1996-09-01,0.0390625,0.0403645820915699,0.0338541679084301,0.0338541679084301,0.0338541679084301,12792000.0
1996-10-01,0.0338541679084301,0.0481770820915699,0.02213541604578495,0.02473958395421505,0.02473958395421505,63969600.0
1996-11-01,0.02604166604578495,0.02994791604578495,0.02473958395421505,0.02604166604578495,0.02604166604578495,14491200.0
1996-12-01,0.02604166604578495,0.02734375,0.02213541604578495,0.02213541604578495,0.02213541604578495,16848000.0
1997-01-01,0.02213541604578495,0.02864583395421505,0.02213541604578495,0.02213541604578495,0.02213541604578495,4824000.0
1997-02-01,0.02213541604578495,0.02604166604578495,0.02213541604578495,0.02473958395421505,0.02473958395421505,6139200.0
1997-03-01,0.02083333395421505,0.0234375,0.02083333395421505,0.02083333395421505,0.02083333395421505,10219200.0
1997-04-01,0.02083333395421505,0.02604166604578495,0.02018229104578495,0.025390625,0.025390625,15177600.0
1997-05-01,0.0234375,0.02734375,0.02213541604578495,0.0234375,0.0234375,7795200.0
1997-06-01,0.0234375,0.02994791604578495,0.02213541604578495,0.02473958395421505,0.02473958395421505,22440000.0
1997-07-01,0.02473958395421505,0.03059895895421505,0.021484375,0.02864583395421505,0.02864583395421505,19056000.0
1997-08-01,0.02864583395421505,0.0338541679084301,0.02734375,0.02864583395421505,0.02864583395421505,15081600.0
1997-09-01,0.02864583395421505,0.0403645820915699,0.02864583395421505,0.0364583320915699,0.0364583320915699,29971200.0
1997-10-01,0.0377604179084301,0.0559895820915699,0.0364583320915699,0.0390625,0.0390625,56812800.0
1997-11-01,0.0390625,0.046875,0.0338541679084301,0.0462239570915699,0.0462239570915699,25137600.0
1997-12-01,0.0462239570915699,0.0462239570915699,0.0325520820915699,0.0377604179084301,0.0377604179084301,14112000.0
1998-01-01,0.0377604179084301,0.0377604179084301,0.03059895895421505,0.033203125,0.033203125,9787200.0
1998-02-01,0.0338541679084301,0.0481770820915699,0.033203125,0.046875,0.046875,28843200.0
1998-03-01,0.0455729179084301,0.0533854179084301,0.0416666679084301,0.052734375,0.052734375,55833600.0
1998-04-01,0.0514322929084301,0.0729166641831398,0.0494791679084301,0.0703125,0.0703125,48782400.0
1998-05-01,0.0703125,0.0885416641831398,0.0611979179084301,0.0846354141831398,0.0846354141831398,92073600.0
1998-06-01,0.0859375,0.0989583358168602,0.0755208358168602,0.0963541641831398,0.0963541641831398,49545600.0
1998-07-01,0.0989583358168602,0.1243489608168602,0.0970052108168602,0.1223958358168602,0.1223958358168602,73939200.0
1998-08-01,0.125,0.1419270783662796,0.0833333358168602,0.0846354141831398,0.0846354141831398,123187200.0
1998-09-01,0.0833333358168602,0.1028645858168602,0.078125,0.0826822891831398,0.0826822891831398,28128000.0
1998-10-01,0.0807291641831398,0.1145833358168602,0.0611979179084301,0.1100260391831398,0.1100260391831398,61564800.0
1998-11-01,0.111328125,0.1360677033662796,0.1002604141831398,0.1041666641831398,0.1041666641831398,98520000.0
1998-12-01,0.109375,0.1158854141831398,0.09375,0.1119791641831398,0.1119791641831398,49944000.0
1999-01-01,0.1119791641831398,0.115234375,0.0911458358168602,0.0950520858168602,0.0950520858168602,47601600.0
1999-02-01,0.0963541641831398,0.1171875,0.08203125,0.0859375,0.0859375,62078400.0
1999-03-01,0.0859375,0.09375,0.0716145858168602,0.0768229141831398,0.0768229141831398,48067200.0
1999-04-01,0.0768229141831398,0.1145833358168602,0.0755208358168602,0.1119791641831398,0.1119791641831398,56270400.0
1999-05-01,0.1106770858168602,0.1145833358168602,0.0885416641831398,0.1002604141831398,0.1002604141831398,43665600.0
1999-06-01,0.09765625,0.10546875,0.0872395858168602,0.0911458358168602,0.0911458358168602,41188800.0
1999-07-01,0.08984375,0.1145833358168602,0.08984375,0.1119791641831398,0.1119791641831398,47390400.0
1999-08-01,0.1171875,0.1171875,0.0989583358168602,0.1002604141831398,0.1002604141831398,31910400.0
1999-09-01,0.1028645858168602,0.1080729141831398,0.0989583358168602,0.10546875,0.10546875,31099200.0
1999-10-01,0.1041666641831398,0.1067708358168602,0.0807291641831398,0.0846354141831398,0.0846354141831398,37190400.0
1999-11-01,0.0846354141831398,0.0989583358168602,0.0807291641831398,0.0911458358168602,0.0911458358168602,72864000.0
1999-12-01,0.08984375,0.09765625,0.0833333358168602,0.08984375,0.08984375,38160000.0
2000-01-01,0.0891927108168602,0.0963541641831398,0.0859375,0.09375,0.09375,33854400.0
2000-02-01,0.0924479141831398,0.0950520858168602,0.0833333358168602,0.0872395858168602,0.0872395858168602,28089600.0
2000-03-01,0.087890625,0.09375,0.0833333358168602,0.09375,0.09375,42350400.0
2000-04-01,0.0911458358168602,0.0950520858168602,0.0859375,0.0930989608168602,0.0930989608168602,29971200.0
2000-05-01,0.09375,0.0944010391831398,0.0706380233168602,0.08984375,0.08984375,36144000.0
2000-06-01,0.0859375,0.0924479141831398,0.0833333358168602,0.0859375,0.0859375,23035200.0
2000-07-01,0.0872395858168602,0.0989583358168602,0.0859375,0.09375,0.09375,23169600.0
2000-08-01,0.0950520858168602,0.1080729141831398,0.0911458358168602,0.1067708358168602,0.1067708358168602,37905600.0
2000-09-01,0.109375,0.1328125,0.1067708358168602,0.11328125,0.11328125,24388800.0
2000-10-01,0.1139322891831398,0.1197916641831398,0.1015625,0.1119791641831398,0.1119791641831398,15374400.0
2000-11-01,0.1129557266831398,0.1129557266831398,0.0716145858168602,0.0755208358168602,0.0755208358168602,20832000.0
2000-12-01,0.0745442733168602,0.0833333358168602,0.0625,0.0807291641831398,0.0807291641831398,23544000.0
2001-01-01,0.0794270858168602,0.08984375,0.0784505233168602,0.0846354141831398,0.0846354141831398,10200000.0
2001-02-01,0.083984375,0.0911458358168602,0.0729166641831398,0.07421875,0.07421875,50112000.0
2001-03-01,0.07421875,0.0794270858168602,0.0625,0.0703125,0.0703125,20649600.0
2001-04-01,0.0696614608168602,0.07916666567325592,0.06750000268220901,0.06791666895151138,0.06791666895151138,5980800.0
2001-05-01,0.06791666895151138,0.06791666895151138,0.053958334028720856,0.06416666507720947,0.06416666507720947,13276800.0
2001-06-01,0.06416666507720947,0.07083333283662796,0.0625,0.07083333283662796,0.07083333283662796,11467200.0
2001-07-01,0.07083333283662796,0.08124999701976776,0.06937500089406967,0.08020833134651184,0.08020833134651184,9513600.0
2001-08-01,0.08020833134651184,0.0833333358168602,0.078125,0.0808333307504654,0.0808333307504654,9974400.0
2001-09-01,0.08187499642372131,0.08229167014360428,0.059166666120290756,0.0729166641831398,0.0729166641831398,5030400.0
2001-10-01,0.07104166597127914,0.08541666716337204,0.06416666507720947,0.08229167014360428,0.08229167014360428,5582400.0
2001-11-01,0.08041666448116302,0.08437500149011612,0.07645833492279053,0.0833333358168602,0.0833333358168602,7300800.0
2001-12-01,0.08187499642372131,0.0885416641831398,0.07833333313465118,0.08749999850988388,0.08749999850988388,7027200.0
2002-01-01,0.08833333104848862,0.09354166686534882,0.0833333358168602,0.08666666597127914,0.08666666597127914,10080000.0
2002-02-01,0.08666666597127914,0.08749999850988388,0.08104166388511658,0.08624999970197678,0.08624999970197678,6888000.0
2002-03-01,0.0833333358168602,0.08791666477918625,0.07958333194255829,0.08791666477918625,0.08791666477918625,9446400.0
2002-04-01,0.08749999850988388,0.09062500298023224,0.08250000327825546,0.08437500149011612,0.08437500149011612,5712000.0
2002-05-01,0.0833333358168602,0.08895833045244217,0.07770833373069763,0.0885416641831398,0.0885416641831398,6110400.0
2002-06-01,0.08666666597127914,0.09166666865348816,0.08291666954755783,0.0885416641831398,0.0885416641831398,4809600.0
2002-07-01,0.08937499672174454,0.08958332985639572,0.0625,0.08687499910593033,0.08687499910593033,9408000.0
2002-08-01,0.08833333104848862,0.08833333104848862,0.07999999821186066,0.08541666716337204,0.08541666716337204,6048000.0
2002-09-01,0.08541666716337204,0.09187500178813934,0.08104166388511658,0.08624999970197678,0.08624999970197678,4080000.0
2002-10-01,0.08583333343267441,0.09687499701976776,0.07458333671092987,0.08770833164453506,0.08770833164453506,5160000.0
2002-11-01,0.08749999850988388,0.09291666746139526,0.08270833641290665,0.08749999850988388,0.08749999850988388,3494400.0
2002-12-01,0.0885416641831398,0.08958332985639572,0.08562500029802322,0.08791666477918625,0.08791666477918625,4209600.0
2003-01-01,0.08770833164453506,0.09270833432674408,0.08770833164453506,0.08958332985639572,0.08958332985639572,10406400.0
2003-02-01,0.09020833671092987,0.09062500298023224,0.06604166328907013,0.08437500149011612,0.08437500149011612,2294400.0
2003-03-01,0.0845833346247673,0.09375,0.07479166984558105,0.09062500298023224,0.09062500298023224,3523200.0
2003-04-01,0.09020833671092987,0.09375,0.08104166388511658,0.08437500149011612,0.08437500149011612,4516800.0
2003-05-01,0.08437500149011612,0.09333333373069763,0.08229167014360428,0.08958332985639572,0.08958332985639572,9960000.0
2003-06-01,0.08958332985639572,0.09312500059604645,0.08687499910593033,0.09062500298023224,0.09062500298023224,2889600.0
2003-07-01,0.08916666358709335,0.12479166686534882,0.08749999850988388,0.10625000298023224,0.10625000298023224,15508800.0
2003-08-01,0.10625000298023224,0.12916666269302368,0.1002083346247673,0.12416666746139526,0.12416666746139526,18369600.0
2003-09-01,0.12999999523162842,0.12999999523162842,0.11229166388511658,0.12166666984558105,0.12166666984558105,7896000.0
2003-10-01,0.12145833671092987,0.15208333730697632,0.12062499672174454,0.13958333432674408,0.13958333432674408,21220800.0
2003-11-01,0.1391666680574417,0.19583334028720856,0.13104166090488434,0.18562500178813934,0.18562500178813934,28128000.0
2003-12-01,0.18562500178813934,0.18687500059604645,0.1706250011920929,0.17541666328907013,0.17541666328907013,18523200.0
2004-01-01,0.1756249964237213,0.2083333283662796,0.1574999988079071,0.1875,0.1875,20376000.0
2004-02-01,0.1875,0.2750000059604645,0.1772916615009308,0.24895833432674408,0.24895833432674408,34521600.0
2004-03-01,0.25,0.3125,0.21875,0.2914583384990692,0.2914583384990692,52449600.0
2004-04-01,0.29124999046325684,0.3541666567325592,0.27125000953674316,0.2902083396911621,0.2902083396911621,38836800.0
2004-05-01,0.28979167342185974,0.5614583492279053,0.2708333432674408,0.5489583611488342,0.5489583611488342,346622400.0
2004-06-01,0.5522916913032532,0.606249988079071,0.43562498688697815,0.5277083516120911,0.5277083516120911,491505600.0
2004-07-01,0.5104166865348816,0.5260416865348816,0.3697916567325592,0.4270833432674408,0.4270833432674408,261100800.0
2004-08-01,0.41729167103767395,0.5247916579246521,0.40312498807907104,0.4945833384990692,0.4945833384990692,213254400.0
2004-09-01,0.5,0.6308333277702332,0.4702083468437195,0.5024999976158142,0.5024999976158142,440798400.0
2004-10-01,0.4983333349227905,0.5606250166893005,0.4735416769981384,0.5520833134651184,0.5520833134651184,113544000.0
2004-11-01,0.5604166388511658,0.7268750071525574,0.5216666460037231,0.7041666507720947,0.7041666507720947,307420800.0
2004-12-01,0.7083333134651184,0.7668750286102295,0.6412500143051147,0.7585416436195374,0.7585416436195374,134548800.0
2005-01-01,0.7789583206176758,0.8802083134651184,0.6743749976158142,0.8520833253860474,0.8520833253860474,174456000.0
2005-02-01,0.8581249713897705,0.9893749952316284,0.7766666412353516,0.9129166603088379,0.9129166603088379,308856000.0
2005-03-01,0.9175000190734863,1.2604166269302368,0.8424999713897705,1.2489583492279053,1.2489583492279053,635443200.0
2005-04-01,1.2637499570846558,1.3197916746139526,1.0877083539962769,1.180833339691162,1.180833339691162,396384000.0
2005-05-01,1.1956249475479126,1.5625,1.1956249475479126,1.5529166460037231,1.5529166460037231,913531200.0
2005-06-01,1.5575000047683716,1.8414583206176758,1.5154166221618652,1.7649999856948853,1.7649999856948853,428784000.0
2005-07-01,1.796875,2.25,1.7208333015441895,1.9249999523162842,1.9249999523162842,486144000.0
2005-08-01,1.859375,2.2291667461395264,1.7104166746139526,2.0687499046325684,2.0687499046325684,548520000.0
2005-08-09,,,,,,
2005-09-01,2.0833332538604736,2.152083396911621,1.6487499475479126,1.9616667032241821,1.9616667032241821,303242400.0
2005-10-01,1.9729167222976685,2.129166603088379,1.6720833778381348,2.1050000190734863,2.1050000190734863,286322400.0
2005-11-01,2.115833282470703,3.3245832920074463,2.0579166412353516,3.2354166507720947,3.2354166507720947,634164000.0
2005-12-01,3.28208327293396,3.6787500381469727,3.179166555404663,3.283750057220459,3.283750057220459,506539200.0
2006-01-01,3.3558332920074463,4.366250038146973,3.3129167556762695,3.6583333015441895,3.6583333015441895,642496800.0
2006-02-01,3.6458332538604736,4.083333492279053,3.2333333492279053,3.8891665935516357,3.8891665935516357,366160800.0
2006-03-01,3.8916666507720947,5.287083148956299,3.875,5.2520833015441895,5.2520833015441895,738045600.0
2006-04-01,5.375,6.069583415985107,5.047500133514404,5.394166469573975,5.394166469573975,388605600.0
2006-05-01,5.458333492279053,8.420833587646484,5.442500114440918,7.702916622161865,7.702916622161865,1349659200.0
2006-06-01,7.743333339691162,7.9320831298828125,6.166666507720947,7.9320831298828125,7.9320831298828125,1116883200.0
2006-07-01,7.978750228881836,8.786666870117188,6.9666666984558105,7.664999961853027,7.664999961853027,863897400.0
2006-07-10,,,,,,
2006-08-01,7.683333396911621,7.866666793823242,4.503333568572998,4.590000152587891,4.590000152587891,1132341000.0
2006-09-01,4.643333435058594,6.00166654586792,4.3433332443237305,5.413333415985107,5.413333415985107,700857000.0
2006-10-01,5.3466668128967285,5.675000190734863,5.086666584014893,5.291666507720947,5.291666507720947,368854800.0
2006-11-01,5.03000020980835,5.196666717529297,4.125,4.688333511352539,4.688333511352539,579814200.0
2006-12-01,4.671666622161865,5.928333282470703,4.583333492279053,5.613333225250244,5.613333225250244,371296800.0
2007-01-01,5.635000228881836,6.493333339691162,5.5316667556762695,6.348333358764648,6.348333358764648,283958400.0
2007-02-01,6.378333568572998,7.039999961853027,5.416666507720947,5.833333492279053,5.833333492279053,357823800.0
2007-03-01,5.708333492279053,6.396666526794434,5.486666679382324,6.313333511352539,6.313333511352539,235700400.0
2007-04-01,6.335000038146973,6.74833345413208,6.228333473205566,6.366666793823242,6.366666793823242,165789600.0
2007-05-01,6.375,6.913333415985107,6.006666660308838,6.633333206176758,6.633333206176758,254145600.0
2007-06-01,6.679999828338623,7.739999771118164,6.258333206176758,7.163333415985107,7.163333415985107,240054000.0
2007-07-01,7.256666660308838,7.764999866485596,6.755000114440918,6.758333206176758,6.758333206176758,147993000.0
2007-08-01,6.726666450500488,8.329999923706055,6.416666507720947,7.485000133514404,7.485000133514404,247548000.0
2007-09-01,7.493333339691162,9.65999984741211,7.389999866485596,9.446666717529297,9.446666717529297,172207800.0
2007-10-01,9.53499984741211,11.399999618530273,9.180000305175781,11.333333015441895,11.333333015441895,277019400.0
2007-11-01,11.09000015258789,11.199999809265137,6.375,7.235000133514404,7.235000133514404,443088000.0
2007-12-01,7.191666603088379,8.363333702087402,7.1566667556762695,7.381666660308838,7.381666660308838,209563800.0
2008-01-01,7.4033331871032715,7.605000019073486,6.136666774749756,6.426666736602783,6.426666736602783,264978600.0
2008-02-01,6.521666526794434,7.574999809265137,6.215000152587891,6.916666507720947,6.916666507720947,228715200.0
2008-03-01,6.87333345413208,7.118333339691162,5.739999771118164,5.883333206176758,5.883333206176758,262500000.0
2008-04-01,6.258333206176758,6.628333568572998,5.128333568572998,5.898333549499512,5.898333549499512,362611200.0
2008-05-01,5.923333168029785,6.021666526794434,4.650000095367432,5.206666469573975,5.206666469573975,517470000.0
2008-06-01,5.233333110809326,6.321666717529297,4.7866668701171875,4.803333282470703,4.803333282470703,433260000.0
2008-07-01,4.829999923706055,4.978333473205566,3.7883334159851074,3.809999942779541,3.809999942779541,417350400.0
2008-08-01,3.809999942779541,5.266666889190674,3.444999933242798,4.579999923706055,4.579999923706055,483144600.0
2008-09-01,4.679999828338623,5.49833345413208,3.744999885559082,5.041666507720947,5.041666507720947,440440200.0
2008-10-01,4.929999828338623,5.381666660308838,3.4200000762939453,4.21999979019165,4.21999979019165,298280400.0
2008-11-01,4.239999771118164,4.994999885559082,3.740000009536743,4.958333492279053,4.958333492279053,194988600.0
2008-12-01,4.863333225250244,5.798333168029785,4.443333148956299,5.5883331298828125,5.5883331298828125,212281800.0
2009-01-01,5.503333568572998,5.976666450500488,5.061666488647461,5.583333492279053,5.583333492279053,158444400.0
2009-02-01,5.50166654586792,6.041666507720947,5.166666507720947,5.546666622161865,5.546666622161865,184593600.0
2009-03-01,5.474999904632568,6.206666469573975,5.429999828338623,6.0,6.0,258955200.0
2009-04-01,5.921666622161865,6.938333511352539,5.815000057220459,6.793333530426025,6.793333530426025,155114400.0
2009-05-01,6.808333396911621,7.336666584014893,5.988333225250244,6.113333225250244,6.113333225250244,207957000.0
2009-06-01,6.108333110809326,6.253333568572998,4.941666603088379,5.143333435058594,5.143333435058594,281990400.0
2009-07-01,5.195000171661377,5.288333415985107,4.651666641235352,5.168333530426025,5.168333530426025,191989800.0
2009-08-01,5.258333206176758,6.173333168029785,5.113333225250244,5.443333148956299,5.443333148956299,218170200.0
2009-09-01,5.443333148956299,6.201666831970215,5.201666831970215,6.12333345413208,6.12333345413208,155250600.0
2009-10-01,6.108333110809326,6.409999847412109,5.900000095367432,6.025000095367432,6.025000095367432,104999400.0
2009-11-01,6.013333320617676,6.238333225250244,5.491666793823242,5.828333377838135,5.828333377838135,131635800.0
2009-12-01,5.84499979019165,6.563333511352539,5.741666793823242,6.400000095367432,6.400000095367432,109304400.0
2010-01-01,6.443333148956299,6.929999828338623,6.4083333015441895,6.4083333015441895,6.4083333015441895,65818200.0
2010-02-01,6.436666488647461,6.993333339691162,6.304999828338623,6.929999828338623,6.929999828338623,87296400.0
2010-03-01,6.9683332443237305,7.323333263397217,6.784999847412109,7.230000019073486,7.230000019073486,115772400.0
2010-04-01,7.268333435058594,7.49833345413208,6.806666851043701,7.358333110809326,7.358333110809326,78129600.0
2010-05-01,7.3466668128967285,7.348333358764648,4.00166654586792,6.508333206176758,6.508333206176758,204635400.0
2010-06-01,6.5,6.769999980926514,6.2133331298828125,6.518333435058594,6.518333435058594,129410400.0
2010-07-01,6.485000133514404,7.24833345413208,6.336666584014893,6.981666564941406,6.981666564941406,102271200.0
2010-08-01,7.076666831970215,7.775000095367432,6.801666736602783,7.506666660308838,7.506666660308838,119236200.0
2010-09-01,7.585000038146973,7.993333339691162,7.416666507720947,7.769999980926514,7.769999980926514,96951600.0
2010-10-01,7.820000171661377,8.806666374206543,7.585000038146973,8.53499984741211,8.53499984741211,87540600.0
2010-11-01,8.576666831970215,9.125,8.141666412353516,8.869999885559082,8.869999885559082,105030600.0
2010-12-01,8.953332901000977,9.125,8.046667098999023,8.713333129882812,8.713333129882812,120342000.0
2011-01-01,8.774999618530273,9.505000114440918,8.611666679382324,9.4399995803833,9.4399995803833,89923200.0
2011-02-01,9.493332862854004,9.975000381469727,9.071666717529297,9.591666221618652,9.591666221618652,112365000.0
2011-03-01,9.546667098999023,10.08666706085205,8.880000114440918,10.03833293914795,10.03833293914795,106637400.0
2011-04-01,10.053333282470703,11.085000038146973,9.96833324432373,11.024999618530273,11.024999618530273,79257000.0
2011-05-01,11.043333053588867,11.993332862854004,10.251667022705078,11.941666603088379,11.941666603088379,102894000.0
2011-06-01,11.933333396911621,13.631667137145996,11.773333549499512,13.491666793823242,13.491666793823242,117080400.0
2011-07-01,13.520000457763672,14.0,12.425000190734863,12.770000457763672,12.770000457763672,134813400.0
2011-08-01,12.921667098999023,15.039999961853027,11.476666450500488,14.220000267028809,14.220000267028809,209872800.0
2011-09-01,14.226666450500488,15.776666641235352,13.166666984558105,14.548333168029785,14.548333168029785,163873200.0
2011-10-01,14.475000381469727,16.156665802001953,12.731666564941406,14.848333358764648,14.848333358764648,159674400.0
2011-11-01,14.404999732971191,16.218334197998047,14.088333129882812,15.366666793823242,15.366666793823242,112225200.0
2011-12-01,15.229999542236328,16.393333435058594,15.168333053588867,15.356666564941406,15.356666564941406,101317800.0
2012-01-01,15.595000267028809,18.116666793823242,15.188333511352539,17.418333053588867,17.418333053588867,90273000.0
2012-02-01,17.59166717529297,19.309999465942383,17.274999618530273,19.059999465942383,19.059999465942383,94959900.0
2012-02-16,,,,,,
2012-03-01,19.08333396911621,21.059999465942383,18.75,20.696666717529297,20.696666717529297,66905700.0
2012-04-01,20.71666717529297,27.986665725708008,20.219999313354492,21.66666603088379,21.66666603088379,115028100.0
2012-05-01,21.66666603088379,24.97333335876465,21.066667556762695,24.200000762939453,24.200000762939453,151241100.0
2012-06-01,23.809999465942383,26.33333396911621,22.123332977294922,23.733333587646484,23.733333587646484,226287300.0
2012-07-01,23.979999542236328,25.0,20.573333740234375,22.139999389648438,22.139999389648438,120531000.0
2012-08-01,22.15333366394043,23.03333282470703,17.33333396911621,19.64666748046875,19.64666748046875,248009400.0
2012-09-01,19.50666618347168,19.600000381469727,16.733333587646484,18.020000457763672,18.020000457763672,148103100.0
2012-10-01,18.09666633605957,19.690000534057617,13.353333473205566,14.883333206176758,14.883333206176758,292227900.0
2012-11-01,14.90333366394043,17.729999542236328,13.329999923706055,17.350000381469727,17.350000381469727,198287400.0
2012-12-01,17.456666946411133,19.1200008392334,16.93666648864746,17.613332748413086,17.613332748413086,110393400.0
2013-01-01,17.899999618530273,18.113332748413086,15.266666412353516,15.966666221618652,15.966666221618652,128704800.0
2013-02-01,16.126667022705078,17.959999084472656,15.316666603088379,16.81999969482422,16.81999969482422,136796400.0
2013-03-01,16.713333129882812,17.030000686645508,15.126667022705078,15.91333293914795,15.91333293914795,126492300.0
2013-04-01,15.91333293914795,19.523332595825195,15.720000267028809,18.799999237060547,18.799999237060547,125746200.0
2013-05-01,18.486665725708008,19.780000686645508,16.91666603088379,18.196666717529297,18.196666717529297,145182600.0
2013-06-01,18.143333435058594,20.979999542236328,17.856666564941406,20.27666664123535,20.27666664123535,122390400.0
2013-07-01,20.366666793823242,21.626667022705078,19.71666717529297,20.329999923706055,20.329999923706055,81468900.0
2013-08-01,20.47333335876465,22.040000915527344,18.926666259765625,19.1299991607666,19.1299991607666,88241400.0
2013-09-01,19.386667251586914,19.579999923706055,17.28333282470703,17.41666603088379,17.41666603088379,98985900.0
2013-10-01,17.476667404174805,19.66666603088379,17.049999237060547,19.0766658782959,19.0766658782959,107004300.0
2013-11-01,19.183332443237305,20.08333396911621,18.136667251586914,19.726667404174805,19.726667404174805,87895500.0
2013-12-01,20.546667098999023,22.77666664123535,19.719999313354492,22.59000015258789,22.59000015258789,82771800.0
2014-01-01,22.626667022705078,23.496665954589844,22.10333251953125,22.633333206176758,22.633333206176758,95211000.0
2014-02-01,22.703332901000977,25.209999084472656,22.14666748046875,24.66666603088379,24.66666603088379,104157300.0
2014-03-01,24.446666717529297,24.850000381469727,22.573333740234375,23.149999618530273,23.149999618530273,83412300.0
2014-04-01,23.246665954589844,23.84000015258789,21.053333282470703,22.31999969482422,22.31999969482422,83759400.0
2014-05-01,22.35333251953125,23.763334274291992,21.0,23.126667022705078,23.126667022705078,72455400.0
2014-06-01,23.093334197998047,24.459999084472656,22.09000015258789,23.676666259765625,23.676666259765625,94818000.0
2014-07-01,23.6299991607666,24.0,21.273332595825195,21.31999969482422,21.31999969482422,94518300.0
2014-08-01,21.41666603088379,31.643333435058594,21.389999389648438,29.469999313354492,29.469999313354492,175833000.0
2014-09-01,29.600000381469727,30.9233341217041,29.399999618530273,30.55666732788086,30.55666732788086,74537700.0
2014-10-01,30.53333282470703,33.7933349609375,29.85333251953125,33.62666702270508,33.62666702270508,93033000.0
2014-11-01,33.61666488647461,37.83333206176758,32.88333511352539,37.38333511352539,37.38333511352539,55908300.0
2014-12-01,36.9900016784668,37.83000183105469,34.393333435058594,36.11666488647461,36.11666488647461,64299300.0
2015-01-01,36.46666717529297,40.75666809082031,35.59000015258789,38.983333587646484,38.983333587646484,71482200.0
2015-02-01,38.93000030517578,47.96666717529297,38.233333587646484,47.040000915527344,47.040000915527344,61864200.0
2015-03-01,47.393333435058594,47.663333892822266,44.63999938964844,46.13333511352539,46.13333511352539,70950900.0
2015-04-01,46.2400016784668,48.22999954223633,44.66666793823242,45.70333480834961,45.70333480834961,63690600.0
2015-05-01,45.746665954589844,48.11666488647461,42.12333297729492,42.426666259765625,42.426666259765625,124848000.0
2015-06-01,42.606666564941406,46.54999923706055,41.393333435058594,44.67333221435547,44.67333221435547,80286900.0
2015-07-01,44.78333282470703,51.356666564941406,43.913333892822266,51.18333435058594,51.18333435058594,58393500.0
2015-08-01,51.53666687011719,141.86000061035156,38.540000915527344,140.00999450683594,140.00999450683594,104031900.0
2015-09-01,45.26333236694336,46.32666778564453,42.16999816894531,45.04666519165039,45.04666519165039,77956200.0
2015-10-01,44.813331604003906,47.83333206176758,42.4466667175293,45.439998626708984,45.439998626708984,67748400.0
2015-11-01,45.31666564941406,52.78333282470703,43.61000061035156,51.53666687011719,51.53666687011719,76482600.0
2015-12-01,51.849998474121094,53.5,48.51333236694336,49.6533317565918,49.6533317565918,67968900.0
2016-01-01,48.84000015258789,49.7933349609375,42.84333419799805,45.0099983215332,45.0099983215332,90150000.0
2016-02-01,45.75,46.16999816894531,37.69333267211914,41.83333206176758,41.83333206176758,117583500.0
2016-03-01,42.029998779296875,45.87666702270508,41.753334045410156,44.459999084472656,44.459999084472656,73421400.0
2016-04-01,44.4466667175293,48.62666702270508,40.3033332824707,48.073333740234375,48.073333740234375,108812700.0
2016-05-01,48.13666534423828,51.31999969482422,48.09333419799805,50.0,50.0,87700200.0
2016-06-01,50.03333282470703,53.61666488647461,49.78666687011719,53.56999969482422,53.56999969482422,126875100.0
2016-07-01,53.63999938964844,54.25666809082031,50.91666793823242,53.5433349609375,53.5433349609375,44335800.0
2016-08-01,53.4466667175293,55.5,50.97666549682617,51.29666519165039,51.29666519165039,54996900.0
2016-09-01,51.44333267211914,51.836666107177734,47.436668395996094,48.936668395996094,48.936668395996094,59895600.0
2016-10-01,48.686668395996094,50.630001068115234,46.926666259765625,48.11333465576172,48.11333465576172,45324000.0
2016-11-01,48.71666717529297,48.856666564941406,40.63999938964844,44.75,44.75,97142000.0
2016-11-10,,,,,,
2016-12-01,44.5,46.09000015258789,43.0,44.34000015258789,44.34000015258789,54196400.0
2017-01-01,44.650001525878906,46.29999923706055,41.95000076293945,42.599998474121094,42.599998474121094,52852800.0
2017-02-01,42.52000045776367,44.97999954223633,41.02000045776367,41.439998626708984,41.439998626708984,45928400.0
2017-03-01,41.40999984741211,48.939998626708984,41.290000915527344,46.16999816894531,46.16999816894531,67703500.0
2017-04-01,46.22999954223633,46.41999816894531,44.380001068115234,45.380001068115234,45.380001068115234,36867300.0
2017-05-01,45.439998626708984,51.310001373291016,44.349998474121094,50.560001373291016,50.560001373291016,58340400.0
2017-06-01,50.630001068115234,52.40999984741211,49.650001525878906,49.68000030517578,49.68000030517578,45290700.0
2017-07-01,49.970001220703125,54.2400016784668,49.029998779296875,52.75,52.75,35750900.0
2017-08-01,52.939998626708984,56.439998626708984,50.790000915527344,55.81999969482422,55.81999969482422,43546000.0
2017-09-01,55.970001220703125,57.25,54.22999954223633,55.25,55.25,44153500.0
2017-10-01,55.25,58.540000915527344,54.79999923706055,57.93000030517578,57.93000030517578,30713400.0
2017-11-01,58.34000015258789,62.79999923706055,56.0,62.66999816894531,62.66999816894531,49202700.0
2017-12-01,62.150001525878906,64.79000091552734,61.849998474121094,63.290000915527344,63.290000915527344,35642700.0
2018-01-01,63.400001525878906,70.22000122070312,62.2400016784668,68.2300033569336,68.2300033569336,50385600.0
2018-02-01,67.97000122070312,68.44000244140625,61.150001525878906,63.369998931884766,63.369998931884766,46569400.0
2018-03-01,57.45000076293945,59.369998931884766,52.72999954223633,57.209999084472656,57.209999084472656,84253800.0
2018-04-01,56.88999938964844,58.0,54.0099983215332,55.0,55.0,57449600.0
2018-05-01,54.880001068115234,55.2599983215332,47.61000061035156,51.15999984741211,51.15999984741211,99148900.0
2018-06-01,51.560001373291016,57.72999954223633,51.029998779296875,57.29999923706055,57.29999923706055,71621100.0
2018-07-01,57.22999954223633,62.59000015258789,56.72999954223633,60.02000045776367,60.02000045776367,44048300.0
2018-08-01,59.61000061035156,62.63999938964844,58.209999084472656,60.88999938964844,60.88999938964844,53864900.0
2018-09-01,60.5099983215332,61.61000061035156,57.59000015258789,58.279998779296875,58.279998779296875,58837400.0
2018-10-01,58.68000030517578,58.77000045776367,50.470001220703125,52.849998474121094,52.849998474121094,72332500.0
2018-11-01,53.0,59.959999084472656,49.41999816894531,59.68000030517578,59.68000030517578,82531800.0
2018-12-01,59.22999954223633,60.33000183105469,47.7400016784668,49.220001220703125,49.220001220703125,67942400.0
2019-01-01,48.560001373291016,57.33000183105469,47.84000015258789,57.2400016784668,57.2400016784668,73557500.0
2019-02-01,57.380001068115234,66.37999725341797,56.93000030517578,63.83000183105469,63.83000183105469,60795500.0
2019-03-01,64.37000274658203,65.56999969482422,52.939998626708984,54.58000183105469,54.58000183105469,116307600.0
2019-04-01,54.380001068115234,59.86000061035156,52.22999954223633,59.599998474121094,59.599998474121094,98927500.0
2019-05-01,59.47999954223633,64.25,57.439998626708984,61.86000061035156,61.86000061035156,68768900.0
2019-06-01,62.040000915527344,66.36000061035156,60.56999969482422,63.83000183105469,63.83000183105469,62236500.0
2019-07-01,63.099998474121094,66.16999816894531,62.779998779296875,64.47000122070312,64.47000122070312,45192600.0
2019-08-01,64.79000091552734,65.33000183105469,53.810001373291016,58.66999816894531,58.66999816894531,79526500.0
2019-09-01,58.119998931884766,59.56999969482422,55.9900016784668,58.060001373291016,58.060001373291016,56015300.0
2019-10-01,58.09000015258789,58.47999954223633,53.66999816894531,56.130001068115234,56.130001068115234,58142600.0
2019-11-01,56.439998626708984,61.4900016784668,55.689998626708984,59.81999969482422,59.81999969482422,60763700.0
2019-12-01,59.7599983215332,64.13999938964844,58.459999084472656,63.54999923706055,63.54999923706055,56428800.0
2020-01-01,63.959999084472656,68.01000213623047,62.869998931884766,66.5999984741211,66.5999984741211,57124300.0
2020-02-01,68.87000274658203,70.5199966430664,61.220001220703125,62.40999984741211,62.40999984741211,67424100.0
2020-03-01,62.119998931884766,68.83000183105469,50.060001373291016,53.65999984741211,53.65999984741211,112607300.0
2020-03-26,54.0,56.630001068115234,53.8650016784668,56.5,56.5,2510384.0
