Date,Open,High,Low,Close,Adj Close,Volume
1988-01-01,11.5,12.5625,11.25,12.25,7.943499565124512,14412400.0
1988-02-01,12.125,15.1875,11.8125,15.125,9.80778980255127,10240000.0
1988-03-01,15.1875,16.125,13.8125,15.0625,9.767268180847168,6964800.0
1988-03-11,,,,,,
1988-04-01,15.0,16.0,14.0,14.75,9.610824584960938,3820200.0
1988-05-01,14.6875,15.0625,13.25,14.4375,9.407201766967773,3375400.0
1988-06-01,14.4375,21.625,14.4375,19.6875,12.8280029296875,8513200.0
1988-06-13,,,,,,
1988-07-01,19.8125,21.25,17.75,18.6875,12.25904369354248,8366400.0
1988-08-01,18.8125,20.75,18.25,20.4375,13.407059669494629,5525600.0
1988-09-01,20.3125,21.5625,18.5,18.6875,12.25904369354248,10036400.0
1988-09-12,,,,,,
1988-10-01,18.75,21.0,18.5625,21.0,13.858546257019043,4640800.0
1988-11-01,20.9375,20.9375,18.75,20.3125,13.404836654663086,2683800.0
1988-12-01,20.3125,22.5625,20.125,22.0625,14.55971908569336,3385600.0
1988-12-12,,,,,,
1989-01-01,22.1875,24.875,21.9375,24.3125,16.140649795532227,5516600.0
1989-02-01,24.4375,24.6875,22.75,23.5625,15.642730712890625,4072000.0
1989-03-01,23.5625,24.625,21.625,22.875,15.186311721801758,9053000.0
1989-03-13,,,,,,
1989-04-01,23.0,23.125,20.375,20.875,13.93345832824707,9256400.0
1989-05-01,20.375,21.0625,18.4375,18.5,12.348207473754883,8784000.0
1989-06-01,18.5,18.5625,16.25,16.75,11.180136680603027,9852200.0
1989-06-12,,,,,,
1989-07-01,16.8125,18.125,16.8125,17.3125,11.642908096313477,3502600.0
1989-08-01,17.5625,19.875,17.3125,19.375,13.0299711227417,5017800.0
1989-09-01,19.3125,19.75,17.625,17.9375,12.06323528289795,4676000.0
1989-09-11,,,,,,
1989-10-01,17.875,18.1875,16.0,16.125,10.921141624450684,5112200.0
1989-11-01,16.0625,16.625,15.6875,15.75,10.667162895202637,3254000.0
1989-12-01,15.75,17.1875,15.625,16.875,11.429101943969727,2773600.0
1989-12-11,,,,,,
1990-01-01,16.875,18.1875,16.375,17.0,11.611350059509277,4934400.0
1990-02-01,16.75,19.1875,16.625,18.25,12.465129852294922,6242000.0
1990-03-01,18.25,19.25,17.25,17.375,11.867486000061035,4614400.0
1990-03-12,,,,,,
1990-04-01,17.0,17.8125,15.5625,15.5625,10.706339836120605,5018400.0
1990-05-01,15.6875,16.875,15.5625,16.5,11.351296424865723,3215600.0
1990-06-01,16.5625,18.0,16.375,17.5625,12.082253456115723,2403400.0
1990-06-11,,,,,,
1990-07-01,17.375,19.3125,16.9375,17.75,12.309356689453125,4882200.0
1990-08-01,17.75,17.8125,15.1875,16.125,11.182446479797363,2412800.0
1990-09-01,16.125,16.9375,16.0,16.75,11.61586856842041,1463800.0
1990-09-10,,,,,,
1990-10-01,16.75,18.25,16.375,17.25,12.06282901763916,3022600.0
1990-11-01,17.25,18.25,17.125,17.375,12.150238990783691,1640000.0
1990-12-01,17.5,18.875,17.375,17.4375,12.19394588470459,2570400.0
1990-12-10,,,,,,
1991-01-01,17.4375,19.25,16.5,19.125,13.475784301757812,2345400.0
1991-02-01,19.25,20.875,18.625,19.1875,13.519822120666504,1921800.0
1991-03-01,19.25,21.8125,19.0625,21.6875,15.281357765197754,2604200.0
1991-03-11,,,,,,
1991-04-01,21.25,21.5,19.75,20.6875,14.674575805664062,4444600.0
1991-05-01,20.6875,21.0,18.125,20.75,14.718918800354004,5761600.0
1991-06-01,20.8125,23.4375,20.375,23.0625,16.359270095825195,4776600.0
1991-06-10,,,,,,
1991-07-01,23.1875,26.5,22.4375,25.625,18.294214248657227,5257200.0
1991-08-01,25.375,29.75,25.1875,27.4375,19.58819580078125,7409800.0
1991-09-01,27.3125,30.0,26.0,27.3125,19.498964309692383,4536200.0
1991-09-10,,,,,,
1991-10-01,27.1875,27.8125,23.625,23.75,17.041025161743164,8015400.0
1991-11-01,23.75,26.0625,22.6875,24.625,17.66884994506836,4985800.0
1991-12-01,24.625,28.75,24.5625,28.375,20.359548568725586,3782800.0
1991-12-10,,,,,,
1992-01-01,28.25,34.0,27.375,31.4375,22.67409896850586,8072600.0
1992-02-01,31.5625,32.0625,30.0,31.5,22.719179153442383,4103600.0
1992-03-01,31.25,32.125,25.8125,27.0,19.473573684692383,8115200.0
1992-03-11,,,,,,
1992-04-01,26.625,27.0625,23.5,24.9375,18.069950103759766,7090200.0
1992-05-01,25.0,26.0,23.0,23.0,16.666017532348633,5360600.0
1992-06-01,22.875,24.8125,21.1875,21.4375,15.533825874328613,5204600.0
1992-06-10,,,,,,
1992-07-01,21.3125,22.5625,18.75,22.5625,16.443729400634766,5659600.0
1992-08-01,22.4375,22.6875,20.125,21.6875,15.806015014648438,4140800.0
1992-09-01,21.6875,22.9375,20.8125,20.875,15.213859558105469,4108200.0
1992-09-10,,,,,,
1992-10-01,20.9375,22.6875,20.125,21.625,15.855594635009766,3089200.0
1992-11-01,21.5,21.75,18.625,19.0,13.930930137634277,2748200.0
1992-12-01,19.0,21.3125,19.0,21.3125,15.626472473144531,3576000.0
1992-12-11,,,,,,
1993-01-01,21.3125,22.8125,20.75,21.6875,16.0078125,4573400.0
1993-02-01,21.75,22.5,18.9375,18.9375,13.978004455566406,2531800.0
1993-03-01,18.9375,19.0,15.5,16.0625,11.855928421020508,6143200.0
1993-03-11,,,,,,
1993-04-01,16.0625,18.3125,16.0,17.625,13.10389518737793,4850000.0
1993-05-01,17.5,18.0,14.25,15.75,11.70986557006836,3672400.0
1993-06-01,15.75,16.0,12.1875,14.6875,10.919913291931152,7057800.0
1993-07-01,14.6875,15.25,13.0,14.9375,11.105781555175781,5871400.0
1993-08-01,14.9375,16.375,14.125,14.25,10.594640731811523,3298800.0
1993-09-01,14.3125,17.125,13.5,17.125,12.73215389251709,4962000.0
1993-10-01,17.125,18.1875,16.5,18.1875,13.522106170654297,8233200.0
1993-11-01,18.1875,19.9375,16.875,19.1875,14.265591621398926,4922200.0
1993-12-01,19.1875,23.625,18.25,22.6875,16.867788314819336,8375000.0
1994-01-01,22.625,24.625,21.25,21.8125,16.21723175048828,12118200.0
1994-02-01,22.0,24.375,21.625,23.0,17.10012435913086,8849800.0
1994-03-01,22.25,22.5,19.25,19.75,14.683805465698242,8596600.0
1994-04-01,19.3125,22.125,18.5,18.5,13.75444221496582,10785600.0
1994-05-01,18.5625,18.84375,16.125,17.1875,12.778619766235352,12927200.0
1994-06-01,17.25,18.6875,15.375,17.3125,12.871554374694824,6385600.0
1994-07-01,17.3125,19.5,17.0625,19.5,14.49792194366455,7965800.0
1994-08-01,19.4375,20.1875,17.8125,20.0625,14.916133880615234,7316000.0
1994-09-01,19.9375,22.3125,18.3125,22.25,16.542505264282227,10788200.0
1994-10-01,22.375,22.375,20.3125,21.25,15.799026489257812,6764600.0
1994-11-01,21.25,21.375,18.125,19.0,14.126190185546875,6236400.0
1994-12-01,19.1875,21.875,18.875,21.875,16.263704299926758,4592800.0
1994-12-29,,,,,,
1995-01-01,21.8125,24.0,20.625,22.8125,17.00025177001953,11228000.0
1995-02-01,22.875,24.4375,22.875,23.375,17.4194393157959,6570600.0
1995-03-01,23.375,26.25,22.6875,24.75,18.44410514831543,7651400.0
1995-03-13,,,,,,
1995-04-01,24.4375,25.875,23.875,24.5625,18.34259796142578,4262000.0
1995-05-01,24.5625,25.1875,22.25,22.5,16.80237579345703,13270600.0
1995-06-01,22.5,27.3125,22.25,27.0625,20.209514617919922,8106400.0
1995-06-22,,,,,,
1995-07-01,27.0,31.625,27.0,30.125,22.53986358642578,8297000.0
1995-08-01,30.0,32.0625,29.625,31.625,23.66217803955078,5115400.0
1995-09-01,31.75,33.3125,31.5625,31.6875,23.708934783935547,5443400.0
1995-09-13,,,,,,
1995-10-01,31.6875,36.375,30.3125,35.0,26.228137969970703,7721000.0
1995-11-01,35.0625,38.75,34.75,38.6875,28.991455078125,13523400.0
1995-12-01,38.625,40.875,35.0,40.75,30.537038803100586,9459800.0
1995-12-01,,,,,,
1995-12-13,,,,,,
1996-01-01,40.875,42.5,33.625,37.625,28.252817153930664,16126100.0
1996-02-01,37.625,41.75,37.625,41.25,30.974851608276367,14719100.0
1996-03-01,41.125,43.25,36.25,36.5,27.40806770324707,17076100.0
1996-03-13,,,,,,
1996-04-01,35.0,38.75,32.25,36.875,27.746198654174805,18627600.0
1996-05-01,37.0,39.875,33.5,36.625,27.558076858520508,16969000.0
1996-06-01,36.75,39.625,35.75,37.625,28.31053924560547,6109300.0
1996-06-12,,,,,,
1996-07-01,37.5,40.5,35.125,39.5,29.784910202026367,11146000.0
1996-08-01,39.375,44.5,38.0,43.0,32.424076080322266,9058500.0
1996-09-01,42.75,43.125,37.0,39.125,29.502120971679688,10611000.0
1996-09-12,,,,,,
1996-10-01,39.375,41.0,37.25,37.5,28.331594467163086,9731200.0
1996-11-01,37.5,38.25,33.875,36.125,27.292760848999023,19182400.0
1996-12-01,35.875,39.875,35.25,39.125,29.559280395507812,12980600.0
1996-12-12,,,,,,
1997-01-01,39.125,42.5,38.0,38.125,28.866195678710938,8200600.0
1997-02-01,38.25,38.625,33.875,34.875,26.40546417236328,16202400.0
1997-03-01,34.75,36.125,33.125,36.125,27.351900100708008,8975600.0
1997-03-13,,,,,,
1997-04-01,35.875,37.875,33.125,36.75,27.889799118041992,13062200.0
1997-05-01,36.875,39.25,35.875,39.125,29.692180633544922,6377400.0
1997-06-01,39.375,39.375,35.0,35.0,26.56170082092285,8446400.0
1997-06-12,,,,,,
1997-07-01,35.0,37.0,31.375,31.5625,24.002351760864258,21500900.0
1997-08-01,31.5625,37.25,31.5625,35.1875,26.759056091308594,11729700.0
1997-09-01,35.125,37.0625,35.0,35.25,26.806581497192383,9745300.0
1997-09-11,,,,,,
1997-10-01,35.3125,37.625,32.625,33.6875,25.67462730407715,7401100.0
1997-11-01,33.75,36.0,30.875,31.5,24.007442474365234,6102900.0
1997-11-26,,,,,,
1997-12-01,31.75,33.5625,29.625,32.75,25.022926330566406,17141400.0
1998-01-01,33.0625,33.5,28.5625,32.25,24.640888214111328,9728000.0
1998-02-01,32.3125,38.25,32.25,38.1875,29.1774959564209,11016700.0
1998-03-01,38.0,39.5,36.4375,38.0625,29.081968307495117,7890300.0
1998-03-12,,,,,,
1998-04-01,38.1875,39.125,34.6875,36.0,27.565805435180664,7223100.0
1998-05-01,36.0,36.5,31.4375,32.5,24.88581085205078,5635800.0
1998-06-01,32.5,32.875,29.375,30.125,23.067232131958008,8587300.0
1998-06-11,,,,,,
1998-07-01,30.25,30.375,24.25,25.5625,19.625761032104492,10835600.0
1998-08-01,25.5625,25.5625,18.0,18.375,14.107513427734375,11845700.0
1998-09-01,18.0,22.8125,17.8125,19.375,14.87527847290039,12887500.0
1998-09-11,,,,,,
1998-10-01,19.125,26.5,18.125,26.0,20.037090301513672,14452700.0
1998-11-01,25.75,27.3125,22.8125,22.875,17.628786087036133,8501800.0
1998-12-01,22.75,22.75,19.0,21.375,16.47280502319336,10653400.0
1998-12-11,,,,,,
1999-01-01,21.6875,22.3125,18.0,18.1875,14.073336601257324,12999700.0
1999-02-01,18.375,21.625,18.375,19.9375,15.427471160888672,17894800.0
1999-03-01,19.8125,21.5625,18.3125,20.4375,15.814358711242676,9046400.0
1999-03-11,,,,,,
1999-04-01,20.25,25.75,17.9375,25.0,19.420806884765625,15594400.0
1999-05-01,25.0,27.125,20.75,20.9375,16.264928817749023,11294600.0
1999-06-01,21.0625,21.375,17.375,17.375,13.497467041015625,17900700.0
1999-06-11,,,,,,
1999-07-01,17.625,18.8125,16.0625,18.25,14.232739448547363,25460100.0
1999-08-01,18.25,20.125,15.9375,15.9375,12.429269790649414,14863400.0
1999-09-01,16.1875,16.875,14.3125,14.5625,11.356942176818848,10111000.0
1999-09-13,,,,,,
1999-10-01,14.4375,15.1875,12.75,12.75,9.993382453918457,11733000.0
1999-11-01,12.875,16.5,12.75,16.125,12.638689994812012,12997200.0
1999-12-01,16.0,17.0625,14.75,16.375,12.834641456604004,12370400.0
1999-12-13,,,,,,
2000-01-01,17.0,19.375,15.875,16.375,12.904040336608887,12204100.0
2000-02-01,17.25,17.4375,13.5,13.5,10.638445854187012,12069200.0
2000-03-01,13.625,15.875,12.625,14.6875,11.57423210144043,13014000.0
2000-03-13,,,,,,
2000-04-01,14.75,16.0,13.25,15.4375,12.240950584411621,9275000.0
2000-05-01,15.625,17.75,15.125,15.375,12.191393852233887,10438200.0
2000-06-01,15.5,15.875,13.0,13.015625,10.32055950164795,7431500.0
2000-06-13,,,,,,
2000-07-01,13.25,14.9375,12.9375,13.8125,11.012673377990723,6324700.0
2000-08-01,13.75,16.0,13.5,14.6875,11.710304260253906,6851400.0
2000-09-01,14.8125,15.1875,13.25,14.5,11.560809135437012,5954000.0
2000-09-13,,,,,,
2000-10-01,14.5625,15.125,11.0,12.9375,10.371048927307129,9608900.0
2000-11-01,13.0625,13.25,11.25,11.875,9.519318580627441,8449500.0
2000-12-01,11.8125,16.625,11.8125,15.5625,12.475317001342773,11705300.0
2000-12-13,,,,,,
2001-01-01,15.75,16.6875,14.4375,15.819999694824219,12.75733757019043,7688600.0
2001-02-01,15.699999809265137,16.399999618530273,13.100000381469727,13.75,11.0880765914917,7299200.0
2001-03-01,13.050000190734863,14.149999618530273,11.75,12.300000190734863,9.918789863586426,8943000.0
2001-03-13,,,,,,
2001-04-01,12.600000381469727,13.600000381469727,11.649999618530273,12.0,9.690851211547852,7267000.0
2001-05-01,11.949999809265137,12.100000381469727,10.529999732971191,11.09000015258789,8.955962181091309,13315600.0
2001-06-01,11.130000114440918,12.229999542236328,9.699999809265137,10.199999809265137,8.237224578857422,14519300.0
2001-06-13,,,,,,
2001-07-01,10.199999809265137,11.5,9.5,11.300000190734863,9.141451835632324,11139600.0
2001-08-01,11.380000114440918,12.319999694824219,11.220000267028809,11.8100004196167,9.554027557373047,7656100.0
2001-09-01,11.8100004196167,12.649999618530273,8.0,9.0,7.280801296234131,11540600.0
2001-10-01,8.75,10.859999656677246,8.1899995803833,10.75,8.696511268615723,15099300.0
2001-11-01,10.699999809265137,12.239999771118164,10.399999618530273,11.75,9.505494117736816,8104100.0
2001-12-01,11.649999618530273,14.420000076293945,11.449999809265137,13.0,10.516712188720703,10424400.0
2001-12-12,,,,,,
2002-01-01,13.199999809265137,13.989999771118164,12.220000267028809,13.550000190734863,10.977598190307617,8216100.0
2002-02-01,13.550000190734863,14.449999809265137,12.739999771118164,13.300000190734863,10.775056838989258,12366300.0
2002-03-01,13.300000190734863,15.550000190734863,13.25,14.75,11.94977855682373,11688800.0
2002-03-13,,,,,,
2002-04-01,14.25,14.899999618530273,12.079999923706055,12.600000381469727,10.221540451049805,13289500.0
2002-05-01,12.630000114440918,14.140000343322754,11.989999771118164,14.020000457763672,11.373494148254395,14472000.0
2002-06-01,14.0,14.199999809265137,11.949999809265137,12.5,10.14041519165039,14394100.0
2002-06-12,,,,,,
2002-07-01,12.550000190734863,12.75,8.520000457763672,10.850000381469727,8.814456939697266,20282400.0
2002-08-01,10.880000114440918,13.979999542236328,9.399999618530273,13.239999771118164,10.756072044372559,20769800.0
2002-09-01,12.850000381469727,14.949999809265137,11.220000267028809,12.050000190734863,9.789323806762695,22679800.0
2002-09-11,,,,,,
2002-10-01,12.100000381469727,12.59000015258789,10.5,11.0,8.949426651000977,16468500.0
2002-11-01,11.069999694824219,13.09000015258789,10.859999656677246,13.050000190734863,10.617273330688477,8166100.0
2002-12-01,12.050000190734863,12.579999923706055,10.25,10.670000076293945,8.680944442749023,14659000.0
2002-12-12,,,,,,
2003-01-01,10.819999694824219,11.449999809265137,9.300000190734863,9.770000457763672,7.962410926818848,9156800.0
2003-02-01,9.779999732971191,9.859999656677246,7.889999866485596,8.8100004196167,7.180027008056641,13971900.0
2003-03-01,9.0,10.5,8.029999732971191,9.619999885559082,7.84016227722168,16010000.0
2003-03-12,,,,,,
2003-04-01,9.630000114440918,10.079999923706055,8.949999809265137,9.0600004196167,7.401845455169678,13098700.0
2003-05-01,9.020000457763672,10.100000381469727,8.720000267028809,8.739999771118164,7.1404128074646,16840200.0
2003-06-01,8.75,8.90999984741211,6.0,6.710000038146973,5.481942176818848,55599100.0
2003-06-12,,,,,,
2003-07-01,6.710000038146973,7.599999904632568,6.550000190734863,7.309999942779541,5.98883581161499,21932600.0
2003-08-01,7.300000190734863,8.15999984741211,6.619999885559082,7.829999923706055,6.414854049682617,18956000.0
2003-09-01,7.800000190734863,8.40999984741211,6.230000019073486,6.409999847412109,5.251495361328125,18945900.0
2003-09-11,,,,,,
2003-10-01,6.389999866485596,7.199999809265137,5.820000171661377,6.989999771118164,5.7413530349731445,21938300.0
2003-11-01,7.090000152587891,7.690000057220459,6.809999942779541,7.269999980926514,5.971336841583252,17761100.0
2003-12-01,7.400000095367432,10.399999618530273,7.320000171661377,9.930000305175781,8.156174659729004,29860100.0
2004-01-01,10.199999809265137,12.399999618530273,9.850000381469727,11.3100004196167,9.289656639099121,48950200.0
2004-02-01,11.470000267028809,11.949999809265137,10.34000015258789,11.300000190734863,9.28144645690918,23511500.0
2004-03-01,11.399999618530273,14.399999618530273,11.380000114440918,14.300000190734863,11.745546340942383,24987100.0
2004-04-01,14.300000190734863,15.289999961853027,12.350000381469727,12.569999694824219,10.32458209991455,25897100.0
2004-05-01,12.569999694824219,13.0,11.199999809265137,12.449999809265137,10.226014137268066,19816500.0
2004-06-01,12.350000381469727,13.880000114440918,12.210000038146973,13.399999618530273,11.006314277648926,17891300.0
2004-07-01,13.399999618530273,13.9399995803833,12.149999618530273,13.649999618530273,11.211658477783203,15408000.0
2004-08-01,13.75,15.9399995803833,13.15999984741211,15.9399995803833,13.092586517333984,24390100.0
2004-09-01,16.0,17.799999237060547,15.779999732971191,17.389999389648438,14.28356647491455,23203800.0
2004-10-01,17.5,17.969999313354492,14.800000190734863,15.039999961853027,12.35335922241211,28354600.0
2004-11-01,15.399999618530273,17.559999465942383,15.0,17.3799991607666,14.27535629272461,18830500.0
2004-12-01,17.5,18.579999923706055,15.90999984741211,16.31999969482422,13.404704093933105,21588000.0
2005-01-01,16.280000686645508,16.549999237060547,14.59000015258789,16.5,13.552550315856934,17361900.0
2005-02-01,16.450000762939453,17.0,15.359999656677246,16.459999084472656,13.519698143005371,12931400.0
2005-03-01,16.459999084472656,17.420000076293945,16.25,17.059999465942383,14.0125150680542,17347100.0
2005-04-01,17.049999237060547,17.15999984741211,12.5,12.850000381469727,10.5545654296875,19196900.0
2005-05-01,12.850000381469727,14.029999732971191,12.359999656677246,13.079999923706055,10.743474006652832,18236100.0
2005-06-01,13.020000457763672,15.739999771118164,12.859999656677246,15.5600004196167,12.780466079711914,21554300.0
2005-07-01,15.630000114440918,17.40999984741211,15.34000015258789,17.399999618530273,14.291783332824707,13803100.0
2005-08-01,17.399999618530273,17.989999771118164,15.75,16.149999618530273,13.265071868896484,13338700.0
2005-09-01,16.399999618530273,16.549999237060547,15.109999656677246,16.020000457763672,13.158296585083008,15083400.0
2005-10-01,15.300000190734863,15.619999885559082,12.609999656677246,13.199999809265137,10.842040061950684,20881200.0
2005-11-01,13.850000381469727,13.850000381469727,12.5,13.539999961853027,11.121307373046875,19148500.0
2005-12-01,13.5,14.989999771118164,13.199999809265137,14.630000114440918,12.016595840454102,13911200.0
2006-01-01,14.640000343322754,16.100000381469727,13.9399995803833,15.460000038146973,12.698331832885742,19048300.0
2006-02-01,15.5,17.139999389648438,15.350000381469727,15.899999618530273,13.059733390808105,21241700.0
2006-03-01,15.90999984741211,16.190000534057617,13.779999732971191,14.350000381469727,11.786613464355469,27523200.0
2006-04-01,14.430000305175781,15.329999923706055,13.3100004196167,15.0,12.320504188537598,29792600.0
2006-05-01,14.960000038146973,17.280000686645508,14.789999961853027,15.5600004196167,12.780466079711914,22239900.0
2006-06-01,15.609999656677246,16.399999618530273,13.869999885559082,15.649999618530273,12.854390144348145,15435300.0
2006-07-01,15.649999618530273,15.739999771118164,14.029999732971191,15.6899995803833,12.887247085571289,15072500.0
2006-08-01,15.25,16.65999984741211,14.960000038146973,16.239999771118164,13.339000701904297,14340500.0
2006-09-01,16.229999542236328,17.1299991607666,15.59000015258789,16.899999618530273,13.881101608276367,15488700.0
2006-10-01,16.84000015258789,19.209999084472656,16.200000762939453,18.719999313354492,15.375986099243164,31259900.0
2006-11-01,19.020000457763672,21.610000610351562,18.739999771118164,21.299999237060547,17.4951114654541,38892600.0
2006-12-01,21.420000076293945,23.540000915527344,21.059999465942383,21.360000610351562,17.544395446777344,28988000.0
2007-01-01,21.610000610351562,22.56999969482422,19.489999771118164,19.920000076293945,16.36162757873535,50197200.0
2007-02-01,20.010000228881836,27.229999542236328,19.899999618530273,25.440000534057617,20.895572662353516,57053000.0
2007-03-01,25.25,28.84000015258789,24.020000457763672,26.65999984741211,21.897640228271484,44463700.0
2007-04-01,26.65999984741211,32.029998779296875,26.440000534057617,29.5,24.230318069458008,59031200.0
2007-05-01,29.459999084472656,36.470001220703125,28.850000381469727,35.130001068115234,28.854612350463867,48497400.0
2007-06-01,35.220001220703125,41.0,34.22999954223633,39.02000045776367,32.04973220825195,56575300.0
2007-07-01,39.02000045776367,41.86000061035156,34.150001525878906,37.560001373291016,30.850549697875977,50290800.0
2007-08-01,38.0,42.689998626708984,32.5,42.02000045776367,34.51383972167969,60567100.0
2007-09-01,42.79999923706055,54.83000183105469,41.75,53.52000045776367,43.95955276489258,39946100.0
2007-10-01,53.81999969482422,71.79000091552734,48.720001220703125,69.80000305175781,57.331417083740234,94923600.0
2007-11-01,67.4800033569336,72.80000305175781,57.25,69.1500015258789,56.797515869140625,75550400.0
2007-12-01,70.13999938964844,97.5999984741211,69.56999969482422,94.33999633789062,77.48772430419922,71910300.0
2008-01-01,95.7300033569336,110.19999694824219,71.0,90.93000030517578,74.6868896484375,169064900.0
2008-02-01,91.7699966430664,119.77999877929688,88.0999984741211,111.30000305175781,91.41813659667969,124178400.0
2008-03-01,110.01000213623047,114.63999938964844,89.27999877929688,102.5999984741211,84.27225494384766,128630200.0
2008-04-01,103.26000213623047,143.32000732421875,95.0,122.51000213623047,100.62564086914062,183101200.0
2008-05-01,120.55999755859375,132.16000366210938,113.55999755859375,125.31999969482422,102.9336929321289,109768500.0
2008-06-01,125.1500015258789,163.25,124.0,144.6999969482422,118.85176849365234,152713700.0
2008-07-01,143.13999938964844,146.9199981689453,114.2699966430664,127.20999908447266,104.48609924316406,148818700.0
2008-08-01,128.3000030517578,131.5,92.45999908447266,106.73999786376953,87.67268371582031,143454200.0
2008-08-05,,,,,,
2008-09-01,103.12999725341797,104.0,62.209999084472656,68.0199966430664,55.89493942260742,212683100.0
2008-10-01,69.95999908447266,71.5,23.959999084472656,39.40999984741211,32.3848762512207,480567300.0
2008-11-01,39.75,43.15999984741211,21.940000534057617,30.350000381469727,24.939891815185547,194016500.0
2008-11-04,,,,,,
2008-12-01,28.889999389648438,38.59000015258789,23.649999618530273,34.599998474121094,28.4704647064209,153099000.0
2009-01-01,35.18000030517578,41.150001525878906,31.170000076293945,35.66999816894531,29.350919723510742,161491300.0
2009-02-01,34.65999984741211,48.68000030517578,34.20000076293945,43.04999923706055,35.423526763916016,196592500.0
2009-02-03,,,,,,
2009-03-01,41.130001068115234,49.779998779296875,36.939998626708984,41.97999954223633,34.59172058105469,213559500.0
2009-04-01,41.25,46.72999954223633,37.08000183105469,40.45000076293945,33.330997467041016,143087200.0
2009-05-01,40.779998779296875,59.34000015258789,40.529998779296875,54.70000076293945,45.07306671142578,168140600.0
2009-05-05,,,,,,
2009-06-01,55.88999938964844,57.25,42.16999816894531,44.29999923706055,36.54468536376953,149642600.0
2009-07-01,45.20000076293945,54.599998474121094,39.38999938964844,52.150001525878906,43.02042770385742,200986300.0
2009-08-01,53.88999938964844,55.72999954223633,48.2400016784668,48.470001220703125,39.98467254638672,97854400.0
2009-08-04,,,,,,
2009-09-01,48.369998931884766,54.75,47.70000076293945,48.06999969482422,39.6906852722168,108803200.0
2009-10-01,48.13999938964844,54.97999954223633,45.0,46.72999954223633,38.58427429199219,128086700.0
2009-11-01,47.70000076293945,57.41999816894531,46.40999984741211,54.45000076293945,44.95856475830078,105486900.0
2009-11-03,,,,,,
2009-11-09,,,,,,
2009-12-01,55.279998779296875,62.459999084472656,54.709999084472656,59.72999954223633,50.6786994934082,119622300.0
2010-01-01,60.45000076293945,68.27999877929688,53.20000076293945,53.5099983215332,45.40126419067383,104694000.0
2010-02-01,54.08000183105469,61.59000015258789,52.869998931884766,58.38999938964844,49.54176330566406,87465700.0
2010-02-02,,,,,,
2010-03-01,58.5099983215332,64.69999694824219,57.33000183105469,60.77000045776367,51.606964111328125,103397500.0
2010-04-01,59.599998474121094,60.209999084472656,50.29999923706055,51.13999938964844,43.42898941040039,114621300.0
2010-05-01,51.68000030517578,51.939998626708984,42.79999923706055,46.16999816894531,39.2083854675293,105561500.0
2010-05-04,,,,,,
2010-06-01,46.33000183105469,46.79999923706055,38.86000061035156,38.97999954223633,33.1349983215332,82702100.0
2010-07-01,38.970001220703125,48.540000915527344,37.68000030517578,47.650001525878906,40.50495910644531,134862900.0
2010-08-01,46.790000915527344,59.880001068115234,46.279998779296875,58.65999984741211,49.86402893066406,147362200.0
2010-08-04,,,,,,
2010-09-01,59.41999816894531,63.939998626708984,56.59000015258789,58.7599983215332,50.0009880065918,90967000.0
2010-10-01,58.7599983215332,73.37999725341797,58.54999923706055,73.16000366210938,62.254486083984375,112665400.0
2010-11-01,73.01000213623047,74.25,64.55999755859375,67.62999725341797,57.54880905151367,94887200.0
2010-11-02,,,,,,
2010-12-01,68.55999755859375,76.80000305175781,65.0,76.36000061035156,65.02241516113281,86576600.0
2011-01-01,77.45999908447266,85.44999694824219,71.86000061035156,81.04000091552734,69.00756072998047,168249000.0
2011-02-01,81.75,89.23999786376953,75.4000015258789,85.8499984741211,73.10340881347656,118407000.0
2011-02-01,,,,,,
2011-03-01,86.06999969482422,86.66999816894531,73.02999877929688,78.75,67.09893798828125,112245300.0
2011-04-01,79.48999786376953,83.41000366210938,71.8499984741211,74.86000061035156,63.78450393676758,81081200.0
2011-04-20,,,,,,
2011-05-01,75.08999633789062,75.41999816894531,64.9000015258789,70.8499984741211,60.407127380371094,197060300.0
2011-06-01,70.22000122070312,71.4800033569336,58.84000015258789,67.7300033569336,57.74699020385742,199052800.0
2011-07-01,67.48999786376953,74.30999755859375,65.36000061035156,70.72000122070312,60.296287536621094,131849800.0
2011-08-01,72.41000366210938,74.0,55.70000076293945,71.12999725341797,60.64585494995117,175216600.0
2011-08-02,,,,,,
2011-09-01,71.0199966430664,72.3499984741211,48.4900016784668,48.970001220703125,41.7813720703125,197846000.0
2011-10-01,48.7599983215332,62.650001525878906,44.86000061035156,58.560001373291016,49.96358871459961,151201700.0
2011-11-01,55.209999084472656,60.349998474121094,49.08000183105469,52.7599983215332,45.0150146484375,116978300.0
2011-11-01,,,,,,
2011-12-01,53.209999084472656,54.279998779296875,46.5,50.43000030517578,43.06381607055664,110537300.0
2012-01-01,51.619998931884766,56.959999084472656,51.150001525878906,55.970001220703125,47.794612884521484,107881300.0
2012-01-31,,,,,,
2012-02-01,56.59000015258789,59.75,54.11000061035156,57.75,49.35844421386719,87935500.0
2012-03-01,58.47999954223633,59.79999923706055,54.5099983215332,55.290000915527344,47.25590515136719,106646500.0
2012-04-01,55.349998474121094,55.939998626708984,49.5099983215332,52.81999969482422,45.14482116699219,90673000.0
2012-05-01,52.66999816894531,53.779998779296875,45.58000183105469,47.68000030517578,40.75170135498047,79068400.0
2012-05-01,,,,,,
2012-06-01,46.81999969482422,54.97999954223633,44.43000030517578,54.7599983215332,46.91395568847656,94107800.0
2012-07-01,54.939998626708984,59.060001373291016,53.779998779296875,58.11000061035156,49.78395080566406,96491600.0
2012-07-31,,,,,,
2012-08-01,58.599998474121094,59.95000076293945,56.34000015258789,57.90999984741211,49.82609558105469,66697600.0
2012-09-01,57.970001220703125,61.97999954223633,56.70000076293945,57.61000061035156,49.567970275878906,82327500.0
2012-10-01,57.91999816894531,58.689998626708984,52.27000045776367,52.34000015258789,45.033634185791016,77045100.0
2012-10-31,,,,,,
2012-11-01,52.540000915527344,54.7400016784668,48.290000915527344,54.060001373291016,46.73490524291992,60970400.0
2012-12-01,54.310001373291016,57.11000061035156,52.650001525878906,56.630001068115234,48.956668853759766,48862900.0
2013-01-01,58.060001373291016,63.459999084472656,56.31999969482422,61.25,52.950653076171875,73650700.0
2013-02-01,61.91999816894531,62.43000030517578,55.619998931884766,58.540000915527344,50.60786056518555,54104700.0
2013-02-05,,,,,,
2013-03-01,58.11000061035156,62.7400016784668,57.540000915527344,59.61000061035156,51.74497604370117,65402200.0
2013-04-01,59.470001220703125,61.939998626708984,56.900001525878906,61.59000015258789,53.463741302490234,58623300.0
2013-04-30,,,,,,
2013-05-01,61.290000915527344,64.6500015258789,58.290000915527344,60.81999969482422,53.00962829589844,61785500.0
2013-06-01,60.880001068115234,62.09000015258789,53.29999923706055,53.810001373291016,46.899837493896484,53533000.0
2013-07-01,54.09000015258789,56.970001220703125,39.95000076293945,41.09000015258789,35.813316345214844,176005300.0
2013-07-30,,,,,,
2013-08-01,42.04999923706055,44.79999923706055,39.75,41.650001525878906,36.4727668762207,174988400.0
2013-09-01,42.11000061035156,47.099998474121094,41.13999938964844,43.02000045776367,37.67247009277344,145135900.0
2013-10-01,42.939998626708984,47.380001068115234,42.7599983215332,45.849998474121094,40.15069580078125,98670900.0
2013-11-01,45.939998626708984,49.810001373291016,45.4900016784668,47.900001525878906,41.94587326049805,74052100.0
2013-12-01,48.0,48.25,43.709999084472656,47.27000045776367,41.3941764831543,65069600.0
2013-12-03,,,,,,
2014-01-01,47.25,49.66999816894531,43.58000183105469,44.65999984741211,39.3156623840332,75570900.0
2014-02-01,44.83000183105469,49.150001525878906,44.310001373291016,48.86000061035156,43.013065338134766,62632500.0
2014-03-01,48.4900016784668,50.630001068115234,47.380001068115234,50.0,44.01664352416992,64598400.0
2014-03-04,,,,,,
2014-04-01,49.959999084472656,50.40999984741211,47.09000015258789,50.040000915527344,44.27785873413086,43849900.0
2014-05-01,50.0099983215332,50.41999816894531,48.099998474121094,49.9900016784668,44.233612060546875,46733800.0
2014-06-01,49.97999954223633,51.25,48.22999954223633,49.45000076293945,43.75579833984375,64977200.0
2014-06-03,,,,,,
2014-07-01,49.5099983215332,49.59000015258789,45.95000076293945,46.11000061035156,41.00608444213867,56797300.0
2014-08-01,46.09000015258789,48.209999084472656,45.5,47.7599983215332,42.47344970703125,46667800.0
2014-09-01,47.630001068115234,47.650001525878906,44.09000015258789,44.40999984741211,39.4942626953125,54130600.0
2014-09-02,,,,,,
2014-10-01,44.09000015258789,44.38999938964844,40.31999969482422,44.310001373291016,39.6126823425293,81710200.0
2014-11-01,44.31999969482422,48.72999954223633,43.380001068115234,45.77000045776367,40.91790008544922,68180600.0
2014-12-01,45.66999816894531,46.84000015258789,43.59000015258789,45.650001525878906,40.81062698364258,63184500.0
2014-12-02,,,,,,
2015-01-01,45.86000061035156,49.5,44.779998779296875,48.689998626708984,43.77305603027344,70967500.0
2015-02-01,48.90999984741211,53.83000183105469,48.40999984741211,53.2599983215332,47.88155746459961,65825000.0
2015-03-01,53.099998474121094,53.54999923706055,45.91999816894531,46.060001373291016,41.408653259277344,96002600.0
2015-03-03,,,,,,
2015-04-01,46.2599983215332,46.5,43.33000183105469,44.0,39.74229049682617,75954700.0
2015-05-01,44.540000915527344,47.68000030517578,44.0,45.849998474121094,41.41327667236328,92860400.0
2015-06-01,45.900001525878906,47.130001068115234,43.810001373291016,46.849998474121094,42.316497802734375,83721000.0
2015-06-02,,,,,,
2015-07-01,47.04999923706055,47.130001068115234,42.0,42.939998626708984,39.02142333984375,85898700.0
2015-08-01,42.95000076293945,45.36000061035156,37.20000076293945,40.83000183105469,37.103973388671875,83835300.0
2015-09-01,39.56999969482422,41.349998474121094,30.530000686645508,31.110000610351562,28.270998001098633,93532200.0
2015-09-01,,,,,,
2015-10-01,31.079999923706055,36.04999923706055,29.610000610351562,33.790000915527344,30.91464614868164,109274400.0
2015-11-01,33.86000061035156,36.95000076293945,30.610000610351562,31.639999389648438,28.947601318359375,89422200.0
2015-12-01,31.5,32.2599983215332,26.959999084472656,27.59000015258789,25.242237091064453,123111500.0
2015-12-01,,,,,,
2016-01-01,27.309999465942383,28.670000076293945,22.049999237060547,24.100000381469727,22.242534637451172,131905300.0
2016-02-01,23.950000762939453,27.200000762939453,22.020000457763672,26.649999618530273,24.59600257873535,135472500.0
2016-03-01,26.559999465942383,31.100000381469727,26.479999542236328,27.0,24.919023513793945,135831300.0
2016-03-01,,,,,,
2016-04-01,26.889999389648438,29.65999984741211,24.520000457763672,27.989999771118164,26.102067947387695,110800100.0
2016-05-01,28.270000457763672,28.59000015258789,24.75,25.229999542236328,23.528228759765625,108922400.0
2016-05-31,,,,,,
2016-06-01,25.0,29.459999084472656,24.420000076293945,26.18000030517578,24.678321838378906,135661600.0
2016-07-01,26.030000686645508,29.690000534057617,24.450000762939453,27.0,25.4512882232666,103154400.0
2016-08-01,27.020000457763672,30.959999084472656,25.979999542236328,30.06999969482422,28.34519386291504,133354200.0
2016-09-01,30.0,30.030000686645508,23.729999542236328,24.459999084472656,23.056982040405273,102021100.0
2016-09-06,,,,,,
2016-10-01,24.5,25.489999771118164,22.770000457763672,23.530000686645508,22.38911247253418,97565800.0
2016-11-01,23.959999084472656,29.1200008392334,23.65999984741211,28.399999618530273,27.02298355102539,114287000.0
2016-11-29,,,,,,
2016-12-01,28.600000381469727,31.540000915527344,27.510000228881836,29.329999923706055,28.191347122192383,106429800.0
2017-01-01,29.649999618530273,33.9900016784668,29.280000686645508,31.3700008392334,30.15215301513672,95934800.0
2017-02-01,31.3799991607666,34.36000061035156,30.65999984741211,31.190000534057617,29.979137420654297,89205300.0
2017-02-28,,,,,,
2017-03-01,31.600000381469727,31.899999618530273,28.34000015258789,29.18000030517578,28.293867111206055,104163600.0
2017-04-01,29.25,29.510000228881836,26.670000076293945,26.93000030517578,26.112194061279297,76673000.0
2017-05-01,27.1200008392334,27.149999618530273,22.280000686645508,22.6299991607666,21.942777633666992,134542700.0
2017-05-30,,,,,,
2017-06-01,22.6299991607666,24.450000762939453,21.790000915527344,22.829999923706055,22.281015396118164,85985100.0
2017-07-01,23.040000915527344,24.770000457763672,22.170000076293945,24.139999389648438,23.559511184692383,71466200.0
2017-08-01,23.829999923706055,23.829999923706055,19.59000015258789,19.979999542236328,19.499540328979492,102353900.0
2017-09-01,20.049999237060547,21.90999984741211,19.229999542236328,21.59000015258789,21.070831298828125,88612600.0
2017-09-06,,,,,,
2017-10-01,21.530000686645508,22.899999618530273,20.719999313354492,22.34000015258789,21.972158432006836,82439000.0
2017-11-01,23.020000457763672,24.709999084472656,22.239999771118164,24.290000915527344,23.890052795410156,99181100.0
2017-12-01,24.309999465942383,26.1200008392334,23.170000076293945,25.65999984741211,25.237489700317383,108538400.0
2017-12-06,,,,,,
2018-01-01,25.950000762939453,28.299999237060547,25.219999313354492,27.299999237060547,26.878673553466797,103007800.0
2018-02-01,27.110000610351562,29.200000762939453,23.459999084472656,26.31999969482422,25.913801193237305,108669200.0
2018-02-28,,,,,,
2018-03-01,26.299999237060547,29.18000030517578,23.43000030517578,24.280000686645508,23.927589416503906,97672000.0
2018-04-01,24.25,27.489999771118164,22.899999618530273,26.950000762939453,26.558834075927734,84920700.0
2018-05-01,26.760000228881836,28.65999984741211,25.510000228881836,27.489999771118164,27.09099578857422,101073400.0
2018-06-01,27.719999313354492,29.950000762939453,27.149999618530273,28.049999237060547,27.642871856689453,80806200.0
2018-06-06,,,,,,
2018-07-01,27.780000686645508,30.360000610351562,27.5,30.110000610351562,29.69961166381836,66552700.0
2018-08-01,29.860000610351562,32.31999969482422,28.850000381469727,31.270000457763672,30.843801498413086,106957400.0
2018-09-01,31.170000076293945,32.97999954223633,29.670000076293945,32.47999954223633,32.03730773925781,66566300.0
2018-09-05,,,,,,
2018-10-01,32.650001525878906,34.0099983215332,29.040000915527344,30.940000534057617,30.543066024780273,95832100.0
2018-11-01,31.34000015258789,37.369998931884766,31.049999237060547,36.0,35.53815460205078,98573800.0
2018-12-01,36.88999938964844,37.33000183105469,27.520000457763672,29.209999084472656,28.83526039123535,82765300.0
2018-12-05,,,,,,
2018-12-06,,,,,,
2019-01-01,28.790000915527344,32.560001373291016,28.389999389648438,32.279998779296875,31.911083221435547,66218000.0
2019-02-01,32.33000183105469,33.90999984741211,30.329999923706055,31.270000457763672,30.912630081176758,86108700.0
2019-03-01,31.40999984741211,31.6200008392334,25.950000762939453,27.309999465942383,26.99788475036621,94143900.0
2019-03-06,,,,,,
2019-04-01,27.399999618530273,28.010000228881836,25.8700008392334,26.110000610351562,25.833208084106445,83676100.0
2019-05-01,26.1200008392334,26.260000228881836,20.809999465942383,21.469999313354492,21.242395401000977,107336500.0
2019-06-01,21.5,25.059999465942383,21.450000762939453,25.030000686645508,24.76465606689453,117816600.0
2019-06-05,,,,,,
2019-07-01,25.40999984741211,25.709999084472656,22.389999389648438,25.190000534057617,24.977928161621094,90423300.0
2019-08-01,25.09000015258789,25.559999465942383,17.360000610351562,18.389999389648438,18.23517608642578,138180400.0
2019-09-01,18.100000381469727,23.18000030517578,17.719999313354492,20.5,20.32741355895996,102073600.0
2019-09-04,,,,,,
2019-10-01,20.649999618530273,21.110000610351562,18.540000915527344,19.8799991607666,19.76778793334961,86740600.0
2019-11-01,20.059999465942383,22.5,17.950000762939453,19.049999237060547,18.942472457885742,90530400.0
2019-12-01,19.229999542236328,21.799999237060547,17.65999984741211,21.639999389648438,21.517854690551758,97366200.0
2019-12-04,,,,,,
2020-01-01,21.920000076293945,22.190000534057617,18.239999771118164,19.84000015258789,19.781681060791016,95723000.0
2020-02-01,19.899999618530273,21.600000381469727,16.020000457763672,17.030000686645508,16.979942321777344,123792600.0
2020-03-01,17.149999618530273,17.850000381469727,6.5,10.869999885559082,10.838047981262207,149036900.0
2020-03-04,,,,,,
2020-03-26,10.960000038146973,11.675000190734863,10.470000267028809,11.25,11.25,3768895.0
