Date,Open,High,Low,Close,Adj Close,Volume
1993-02-01,8.0,8.28125,7.65625,8.28125,3.5468177795410156,58011600.0
1993-03-01,8.1875,9.8125,8.0,9.59375,4.108956336975098,48999600.0
1993-04-01,9.46875,9.8125,8.15625,9.6875,4.149109363555908,24175200.0
1993-05-01,9.5,9.5,8.4375,8.59375,3.6806607246398926,13800000.0
1993-05-25,,,,,,
1993-06-01,8.59375,9.75,8.1875,9.375,4.062195301055908,26317600.0
1993-07-01,9.375,9.8125,8.65625,9.3125,4.03511381149292,100472400.0
1993-08-01,9.28125,10.0625,9.125,9.71875,4.2111406326293945,66206000.0
1993-08-26,,,,,,
1993-09-01,9.625,11.5,9.375,11.0,4.815540313720703,74820000.0
1993-10-01,10.9375,11.625,9.84375,10.28125,4.500888824462891,56697600.0
1993-11-01,10.25,10.25,8.75,9.5,4.158875942230225,50953600.0
1993-11-24,,,,,,
1993-12-01,9.5625,9.84375,8.65625,8.65625,3.8303587436676025,40874400.0
1994-01-01,8.6875,9.9375,8.5625,9.59375,4.245198726654053,50306400.0
1994-02-01,9.625,9.71875,8.46875,9.0,3.982466220855713,51058800.0
1994-02-23,,,,,,
1994-03-01,9.0,9.25,7.90625,8.15625,3.6618850231170654,53925200.0
1994-04-01,7.90625,9.5625,7.875,9.40625,4.223092555999756,43671200.0
1994-05-01,9.40625,10.21875,9.28125,9.75,4.377425193786621,35054800.0
1994-05-23,,,,,,
1994-05-25,,,,,,
1994-06-01,9.71875,10.25,8.84375,9.375,4.317031383514404,33462400.0
1994-07-01,9.5,10.21875,9.0,10.03125,4.619223117828369,29660400.0
1994-08-01,10.03125,10.78125,9.78125,10.65625,4.9070281982421875,32022000.0
1994-08-26,,,,,,
1994-09-01,10.59375,10.6875,9.40625,9.40625,4.386166095733643,29034800.0
1994-10-01,9.4375,9.90625,8.65625,9.65625,4.502740859985352,44293200.0
1994-11-01,9.625,9.65625,8.375,8.75,4.0801544189453125,27305600.0
1994-11-25,,,,,,
1994-12-01,8.75,8.875,7.90625,8.46875,4.007389068603516,33439600.0
1995-01-01,8.46875,9.5625,8.375,9.34375,4.4214348793029785,52341200.0
1995-02-01,9.375,10.40625,9.3125,10.03125,4.746759414672852,50907200.0
1995-02-23,,,,,,
1995-03-01,10.03125,10.84375,9.78125,10.1875,4.881245136260986,51526000.0
1995-04-01,10.1875,11.25,10.0,10.59375,5.075891494750977,28441200.0
1995-05-01,10.625,12.03125,10.625,11.875,5.689792156219482,41436000.0
1995-05-25,,,,,,
1995-06-01,11.8125,12.1875,11.3125,11.75,5.705979347229004,33290800.0
1995-07-01,11.71875,12.71875,11.59375,12.625,6.130893230438232,30278400.0
1995-08-01,12.65625,12.8125,11.84375,12.8125,6.2219414710998535,25605600.0
1995-08-24,,,,,,
1995-08-30,,,,,,
1995-09-01,13.0625,14.5625,12.984375,14.0625,6.941693305969238,49972400.0
1995-10-01,14.0,14.03125,12.21875,12.4375,6.139541149139404,47682800.0
1995-11-01,12.46875,13.1875,12.28125,12.75,6.293801307678223,28928400.0
1995-11-29,,,,,,
1995-12-01,12.71875,13.125,11.625,11.75,5.8748064041137695,54648800.0
1996-01-01,11.6875,13.53125,11.25,13.53125,6.765404224395752,63748400.0
1996-02-01,13.5,14.3125,12.96875,13.4375,6.718532562255859,38933600.0
1996-02-28,,,,,,
1996-03-01,13.40625,14.5,12.59375,14.3125,7.272913932800293,42178400.0
1996-04-01,14.34375,14.84375,12.78125,13.625,6.92356014251709,35897600.0
1996-05-01,13.625,15.53125,13.3125,14.8125,7.526989936828613,37522000.0
1996-05-29,,,,,,
1996-05-30,,,,,,
1996-06-01,14.78125,15.3125,13.6875,14.28125,7.391706466674805,31283200.0
1996-07-01,14.3125,14.4375,12.0625,12.71875,6.582986831665039,41924800.0
1996-08-01,12.71875,14.0625,12.5,12.5,6.46976375579834,46279600.0
1996-08-29,,,,,,
1996-09-01,12.46875,13.90625,12.40625,13.75,7.242320537567139,37716000.0
1996-10-01,13.78125,15.21875,13.78125,14.71875,7.752579212188721,37215600.0
1996-11-01,14.84375,17.15625,14.78125,17.09375,9.003522872924805,27875200.0
1996-11-27,,,,,,
1996-11-28,,,,,,
1996-12-01,17.03125,17.1875,15.96875,16.5625,8.954172134399414,28420400.0
1997-01-01,16.59375,19.4375,16.375,19.0625,10.305744171142578,30465400.0
1997-01-15,,,,,,
1997-02-01,19.1875,22.0,18.9375,19.1875,10.373321533203125,73207800.0
1997-02-27,,,,,,
1997-03-01,19.1875,20.4375,17.3125,17.4375,9.4934663772583,33993600.0
1997-04-01,17.4375,19.5,17.0625,19.125,10.412191390991211,35692600.0
1997-05-01,19.0625,20.8125,18.9375,20.75,11.296889305114746,20186800.0
1997-05-22,,,,,,
1997-06-01,20.875,23.375,20.4375,21.53125,11.804594993591309,53917200.0
1997-07-01,21.875,26.5625,21.8125,26.21875,14.37453842163086,62899000.0
1997-07-10,,,,,,
1997-08-01,26.25,27.1875,23.9375,24.0625,13.27371597290039,56038200.0
1997-09-01,24.125,29.0625,24.09375,27.03125,14.911380767822266,46297000.0
1997-10-01,27.0625,29.375,22.0,24.5,13.515059471130371,56550800.0
1997-10-09,,,,,,
1997-11-01,25.46875,28.375,23.875,27.15625,15.053807258605957,43425400.0
1997-12-01,27.4375,29.75,25.8125,29.5625,16.38768196105957,46185800.0
1998-01-01,29.25,30.6875,26.5,29.1875,16.179794311523438,64063200.0
1998-01-15,,,,,,
1998-02-01,29.71875,35.71875,29.6875,34.90625,19.487756729125977,51763000.0
1998-03-01,34.84375,38.9375,34.34375,36.4375,20.342634201049805,54848800.0
1998-04-01,36.3125,42.4375,36.25,39.4375,22.017488479614258,72232200.0
1998-04-13,,,,,,
1998-05-01,39.375,40.5625,36.78125,39.03125,21.897096633911133,39962600.0
1998-06-01,39.0625,45.6875,37.5,45.6875,25.631364822387695,55128400.0
1998-07-01,45.0,48.75,43.125,43.53125,24.421674728393555,52888000.0
1998-07-14,,,,,,
1998-08-01,43.40625,43.96875,28.4375,29.03125,16.356653213500977,79702600.0
1998-09-01,29.15625,31.125,20.75,21.5625,12.148642539978027,183488400.0
1998-10-01,20.65625,33.09375,18.25,32.5,18.310998916625977,198653800.0
1998-10-13,,,,,,
1998-11-01,32.375,38.375,28.75,34.8125,19.785245895385742,93659600.0
1998-12-01,33.5,39.65625,31.15625,35.5,20.175975799560547,76843800.0
1999-01-01,35.40625,44.4375,35.40625,43.3125,24.616111755371094,99592000.0
1999-01-14,,,,,,
1999-02-01,43.1875,48.9375,42.125,45.25,25.868104934692383,88745000.0
1999-03-01,44.875,53.09375,44.78125,49.96875,28.565685272216797,102453000.0
1999-04-01,49.875,58.46875,47.78125,49.59375,28.351316452026367,88725000.0
1999-04-14,,,,,,
1999-05-01,48.90625,54.8125,44.28125,48.25,27.699562072753906,111348000.0
1999-06-01,47.75,51.875,41.875,51.3125,29.45769691467285,110666600.0
1999-07-01,49.9375,52.59375,45.0625,45.125,25.905548095703125,66572800.0
1999-07-14,,,,,,
1999-08-01,45.5,49.25,40.5,42.90625,24.74825096130371,86806000.0
1999-09-01,43.53125,47.0625,42.0,44.59375,25.721603393554688,86338800.0
1999-10-01,44.65625,57.625,43.28125,55.15625,31.814054489135742,103423400.0
1999-10-13,,,,,,
1999-11-01,55.0,63.75,53.84375,60.3125,34.96635055541992,79492200.0
1999-12-01,59.75,71.4375,59.625,71.375,41.379878997802734,74803000.0
2000-01-01,68.625,69.375,58.625,66.25,38.40864181518555,90297500.0
2000-01-10,,,,,,
2000-01-27,,,,,,
2000-02-01,65.625,71.1875,60.125,70.4375,41.096126556396484,63990900.0
2000-03-01,71.875,97.375,71.5,82.875,48.3526496887207,96506300.0
2000-04-01,83.4375,90.1875,64.75,76.75,44.77909851074219,91956700.0
2000-04-12,,,,,,
2000-05-01,76.5,82.625,62.375,71.5,41.81318664550781,81575700.0
2000-06-01,72.0,87.9375,70.125,83.25,48.68460464477539,67563400.0
2000-07-01,83.75,97.0,83.5,91.25,53.36299133300781,55496700.0
2000-07-05,,,,,,
2000-08-01,92.125,108.5,90.4375,107.578125,63.06008529663086,61403500.0
2000-09-01,107.5625,110.0,85.5,91.4375,53.598785400390625,78678100.0
2000-10-01,90.125,93.5,68.25,80.3125,47.07749938964844,118919000.0
2000-10-04,,,,,,
2000-11-01,77.625,84.25,60.625,63.375,37.230159759521484,94156800.0
2000-12-01,63.25,80.75,61.625,79.25,46.55604553222656,106375100.0
2001-01-01,78.25,89.1875,69.0,84.80000305175781,49.81645965576172,136549800.0
2001-01-10,,,,,,
2001-02-01,85.05000305175781,90.48999786376953,63.5,65.12999725341797,38.36809539794922,119104600.0
2001-03-01,62.5,68.8499984741211,49.70000076293945,53.5,31.51687240600586,172595400.0
2001-04-01,53.150001525878906,68.8499984741211,44.099998474121094,62.790000915527344,36.9896240234375,144320400.0
2001-04-04,,,,,,
2001-05-01,62.0,75.2300033569336,60.77000045776367,65.01000213623047,38.47678756713867,109171300.0
2001-06-01,64.80000305175781,66.4000015258789,55.81999969482422,64.2300033569336,38.01513671875,98334400.0
2001-07-01,64.05000305175781,64.83000183105469,55.369998931884766,59.81999969482422,35.405033111572266,80901200.0
2001-07-03,,,,,,
2001-08-01,60.5,63.849998474121094,50.099998474121094,53.349998474121094,31.69002914428711,92439700.0
2001-09-01,53.77000045776367,54.400001525878906,35.75,46.349998474121094,27.532007217407227,104867300.0
2001-10-01,45.5,54.349998474121094,45.150001525878906,48.91999816894531,29.058591842651367,119185800.0
2001-10-03,,,,,,
2001-11-01,48.95000076293945,59.599998474121094,48.060001373291016,55.5,33.12908172607422,90346900.0
2001-12-01,53.54999923706055,57.650001525878906,51.349998474121094,55.939998626708984,33.39171600341797,86601200.0
2002-01-01,55.91999816894531,60.02000045776367,50.20000076293945,55.0,32.83062744140625,106193700.0
2002-01-09,,,,,,
2002-02-01,54.119998931884766,54.20000076293945,45.900001525878906,49.119998931884766,29.437572479248047,116867300.0
2002-03-01,49.20000076293945,58.27000045776367,48.5,57.310001373291016,34.345829010009766,98788800.0
2002-04-01,57.060001373291016,57.290000915527344,46.54999923706055,47.720001220703125,28.598562240600586,122271000.0
2002-04-03,,,,,,
2002-05-01,47.5,50.68000030517578,43.91999816894531,45.459999084472656,27.377700805664062,115530600.0
2002-06-01,45.400001525878906,45.939998626708984,39.79999923706055,43.08000183105469,25.944387435913086,107100800.0
2002-07-01,43.59000015258789,44.09000015258789,33.5,40.349998474121094,24.300277709960938,146020400.0
2002-07-02,,,,,,
2002-08-01,39.77000045776367,46.5,36.310001373291016,42.720001220703125,25.871170043945312,107538300.0
2002-09-01,41.619998931884766,43.709999084472656,32.70000076293945,33.880001068115234,20.517684936523438,112682700.0
2002-10-01,34.02000045776367,39.40999984741211,28.799999237060547,38.91999816894531,23.56988525390625,151581000.0
2002-10-02,,,,,,
2002-11-01,38.599998474121094,46.83000183105469,37.95000076293945,45.2400016784668,27.574440002441406,108333100.0
2002-12-01,46.0,46.70000076293945,39.38999938964844,39.91999816894531,24.331817626953125,97055800.0
2003-01-01,40.15999984741211,44.38999938964844,36.75,37.900001525878906,23.100589752197266,101396500.0
2003-01-08,,,,,,
2003-02-01,37.90999984741211,38.79999923706055,34.31999969482422,36.849998474121094,22.58077621459961,92408500.0
2003-03-01,37.25,41.72999954223633,32.459999084472656,38.349998474121094,23.49993324279785,133061100.0
2003-04-01,38.68000030517578,48.029998779296875,38.400001525878906,44.75,27.42169952392578,127882300.0
2003-04-09,,,,,,
2003-05-01,44.75,46.099998474121094,41.779998779296875,45.75,28.187305450439453,105023000.0
2003-06-01,46.54999923706055,50.4900016784668,42.68000030517578,42.75,26.338958740234375,129789500.0
2003-07-01,42.63999938964844,49.400001525878906,42.41999816894531,47.439998626708984,29.228540420532227,118608200.0
2003-07-09,,,,,,
2003-08-01,47.189998626708984,49.95000076293945,44.779998779296875,48.790000915527344,30.206932067871094,81762800.0
2003-09-01,48.790000915527344,53.099998474121094,47.810001373291016,50.459999084472656,31.240873336791992,120396800.0
2003-10-01,50.79999923706055,55.22999954223633,50.720001220703125,54.869998931884766,33.97120666503906,93330300.0
2003-10-08,,,,,,
2003-11-01,55.16999816894531,58.06999969482422,52.540000915527344,55.279998779296875,34.37143325805664,85832500.0
2003-12-01,55.529998779296875,58.779998779296875,54.400001525878906,57.869998931884766,35.98180389404297,74578700.0
2004-01-01,57.88999938964844,60.900001525878906,56.75,58.209999084472656,36.19321823120117,83421700.0
2004-01-07,,,,,,
2004-02-01,58.06999969482422,62.15999984741211,55.91999816894531,59.7599983215332,37.3516845703125,81538500.0
2004-03-01,60.75,62.83000183105469,55.689998626708984,57.29999923706055,35.814109802246094,113844200.0
2004-04-01,57.47999954223633,58.5,51.06999969482422,51.38999938964844,32.12018585205078,126777200.0
2004-04-06,,,,,,
2004-05-01,51.5,54.79999923706055,50.220001220703125,53.5099983215332,33.593631744384766,102956100.0
2004-06-01,53.66999816894531,54.7400016784668,50.52000045776367,52.77000045776367,33.129058837890625,82495200.0
2004-07-01,52.650001525878906,53.08000183105469,46.91999816894531,49.33000183105469,30.969425201416016,107081200.0
2004-07-07,,,,,,
2004-08-01,48.70000076293945,52.099998474121094,46.540000915527344,50.72999954223633,32.0376091003418,78685500.0
2004-09-01,50.77000045776367,53.189998626708984,48.04999923706055,49.29999923706055,31.134517669677734,100543100.0
2004-10-01,49.45000076293945,52.34000015258789,47.27000045776367,51.09000015258789,32.264957427978516,91058800.0
2004-10-06,,,,,,
2004-11-01,51.29999923706055,54.0,50.43000030517578,50.75,32.212860107421875,90566200.0
2004-12-01,51.0,55.959999084472656,51.0,55.52000045776367,35.24055862426758,102079800.0
2005-01-01,55.970001220703125,56.900001525878906,53.529998779296875,55.959999084472656,35.51984405517578,93525600.0
2005-01-12,,,,,,
2005-02-01,56.45000076293945,60.5099983215332,56.150001525878906,56.470001220703125,36.01893615722656,88314100.0
2005-03-01,56.470001220703125,60.400001525878906,53.58000183105469,57.25,36.51646041870117,154288400.0
2005-04-01,57.47999954223633,60.099998474121094,49.77000045776367,52.619998931884766,33.5632438659668,207843800.0
2005-04-13,,,,,,
2005-05-01,50.29999923706055,50.86000061035156,47.65999984741211,48.959999084472656,31.38351058959961,158369500.0
2005-06-01,49.20000076293945,53.7599983215332,48.61000061035156,52.470001220703125,33.63344192504883,167708000.0
2005-07-01,52.75,54.61000061035156,52.41999816894531,53.04999923706055,34.00521469116211,93451800.0
2005-07-13,,,,,,
2005-08-01,53.15999984741211,54.5,50.18000030517578,50.869998931884766,32.773189544677734,97778500.0
2005-09-01,50.869998931884766,54.0099983215332,50.61000061035156,53.939998626708984,34.75105667114258,103545900.0
2005-10-01,53.93000030517578,55.08000183105469,50.72999954223633,54.40999984741211,35.0538444519043,102029100.0
2005-10-12,,,,,,
2005-11-01,54.099998474121094,57.97999954223633,51.900001525878906,56.029998779296875,36.28224563598633,112677500.0
2005-12-01,56.400001525878906,58.66999816894531,55.88999938964844,56.7400016784668,36.74199295043945,91064600.0
2006-01-01,57.16999816894531,61.90999984741211,56.7400016784668,61.45000076293945,39.79195022583008,93261600.0
2006-01-11,,,,,,
2006-02-01,61.099998474121094,62.150001525878906,59.209999084472656,59.65999984741211,38.80978775024414,63383200.0
2006-03-01,59.70000076293945,64.2300033569336,58.40999984741211,62.81999969482422,40.86542892456055,103760100.0
2006-04-01,62.81999969482422,65.79000091552734,62.45000076293945,64.30000305175781,41.82820129394531,72187300.0
2006-04-11,,,,,,
2006-05-01,64.6500015258789,66.0,57.58000183105469,59.619998931884766,38.947593688964844,84910800.0
2006-06-01,59.349998474121094,63.4900016784668,54.52000045776367,63.209999084472656,41.292816162109375,115983600.0
2006-07-01,63.38999938964844,66.66000366210938,60.18000030517578,66.5,43.44205093383789,85767400.0
2006-07-12,,,,,,
2006-08-01,66.0,69.5,63.79999923706055,65.79000091552734,43.16050720214844,100760100.0
2006-09-01,66.1500015258789,73.6500015258789,65.26000213623047,72.91000366210938,47.831478118896484,95916500.0
2006-10-01,72.25,78.19999694824219,72.25,76.43000030517578,50.140716552734375,78895600.0
2006-10-11,,,,,,
2006-11-01,76.5999984741211,80.0,73.30000305175781,76.16000366210938,50.14413070678711,83709800.0
2006-12-01,76.30000305175781,83.4000015258789,74.51000213623047,81.43000030517578,53.613914489746094,78998400.0
2007-01-01,81.93000030517578,84.66000366210938,79.5999984741211,82.79000091552734,54.50934600830078,91958100.0
2007-01-10,,,,,,
2007-02-01,83.45999908447266,84.38999938964844,73.04000091552734,74.91999816894531,49.49233627319336,101179000.0
2007-03-01,72.66999816894531,82.0,70.30000305175781,78.76000213623047,52.029056549072266,190208500.0
2007-04-01,78.69999694824219,85.16999816894531,77.26000213623047,84.01000213623047,55.497222900390625,109550200.0
2007-04-11,,,,,,
2007-05-01,84.30999755859375,87.44000244140625,82.51000213623047,85.04000091552734,56.36721420288086,89771900.0
2007-06-01,85.13999938964844,90.94999694824219,82.7300033569336,83.87999725341797,55.59832763671875,190019100.0
2007-07-01,70.94000244140625,73.63999938964844,61.5,63.869998931884766,42.33506393432617,240312700.0
2007-07-02,,,,,,
2007-07-11,,,,,,
2007-08-01,62.939998626708984,66.80000305175781,54.900001525878906,62.369998931884766,49.992916107177734,345192300.0
2007-09-01,62.540000915527344,69.87000274658203,60.5,63.0,50.49790573120117,207491400.0
2007-10-01,62.599998474121094,69.2300033569336,60.0,67.26000213623047,53.91251754760742,222344300.0
2007-10-10,,,,,,
2007-11-01,65.0199966430664,65.0199966430664,47.560001373291016,52.720001220703125,42.423709869384766,392256700.0
2007-12-01,51.790000915527344,55.38999938964844,47.25,53.11000061035156,42.737545013427734,329729200.0
2008-01-01,52.97999954223633,53.400001525878906,42.56999969482422,49.34000015258789,39.70383834838867,382160500.0
2008-01-09,,,,,,
2008-02-01,49.040000915527344,49.45000076293945,40.7599983215332,42.119998931884766,34.092288970947266,325832100.0
2008-03-01,42.150001525878906,51.79999923706055,33.560001373291016,45.70000076293945,36.98997116088867,489216800.0
2008-04-01,48.029998779296875,51.54999923706055,42.4900016784668,48.599998474121094,39.33726119995117,295489300.0
2008-04-09,,,,,,
2008-05-01,48.86000061035156,51.41999816894531,41.119998931884766,44.22999954223633,36.00428009033203,238358800.0
2008-06-01,44.20000076293945,44.810001373291016,35.720001220703125,36.06999969482422,29.361831665039062,470457000.0
2008-07-01,35.5,40.349998474121094,29.600000381469727,39.47999954223633,32.13766860961914,538883900.0
2008-07-09,,,,,,
2008-08-01,39.66999816894531,46.58000183105469,36.20000076293945,40.83000183105469,33.48434829711914,352754400.0
2008-09-01,41.959999084472656,44.5,11.699999809265137,23.0,18.862119674682617,1353630300.0
2008-10-01,22.719999313354492,26.729999542236328,6.710000038146973,17.469999313354492,14.327010154724121,1596904700.0
2008-10-15,,,,,,
2008-11-01,17.8799991607666,19.260000228881836,8.800000190734863,14.75,12.24707317352295,714062900.0
2008-12-01,13.930000305175781,17.93000030517578,10.850000381469727,16.040000915527344,13.318175315856934,622291500.0
2009-01-01,16.010000228881836,23.420000076293945,13.100000381469727,20.229999542236328,16.797178268432617,749151800.0
2009-01-28,,,,,,
2009-02-01,19.600000381469727,24.440000534057617,18.110000610351562,19.540000915527344,16.448673248291016,819625500.0
2009-03-01,18.860000610351562,27.270000457763672,16.1200008392334,22.770000457763672,19.167675018310547,1269247700.0
2009-04-01,22.190000534057617,27.350000381469727,20.690000534057617,23.639999389648438,19.900033950805664,1048608400.0
2009-04-28,,,,,,
2009-05-01,23.739999771118164,30.350000381469727,23.690000534057617,30.31999969482422,25.583389282226562,821979100.0
2009-06-01,30.670000076293945,31.989999771118164,26.1299991607666,28.510000228881836,24.056148529052734,620787100.0
2009-07-01,28.579999923706055,29.329999923706055,24.850000381469727,28.5,24.047712326049805,520044000.0
2009-07-29,,,,,,
2009-08-01,28.93000030517578,32.0,28.100000381469727,28.959999084472656,24.480466842651367,367115200.0
2009-09-01,28.829999923706055,33.33000183105469,27.010000228881836,30.8799991607666,26.10348892211914,457542200.0
2009-10-01,30.670000076293945,35.779998779296875,28.75,32.119998931884766,27.15167808532715,453506300.0
2009-10-28,,,,,,
2009-11-01,32.130001068115234,34.54999923706055,29.989999771118164,31.579999923706055,26.73439598083496,277394600.0
2009-12-01,31.770000457763672,31.969999313354492,28.809999465942383,29.600000381469727,25.058216094970703,266866000.0
2010-01-01,30.700000762939453,33.27000045776367,26.649999618530273,26.780000686645508,22.670909881591797,455657800.0
2010-01-27,,,,,,
2010-02-01,26.950000762939453,28.43000030517578,26.149999618530273,28.18000030517578,23.899812698364258,341901000.0
2010-03-01,28.299999237060547,30.790000915527344,28.110000610351562,29.290000915527344,24.84122085571289,387032700.0
2010-04-01,29.459999084472656,32.290000915527344,28.670000076293945,30.219999313354492,25.629966735839844,484398200.0
2010-04-28,,,,,,
2010-05-01,30.25,30.600000381469727,24.760000228881836,27.110000610351562,23.03081512451172,480372700.0
2010-06-01,26.790000915527344,27.389999389648438,23.139999389648438,23.209999084472656,19.717636108398438,368470200.0
2010-07-01,23.209999084472656,27.889999389648438,22.399999618530273,26.989999771118164,22.928865432739258,357025800.0
2010-07-28,,,,,,
2010-08-01,27.43000030517578,28.049999237060547,24.239999771118164,24.690000534057617,21.01386070251465,228157600.0
2010-09-01,25.049999237060547,27.799999237060547,24.18000030517578,24.68000030517578,21.00534439086914,298774100.0
2010-10-01,24.93000030517578,26.229999542236328,23.950000762939453,24.8700008392334,21.16706085205078,338001300.0
2010-10-27,,,,,,
2010-11-01,24.950000762939453,27.360000610351562,24.3700008392334,24.459999084472656,20.861223220825195,321001100.0
2010-12-01,24.81999969482422,27.770000457763672,24.729999542236328,27.209999084472656,23.206615447998047,248603200.0
2011-01-01,27.6299991607666,30.25,27.479999542236328,29.399999618530273,25.074399948120117,345080600.0
2011-01-27,,,,,,
2011-02-01,29.540000915527344,31.040000915527344,28.8700008392334,29.68000030517578,25.356908798217773,205727800.0
2011-03-01,29.690000534057617,29.780000686645508,26.700000762939453,27.31999969482422,23.340667724609375,262159700.0
2011-04-01,27.399999618530273,28.239999771118164,25.31999969482422,26.149999618530273,22.34107780456543,250474600.0
2011-04-27,,,,,,
2011-05-01,26.280000686645508,26.489999771118164,23.329999923706055,24.15999984741211,20.680936813354492,248611200.0
2011-06-01,24.020000457763672,24.049999237060547,21.760000228881836,23.010000228881836,19.696544647216797,374008300.0
2011-07-01,23.079999923706055,24.459999084472656,20.18000030517578,22.25,19.045976638793945,434624700.0
2011-07-27,,,,,,
2011-08-01,22.75,22.860000610351562,15.210000038146973,17.5,15.011894226074219,706456800.0
2011-09-01,17.5,17.549999237060547,12.489999771118164,13.510000228881836,11.589183807373047,620746500.0
2011-10-01,13.539999961853027,19.670000076293945,11.579999923706055,17.639999389648438,15.131993293762207,890744800.0
2011-10-27,,,,,,
2011-11-01,16.139999389648438,17.75,12.859999656677246,14.789999961853027,12.725436210632324,709168300.0
2011-12-01,14.5600004196167,17.5,14.029999732971191,15.130000114440918,13.017973899841309,646755700.0
2012-01-01,15.760000228881836,18.8799991607666,15.430000305175781,18.649999618530273,16.046613693237305,518774900.0
2012-01-27,,,,,,
2012-02-01,19.190000534057617,20.700000762939453,18.200000762939453,18.540000915527344,15.995917320251465,474076600.0
2012-03-01,18.739999771118164,21.190000534057617,17.239999771118164,19.639999389648438,16.944965362548828,602498500.0
2012-04-01,19.639999389648438,20.049999237060547,16.6299991607666,17.280000686645508,14.90881061553955,531176000.0
2012-04-26,,,,,,
2012-05-01,17.229999542236328,17.68000030517578,12.8100004196167,13.359999656677246,11.560440063476562,699975400.0
2012-06-01,12.970000267028809,14.609999656677246,12.260000228881836,14.59000015258789,12.624764442443848,602625100.0
2012-07-01,14.609999656677246,15.210000038146973,12.289999961853027,13.65999984741211,11.820034980773926,515490500.0
2012-07-27,,,,,,
2012-08-01,13.729999542236328,15.34000015258789,12.979999542236328,15.0,13.029655456542969,388590100.0
2012-09-01,15.289999961853027,18.5,15.130000114440918,16.739999771118164,14.541094779968262,510560900.0
2012-10-01,16.940000534057617,18.56999969482422,16.729999542236328,17.3799991607666,15.097026824951172,441619400.0
2012-10-29,,,,,,
2012-10-31,,,,,,
2012-11-01,17.40999984741211,18.239999771118164,15.949999809265137,16.8700008392334,14.740398406982422,383097100.0
2012-12-01,17.010000228881836,19.450000762939453,16.350000381469727,19.1200008392334,16.70635986328125,345139100.0
2013-01-01,20.15999984741211,23.030000686645508,19.31999969482422,22.850000381469727,19.965503692626953,553471400.0
2013-02-01,23.040000915527344,24.469999313354492,21.780000686645508,22.549999237060547,19.703371047973633,378248600.0
2013-02-01,,,,,,
2013-03-01,22.389999389648438,23.65999984741211,21.780000686645508,21.979999542236328,19.24744415283203,374171500.0
2013-04-01,21.989999771118164,22.6299991607666,20.15999984741211,22.149999618530273,19.39630889892578,469632500.0
2013-04-26,,,,,,
2013-05-01,22.110000610351562,26.420000076293945,21.540000915527344,25.899999618530273,22.733144760131836,366420400.0
2013-06-01,26.059999465942383,27.170000076293945,23.920000076293945,24.43000030517578,21.44289207458496,436196100.0
2013-07-01,24.639999389648438,27.979999542236328,23.829999923706055,27.209999084472656,23.882972717285156,365586700.0
2013-07-29,,,,,,
2013-08-01,27.56999969482422,28.020000457763672,25.25,25.760000228881836,22.651159286499023,225055100.0
2013-09-01,26.219999313354492,29.5,25.950000762939453,26.950000762939453,23.697542190551758,288068100.0
2013-10-01,26.950000762939453,29.969999313354492,26.40999984741211,28.729999542236328,25.262720108032227,313420500.0
2013-10-29,,,,,,
2013-11-01,28.889999389648438,31.799999237060547,28.690000534057617,31.299999237060547,27.570140838623047,223654500.0
2013-12-01,31.520000457763672,31.850000381469727,30.040000915527344,31.360000610351562,27.622997283935547,219393800.0
2014-01-01,31.329999923706055,33.52000045776367,29.280000686645508,29.510000228881836,25.993446350097656,304437100.0
2014-01-29,,,,,,
2014-02-01,29.510000228881836,30.940000534057617,28.780000686645508,30.799999237060547,27.174819946289062,258909600.0
2014-03-01,30.239999771118164,33.25,29.93000030517578,31.170000076293945,27.50127410888672,257790800.0
2014-04-01,31.3700008392334,31.59000015258789,28.309999465942383,30.93000030517578,27.289522171020508,279056100.0
2014-04-28,,,,,,
2014-05-01,30.90999984741211,31.440000534057617,29.020000457763672,30.860000610351562,27.317089080810547,222254200.0
2014-06-01,30.860000610351562,32.81999969482422,30.399999618530273,32.33000183105469,28.61832046508789,184062300.0
2014-07-01,32.40999984741211,33.599998474121094,31.200000762939453,32.34000015258789,28.627174377441406,198337400.0
2014-07-29,,,,,,
2014-08-01,32.18000030517578,34.56999969482422,31.1200008392334,34.310001373291016,30.463125228881836,148841700.0
2014-09-01,34.41999816894531,36.439998626708984,33.81999969482422,34.56999969482422,30.693971633911133,219722300.0
2014-10-01,34.369998931884766,35.400001525878906,31.350000381469727,34.95000076293945,31.031360626220703,267758400.0
2014-10-29,,,,,,
2014-11-01,35.04999923706055,36.130001068115234,34.43000030517578,35.18000030517578,31.326753616333008,140829400.0
2014-12-01,35.02000045776367,39.189998626708984,34.560001373291016,38.79999923706055,34.550254821777344,201217400.0
2015-01-01,39.04999923706055,39.150001525878906,33.72999954223633,33.810001373291016,30.1068058013916,266267800.0
2015-01-28,,,,,,
2015-02-01,33.959999084472656,37.20000076293945,33.720001220703125,35.790000915527344,31.962156295776367,183424700.0
2015-03-01,35.63999938964844,37.220001220703125,34.779998779296875,35.689998626708984,31.872852325439453,223990100.0
2015-04-01,35.720001220703125,37.70000076293945,35.36000061035156,37.310001373291016,33.3195915222168,192293400.0
2015-04-28,,,,,,
2015-05-01,37.5,38.849998474121094,36.7599983215332,38.20000076293945,34.25307083129883,166299300.0
2015-06-01,38.41999816894531,40.2599983215332,38.15999984741211,38.790000915527344,34.7821159362793,178389500.0
2015-07-01,39.459999084472656,41.040000915527344,37.650001525878906,38.84000015258789,34.82695388793945,199035300.0
2015-07-29,,,,,,
2015-08-01,38.959999084472656,39.349998474121094,30.399999618530273,34.45000076293945,31.009044647216797,261139900.0
2015-09-01,33.41999816894531,35.04999923706055,30.469999313354492,31.5,28.35369110107422,263765100.0
2015-10-01,31.420000076293945,34.08000183105469,30.149999618530273,32.970001220703125,29.67686653137207,334237300.0
2015-10-28,,,,,,
2015-11-01,33.099998474121094,35.7400016784668,33.02000045776367,34.29999923706055,31.018383026123047,199507600.0
2015-12-01,34.599998474121094,35.58000183105469,31.190000534057617,31.809999465942383,28.766611099243164,251525700.0
2016-01-01,30.700000762939453,31.700000762939453,24.670000076293945,25.8799991607666,23.40395736694336,377989800.0
2016-01-27,,,,,,
2016-02-01,25.780000686645508,25.93000030517578,21.15999984741211,24.700000762939453,22.46907615661621,379278400.0
2016-03-01,25.09000015258789,26.610000610351562,24.1200008392334,25.010000228881836,22.75107765197754,354572400.0
2016-04-01,24.889999389648438,27.8799991607666,23.510000228881836,27.059999465942383,24.615917205810547,338461400.0
2016-04-27,,,,,,
2016-05-01,27.100000381469727,28.290000915527344,25.850000381469727,27.3700008392334,25.034221649169922,271744800.0
2016-06-01,27.110000610351562,27.56999969482422,23.110000610351562,25.979999542236328,23.762845993041992,359617000.0
2016-07-01,25.770000457763672,29.3700008392334,24.56999969482422,28.729999542236328,26.278154373168945,298366300.0
2016-07-27,,,,,,
2016-08-01,28.84000015258789,32.310001373291016,27.790000915527344,32.060001373291016,29.525997161865234,258709300.0
2016-09-01,32.13999938964844,32.439998626708984,30.6200008392334,32.060001373291016,29.525997161865234,243245700.0
2016-10-01,32.02000045776367,34.029998779296875,30.959999084472656,33.56999969482422,30.916654586791992,225583700.0
2016-10-27,,,,,,
2016-11-01,33.68000030517578,41.63999938964844,32.560001373291016,41.36000061035156,38.319087982177734,303738300.0
2016-12-01,41.7599983215332,44.040000915527344,41.13999938964844,42.25,39.143653869628906,239352100.0
2017-01-01,43.09000015258789,44.599998474121094,41.77000045776367,42.4900016784668,39.36601257324219,223884400.0
2017-01-27,,,,,,
2017-02-01,43.29999923706055,46.81999969482422,41.83000183105469,45.66999816894531,42.50532150268555,209224500.0
2017-03-01,46.95000076293945,47.33000183105469,40.060001373291016,42.84000015258789,39.871429443359375,277900200.0
2017-04-01,42.810001373291016,44.86000061035156,40.5,43.369998931884766,40.36469650268555,221141600.0
2017-04-27,,,,,,
2017-05-01,43.7599983215332,44.060001373291016,40.43000030517578,41.7400016784668,39.023555755615234,187540000.0
2017-06-01,41.97999954223633,45.97999954223633,41.75,44.560001373291016,41.6600227355957,214567000.0
2017-07-01,45.0,48.040000915527344,44.31999969482422,46.900001525878906,43.84773635864258,177146600.0
2017-07-27,,,,,,
2017-08-01,47.25,48.900001525878906,44.34000015258789,45.5,42.76530456542969,177282900.0
2017-09-01,45.59000015258789,48.4900016784668,43.84000015258789,48.16999816894531,45.27484130859375,157535900.0
2017-10-01,48.11000061035156,51.52000045776367,47.70000076293945,50.0,46.994842529296875,181652600.0
2017-10-30,,,,,,
2017-11-01,50.220001220703125,52.58000183105469,47.41999816894531,48.599998474121094,45.90330123901367,211068400.0
2017-12-01,51.880001068115234,54.25,50.720001220703125,52.470001220703125,49.55856704711914,156160300.0
2018-01-01,52.7599983215332,58.04999923706055,51.91999816894531,56.54999923706055,53.41218185424805,197035500.0
2018-01-30,,,,,,
2018-02-01,56.5,57.81999969482422,50.02000045776367,56.02000045776367,53.14284896850586,193827500.0
2018-03-01,55.88999938964844,59.380001068115234,51.970001220703125,53.959999084472656,51.18864440917969,204954800.0
2018-04-01,53.83000183105469,55.38999938964844,51.58000183105469,51.619998931884766,48.96882629394531,222555100.0
2018-04-27,,,,,,
2018-05-01,51.38999938964844,55.63999938964844,49.5099983215332,50.13999938964844,47.793739318847656,196363000.0
2018-06-01,50.93000030517578,52.720001220703125,47.11000061035156,47.400001525878906,45.18195343017578,208034500.0
2018-07-01,46.959999084472656,51.529998779296875,46.279998779296875,50.560001373291016,48.19408416748047,187428300.0
2018-07-30,,,,,,
2018-08-01,50.939998626708984,51.18000030517578,47.02000045776367,48.83000183105469,46.82018280029297,188261600.0
2018-09-01,48.86000061035156,50.369998931884766,46.400001525878906,46.56999969482422,44.65320587158203,172174900.0
2018-10-01,46.91999816894531,47.93000030517578,42.880001068115234,45.65999984741211,43.78065872192383,313771700.0
2018-10-30,,,,,,
2018-11-01,45.81999969482422,46.95000076293945,42.540000915527344,44.38999938964844,42.8554573059082,223855400.0
2018-12-01,45.06999969482422,46.13999938964844,36.7400016784668,39.650001525878906,38.279319763183594,307651600.0
2019-01-01,39.02000045776367,45.11000061035156,38.7599983215332,42.29999923706055,40.83770751953125,314950600.0
2019-01-30,,,,,,
2019-02-01,42.29999923706055,42.86000061035156,40.119998931884766,41.97999954223633,40.81695556640625,210778100.0
2019-03-01,42.349998474121094,44.88999938964844,40.400001525878906,42.20000076293945,41.03086471557617,250727700.0
2019-04-01,42.779998779296875,48.66999816894531,42.75,48.25,46.91325378417969,242779700.0
2019-04-29,,,,,,
2019-05-01,48.20000076293945,48.619998931884766,40.599998474121094,40.689998626708984,39.81209182739258,210434200.0
2019-06-01,40.709999084472656,44.56999969482422,40.43000030517578,43.810001373291016,42.864776611328125,185022800.0
2019-07-01,44.59000015258789,45.77000045776367,43.02000045776367,44.560001373291016,43.59859848022461,182750800.0
2019-07-30,,,,,,
2019-08-01,44.41999816894531,44.7400016784668,38.7599983215332,41.4900016784668,40.911415100097656,245335100.0
2019-09-01,41.040000915527344,45.45000076293945,40.349998474121094,42.66999816894531,42.074954986572266,187281000.0
2019-10-01,42.5099983215332,47.15999984741211,39.29999923706055,46.04999923706055,45.40782165527344,231980600.0
2019-10-30,,,,,,
2019-11-01,46.52000045776367,49.97999954223633,46.459999084472656,49.47999954223633,49.157386779785156,171874800.0
2019-12-01,49.58000183105469,51.439998626708984,47.439998626708984,51.119998931884766,50.78669357299805,176409500.0
2020-01-01,51.20000076293945,57.56999969482422,50.459999084472656,52.2599983215332,51.91925811767578,226791900.0
2020-01-30,,,,,,
2020-02-01,52.63999938964844,56.65999984741211,43.689998626708984,45.029998779296875,45.029998779296875,311583300.0
2020-03-01,45.11000061035156,46.91999816894531,27.200000762939453,33.9900016784668,33.9900016784668,486506900.0
2020-03-26,33.79999923706055,36.845001220703125,33.349998474121094,35.4900016784668,35.4900016784668,16311413.0
