Date,Open,High,Low,Close,Adj Close,Volume
1988-02-01,0.0,0.375,0.3515625,0.375,0.22375820577144623,15153600.0
1988-03-01,0.0,0.390625,0.328125,0.375,0.22375820577144623,28984000.0
1988-04-01,0.0,0.3984375,0.34375,0.3515625,0.20977340638637543,9683200.0
1988-05-01,0.0,0.390625,0.34375,0.375,0.22375820577144623,24870400.0
1988-06-01,0.0,0.4921875,0.359375,0.4375,0.2610512673854828,25209600.0
1988-07-01,0.0,0.4921875,0.4296875,0.453125,0.27037450671195984,7115200.0
1988-08-01,0.0,0.46875,0.390625,0.4140625,0.24706633388996124,9966400.0
1988-09-01,0.0,0.4140625,0.3671875,0.390625,0.23308145999908447,10078400.0
1988-10-01,0.390625,0.40625,0.3828125,0.3984375,0.2377430498600006,4092800.0
1988-11-01,0.0,0.4140625,0.3671875,0.4140625,0.24706633388996124,8513600.0
1988-12-01,0.0,0.4453125,0.40625,0.40625,0.2424047887325287,3748800.0
1989-01-01,0.0,0.4921875,0.3984375,0.4609375,0.27503612637519836,9944000.0
1989-02-01,0.0,0.484375,0.4375,0.4609375,0.27503612637519836,6072000.0
1989-03-01,0.0,0.4921875,0.453125,0.4765625,0.28435948491096497,6745600.0
1989-04-01,0.0,0.5390625,0.4765625,0.4765625,0.28435948491096497,9073600.0
1989-05-01,0.0,0.5390625,0.4765625,0.515625,0.30766764283180237,17537600.0
1989-06-01,0.0,0.5390625,0.4921875,0.5,0.29834431409835815,19225600.0
1989-07-01,0.0,0.5078125,0.484375,0.4921875,0.293682724237442,4212800.0
1989-08-01,0.0,0.5234375,0.4765625,0.515625,0.30766764283180237,8966400.0
1989-09-01,0.0,0.5703125,0.5078125,0.5625,0.33563727140426636,6987200.0
1989-10-01,0.0,0.5625,0.484375,0.5078125,0.3030058443546295,3289600.0
1989-11-01,0.0,0.53125,0.484375,0.4921875,0.293682724237442,4256000.0
1989-12-01,0.0,0.53125,0.4921875,0.515625,0.30766764283180237,12552000.0
1990-01-01,0.0,0.5546875,0.515625,0.53125,0.31699079275131226,14156800.0
1990-02-01,0.0,0.625,0.515625,0.59375,0.35428398847579956,15707200.0
1990-03-01,0.6406199932098389,0.6796900033950806,0.6015625,0.6796900033950806,0.4055633246898651,20676800.0
1990-04-01,0.65625,0.6796875,0.6328125,0.6640625,0.39623838663101196,13878400.0
1990-05-01,0.6484375,0.828125,0.6484375,0.75,0.44751641154289246,24993600.0
1990-06-01,0.75,0.7734375,0.734375,0.7578125,0.45217788219451904,15947200.0
1990-07-01,0.7578125,0.8359375,0.6875,0.6875,0.4102233350276947,34352000.0
1990-08-01,0.7109375,0.7109375,0.546875,0.578125,0.34496062994003296,16192000.0
1990-09-01,0.578125,0.6015625,0.46875,0.515625,0.30766764283180237,9963200.0
1990-10-01,0.5,0.5703125,0.5,0.5625,0.33563727140426636,16945600.0
1990-11-01,0.5546875,0.6484375,0.5546875,0.6328125,0.3775918483734131,16710400.0
1990-12-01,0.640625,0.7109375,0.6328125,0.7109375,0.4242083430290222,16027200.0
1991-01-01,0.6953125,0.859375,0.6796875,0.8515625,0.5081178545951843,26446400.0
1991-02-01,0.84375,0.953125,0.84375,0.9140625,0.5454108715057373,58526400.0
1991-03-01,0.8984375,1.0625,0.8984375,1.0625,0.6339815855026245,41073600.0
1991-04-01,1.0390625,1.1328125,0.890625,0.9375,0.5593956112861633,26492800.0
1991-05-01,0.9375,1.078125,0.9375,1.078125,0.6433049440383911,23057600.0
1991-06-01,1.078125,1.1953125,0.9375,1.0078125,0.6013501882553101,14214400.0
1991-07-01,1.0,1.1796875,0.9765625,1.1171875,0.6666131019592285,14352000.0
1991-08-01,1.1171875,1.265625,1.1015625,1.125,0.6712745428085327,23668800.0
1991-09-01,1.109375,1.25,0.953125,1.1875,0.7085679769515991,18017600.0
1991-10-01,1.1796875,1.4609375,1.0546875,1.3515625,0.8064620494842529,34048000.0
1991-11-01,1.34375,1.375,1.0625,1.1328125,0.6759363412857056,30614400.0
1991-12-01,1.109375,1.3203125,1.109375,1.3046875,0.7784922122955322,23481600.0
1992-01-01,1.28125,1.859375,1.265625,1.71875,1.0255588293075562,49438400.0
1992-02-01,1.71875,1.8125,1.6328125,1.7890625,1.0675129890441895,16766400.0
1992-03-01,1.7734375,1.8046875,1.34375,1.375,0.8204466700553894,38395200.0
1992-04-01,1.359375,1.7109375,1.34375,1.6875,1.0069119930267334,32465600.0
1992-05-01,1.6875,1.734375,1.296875,1.484375,0.8857096433639526,25286400.0
1992-06-01,1.46875,1.484375,1.203125,1.3125,0.7831535339355469,28457600.0
1992-07-01,1.3046875,1.484375,1.21875,1.4375,0.8577396869659424,28329600.0
1992-08-01,1.40625,1.515625,1.390625,1.46875,0.8763861656188965,16897600.0
1992-09-01,1.46875,1.578125,1.421875,1.5390625,0.918340802192688,31372800.0
1992-10-01,1.515625,1.609375,1.375,1.5703125,0.936987578868866,26588800.0
1992-11-01,1.5625,1.6640625,1.5,1.59375,0.9509721994400024,45846400.0
1992-12-01,1.59375,1.84375,1.515625,1.84375,1.1001445055007935,21473600.0
1993-01-01,1.796875,1.8125,1.59375,1.6875,1.0069119930267334,24244800.0
1993-02-01,1.6875,1.828125,1.53125,1.640625,0.978942334651947,19728000.0
1993-03-01,1.625,1.8125,1.625,1.703125,1.0162357091903687,17051200.0
1993-04-01,1.6875,1.84375,1.546875,1.8125,1.0814980268478394,20928000.0
1993-05-01,1.8125,2.109375,1.8125,1.96875,1.174730896949768,25390400.0
1993-06-01,1.9375,2.15625,1.75,2.140625,1.2772865295410156,19801600.0
1993-07-01,2.125,2.2578125,1.984375,2.03125,1.212023377418518,18660800.0
1993-08-01,2.0625,2.453125,2.0625,2.4375,1.4544283151626587,28648000.0
1993-09-01,2.421875,2.84375,2.40625,2.6484375,1.5802921056747437,33595200.0
1993-10-01,2.6484375,2.796875,2.34375,2.546875,1.5196911096572876,34958400.0
1993-11-01,2.5625,2.8125,2.453125,2.65625,1.5849535465240479,34764800.0
1993-12-01,2.6875,3.0625,2.625,2.9921875,1.7854042053222656,30616000.0
1994-01-01,2.96875,3.21875,2.875,3.109375,1.8553295135498047,30120000.0
1994-02-01,3.078125,3.328125,2.921875,3.296875,1.967207431793213,24292800.0
1994-03-01,3.296875,3.484375,2.96875,3.140625,1.873975157737732,32142400.0
1994-04-01,3.09375,3.453125,2.71875,3.0546875,1.8226971626281738,47022400.0
1994-05-01,3.0625,3.40625,3.0,3.28125,1.957884669303894,45840000.0
1994-06-01,3.2578125,3.5625,3.140625,3.25,1.9392383098602295,53683200.0
1994-07-01,3.2421875,3.640625,2.9375,3.015625,1.7993894815444946,50201600.0
1994-08-01,3.03125,3.9140625,2.96875,3.796875,2.265552520751953,69892800.0
1994-09-01,3.734375,3.96875,3.62890625,3.828125,2.2841989994049072,30843200.0
1994-10-01,3.78125,4.21875,3.453125,4.21875,2.517279863357544,48056000.0
1994-11-01,4.203125,4.21875,3.859375,3.859375,2.3028438091278076,39150400.0
1994-12-01,3.84375,4.46875,3.75,4.375,2.6105124950408936,26160000.0
1994-12-08,,,,,,
1995-01-01,4.34375,4.40625,3.53125,3.625,2.1629960536956787,28968800.0
1995-02-01,3.90625,4.34375,3.6875,4.109375,2.452017307281494,25603200.0
1995-03-01,4.15625,4.96875,4.09375,4.5625,2.7223916053771973,28958400.0
1995-04-01,4.625,4.84375,4.15625,4.53125,2.7037453651428223,31552000.0
1995-05-01,4.59375,6.21875,4.40625,5.734375,3.4216363430023193,75115200.0
1995-06-01,5.6875,6.6875,5.5625,6.375,3.8038887977600098,45725600.0
1995-07-01,6.34375,7.59375,6.3125,7.390625,4.409902095794678,45308000.0
1995-08-01,7.375,10.125,6.75,9.53125,5.687189102172852,89817600.0
1995-09-01,9.46875,10.0625,8.71875,9.25,5.519370079040527,37516800.0
1995-10-01,9.25,9.578125,7.8125,9.34375,5.5753092765808105,47188000.0
1995-11-01,9.4375,10.46875,8.46875,9.375,5.593957901000977,73273600.0
1995-12-01,9.34375,9.84375,6.9375,9.625,5.743129253387451,65026400.0
1995-12-14,,,,,,
1996-01-01,9.5,10.5,7.8125,8.875,5.295611381530762,86777200.0
1996-02-01,8.9375,10.9375,8.6875,9.0625,5.4074907302856445,53382400.0
1996-03-01,9.1875,9.25,7.1875,7.75,4.624337196350098,95100400.0
1996-04-01,7.875,8.9375,6.875,8.5625,5.1091461181640625,87772000.0
1996-05-01,8.65625,9.46875,8.4375,8.5,5.071852684020996,51941200.0
1996-06-01,8.46875,8.65625,6.0,6.828125,4.074265480041504,51277200.0
1996-07-01,6.875,7.5625,5.15625,7.125,4.251406192779541,77535600.0
1996-08-01,7.125,8.46875,7.0,7.671875,4.5777201652526855,51779600.0
1996-09-01,7.5,9.71875,7.03125,8.84375,5.27696418762207,70007600.0
1996-10-01,8.6875,10.0,7.5625,8.75,5.221024990081787,73342800.0
1996-11-01,8.8125,11.59375,8.1875,11.59375,6.91786003112793,66328000.0
1996-12-01,11.59375,12.0625,10.34375,10.8125,6.451696395874023,57957200.0
1997-01-01,10.78125,14.15625,10.53125,14.0625,8.390934944152832,56490800.0
1997-02-01,14.15625,14.15625,10.78125,12.40625,7.402666091918945,83335600.0
1997-03-01,12.40625,13.65625,10.75,12.09375,7.216202735900879,104329200.0
1997-04-01,11.90625,13.875,11.375,13.21875,7.887477874755859,85116400.0
1997-05-01,13.15625,14.8125,12.5625,13.4375,8.018001556396484,88499200.0
1997-06-01,13.5,14.78125,12.640625,14.21875,8.48416519165039,43126000.0
1997-07-01,14.125,18.75,14.0625,17.28125,10.311525344848633,48062000.0
1997-08-01,17.28125,18.1875,16.84375,17.28125,10.311525344848633,42864400.0
1997-09-01,17.34375,18.6875,17.21875,17.859375,10.656484603881836,47493600.0
1997-10-01,17.890625,19.09375,14.25,16.5625,9.882655143737793,101428000.0
1997-11-01,16.5625,17.75,14.4375,17.28125,10.311525344848633,65557200.0
1997-12-01,17.59375,18.0625,14.3125,17.25,10.292879104614258,108558400.0
1997-12-22,,,,,,
1998-01-01,17.46875,18.875,14.25,17.3125,10.330170631408691,69706200.0
1998-02-01,17.5625,21.0,17.125,20.1875,12.045656204223633,53554200.0
1998-03-01,20.25,20.375,17.3125,18.21875,10.87092113494873,69844400.0
1998-04-01,18.25,20.3125,16.25,20.1875,12.045656204223633,63824400.0
1998-05-01,20.1875,20.21875,15.9375,16.6875,9.957236289978027,57007000.0
1998-06-01,16.625,17.25,13.8125,15.84375,9.453789710998535,81990000.0
1998-07-01,16.0,18.375,13.0625,16.0,9.547018051147461,81909000.0
1998-08-01,16.125,18.3125,13.75,13.75,8.20447063446045,65541400.0
1998-09-01,13.65625,17.25,13.1875,13.9375,8.3163480758667,54444600.0
1998-10-01,13.71875,17.96875,11.15625,17.84375,10.647165298461914,82604600.0
1998-11-01,17.84375,21.59375,17.25,19.625,11.710014343261719,74509400.0
1998-12-01,19.5625,22.75,18.8125,21.84375,13.033916473388672,58666800.0
1999-01-01,21.875,28.3125,21.4375,25.71875,15.346085548400879,66041600.0
1999-02-01,25.9375,25.96875,20.625,20.84375,12.437230110168457,57856000.0
1999-03-01,20.875,27.4375,19.9375,27.0625,16.14788246154785,69159800.0
1999-04-01,27.25,32.5625,27.0625,28.0,16.7072811126709,75757000.0
1999-05-01,28.125,30.25,24.5,26.71875,15.94277286529541,59983400.0
1999-06-01,26.4375,33.6875,25.4375,33.25,19.83989715576172,54416400.0
1999-07-01,33.4375,36.75,30.03125,32.03125,19.112682342529297,71309200.0
1999-08-01,32.0625,35.28125,30.3125,33.65625,20.082304000854492,53938600.0
1999-09-01,33.71875,37.4375,31.09375,31.546875,18.823659896850586,57291600.0
1999-10-01,31.1875,39.53125,30.9375,39.46875,23.550552368164062,76563400.0
1999-11-01,39.21875,44.21875,38.84375,40.15625,23.960777282714844,58493200.0
1999-12-01,40.8125,48.3125,38.9375,47.1875,28.156240463256836,59703600.0
1999-12-22,,,,,,
2000-01-01,47.40625,54.75,45.625,50.125,29.90903091430664,67873500.0
2000-02-01,50.125,67.0625,49.0,66.8125,39.86625671386719,56454900.0
2000-03-01,67.3125,74.5,56.125,71.0625,42.40219497680664,65101000.0
2000-04-01,69.0,72.0,41.5,64.8125,38.67288589477539,58491500.0
2000-05-01,64.9375,71.625,49.875,63.4375,37.8524284362793,115771200.0
2000-06-01,64.0625,77.6875,62.25,67.9375,40.537532806396484,75153200.0
2000-07-01,68.0625,77.125,61.0625,66.0625,39.41873550415039,49307500.0
2000-08-01,65.46875,88.0,59.9375,87.6875,52.322147369384766,57455000.0
2000-09-01,88.25,90.125,73.625,80.4375,47.99612808227539,49647900.0
2000-10-01,81.0,83.25,53.625,66.3125,39.567928314208984,107310400.0
2000-11-01,64.75,69.75,46.6875,51.0,30.431110382080078,77931900.0
2000-12-01,51.75,64.234375,46.75,47.8125,28.52918243408203,77131700.0
2001-01-01,47.875,70.125,45.75,61.0625,36.4352912902832,117088800.0
2001-02-01,59.9375,64.6875,43.0,46.125,27.522268295288086,100389100.0
2001-03-01,45.5625,58.5625,40.790000915527344,41.59000015258789,24.816282272338867,136116200.0
2001-04-01,42.060001373291016,52.5,33.54999923706055,50.849998474121094,30.341611862182617,142134800.0
2001-05-01,50.459999084472656,58.36000061035156,46.470001220703125,51.02000045776367,30.443038940429688,96171300.0
2001-06-01,51.439998626708984,58.400001525878906,41.150001525878906,44.209999084472656,26.379592895507812,96044800.0
2001-07-01,44.84000015258789,47.400001525878906,36.29999923706055,46.16999816894531,27.549110412597656,101657100.0
2001-08-01,48.36000061035156,51.72999954223633,43.470001220703125,46.209999084472656,27.57297706604004,105580900.0
2001-09-01,45.95000076293945,47.02000045776367,32.20000076293945,34.939998626708984,20.848297119140625,107605200.0
2001-10-01,34.849998474121094,49.90999984741211,32.380001068115234,45.75,27.298511505126953,138832800.0
2001-11-01,46.20000076293945,56.95000076293945,44.939998626708984,54.810001373291016,32.70450210571289,132999000.0
2001-12-01,54.0,62.66999816894531,51.470001220703125,52.5099983215332,31.332130432128906,104417800.0
2002-01-01,53.349998474121094,61.36000061035156,52.0,55.4900016784668,33.11026382446289,115609400.0
2002-02-01,55.2400016784668,55.470001220703125,45.66999816894531,45.7599983215332,27.304468154907227,120494000.0
2002-03-01,46.650001525878906,57.849998474121094,46.20000076293945,55.709999084472656,33.241519927978516,117532000.0
2002-04-01,55.29999923706055,58.060001373291016,46.5,49.79999923706055,29.71509552001953,131945500.0
2002-05-01,49.849998474121094,52.970001220703125,41.18000030517578,46.0,27.447669982910156,142887100.0
2002-06-01,46.0099983215332,46.709999084472656,34.220001220703125,38.33000183105469,22.871063232421875,172077400.0
2002-07-01,38.29999923706055,43.310001373291016,32.0,35.18000030517578,20.991504669189453,213895500.0
2002-08-01,34.7599983215332,38.54999923706055,27.84000015258789,31.610000610351562,18.861326217651367,189327600.0
2002-09-01,30.889999389648438,31.6200008392334,23.0,24.760000228881836,14.77401065826416,186597400.0
2002-10-01,25.049999237060547,33.2400016784668,20.75,31.84000015258789,18.99856948852539,267841400.0
2002-11-01,31.649999618530273,43.86000061035156,31.209999084472656,42.04999923706055,25.09075355529785,224321300.0
2002-11-06,,,,,,
2002-12-01,43.369998931884766,44.72999954223633,32.7599983215332,33.040000915527344,19.725770950317383,177395700.0
2003-01-01,33.779998779296875,39.47999954223633,29.65999984741211,31.209999084472656,18.63320541381836,185510300.0
2003-02-01,31.200000762939453,34.81999969482422,28.959999084472656,34.540000915527344,20.621305465698242,137703100.0
2003-02-06,,,,,,
2003-03-01,34.689998626708984,40.65999984741211,32.11000061035156,36.119998931884766,21.57844352722168,203938600.0
2003-04-01,36.31999969482422,41.58000183105469,35.130001068115234,39.33000183105469,23.49612045288086,174651700.0
2003-05-01,39.189998626708984,42.0,35.79999923706055,39.20000076293945,23.418445587158203,170052100.0
2003-05-08,,,,,,
2003-06-01,39.47999954223633,40.36000061035156,33.630001068115234,34.099998474121094,20.392122268676758,186379700.0
2003-07-01,33.900001525878906,40.060001373291016,33.22999954223633,38.93000030517578,23.280506134033203,146843400.0
2003-08-01,38.709999084472656,45.7400016784668,37.0,44.959999084472656,26.886497497558594,129029400.0
2003-08-20,,,,,,
2003-09-01,45.0,45.63999938964844,38.91999816894531,39.38999938964844,23.600107192993164,146203900.0
2003-10-01,39.70000076293945,50.0,39.61000061035156,49.63999938964844,29.741296768188477,136551600.0
2003-11-01,49.75,53.95000076293945,49.0,52.16999816894531,31.257108688354492,114061700.0
2003-11-06,,,,,,
2003-12-01,52.33000183105469,52.709999084472656,46.560001373291016,49.58000183105469,29.75261878967285,110855600.0
2004-01-01,50.119998931884766,56.25,49.040000915527344,51.0,30.604745864868164,119646200.0
2004-02-01,51.29999923706055,54.84000015258789,48.5,49.900001525878906,29.944656372070312,102508100.0
2004-02-11,,,,,,
2004-03-01,49.959999084472656,51.59000015258789,43.70000076293945,46.970001220703125,28.2294921875,143025000.0
2004-04-01,47.0,50.0099983215332,45.25,46.040000915527344,27.670543670654297,128255600.0
2004-05-01,46.220001220703125,51.279998779296875,44.369998931884766,50.970001220703125,30.633529663085938,148188600.0
2004-05-05,,,,,,
2004-06-01,50.689998626708984,53.0,47.83000183105469,52.41999816894531,31.560794830322266,110828000.0
2004-07-01,52.29999923706055,52.34000015258789,45.470001220703125,48.099998474121094,28.95982551574707,122578900.0
2004-08-01,47.93000030517578,49.0,42.27000045776367,43.31999969482422,26.081907272338867,138305600.0
2004-08-12,,,,,,
2004-09-01,43.29999923706055,44.849998474121094,39.13999938964844,42.290000915527344,25.507633209228516,147161600.0
2004-10-01,42.93000030517578,45.040000915527344,41.099998474121094,43.9900016784668,26.53301429748535,110004600.0
2004-11-01,43.959999084472656,45.4900016784668,40.84000015258789,40.959999084472656,24.705442428588867,111743000.0
2004-11-10,,,,,,
2004-12-01,41.15999984741211,43.619998931884766,40.4900016784668,42.38999938964844,25.62587547302246,101512000.0
2005-01-01,42.400001525878906,42.7599983215332,37.900001525878906,39.0099983215332,23.58257293701172,122240400.0
2005-02-01,39.279998779296875,44.18000030517578,38.18000030517578,43.02000045776367,26.006732940673828,112548400.0
2005-02-10,,,,,,
2005-03-01,43.279998779296875,44.529998779296875,40.11000061035156,40.869998931884766,24.768749237060547,114750800.0
2005-04-01,41.0099983215332,42.099998474121094,36.20000076293945,37.310001373291016,22.61126136779785,108501800.0
2005-05-01,37.58000183105469,40.18000030517578,36.65999984741211,39.400001525878906,23.87787628173828,85606000.0
2005-05-12,,,,,,
2005-06-01,39.36000061035156,40.43000030517578,37.7400016784668,38.220001220703125,23.223936080932617,111887800.0
2005-07-01,38.2400016784668,43.150001525878906,37.81999969482422,41.970001220703125,25.502565383911133,85839100.0
2005-08-01,42.099998474121094,45.90999984741211,41.40999984741211,42.650001525878906,25.915767669677734,107242500.0
2005-08-11,,,,,,
2005-09-01,42.58000183105469,44.439998626708984,40.31999969482422,42.650001525878906,25.97640037536621,86447700.0
2005-10-01,43.11000061035156,43.849998474121094,33.279998779296875,34.68000030517578,21.1221981048584,134399100.0
2005-11-01,34.7599983215332,37.34000015258789,34.689998626708984,36.529998779296875,22.24896240234375,91888500.0
2005-11-09,,,,,,
2005-12-01,36.63999938964844,39.77000045776367,36.0099983215332,36.2400016784668,22.14841079711914,80662600.0
2006-01-01,36.560001373291016,42.9900016784668,35.72999954223633,41.040000915527344,25.081974029541016,103497900.0
2006-02-01,40.720001220703125,41.93000030517578,38.20000076293945,39.09000015258789,23.890214920043945,66911900.0
2006-02-09,,,,,,
2006-03-01,39.09000015258789,40.5,35.31999969482422,37.150001525878906,22.772865295410156,94135500.0
2006-04-01,37.290000915527344,38.20000076293945,33.84000015258789,35.2599983215332,21.61429786682129,86099500.0
2006-05-01,35.209999084472656,35.95000076293945,30.059999465942383,30.729999542236328,18.837411880493164,143015000.0
2006-05-11,,,,,,
2006-06-01,30.559999465942383,32.900001525878906,29.969999313354492,32.11000061035156,19.75807762145996,122624000.0
2006-07-01,32.16999816894531,32.279998779296875,27.25,29.3799991607666,18.078245162963867,112277100.0
2006-08-01,29.149999618530273,30.719999313354492,26.09000015258789,29.100000381469727,17.905948638916016,124951100.0
2006-08-17,,,,,,
2006-09-01,29.290000915527344,32.650001525878906,27.5,28.079999923706055,17.37213134765625,119394000.0
2006-10-01,28.290000915527344,30.350000381469727,27.389999389648438,30.010000228881836,18.56615447998047,90269100.0
2006-11-01,30.100000381469727,33.34000015258789,27.799999237060547,31.479999542236328,19.4755916595459,105899100.0
2006-11-17,,,,,,
2006-12-01,31.600000381469727,32.86000061035156,29.90999984741211,30.6200008392334,19.03341293334961,77720500.0
2007-01-01,31.079999923706055,33.720001220703125,30.299999237060547,30.799999237060547,19.145288467407227,109465900.0
2007-02-01,31.31999969482422,33.709999084472656,30.049999237060547,32.75,20.357410430908203,105998300.0
2007-02-14,,,,,,
2007-03-01,31.790000915527344,33.560001373291016,29.290000915527344,29.399999618530273,18.369062423706055,119947600.0
2007-04-01,29.350000381469727,33.900001525878906,28.639999389648438,31.719999313354492,19.818601608276367,132875000.0
2007-05-01,31.75,32.79999923706055,29.889999389648438,30.75,19.212549209594727,105692300.0
2007-05-09,,,,,,
2007-06-01,30.809999465942383,34.36000061035156,30.1299991607666,33.40999984741211,20.977588653564453,123098500.0
2007-07-01,33.529998779296875,35.31999969482422,31.670000076293945,31.700000762939453,19.903902053833008,108852200.0
2007-08-01,31.8799991607666,32.400001525878906,28.90999984741211,30.010000228881836,18.842777252197266,124355100.0
2007-08-21,,,,,,
2007-09-01,30.0,31.229999542236328,27.149999618530273,29.350000381469727,18.542598724365234,187147900.0
2007-10-01,29.350000381469727,29.850000381469727,26.760000228881836,27.100000381469727,17.12110710144043,184509100.0
2007-11-01,27.049999237060547,28.06999969482422,23.0,23.190000534057617,14.650867462158203,85377400.0
2007-11-13,,,,,,
2007-12-01,23.190000534057617,26.950000762939453,22.010000228881836,26.479999542236328,16.86260223388672,67062400.0
2008-01-01,26.459999084472656,26.829999923706055,17.299999237060547,19.65999984741211,12.5195894241333,143294700.0
2008-02-01,17.530000686645508,19.229999542236328,16.540000915527344,18.270000457763672,11.63443374633789,83135700.0
2008-02-12,,,,,,
2008-03-01,18.3799991607666,21.0,17.049999237060547,20.389999389648438,13.11878490447998,41021100.0
2008-04-01,20.56999969482422,21.799999237060547,18.8700008392334,21.030000686645508,13.530562400817871,32086700.0
2008-05-01,21.170000076293945,23.239999771118164,19.81999969482422,22.100000381469727,14.218994140625,39767200.0
2008-05-12,,,,,,
2008-05-13,,,,,,
2008-06-01,22.139999389648438,24.149999618530273,20.399999618530273,21.149999618530273,13.856225967407227,43060300.0
2008-07-01,20.90999984741211,21.25,16.649999618530273,19.639999389648438,12.866965293884277,32098600.0
2008-08-01,19.670000076293945,22.700000762939453,18.950000762939453,20.549999237060547,13.463146209716797,61388000.0
2008-08-20,,,,,,
2008-09-01,20.649999618530273,21.100000381469727,16.299999237060547,18.100000381469727,11.968351364135742,51568600.0
2008-10-01,18.920000076293945,18.920000076293945,11.289999961853027,13.600000381469727,8.992798805236816,81419200.0
2008-11-01,13.5,14.989999771118164,10.720000267028809,12.369999885559082,8.17948055267334,52406300.0
2008-11-19,,,,,,
2008-12-01,12.279999732971191,12.970000267028809,10.760000228881836,11.420000076293945,7.669291973114014,64947200.0
2009-01-01,11.479999542236328,13.859999656677246,11.210000038146973,13.229999542236328,8.8848295211792,86447700.0
2009-02-01,13.050000190734863,14.039999961853027,11.8100004196167,12.100000381469727,8.125958442687988,81002000.0
2009-02-18,,,,,,
2009-03-01,12.180000305175781,14.1899995803833,11.010000228881836,13.210000038146973,9.011993408203125,134117100.0
2009-04-01,13.1899995803833,14.729999542236328,12.890000343322754,13.550000190734863,9.243945121765137,190395700.0
2009-05-01,14.09000015258789,16.31999969482422,13.350000381469727,16.229999542236328,11.07226276397705,159828500.0
2009-05-20,,,,,,
2009-06-01,16.100000381469727,16.940000534057617,15.260000228881836,15.6899995803833,10.849305152893066,153114100.0
2009-07-01,15.979999542236328,18.5,14.960000038146973,17.719999313354492,12.253003120422363,95204300.0
2009-08-01,18.030000686645508,19.25,17.0,18.780000686645508,12.98597526550293,99282500.0
2009-08-19,,,,,,
2009-09-01,18.809999465942383,19.43000030517578,17.559999465942383,18.139999389648438,12.679476737976074,76356000.0
2009-10-01,18.31999969482422,19.1299991607666,16.649999618530273,16.670000076293945,11.651976585388184,116028100.0
2009-11-01,16.739999771118164,18.75,16.5,17.600000381469727,12.30202579498291,71531900.0
2009-11-18,,,,,,
2009-12-01,17.770000457763672,21.0,17.690000534057617,20.31999969482422,14.3566312789917,59226600.0
2010-01-01,20.709999084472656,20.709999084472656,17.280000686645508,17.479999542236328,12.350092887878418,80976600.0
2010-02-01,17.600000381469727,18.940000534057617,17.260000228881836,18.520000457763672,13.084882736206055,65939900.0
2010-02-17,,,,,,
2010-03-01,18.639999389648438,19.969999313354492,18.479999542236328,19.389999389648438,13.847902297973633,56162800.0
2010-04-01,19.5,21.360000610351562,18.989999771118164,19.40999984741211,13.862184524536133,70255900.0
2010-05-01,19.65999984741211,19.8700008392334,16.56999969482422,17.760000228881836,12.683795928955078,126181200.0
2010-05-19,,,,,,
2010-06-01,17.610000610351562,18.399999618530273,16.31999969482422,16.729999542236328,12.081024169921875,87517200.0
2010-07-01,16.770000457763672,18.739999771118164,15.800000190734863,17.530000686645508,12.658717155456543,89615500.0
2010-08-01,17.700000762939453,18.15999984741211,15.670000076293945,15.869999885559082,11.460001945495605,69730100.0
2010-08-18,,,,,,
2010-09-01,16.1299991607666,18.799999237060547,15.890000343322754,18.510000228881836,13.533470153808594,68863800.0
2010-10-01,18.729999542236328,22.270000457763672,17.950000762939453,21.65999984741211,15.836578369140625,83294800.0
2010-11-01,21.780000686645508,24.100000381469727,21.56999969482422,23.25,16.99909210205078,68469100.0
2010-11-19,,,,,,
2010-12-01,23.729999542236328,24.889999389648438,23.3700008392334,23.6200008392334,17.42743492126465,57182000.0
2011-01-01,23.850000381469727,28.139999389648438,23.260000228881836,25.81999969482422,19.050647735595703,78004500.0
2011-02-01,26.0,28.440000534057617,25.59000015258789,27.579999923706055,20.349225997924805,62492400.0
2011-02-17,,,,,,
2011-03-01,27.65999984741211,28.040000915527344,23.6200008392334,25.600000381469727,19.032413482666016,68760000.0
2011-04-01,25.809999465942383,27.489999771118164,24.25,27.34000015258789,20.326007843017578,49925400.0
2011-05-01,27.5,28.399999618530273,26.450000762939453,27.25,20.259109497070312,51108600.0
2011-05-20,,,,,,
2011-06-01,27.25,27.299999237060547,23.709999084472656,25.559999465942383,19.147993087768555,45635500.0
2011-07-01,25.559999465942383,26.229999542236328,22.079999923706055,22.959999084472656,17.20022964477539,55641000.0
2011-08-01,23.209999084472656,23.399999618530273,20.6200008392334,23.049999237060547,17.267656326293945,100349300.0
2011-08-19,,,,,,
2011-09-01,23.219999313354492,25.719999313354492,21.3799991607666,23.329999923706055,17.656583786010742,78425300.0
2011-10-01,23.3700008392334,27.040000915527344,22.43000030517578,26.15999984741211,19.798381805419922,74920000.0
2011-11-01,25.6299991607666,27.459999084472656,23.860000610351562,25.649999618530273,19.412399291992188,49559500.0
2011-11-21,,,,,,
2011-12-01,25.559999465942383,26.56999969482422,24.850000381469727,26.040000915527344,19.87646484375,44690800.0
2012-01-01,26.540000915527344,27.959999084472656,25.700000762939453,26.84000015258789,20.48710823059082,62915500.0
2012-02-01,27.18000030517578,28.75,26.90999984741211,27.889999389648438,21.28857421875,48060400.0
2012-02-17,,,,,,
2012-03-01,28.06999969482422,29.25,26.93000030517578,28.59000015258789,21.991819381713867,41360700.0
2012-04-01,28.3799991607666,30.0,26.59000015258789,29.579999923706055,22.75334358215332,53515000.0
2012-05-01,29.559999465942383,29.709999084472656,24.93000030517578,25.15999984741211,19.353418350219727,61698900.0
2012-05-17,,,,,,
2012-06-01,24.68000030517578,26.610000610351562,24.149999618530273,25.639999389648438,19.887372970581055,68506600.0
2012-07-01,25.479999542236328,27.5,23.549999237060547,27.229999542236328,21.120635986328125,47813000.0
2012-08-01,27.270000457763672,28.959999084472656,26.59000015258789,27.139999389648438,21.05082893371582,55627200.0
2012-08-20,,,,,,
2012-09-01,27.049999237060547,28.299999237060547,25.540000915527344,26.6200008392334,20.82100486755371,50701600.0
2012-10-01,26.68000030517578,28.1299991607666,26.1299991607666,27.530000686645508,21.53276824951172,46454800.0
2012-11-01,27.389999389648438,29.600000381469727,26.75,29.190000534057617,22.831151962280273,47200200.0
2012-11-19,,,,,,
2012-12-01,29.110000610351562,30.739999771118164,28.510000228881836,29.399999618530273,23.20148277282715,49168500.0
2013-01-01,30.110000610351562,32.40999984741211,28.68000030517578,31.450000762939453,24.819271087646484,65896500.0
2013-02-01,31.739999771118164,33.06999969482422,30.68000030517578,31.200000762939453,24.62198257446289,52366700.0
2013-02-15,,,,,,
2013-03-01,31.139999389648438,33.66999816894531,30.579999923706055,32.63999938964844,25.947433471679688,47955500.0
2013-04-01,32.650001525878906,33.11000061035156,30.270000457763672,30.93000030517578,24.588054656982422,56491700.0
2013-05-01,30.989999771118164,32.34000015258789,29.0,29.489999771118164,23.443309783935547,64965500.0
2013-05-20,,,,,,
2013-06-01,29.65999984741211,29.860000610351562,26.700000762939453,27.780000686645508,22.252897262573242,72981300.0
2013-07-01,27.979999542236328,29.389999389648438,26.489999771118164,28.610000610351562,22.91775894165039,76065200.0
2013-08-01,28.770000457763672,29.350000381469727,27.18000030517578,27.84000015258789,22.30095863342285,50318700.0
2013-08-20,,,,,,
2013-09-01,28.09000015258789,30.549999237060547,28.059999465942383,29.81999969482422,24.113351821899414,57773100.0
2013-10-01,29.809999465942383,31.399999618530273,28.75,29.700000762939453,24.016311645507812,66317500.0
2013-11-01,29.8700008392334,29.8700008392334,28.149999618530273,28.479999542236328,23.029783248901367,67668700.0
2013-11-19,,,,,,
2013-12-01,28.649999618530273,28.670000076293945,27.399999618530273,27.899999618530273,22.76353645324707,54391800.0
2014-01-01,27.700000762939453,30.360000610351562,27.59000015258789,30.260000228881836,24.689054489135742,87119900.0
2014-02-01,30.040000915527344,32.7400016784668,29.100000381469727,32.709999084472656,26.688003540039062,54571500.0
2014-02-18,,,,,,
2014-03-01,32.27000045776367,33.130001068115234,31.639999389648438,33.119998931884766,27.247493743896484,51749700.0
2014-04-01,33.16999816894531,33.779998779296875,31.299999237060547,32.439998626708984,26.688064575195312,53982500.0
2014-05-01,32.400001525878906,34.5,31.440000534057617,34.25,28.177133560180664,58561600.0
2014-05-20,,,,,,
2014-06-01,34.27000045776367,35.7599983215332,33.45000076293945,33.810001373291016,28.03252410888672,43662100.0
2014-07-01,33.959999084472656,34.68000030517578,27.950000762939453,29.309999465942383,24.301483154296875,57833900.0
2014-08-01,29.450000762939453,31.479999542236328,29.399999618530273,30.889999389648438,25.611495971679688,41702800.0
2014-08-19,,,,,,
2014-09-01,30.969999313354492,31.68000030517578,30.059999465942383,30.239999771118164,25.302589416503906,40627000.0
2014-10-01,30.260000228881836,30.280000686645508,25.280000686645508,29.34000015258789,24.549537658691406,76691800.0
2014-11-01,29.420000076293945,29.959999084472656,28.479999542236328,29.56999969482422,24.741981506347656,31929700.0
2014-11-18,,,,,,
2014-12-01,29.520000457763672,32.15999984741211,28.889999389648438,31.8700008392334,26.923128128051758,65768500.0
2015-01-01,31.979999542236328,34.27000045776367,30.719999313354492,33.09000015258789,27.953754425048828,57656500.0
2015-02-01,33.16999816894531,35.20000076293945,32.529998779296875,34.400001525878906,29.060420989990234,31091600.0
2015-02-17,,,,,,
2015-03-01,34.599998474121094,36.369998931884766,33.150001525878906,34.810001373291016,29.64447784423828,63079900.0
2015-04-01,35.0099983215332,35.529998779296875,30.6299991607666,32.83000183105469,27.958293914794922,51124500.0
2015-05-01,32.90999984741211,35.16999816894531,31.969999313354492,35.06999969482422,29.865888595581055,50944500.0
2015-05-19,,,,,,
2015-06-01,35.060001373291016,35.810001373291016,33.290000915527344,34.58000183105469,29.690553665161133,55954500.0
2015-07-01,34.79999923706055,35.709999084472656,30.049999237060547,34.040000915527344,29.226911544799805,73863300.0
2015-08-01,33.810001373291016,34.83000183105469,29.469999313354492,33.38999938964844,28.668811798095703,63148700.0
2015-08-18,,,,,,
2015-09-01,32.939998626708984,34.709999084472656,31.68000030517578,33.400001525878906,28.933984756469727,48213500.0
2015-10-01,33.29999923706055,42.18000030517578,32.20000076293945,40.97999954223633,35.50044631958008,92970400.0
2015-11-01,40.7599983215332,41.459999084472656,38.2400016784668,38.77000045776367,33.58594512939453,44508100.0
2015-11-17,,,,,,
2015-12-01,39.150001525878906,39.290000915527344,36.22999954223633,38.0,33.17310333251953,61140400.0
2016-01-01,37.29999923706055,37.41999816894531,30.280000686645508,33.400001525878906,29.157413482666016,78964900.0
2016-02-01,33.279998779296875,34.33000183105469,30.309999465942383,33.86000061035156,29.55898094177246,48259300.0
2016-02-16,,,,,,
2016-03-01,34.09000015258789,37.130001068115234,33.0,36.779998779296875,32.407676696777344,38306800.0
2016-04-01,36.279998779296875,38.27000045776367,35.4900016784668,35.720001220703125,31.47369384765625,45771900.0
2016-05-01,35.849998474121094,38.0,35.119998931884766,37.959999084472656,33.44740295410156,36777000.0
2016-05-17,,,,,,
2016-06-01,37.84000015258789,38.349998474121094,33.38999938964844,35.689998626708984,31.70888328552246,46403400.0
2016-07-01,35.31999969482422,42.369998931884766,34.79999923706055,40.779998779296875,36.23110580444336,50334300.0
2016-08-01,40.790000915527344,41.630001068115234,39.83000183105469,40.720001220703125,36.177799224853516,44746900.0
2016-08-16,,,,,,
2016-09-01,40.720001220703125,41.459999084472656,37.83000183105469,39.93000030517578,35.76384735107422,45963700.0
2016-10-01,40.02000045776367,40.93000030517578,37.25,39.630001068115234,35.49515151977539,44793200.0
2016-11-01,39.790000915527344,40.939998626708984,38.41999816894531,39.27000045776367,35.17271041870117,40859100.0
2016-11-29,,,,,,
2016-12-01,39.189998626708984,39.84000015258789,37.31999969482422,38.56999969482422,34.83362579345703,32894200.0
2017-01-01,38.70000076293945,45.27000045776367,38.18000030517578,44.47999954223633,40.17110824584961,54120600.0
2017-02-01,44.720001220703125,45.58000183105469,44.040000915527344,44.29999923706055,40.008541107177734,33845100.0
2017-02-28,,,,,,
2017-03-01,44.65999984741211,46.220001220703125,43.95000076293945,44.959999084472656,40.904842376708984,40407100.0
2017-04-01,44.97999954223633,45.70000076293945,43.349998474121094,44.150001525878906,40.16790771484375,45911500.0
2017-05-01,44.36000061035156,48.18000030517578,43.9900016784668,47.79999923706055,43.488685607910156,42660300.0
2017-05-30,,,,,,
2017-06-01,47.93000030517578,49.70000076293945,44.09000015258789,44.900001525878906,41.13484191894531,50561900.0
2017-07-01,45.13999938964844,48.029998779296875,43.97999954223633,45.439998626708984,41.62955093383789,45190900.0
2017-08-01,45.68000030517578,46.7599983215332,43.43000030517578,46.65999984741211,42.74725341796875,48145400.0
2017-08-29,,,,,,
2017-09-01,46.7400016784668,48.04999923706055,45.650001525878906,47.709999084472656,44.06059646606445,37926600.0
2017-10-01,47.7599983215332,53.099998474121094,47.68000030517578,52.540000915527344,48.52113342285156,39978500.0
2017-11-01,52.900001525878906,55.43000030517578,51.5,52.33000183105469,48.32720184326172,36471100.0
2017-11-29,,,,,,
2017-12-01,52.0099983215332,54.06999969482422,50.83000183105469,52.279998779296875,48.60590744018555,30160400.0
2018-01-01,52.630001068115234,74.94000244140625,52.349998474121094,61.0,56.71308898925781,74109000.0
2018-02-01,60.119998931884766,63.34000015258789,55.209999084472656,60.939998626708984,56.657310485839844,52326200.0
2018-02-28,,,,,,
2018-03-01,61.0,64.4000015258789,58.529998779296875,60.220001220703125,56.36884307861328,47738000.0
2018-04-01,59.63999938964844,59.810001373291016,53.45000076293945,54.5,51.01464080810547,67376500.0
2018-05-01,54.2599983215332,59.68000030517578,53.81999969482422,58.650001525878906,54.89924240112305,47650700.0
2018-05-30,,,,,,
2018-06-01,59.209999084472656,62.36000061035156,57.630001068115234,58.65999984741211,55.303157806396484,45647500.0
2018-07-01,58.0099983215332,62.119998931884766,57.720001220703125,61.13999938964844,57.641239166259766,43602400.0
2018-08-01,61.29999923706055,63.68000030517578,59.02000045776367,60.470001220703125,57.00958251953125,38379800.0
2018-08-29,,,,,,
2018-09-01,60.16999816894531,61.22999954223633,55.970001220703125,56.38999938964844,53.558834075927734,46389000.0
2018-10-01,56.599998474121094,57.68000030517578,46.849998474121094,50.02000045776367,47.50865936279297,72958200.0
2018-11-01,50.0099983215332,56.5,49.79999923706055,55.91999816894531,53.112430572509766,126969300.0
2018-11-28,,,,,,
2018-12-01,56.970001220703125,57.2400016784668,46.63999938964844,50.849998474121094,48.69989013671875,68563300.0
2019-01-01,49.66999816894531,56.689998626708984,47.83000183105469,54.27000045776367,51.97528076171875,55624100.0
2019-02-01,54.560001373291016,56.68000030517578,53.81999969482422,54.43000030517578,52.12852096557617,31419500.0
2019-02-27,,,,,,
2019-03-01,54.959999084472656,55.65999984741211,51.369998931884766,53.16999816894531,51.34645080566406,46134100.0
2019-04-01,53.79999923706055,60.650001525878906,53.63999938964844,60.0,57.94220733642578,31044800.0
2019-05-01,62.0,63.380001068115234,51.2599983215332,52.59000015258789,50.78634262084961,42067600.0
2019-05-29,,,,,,
2019-06-01,53.06999969482422,60.849998474121094,53.0,59.81999969482422,58.28396987915039,36263700.0
2019-07-01,61.540000915527344,65.7300033569336,59.16999816894531,59.189998626708984,57.67014694213867,30327600.0
2019-08-01,59.29999923706055,60.16999816894531,51.68000030517578,54.540000915527344,53.139549255371094,42706700.0
2019-08-28,,,,,,
2019-09-01,53.849998474121094,60.349998474121094,53.029998779296875,57.90999984741211,56.94105529785156,32492400.0
2019-10-01,58.040000915527344,62.11000061035156,55.0,58.65999984741211,57.67850112915039,35501400.0
2019-11-01,59.11000061035156,61.54999923706055,54.27000045776367,56.66999816894531,55.721797943115234,41787600.0
2019-11-26,,,,,,
2019-12-01,56.79999923706055,62.70000076293945,54.470001220703125,61.5099983215332,60.994998931884766,36579200.0
2020-01-01,62.06999969482422,64.3499984741211,59.869998931884766,60.119998931884766,59.61663818359375,45633200.0
2020-02-01,60.560001373291016,65.12999725341797,53.52000045776367,55.619998931884766,55.15431594848633,32658500.0
2020-02-26,,,,,,
2020-03-01,55.880001068115234,58.83000183105469,41.93000030517578,48.61000061035156,48.61000061035156,59396300.0
2020-03-26,49.209999084472656,50.25,48.41999816894531,49.15999984741211,49.15999984741211,2041693.0
