Date,Open,High,Low,Close,Adj Close,Volume
1980-03-01,0.0,3.6935887336730957,3.2458810806274414,3.52569842338562,1.6931270360946655,4611200.0
1980-04-01,0.0,4.001388072967529,3.4977166652679443,3.889461040496826,1.8678131103515625,7242800.0
1980-05-01,0.0,4.449095726013184,3.7495522499084473,4.3371686935424805,2.082813262939453,7961600.0
1980-06-01,0.0,5.246574878692627,4.253223419189453,4.784876346588135,2.2978148460388184,5839600.0
1980-07-01,0.0,5.512401580810547,4.714921951293945,5.190611362457275,2.4926583766937256,4715600.0
1980-08-01,0.0,5.400474548339844,4.8128581047058105,5.008730411529541,2.4053149223327637,7240400.0
1980-09-01,0.0,6.10001802444458,5.092675685882568,5.484419822692871,2.63375186920166,3560000.0
1980-10-01,0.0,6.351853370666504,5.288547515869141,5.470428943634033,2.62703275680542,5202000.0
1980-11-01,0.0,7.345204830169678,5.540383338928223,6.953460693359375,3.3392210006713867,3552800.0
1980-12-01,0.0,7.0234150886535645,5.596346855163574,6.016072750091553,2.8890650272369385,4426800.0
1981-01-01,0.0,6.491762161254883,5.484419822692871,5.484419822692871,2.63375186920166,5802400.0
1981-02-01,0.0,6.0440545082092285,5.204602241516113,5.90414571762085,2.8353137969970703,6518000.0
1981-03-01,0.0,6.0440545082092285,4.9527668952941895,5.344511032104492,2.5665626525878906,3816400.0
1981-04-01,0.0,5.876163959503174,4.672949314117432,5.120657444000244,2.4590659141540527,5608000.0
1981-05-01,0.0,5.456438064575195,4.700931072235107,4.728912830352783,2.2709386348724365,2680800.0
1981-05-18,,,,,,
1981-06-01,0.0,4.756894588470459,3.805515766143799,4.477077484130859,2.1500027179718018,5694000.0
1981-07-01,0.0,4.980748653411865,3.9454243183135986,4.924785137176514,2.365001916885376,7778400.0
1981-08-01,0.0,5.316529273986816,4.421113967895508,4.449095726013184,2.1365647315979004,5540000.0
1981-09-01,0.0,4.505059242248535,3.1339540481567383,3.8614792823791504,1.8543771505355835,4551600.0
1981-10-01,0.0,4.449095726013184,3.6096436977386475,4.3371686935424805,2.082813262939453,3892400.0
1981-11-01,0.0,4.700931072235107,3.8334975242614746,4.421113967895508,2.1231281757354736,2824000.0
1981-12-01,0.0,4.421113967895508,3.52569842338562,3.7495522499084473,1.8006260395050049,3975200.0
1982-01-01,3.8614792823791504,3.889461040496826,2.826155185699463,3.6935887336730957,1.7737518548965454,6758800.0
1982-01-11,,,,,,
1982-02-01,3.553680181503296,3.6376254558563232,2.938081979751587,3.1059725284576416,1.4944819211959839,3279200.0
1982-03-01,3.05000901222229,3.2458810806274414,2.4064290523529053,2.8541367053985596,1.3733073472976685,6304000.0
1982-04-01,2.8821184635162354,3.273862838745117,2.826155185699463,2.9940454959869385,1.4406262636184692,7019600.0
1982-04-20,,,,,,
1982-05-01,2.910100221633911,3.3857898712158203,2.658264636993408,2.910100221633911,1.4032983779907227,8321200.0
1982-06-01,2.8541367053985596,2.9660637378692627,2.434410810470581,2.6023011207580566,1.2548725605010986,4301600.0
1982-07-01,2.546337842941284,2.6302828788757324,2.1266117095947266,2.2665205001831055,1.0929535627365112,9181600.0
1982-08-01,2.2665205001831055,2.57431960105896,1.8747761249542236,2.2945022583007812,1.1064475774765015,7892000.0
1982-08-04,,,,,,
1982-09-01,2.2665205001831055,2.686246395111084,2.1266117095947266,2.2385387420654297,1.0826712846755981,8961600.0
1982-10-01,2.210556983947754,3.3578081130981445,2.1545934677124023,2.686246395111084,1.299204707145691,12147600.0
1982-11-01,2.7142281532287598,3.3857898712158203,2.6302828788757324,2.9940454959869385,1.4480725526809692,14260400.0
1982-11-03,,,,,,
1982-12-01,3.0220272541046143,3.4697349071502686,2.8541367053985596,3.18991756439209,1.546757698059082,8058400.0
1983-01-01,3.161935806274414,3.8614792823791504,3.1059725284576416,3.3578081130981445,1.6281657218933105,11484800.0
1983-01-11,,,,,,
1983-02-01,3.18991756439209,3.413771390914917,2.7701916694641113,2.8541367053985596,1.3865022659301758,6455200.0
1983-03-01,2.910100221633911,3.2458810806274414,2.6302828788757324,3.077990770339966,1.4952478408813477,10390000.0
1983-04-01,3.077990770339966,3.4697349071502686,2.9940454959869385,3.3857898712158203,1.644771695137024,8446000.0
1983-04-19,,,,,,
1983-05-01,3.301844596862793,4.029369831085205,3.161935806274414,3.805515766143799,1.8524072170257568,10249200.0
1983-06-01,3.805515766143799,4.197259902954102,3.5816619396209717,4.001388072967529,1.9477521181106567,9302400.0
1983-07-01,4.029369831085205,4.477077484130859,3.917442798614502,4.001388072967529,1.9477521181106567,7862000.0
1983-08-01,4.001388072967529,4.533041000366211,3.6935887336730957,4.3371686935424805,2.111201286315918,4769600.0
1983-08-02,,,,,,
1983-09-01,4.421113967895508,4.644967555999756,4.225241661071777,4.253223419189453,2.0739216804504395,4356800.0
1983-10-01,4.253223419189453,4.309186935424805,3.52569842338562,3.8334975242614746,1.869258999824524,8499200.0
1983-11-01,3.805515766143799,3.889461040496826,3.3578081130981445,3.4697349071502686,1.6918833255767822,3859600.0
1983-11-01,,,,,,
1983-12-01,3.413771390914917,3.8334975242614746,3.077990770339966,3.7495522499084473,1.8315362930297852,6636400.0
1984-01-01,3.7495522499084473,4.197259902954102,3.52569842338562,3.9734060764312744,1.9408807754516602,6152400.0
1984-01-10,,,,,,
1984-02-01,4.001388072967529,4.113314628601074,3.3578081130981445,3.5816619396209717,1.7526675462722778,6460800.0
1984-03-01,3.5816619396209717,4.029369831085205,3.5816619396209717,4.001388072967529,1.958059310913086,6453600.0
1984-04-01,4.001388072967529,4.253223419189453,3.805515766143799,4.113314628601074,2.012829542160034,10258800.0
1984-04-16,,,,,,
1984-05-01,4.113314628601074,4.225241661071777,3.7495522499084473,3.805515766143799,1.8653204441070557,7931600.0
1984-06-01,3.805515766143799,4.001388072967529,3.2458810806274414,3.52569842338562,1.7281652688980103,6215200.0
1984-07-01,3.553680181503296,3.553680181503296,2.798173427581787,2.798173427581787,1.3715583086013794,6258000.0
1984-08-01,2.910100221633911,3.889461040496826,2.8821184635162354,3.7495522499084473,1.837889313697815,10887600.0
1984-08-07,,,,,,
1984-09-01,3.6935887336730957,4.029369831085205,3.52569842338562,3.777534008026123,1.8557313680648804,4125200.0
1984-10-01,3.6935887336730957,3.8614792823791504,3.2458810806274414,3.3578081130981445,1.6495388746261597,6690800.0
1984-11-01,3.413771390914917,3.52569842338562,2.938081979751587,2.9940454959869385,1.470839262008667,4467600.0
1984-11-01,,,,,,
1984-12-01,2.9940454959869385,3.273862838745117,2.910100221633911,2.9660637378692627,1.4600144624710083,8740000.0
1985-01-01,2.9660637378692627,3.301844596862793,2.910100221633911,3.2458810806274414,1.5977517366409302,8700400.0
1985-01-08,,,,,,
1985-02-01,3.273862838745117,3.6096436977386475,3.2458810806274414,3.52569842338562,1.7393938302993774,5565600.0
1985-03-01,3.4977166652679443,3.52569842338562,3.161935806274414,3.52569842338562,1.7393938302993774,5931200.0
1985-04-01,3.553680181503296,3.6935887336730957,3.3298263549804688,3.3857898712158203,1.6703704595565796,6600800.0
1985-04-30,,,,,,
1985-05-01,3.3857898712158203,3.6376254558563232,3.3578081130981445,3.4697349071502686,1.7150524854660034,6523200.0
1985-06-01,3.4977166652679443,3.4977166652679443,3.2458810806274414,3.3298263549804688,1.6458967924118042,9933600.0
1985-07-01,3.3298263549804688,3.3298263549804688,3.0220272541046143,3.1059725284576416,1.5352494716644287,7112800.0
1985-08-01,3.1339540481567383,3.2178993225097656,2.9940454959869385,3.1059725284576416,1.5352494716644287,9999600.0
1985-08-06,,,,,,
1985-09-01,3.1059725284576416,3.3578081130981445,2.910100221633911,2.910100221633911,1.4415785074234009,6031600.0
1985-10-01,2.9660637378692627,3.4977166652679443,2.8821184635162354,3.18991756439209,1.5801922082901,8866400.0
1985-11-01,3.18991756439209,3.4417531490325928,3.1339540481567383,3.4417531490325928,1.704944372177124,7138400.0
1985-11-05,,,,,,
1985-12-01,3.4417531490325928,3.4417531490325928,2.938081979751587,3.0220272541046143,1.5001291036605835,6276400.0
1986-01-01,3.0220272541046143,3.1339540481567383,2.546337842941284,2.57431960105896,1.277888536453247,10446000.0
1986-02-01,2.57431960105896,2.7142281532287598,2.2385387420654297,2.4064290523529053,1.19454824924469,11431200.0
1986-02-04,,,,,,
1986-03-01,2.4064290523529053,2.462392568588257,2.182575225830078,2.2665205001831055,1.1281079053878784,9236800.0
1986-04-01,2.322483777999878,2.4064290523529053,2.1545934677124023,2.2385387420654297,1.1141804456710815,5764800.0
1986-04-29,,,,,,
1986-05-01,2.2945022583007812,2.686246395111084,2.2665205001831055,2.57431960105896,1.2850710153579712,6797600.0
1986-06-01,2.57431960105896,2.6302828788757324,2.070648193359375,2.182575225830078,1.0895171165466309,9899200.0
1986-07-01,2.182575225830078,2.2945022583007812,1.76284921169281,1.7908309698104858,0.893962025642395,9770400.0
1986-08-01,1.8188127279281616,2.4903743267059326,1.7908309698104858,2.462392568588257,1.2291988134384155,10924400.0
1986-08-05,,,,,,
1986-09-01,2.462392568588257,2.686246395111084,2.070648193359375,2.2945022583007812,1.1495721340179443,6130400.0
1986-10-01,2.322483777999878,2.3504655361175537,2.042666435241699,2.2665205001831055,1.135553240776062,5256800.0
1986-11-01,2.2665205001831055,2.7142281532287598,2.210556983947754,2.462392568588257,1.2336875200271606,6834800.0
1986-11-04,,,,,,
1986-12-01,2.462392568588257,2.6302828788757324,2.210556983947754,2.4903743267059326,1.2513272762298584,9906000.0
1987-01-01,2.5183560848236084,3.301844596862793,2.5183560848236084,3.161935806274414,1.5887631177902222,23040400.0
1987-02-01,3.18991756439209,3.6096436977386475,3.0220272541046143,3.161935806274414,1.5887631177902222,18126400.0
1987-02-03,,,,,,
1987-03-01,3.161935806274414,4.029369831085205,3.1059725284576416,3.8614792823791504,1.9442850351333618,9066400.0
1987-04-01,3.8614792823791504,4.029369831085205,3.301844596862793,3.4417531490325928,1.7329496145248413,6334800.0
1987-05-01,3.4697349071502686,3.917442798614502,3.3578081130981445,3.5816619396209717,1.8033941984176636,6348000.0
1987-05-05,,,,,,
1987-06-01,3.553680181503296,4.75,3.3857898712158203,4.15625,2.0967648029327393,4887600.0
1987-06-17,,,,,,
1987-07-01,4.25,4.625,4.125,4.46875,2.2544167041778564,4494800.0
1987-08-01,4.4375,4.59375,3.84375,4.25,2.1440603733062744,6562400.0
1987-08-04,,,,,,
1987-09-01,4.25,4.3125,3.5,3.75,1.8949135541915894,3263600.0
1987-10-01,3.75,3.90625,2.5,2.71875,1.3738114833831787,8768800.0
1987-11-01,2.71875,3.34375,2.5625,2.9375,1.4843482971191406,13155600.0
1987-11-03,,,,,,
1987-12-01,2.9375,3.25,2.65625,3.1875,1.6150304079055786,6618400.0
1988-01-01,3.25,3.625,3.09375,3.21875,1.6308646202087402,5374000.0
1988-02-01,3.25,3.40625,3.15625,3.28125,1.6625319719314575,3467600.0
1988-02-02,,,,,,
1988-03-01,3.25,3.5625,3.09375,3.09375,1.5711205005645752,5324800.0
1988-04-01,3.125,3.5625,3.09375,3.4375,1.7456895112991333,4559200.0
1988-05-01,3.40625,3.40625,3.125,3.1875,1.6187305450439453,1999600.0
1988-05-03,,,,,,
1988-06-01,3.21875,3.21875,2.78125,2.90625,1.4791890382766724,6103200.0
1988-07-01,2.90625,3.0,2.78125,2.875,1.463282823562622,9977600.0
1988-08-01,2.875,3.375,2.78125,3.28125,1.6700520515441895,9243600.0
1988-08-02,,,,,,
1988-09-01,3.25,3.34375,3.15625,3.1875,1.6266257762908936,3557600.0
1988-10-01,3.21875,3.21875,3.0,3.0,1.530942678451538,3316000.0
1988-11-01,2.96875,3.15625,2.84375,3.03125,1.5468900203704834,4075600.0
1988-11-01,,,,,,
1988-12-01,3.0,3.09375,2.90625,3.09375,1.5827406644821167,4290000.0
1989-01-01,3.09375,3.125,2.71875,2.75,1.4068808555603027,8927200.0
1989-01-31,,,,,,
1989-02-01,2.75,2.90625,2.65625,2.75,1.410727858543396,8060800.0
1989-03-01,2.75,3.03125,2.75,2.9375,1.506914734840393,13703600.0
1989-04-01,2.9375,3.3125,2.84375,3.21875,1.6511937379837036,13958000.0
1989-05-01,3.1875,3.5,3.0,3.40625,1.7473790645599365,6767200.0
1989-05-02,,,,,,
1989-06-01,3.40625,3.5625,3.15625,3.46875,1.7836796045303345,6819600.0
1989-07-01,3.4375,3.6875,3.40625,3.625,1.8640265464782715,6223200.0
1989-08-01,3.59375,3.78125,3.46875,3.625,1.8640265464782715,3146400.0
1989-08-01,,,,,,
1989-09-01,3.65625,3.6875,3.40625,3.4375,1.7873328924179077,3068400.0
1989-10-01,3.46875,3.65625,3.0625,3.25,1.689841628074646,5328400.0
1989-10-31,,,,,,
1989-11-01,3.25,3.71875,3.1875,3.6875,1.9419316053390503,7818800.0
1989-12-01,3.65625,4.25,3.65625,4.1875,2.205244541168213,8482400.0
1990-01-01,4.15625,4.3125,3.625,3.90625,2.057131290435791,4606800.0
1990-02-01,3.90625,4.375,3.875,4.0625,2.139416456222534,5739600.0
1990-02-06,,,,,,
1990-03-01,4.0625,4.1875,3.65625,3.96875,2.1106691360473633,6250000.0
1990-04-01,3.90625,4.15625,3.4375,3.65625,1.9444738626480103,4350400.0
1990-05-01,3.625,4.21875,3.5,4.21875,2.2436234951019287,6714000.0
1990-05-01,,,,,,
1990-06-01,4.21875,4.25,3.6875,3.96875,2.1340153217315674,5000000.0
1990-07-01,3.9375,4.28125,3.6875,4.25,2.2852442264556885,5186400.0
1990-07-31,,,,,,
1990-08-01,4.28125,4.75,3.96875,4.21875,2.2908244132995605,11234400.0
1990-09-01,4.25,4.78125,4.25,4.53125,2.460515022277832,6740400.0
1990-10-01,4.46875,4.65625,3.875,4.21875,2.2908244132995605,5726800.0
1990-10-30,,,,,,
1990-11-01,4.25,4.5625,4.03125,4.28125,2.346527338027954,4228400.0
1990-12-01,4.25,4.28125,3.40625,3.53125,1.935457468032837,4728000.0
1991-01-01,3.5625,3.78125,3.3125,3.53125,1.935457468032837,7193600.0
1991-02-01,3.625,4.0625,3.4375,3.90625,2.1409926414489746,8370400.0
1991-02-05,,,,,,
1991-03-01,3.90625,4.0625,3.375,3.53125,1.9580368995666504,7652000.0
1991-04-01,3.5,3.6875,3.21875,3.625,2.010018825531006,8965200.0
1991-04-30,,,,,,
1991-05-01,3.59375,3.75,3.34375,3.5625,1.9984084367752075,7368400.0
1991-06-01,3.53125,3.5625,3.28125,3.34375,1.8756992816925049,5075200.0
1991-07-01,3.34375,3.6875,3.125,3.625,2.0334677696228027,5736000.0
1991-07-30,,,,,,
1991-08-01,3.59375,3.90625,3.375,3.8125,2.162933111190796,4562400.0
1991-09-01,3.8125,3.9375,3.65625,3.8125,2.162933111190796,3514000.0
1991-10-01,3.8125,4.4375,3.8125,4.3125,2.4465956687927246,12689200.0
1991-10-29,,,,,,
1991-11-01,4.28125,4.4375,3.5625,3.59375,2.0584936141967773,8480400.0
1991-12-01,3.53125,3.59375,3.1875,3.40625,1.951094627380371,9500400.0
1992-01-01,3.375,3.625,2.96875,3.125,1.7899948358535767,13154800.0
1992-02-01,3.125,3.21875,2.9375,3.0625,1.7541948556900024,7918400.0
1992-02-04,,,,,,
1992-03-01,3.0625,3.40625,2.90625,3.375,1.9590463638305664,6172000.0
1992-04-01,3.34375,3.90625,3.3125,3.6875,2.1404380798339844,6256400.0
1992-05-01,3.75,4.15625,3.6875,4.0,2.321831703186035,6727200.0
1992-05-05,,,,,,
1992-06-01,3.96875,4.0625,3.59375,3.71875,2.1822495460510254,4692800.0
1992-07-01,3.6875,4.40625,3.6875,4.34375,2.5490143299102783,9179200.0
1992-08-01,4.34375,4.9375,4.25,4.90625,2.8791024684906006,16853600.0
1992-08-04,,,,,,
1992-09-01,4.875,5.0625,4.65625,4.875,2.887547016143799,15063600.0
1992-10-01,4.8125,4.90625,4.5,4.625,2.739469051361084,9278000.0
1992-11-01,4.625,4.625,3.96875,4.15625,2.4618191719055176,13030400.0
1992-11-03,,,,,,
1992-12-01,4.09375,4.4375,3.78125,4.40625,2.632667064666748,9051200.0
1993-01-01,4.40625,4.6875,3.9375,4.6875,2.8007102012634277,10128800.0
1993-02-01,4.6875,5.25,4.625,5.09375,3.043440103530884,11281200.0
1993-02-02,,,,,,
1993-03-01,5.125,5.6875,5.09375,5.53125,3.3327178955078125,14934800.0
1993-04-01,5.5,5.875,5.21875,5.375,3.238574981689453,16636800.0
1993-05-01,5.375,5.625,5.125,5.375,3.238574981689453,16149200.0
1993-05-04,,,,,,
1993-06-01,5.375,6.3125,5.28125,6.03125,3.6606063842773438,19708400.0
1993-07-01,6.03125,6.5,5.53125,6.5,3.945108652114868,12328000.0
1993-08-01,6.5,7.75,6.125,7.625,4.627917766571045,16610800.0
1993-08-03,,,,,,
1993-09-01,7.625,7.625,6.75,7.25,4.427428722381592,12774000.0
1993-10-01,7.25,7.53125,6.65625,6.96875,4.255675315856934,29265200.0
1993-11-01,6.96875,7.28125,6.1875,6.1875,3.7785820960998535,13354000.0
1993-11-02,,,,,,
1993-12-01,6.1875,6.6875,5.75,6.625,4.068798065185547,16266000.0
1994-01-01,6.59375,7.03125,6.15625,6.84375,4.203145503997803,17778800.0
1994-02-01,6.8125,7.1875,6.4375,6.4375,3.9536447525024414,12275200.0
1994-02-01,,,,,,
1994-03-01,6.46875,6.9375,5.84375,5.9375,3.668001651763916,16354000.0
1994-04-01,5.875,7.5625,5.625,7.28125,4.498128890991211,13902400.0
1994-05-01,7.21875,7.8125,6.96875,7.0625,4.362990856170654,17724000.0
1994-05-03,,,,,,
1994-06-01,7.0,8.0625,7.0,7.5625,4.698022842407227,14451200.0
1994-07-01,7.53125,7.71875,6.5,6.8125,4.232102394104004,9458400.0
1994-08-01,6.8125,6.875,6.3125,6.4375,3.999142646789551,12904400.0
1994-08-02,,,,,,
1994-09-01,6.40625,7.1875,6.375,6.6875,4.179214954376221,10208800.0
1994-10-01,6.6875,7.59375,6.4375,7.5,4.68696928024292,11923200.0
1994-11-01,7.40625,7.46875,6.375,6.90625,4.315919876098633,11279200.0
1994-11-01,,,,,,
1994-12-01,6.875,6.875,5.625,6.1875,3.887483596801758,16170000.0
1995-01-01,6.15625,6.28125,5.46875,5.46875,3.4359078407287598,21206400.0
1995-02-01,5.5,6.4375,5.3125,6.375,4.005288124084473,19307600.0
1995-02-07,,,,,,
1995-03-01,6.3125,6.875,6.21875,6.84375,4.329112529754639,14072000.0
1995-04-01,6.84375,6.96875,6.375,6.75,4.269810199737549,6735200.0
1995-05-01,6.75,7.25,6.53125,6.78125,4.289575576782227,10412000.0
1995-05-02,,,,,,
1995-05-09,,,,,,
1995-06-01,6.78125,7.09375,6.375,6.375,4.080821990966797,9644000.0
1995-07-01,6.375,6.375,5.90625,6.25,4.000803470611572,20945200.0
1995-08-01,6.25,6.96875,6.03125,6.90625,4.420889854431152,15766800.0
1995-08-01,,,,,,
1995-08-07,,,,,,
1995-09-01,6.96875,7.28125,6.5,6.59375,4.275959014892578,10028000.0
1995-10-01,6.625,6.75,5.65625,6.1875,4.012509822845459,14981200.0
1995-11-01,6.1875,7.15625,6.1875,6.78125,4.397551536560059,11712800.0
1995-11-03,,,,,,
1995-11-06,,,,,,
1995-12-01,6.78125,7.625,6.6875,7.46875,4.904755115509033,22892400.0
1996-01-01,7.5,7.625,6.71875,7.4375,4.884233474731445,20289600.0
1996-02-01,7.375,8.09375,7.34375,7.65625,5.02788782119751,16390000.0
1996-02-02,,,,,,
1996-02-08,,,,,,
1996-03-01,7.6875,8.34375,7.53125,8.125,5.392496109008789,12736000.0
1996-04-01,8.09375,9.09375,8.03125,8.78125,5.828042030334473,16570400.0
1996-05-01,8.75,9.125,8.28125,8.46875,5.620642185211182,15123200.0
1996-05-02,,,,,,
1996-06-01,8.46875,9.59375,8.1875,9.4375,6.292357444763184,15905600.0
1996-07-01,9.4375,10.5625,9.34375,9.84375,6.563221454620361,30566800.0
1996-08-01,9.90625,10.40625,9.90625,10.03125,6.688234329223633,13492000.0
1996-08-01,,,,,,
1996-09-01,10.0625,10.625,9.8125,10.5625,7.071171760559082,11197200.0
1996-10-01,10.5625,11.28125,10.40625,10.875,7.280377388000488,26333600.0
1996-10-31,,,,,,
1996-11-01,10.96875,12.25,10.625,11.78125,7.916534900665283,17096000.0
1996-12-01,11.75,12.09375,10.75,11.96875,8.042524337768555,9941200.0
1997-01-01,11.90625,12.5,10.90625,10.90625,7.32856559753418,19518800.0
1997-02-01,10.875,10.90625,9.625,9.75,6.551613807678223,32014400.0
1997-02-06,,,,,,
1997-03-01,9.625,10.28125,9.375,9.4375,6.365734100341797,20389200.0
1997-04-01,9.4375,9.78125,8.0625,8.9375,6.028473377227783,27721600.0
1997-05-01,8.9375,10.8125,8.9375,10.53125,7.103481769561768,21426400.0
1997-05-01,,,,,,
1997-06-01,10.5625,10.9375,9.640625,9.671875,6.5531487464904785,18845600.0
1997-07-01,9.8125,10.78125,9.53125,10.375,7.0295515060424805,25074000.0
1997-07-31,,,,,,
1997-08-01,10.390625,11.59375,10.125,11.59375,7.884778022766113,23541200.0
1997-09-01,11.59375,11.890625,10.703125,11.1875,7.608489513397217,25232000.0
1997-10-01,11.203125,11.5,9.828125,10.265625,6.981535911560059,17627200.0
1997-11-01,10.34375,10.6875,9.0,9.28125,6.31207275390625,20970800.0
1997-11-06,,,,,,
1997-12-01,9.296875,9.296875,8.046875,8.8125,6.016165733337402,36301200.0
1998-01-01,8.875,9.59375,8.1875,9.09375,6.20817232131958,29694000.0
1998-02-01,9.03125,9.765625,8.875,9.75,6.656182765960693,21332400.0
1998-02-12,,,,,,
1998-03-01,9.71875,11.546875,9.296875,10.40625,7.1342387199401855,26306800.0
1998-04-01,10.40625,11.1875,10.375,10.78125,7.391329288482666,16128800.0
1998-05-01,10.78125,11.0625,9.609375,9.765625,6.695040225982666,11442800.0
1998-05-07,,,,,,
1998-06-01,9.734375,9.8125,8.828125,9.5,6.5375471115112305,16448800.0
1998-07-01,9.375,9.5625,7.625,7.96875,5.483799457550049,14746800.0
1998-08-01,7.96875,7.96875,5.765625,5.78125,3.9784414768218994,26045600.0
1998-08-06,,,,,,
1998-09-01,5.859375,8.484375,5.65625,7.96875,5.514620304107666,20171200.0
1998-10-01,7.953125,8.859375,6.921875,8.1875,5.666003227233887,27157200.0
1998-11-01,8.1875,8.546875,6.21875,6.328125,4.379257678985596,13892000.0
1998-11-05,,,,,,
1998-12-01,6.328125,6.375,5.484375,6.15625,4.281151294708252,31767600.0
1999-01-01,6.09375,6.59375,4.8125,4.921875,3.4227488040924072,34509600.0
1999-02-01,4.921875,5.75,4.859375,5.65625,3.933443307876587,28862800.0
1999-02-11,,,,,,
1999-03-01,5.65625,7.859375,5.546875,7.25,5.079233169555664,32074800.0
1999-04-01,7.21875,8.75,6.84375,8.015625,5.615619659423828,24181200.0
1999-05-01,7.953125,8.25,6.390625,6.625,4.6413679122924805,17330800.0
1999-05-06,,,,,,
1999-06-01,6.5625,7.203125,6.21875,7.046875,4.962801456451416,19198000.0
1999-07-01,7.015625,7.59375,6.78125,7.3125,5.1498703956604,14552400.0
1999-08-01,7.328125,8.0625,7.109375,7.75,5.457984447479248,18921600.0
1999-08-05,,,,,,
1999-09-01,7.78125,8.46875,6.75,7.25,5.1341233253479,15958800.0
1999-10-01,7.296875,7.296875,6.0625,6.328125,4.481291770935059,23797200.0
1999-11-01,6.296875,6.5,5.421875,5.5,3.894850730895996,27860000.0
1999-11-04,,,,,,
1999-12-01,5.5,5.625,4.78125,5.359375,3.8198375701904297,33048000.0
2000-01-01,5.359375,5.8125,4.796875,5.015625,3.5748326778411865,30200400.0
2000-02-01,5.0625,5.859375,5.015625,5.625,4.009157657623291,32051200.0
2000-02-11,,,,,,
2000-03-01,5.6875,8.40625,5.5703125,8.203125,5.889397144317627,49703200.0
2000-04-01,8.203125,9.140625,7.28125,9.015625,6.47273063659668,38072800.0
2000-05-01,9.078125,10.59375,9.078125,9.828125,7.056058883666992,44966000.0
2000-05-04,,,,,,
2000-06-01,9.875,9.90625,8.90625,9.3125,6.714711666107178,42172000.0
2000-07-01,9.3125,9.5625,7.21875,7.5,5.407821178436279,44338400.0
2000-08-01,7.453125,9.78125,7.40625,9.6875,6.985102653503418,34384000.0
2000-08-03,,,,,,
2000-09-01,9.703125,10.375,8.78125,9.28125,6.725873947143555,32220000.0
2000-10-01,9.34375,10.71875,8.671875,9.171875,6.646613597869873,42224400.0
2000-11-01,9.25,10.328125,9.015625,9.3125,6.7485198974609375,28367200.0
2000-11-02,,,,,,
2000-12-01,9.359375,12.09375,9.328125,11.5,8.36858081817627,39433600.0
2001-01-01,11.4375,11.875,9.90625,10.59000015258789,7.706367015838623,49774800.0
2001-02-01,10.649999618530273,11.8125,10.180000305175781,11.087499618530273,8.068398475646973,40706000.0
2001-02-09,,,,,,
2001-03-01,11.087499618530273,12.772500038146973,10.125,10.432499885559082,7.618203639984131,53082800.0
2001-04-01,10.524999618530273,11.300000190734863,9.354999542236328,10.867500305175781,7.935858726501465,50654800.0
2001-05-01,10.864999771118164,11.300000190734863,9.662500381469727,10.3774995803833,7.578038215637207,54792000.0
2001-05-03,,,,,,
2001-06-01,10.425000190734863,10.670000076293945,8.5625,8.837499618530273,6.479416847229004,52642400.0
2001-07-01,8.887499809265137,9.547499656677246,7.712500095367432,9.067500114440918,6.64804744720459,53513200.0
2001-08-01,9.162500381469727,9.512499809265137,8.300000190734863,8.4375,6.186146259307861,37645200.0
2001-08-02,,,,,,
2001-09-01,8.5625,9.149999618530273,6.875,7.747499942779541,5.705650806427002,35996000.0
2001-10-01,7.695000171661377,10.0,7.5,9.242500305175781,6.806643962860107,48870000.0
2001-11-01,9.295000076293945,9.59749984741211,7.775000095367432,8.175000190734863,6.020484924316406,42667600.0
2001-11-01,,,,,,
2001-12-01,8.112500190734863,8.987500190734863,7.5,8.822500228881836,6.52557897567749,40782000.0
2002-01-01,8.760000228881836,8.779999732971191,7.724999904632568,8.125,6.009671211242676,40025600.0
2002-02-01,8.175000190734863,9.050000190734863,7.690000057220459,9.050000190734863,6.693848609924316,36135200.0
2002-02-07,,,,,,
2002-03-01,9.050000190734863,10.0,9.007499694824219,9.765000343322754,7.259049892425537,29108000.0
2002-04-01,9.75,10.1899995803833,9.1875,9.762499809265137,7.257194519042969,37670400.0
2002-05-01,9.765000343322754,10.0600004196167,9.274999618530273,9.539999961853027,7.091794490814209,29560000.0
2002-05-02,,,,,,
2002-06-01,9.539999961853027,9.539999961853027,8.675000190734863,9.012499809265137,6.726916313171387,22975600.0
2002-07-01,8.987500190734863,9.085000038146973,6.662499904632568,7.772500038146973,5.801385879516602,31392800.0
2002-08-01,7.802499771118164,8.550000190734863,7.137499809265137,8.337499618530273,6.223095893859863,28628800.0
2002-08-01,,,,,,
2002-09-01,8.1875,8.75,7.724999904632568,8.492500305175781,6.371581554412842,23008800.0
2002-10-01,8.5,9.324999809265137,7.887499809265137,9.09749984741211,6.825486660003662,33321200.0
2002-11-01,9.0625,9.425000190734863,8.5649995803833,9.2524995803833,6.941779613494873,27175600.0
2002-11-06,,,,,,
2002-12-01,9.279999732971191,10.125,9.1875,9.387499809265137,7.073852062225342,30704400.0
2003-01-01,9.475000381469727,9.654999732971191,8.444999694824219,8.925000190734863,6.725340843200684,40203600.0
2003-02-01,8.927499771118164,9.220000267028809,8.414999961853027,8.824999809265137,6.649986267089844,30600400.0
2003-02-06,,,,,,
2003-03-01,8.824999809265137,9.047499656677246,8.267499923706055,8.572500228881836,6.489197254180908,30450800.0
2003-04-01,8.572500228881836,8.729999542236328,8.130000114440918,8.300000190734863,6.282922267913818,37860400.0
2003-05-01,8.300000190734863,9.237500190734863,8.092499732971191,9.107500076293945,6.894179821014404,50000000.0
2003-05-08,,,,,,
2003-06-01,9.225000381469727,10.192500114440918,9.177499771118164,9.449999809265137,7.188276290893555,45521200.0
2003-07-01,9.447500228881836,9.479999542236328,8.970000267028809,9.125,6.941062927246094,34162800.0
2003-07-31,,,,,,
2003-08-01,9.137499809265137,9.9350004196167,8.842499732971191,9.897500038146973,7.561748027801514,25415200.0
2003-09-01,9.897500038146973,10.0,9.364999771118164,9.574999809265137,7.315356731414795,26900400.0
2003-10-01,9.587499618530273,10.100000381469727,9.505000114440918,9.930000305175781,7.586581230163574,26108000.0
2003-11-01,9.970000267028809,9.977499961853027,9.369999885559082,9.912500381469727,7.573208808898926,26448000.0
2003-11-06,,,,,,
2003-12-01,9.949999809265137,11.4975004196167,9.899999618530273,11.107500076293945,8.530508995056152,34091600.0
2004-01-01,11.050000190734863,11.787500381469727,10.942500114440918,11.050000190734863,8.486351013183594,27740000.0
2004-02-01,11.0625,11.774999618530273,10.662500381469727,11.694999694824219,8.981709480285645,25063200.0
2004-02-06,,,,,,
2004-03-01,11.757499694824219,12.117500305175781,11.045000076293945,11.774999618530273,9.085661888122559,28646800.0
2004-04-01,11.800000190734863,12.319999694824219,11.47249984741211,11.524999618530273,8.8927640914917,35320800.0
2004-05-01,11.524999618530273,12.087499618530273,10.90250015258789,11.335000038146973,8.7461576461792,39975200.0
2004-05-06,,,,,,
2004-06-01,11.449999809265137,13.015000343322754,11.449999809265137,12.75,9.880022048950195,40306000.0
2004-07-01,12.824999809265137,13.952500343322754,12.800000190734863,13.827500343322754,10.714985847473145,39333600.0
2004-08-01,13.800000190734863,14.050000190734863,12.242500305175781,12.869999885559082,9.973011016845703,37099200.0
2004-08-06,,,,,,
2004-09-01,12.895000457763672,14.704999923706055,12.850000381469727,14.5600004196167,11.325700759887695,30785200.0
2004-10-01,14.547499656677246,15.342499732971191,14.194999694824219,14.5,11.279031753540039,39928400.0
2004-11-01,14.600000381469727,16.149999618530273,14.154999732971191,15.947500228881836,12.404990196228027,48301200.0
2004-11-05,,,,,,
2004-12-01,15.84749984741211,15.914999961853027,14.444999694824219,15.414999961853027,12.031562805175781,81950400.0
2005-01-01,15.337499618530273,15.337499618530273,13.890000343322754,14.792499542236328,11.545692443847656,65379600.0
2005-02-01,14.875,17.512500762939453,14.787500381469727,16.90999984741211,13.198427200317383,73891600.0
2005-02-03,,,,,,
2005-03-01,16.875,17.647499084472656,16.104999542236328,17.0049991607666,13.316893577575684,76460400.0
2005-04-01,17.25,17.899999618530273,15.649999618530273,16.030000686645508,12.553357124328613,70388800.0
2005-05-01,16.030000686645508,18.639999389648438,15.755000114440918,18.592500686645508,14.56009292602539,124017200.0
2005-05-05,,,,,,
2005-06-01,18.6875,19.719999313354492,18.487499237060547,18.912500381469727,14.856114387512207,80344800.0
2005-07-01,18.947500228881836,20.767499923706055,18.9375,20.627500534057617,16.203289031982422,55989200.0
2005-08-01,20.690000534057617,22.325000762939453,20.364999771118164,22.03499984741211,17.308895111083984,77681200.0
2005-08-04,,,,,,
2005-09-01,22.149999618530273,23.93000030517578,21.395000457763672,23.450000762939453,18.506317138671875,65812400.0
2005-09-15,,,,,,
2005-10-01,23.5049991607666,24.375,17.575000762939453,20.024999618530273,15.803366661071777,93064000.0
2005-11-01,19.899999618530273,20.809999465942383,17.854999542236328,18.684999465942383,14.745862007141113,75001400.0
2005-11-03,,,,,,
2005-12-01,18.799999237060547,22.2549991607666,18.684999465942383,20.149999618530273,15.941007614135742,74535000.0
2006-01-01,20.350000381469727,23.264999389648438,20.18000030517578,23.139999389648438,18.306447982788086,63038800.0
2006-02-01,23.104999542236328,23.454999923706055,19.725000381469727,21.020000457763672,16.629283905029297,56073800.0
2006-02-02,,,,,,
2006-03-01,21.114999771118164,22.395000457763672,19.15999984741211,21.959999084472656,17.411535263061523,54704400.0
2006-04-01,22.149999618530273,24.1299991607666,21.690000534057617,22.489999771118164,17.831758499145508,42183600.0
2006-05-01,22.649999618530273,24.665000915527344,19.93000030517578,21.729999542236328,17.22918128967285,61364600.0
2006-05-04,,,,,,
2006-06-01,21.43000030517578,23.68000030517578,18.06999969482422,23.43000030517578,18.636043548583984,92338000.0
2006-07-01,23.549999237060547,25.375,22.665000915527344,25.30500030517578,20.127403259277344,71970600.0
2006-08-01,25.424999237060547,25.854999542236328,23.924999237060547,24.709999084472656,19.654136657714844,71072200.0
2006-08-03,,,,,,
2006-09-01,24.649999618530273,25.094999313354492,20.899999618530273,22.795000076293945,18.184961318969727,58212400.0
2006-10-01,22.475000381469727,25.0,20.885000228881836,24.315000534057617,19.397552490234375,57153000.0
2006-11-01,24.315000534057617,26.84000015258789,23.200000762939453,26.75,21.340105056762695,51903000.0
2006-11-02,,,,,,
2006-12-01,26.475000381469727,27.31999969482422,24.010000228881836,24.53499984741211,19.635133743286133,45603800.0
2007-01-01,24.145000457763672,26.889999389648438,23.020000457763672,26.704999923706055,21.371768951416016,63766200.0
2007-02-01,26.834999084472656,29.739999771118164,26.040000915527344,28.78499984741211,23.03636932373047,70060200.0
2007-02-01,,,,,,
2007-03-01,28.100000381469727,30.854999542236328,27.975000381469727,29.825000762939453,23.93589973449707,75818600.0
2007-04-01,29.950000762939453,31.18000030517578,29.28499984741211,29.405000686645508,23.598833084106445,52816800.0
2007-05-01,29.540000915527344,32.189998626708984,29.19499969482422,31.645000457763672,25.39653205871582,67276400.0
2007-05-03,,,,,,
2007-06-01,31.625,32.85499954223633,29.780000686645508,31.19499969482422,25.134191513061523,57661600.0
2007-07-01,31.21500015258789,33.63999938964844,30.454999923706055,30.56999969482422,24.630624771118164,42242200.0
2007-08-01,32.4900016784668,32.900001525878906,28.604999542236328,30.03499984741211,24.199567794799805,64434000.0
2007-08-02,,,,,,
2007-09-01,30.0049991607666,35.650001525878906,30.0049991607666,35.02000045776367,28.323148727416992,42907600.0
2007-10-01,35.11000061035156,39.025001525878906,35.08000183105469,38.27000045776367,30.951642990112305,108158800.0
2007-11-01,37.54499816894531,38.90999984741211,34.185001373291016,36.02000045776367,29.13191032409668,71869000.0
2007-11-01,,,,,,
2007-12-01,35.63999938964844,40.85499954223633,35.63999938964844,39.7599983215332,32.257850646972656,54283600.0
2008-01-01,40.03499984741211,40.790000915527344,32.4900016784668,36.290000915527344,29.442607879638672,68354800.0
2008-01-31,,,,,,
2008-02-01,36.525001525878906,41.40999984741211,34.814998626708984,38.70000076293945,31.50243377685547,49847400.0
2008-03-01,38.724998474121094,40.63999938964844,32.69499969482422,36.400001525878906,29.63021469116211,73655000.0
2008-04-01,36.810001373291016,45.71500015258789,35.974998474121094,43.5,35.40972137451172,76830400.0
2008-05-01,44.10499954223633,52.55500030517578,40.6349983215332,48.724998474121094,39.662960052490234,88068800.0
2008-05-01,,,,,,
2008-06-01,48.5,52.119998931884766,47.45000076293945,50.279998779296875,41.098819732666016,81289400.0
2008-07-01,50.220001220703125,52.25,35.21500015258789,36.935001373291016,30.190622329711914,110025200.0
2008-07-31,,,,,,
2008-08-01,36.939998626708984,38.43000030517578,31.934999465942383,35.8650016784668,29.453514099121094,94249800.0
2008-09-01,34.970001220703125,35.02000045776367,25.110000610351562,27.795000076293945,22.826169967651367,153816200.0
2008-10-01,27.829999923706055,27.829999923706055,15.444999694824219,25.90999984741211,21.27814483642578,190669200.0
2008-10-30,,,,,,
2008-11-01,25.68000030517578,27.200000762939453,19.295000076293945,26.139999389648438,21.63680076599121,101032200.0
2008-12-01,25.2450008392334,27.719999313354492,18.575000762939453,24.610000610351562,20.370378494262695,92983800.0
2009-01-01,24.760000228881836,28.40999984741211,22.100000381469727,24.46500015258789,20.25035858154297,122980600.0
2009-02-01,23.979999542236328,29.1200008392334,22.094999313354492,22.770000457763672,18.847360610961914,101405000.0
2009-02-05,,,,,,
2009-03-01,22.200000762939453,28.655000686645508,20.165000915527344,26.940000534057617,22.454526901245117,121807400.0
2009-04-01,26.43000030517578,31.399999618530273,26.1299991607666,28.375,23.650606155395508,95074800.0
2009-05-01,28.625,31.399999618530273,25.43000030517578,29.739999771118164,24.788330078125,97567800.0
2009-05-07,,,,,,
2009-06-01,30.454999923706055,34.53499984741211,27.7450008392334,29.485000610351562,24.723318099975586,83527000.0
2009-07-01,29.885000228881836,30.8799991607666,25.7450008392334,30.559999465942383,25.624711990356445,92049000.0
2009-08-01,31.184999465942383,32.21500015258789,28.829999923706055,30.229999542236328,25.348007202148438,55234400.0
2009-08-06,,,,,,
2009-09-01,30.114999771118164,35.17499923706055,29.405000686645508,32.97999954223633,27.81902313232422,60477400.0
2009-10-01,32.90999984741211,37.0099983215332,31.125,32.814998626708984,27.679838180541992,73849600.0
2009-11-01,33.0,35.61000061035156,31.7450008392334,32.625,27.519567489624023,64080200.0
2009-11-05,,,,,,
2009-12-01,33.099998474121094,37.04499816894531,32.150001525878906,35.61000061035156,30.201847076416016,55765200.0
2010-01-01,36.224998474121094,39.595001220703125,36.224998474121094,36.970001220703125,31.355297088623047,70149800.0
2010-02-01,37.31999969482422,38.709999084472656,34.6349983215332,36.31999969482422,30.804000854492188,62361400.0
2010-02-04,,,,,,
2010-03-01,36.65999984741211,38.310001373291016,34.189998626708984,36.5,31.102643966674805,83075200.0
2010-04-01,36.939998626708984,40.75,36.875,38.20000076293945,32.551265716552734,74719800.0
2010-05-01,38.22999954223633,39.22999954223633,28.549999237060547,29.7450008392334,25.346527099609375,120062800.0
2010-05-06,,,,,,
2010-06-01,29.520000457763672,33.685001373291016,28.114999771118164,30.165000915527344,25.828510284423828,107431400.0
2010-07-01,30.104999542236328,34.91999816894531,29.610000610351562,33.529998779296875,28.709760665893555,72191200.0
2010-08-01,34.05500030517578,35.42499923706055,31.899999618530273,34.88999938964844,29.87424087524414,73034400.0
2010-08-05,,,,,,
2010-09-01,35.650001525878906,38.814998626708984,35.25,37.54499816894531,32.316436767578125,63193800.0
2010-10-01,37.97999954223633,40.86000061035156,37.53499984741211,40.7400016784668,35.066505432128906,65134400.0
2010-11-01,41.060001373291016,42.974998474121094,39.935001373291016,40.625,34.96751022338867,63858000.0
2010-11-04,,,,,,
2010-12-01,41.3650016784668,44.5,40.5,43.040000915527344,37.20664596557617,56896000.0
2011-01-01,43.05500030517578,45.619998931884766,40.6349983215332,45.54999923706055,39.37645721435547,63663800.0
2011-02-01,45.654998779296875,46.459999084472656,42.974998474121094,46.33000183105469,40.050743103027344,66925000.0
2011-02-03,,,,,,
2011-03-01,46.584999084472656,49.494998931884766,43.125,48.32500076293945,41.94504165649414,69221800.0
2011-04-01,46.96500015258789,49.36000061035156,45.4900016784668,48.1349983215332,41.780120849609375,51512800.0
2011-05-01,48.40999984741211,48.5,42.60499954223633,46.599998474121094,40.447784423828125,62118200.0
2011-05-05,,,,,,
2011-06-01,46.650001525878906,46.89500045776367,41.25,44.814998626708984,39.05618667602539,58624800.0
2011-07-01,44.82500076293945,50.22999954223633,44.28499984741211,49.84000015258789,43.435482025146484,54556000.0
2011-08-01,50.52000045776367,50.6349983215332,39.5,44.18000030517578,38.50279235839844,91354600.0
2011-08-04,,,,,,
2011-09-01,44.494998931884766,45.21500015258789,34.625,35.400001525878906,30.99298667907715,93304600.0
2011-10-01,34.94499969482422,47.439998626708984,32.95500183105469,44.66999816894531,39.108943939208984,83306600.0
2011-11-01,43.220001220703125,49.27000045776367,42.16999816894531,49.19499969482422,43.070621490478516,69604200.0
2011-11-03,,,,,,
2011-12-01,48.959999084472656,49.584999084472656,43.7599983215332,47.19499969482422,41.526187896728516,52115800.0
2012-01-01,48.435001373291016,51.58000183105469,47.02000045776367,50.334999084472656,44.28900909423828,50074400.0
2012-02-01,50.875,52.72999954223633,48.75,48.82500076293945,42.960391998291016,60896800.0
2012-02-02,,,,,,
2012-03-01,48.959999084472656,50.45000076293945,46.78499984741211,48.88999938964844,43.20426940917969,65305600.0
2012-04-01,48.84000015258789,50.4900016784668,45.880001068115234,49.65999984741211,43.88473129272461,44240800.0
2012-05-01,49.915000915527344,50.375,40.75,42.22999954223633,37.318809509277344,56268600.0
2012-05-03,,,,,,
2012-06-01,41.31999969482422,43.56999969482422,38.415000915527344,42.40999984741211,37.64609909057617,56268200.0
2012-07-01,42.5,45.6150016784668,41.165000915527344,43.71500015258789,38.80450439453125,50821600.0
2012-08-01,43.97999954223633,45.5099983215332,42.599998474121094,43.95000076293945,39.01311111450195,41795200.0
2012-08-02,,,,,,
2012-09-01,43.560001373291016,48.79999923706055,42.974998474121094,46.35499954223633,41.35350799560547,38004400.0
2012-10-01,45.529998779296875,48.380001068115234,45.0,47.505001068115234,42.37942886352539,44676800.0
2012-11-01,47.5,49.28499984741211,45.60499954223633,48.875,43.60160827636719,47844000.0
2012-11-01,,,,,,
2012-12-01,49.415000915527344,51.540000915527344,47.755001068115234,50.869998931884766,45.62144470214844,39884200.0
2013-01-01,51.71500015258789,55.040000915527344,50.93000030517578,53.89500045776367,48.33434295654297,32140800.0
2013-02-01,54.255001068115234,57.79499816894531,53.630001068115234,55.415000915527344,49.6975212097168,40682000.0
2013-02-07,,,,,,
2013-03-01,55.07500076293945,58.31999969482422,54.01499938964844,57.83000183105469,52.092689514160156,38223000.0
2013-04-01,58.17499923706055,59.2400016784668,52.619998931884766,56.64500045776367,51.02525329589844,52090400.0
2013-05-01,56.30500030517578,61.60499954223633,55.060001373291016,57.650001525878906,51.93055725097656,56166200.0
2013-05-02,,,,,,
2013-05-29,,,,,,
2013-06-01,57.790000915527344,61.77000045776367,56.2599983215332,60.040000915527344,54.357887268066406,38520800.0
2013-07-01,60.310001373291016,66.30000305175781,59.849998474121094,62.4900016784668,56.57602310180664,36609200.0
2013-08-01,63.15999984741211,65.16000366210938,61.0,61.43000030517578,55.61634063720703,28449200.0
2013-08-01,,,,,,
2013-09-01,62.099998474121094,68.43000030517578,61.650001525878906,67.01000213623047,60.80448913574219,28258100.0
2013-10-01,67.05999755859375,78.01000213623047,64.36000061035156,74.93000030517578,67.99107360839844,45345500.0
2013-10-31,,,,,,
2013-11-01,75.11000061035156,76.91999816894531,68.58000183105469,70.23999786376953,63.85285568237305,39647700.0
2013-12-01,70.0999984741211,70.73999786376953,65.79000091552734,68.11000061035156,61.916534423828125,49350200.0
2014-01-01,67.86000061035156,67.94999694824219,61.75,62.33000183105469,56.66214370727539,47151400.0
2014-02-01,62.41999816894531,70.5,60.13999938964844,68.76000213623047,62.5074462890625,60794100.0
2014-02-06,,,,,,
2014-03-01,68.4800033569336,71.9800033569336,65.37000274658203,71.04000091552734,64.72820281982422,35722800.0
2014-04-01,71.06999969482422,76.29000091552734,69.22000122070312,71.77999877929688,65.40245056152344,39323400.0
2014-05-01,71.54000091552734,72.45999908447266,68.83000183105469,72.06999969482422,65.66670989990234,36293300.0
2014-05-01,,,,,,
2014-06-01,72.36000061035156,79.62999725341797,71.26000213623047,77.45999908447266,70.75521850585938,39066400.0
2014-07-01,77.83000183105469,77.93000030517578,65.66999816894531,66.48999786376953,60.73476791381836,61422100.0
2014-07-31,,,,,,
2014-08-01,66.05000305175781,72.8499984741211,65.87999725341797,72.13999938964844,66.07312774658203,51693400.0
2014-09-01,71.93000030517578,72.05999755859375,67.9000015258789,68.36000061035156,62.611019134521484,41979500.0
2014-10-01,68.33999633789062,68.7300033569336,52.650001525878906,57.630001068115234,52.78339385986328,73742900.0
2014-10-31,,,,,,
2014-11-01,58.08000183105469,58.20000076293945,48.939998626708984,49.18000030517578,45.18632125854492,60615800.0
2014-12-01,49.11000061035156,52.36000061035156,42.11000061035156,47.43000030517578,43.578433990478516,95280800.0
2015-01-01,47.06999969482422,48.13999938964844,41.0099983215332,47.7400016784668,43.86324691772461,74006500.0
2015-02-01,48.75,52.41999816894531,45.77000045776367,47.22999954223633,43.39466094970703,85617800.0
2015-02-05,,,,,,
2015-03-01,47.22999954223633,49.720001220703125,43.310001373291016,48.900001525878906,45.09856414794922,86327800.0
2015-04-01,49.27000045776367,53.68000030517578,48.2400016784668,50.720001220703125,46.777076721191406,61478700.0
2015-05-01,50.7599983215332,52.689998626708984,42.79999923706055,43.779998779296875,40.3765869140625,110199200.0
2015-05-07,,,,,,
2015-06-01,43.58000183105469,46.93000030517578,42.130001068115234,42.68000030517578,39.50669860839844,97026000.0
2015-07-01,43.029998779296875,43.029998779296875,34.25,35.22999954223633,32.61061096191406,118837500.0
2015-07-30,,,,,,
2015-08-01,34.970001220703125,37.099998474121094,29.170000076293945,33.40999984741211,31.08064079284668,131397800.0
2015-09-01,32.369998931884766,33.9900016784668,29.1299991607666,30.18000030517578,28.075841903686523,160345600.0
2015-10-01,30.690000534057617,37.880001068115234,29.559999465942383,35.84000015258789,33.34122848510742,118547500.0
2015-10-29,,,,,,
2015-11-01,36.45000076293945,39.849998474121094,34.25,36.66999816894531,34.29051208496094,76855400.0
2015-12-01,36.7599983215332,37.040000915527344,30.389999389648438,32.93000030517578,30.793197631835938,98661300.0
2016-01-01,32.63999938964844,33.869998931884766,23.770000457763672,32.369998931884766,30.26953887939453,122332200.0
2016-02-01,31.709999084472656,33.040000915527344,26.709999084472656,29.5,27.585773468017578,114369800.0
2016-02-04,,,,,,
2016-03-01,29.670000076293945,35.040000915527344,27.850000381469727,31.40999984741211,29.463224411010742,108702000.0
2016-04-01,30.559999465942383,37.56999969482422,29.469999313354492,36.11000061035156,33.87192153930664,88421900.0
2016-05-01,36.0,37.47999954223633,34.150001525878906,35.75,33.534236907958984,83127900.0
2016-05-05,,,,,,
2016-06-01,34.959999084472656,38.619998931884766,33.779998779296875,35.869998931884766,33.74159622192383,81628600.0
2016-07-01,35.900001525878906,37.40999984741211,33.9900016784668,35.720001220703125,33.600494384765625,55998300.0
2016-08-01,35.290000915527344,36.209999084472656,32.709999084472656,34.47999954223633,32.43408203125,91435200.0
2016-08-04,,,,,,
2016-09-01,34.2400016784668,37.5,32.75,35.7400016784668,33.718345642089844,79166000.0
2016-10-01,35.90999984741211,36.63999938964844,33.75,34.470001220703125,32.52018356323242,62782700.0
2016-11-01,34.81999969482422,38.91999816894531,33.90999984741211,38.15999984741211,36.00145721435547,96625500.0
2016-11-03,,,,,,
2016-12-01,39.119998931884766,42.029998779296875,37.88999938964844,38.060001373291016,36.004817962646484,75093700.0
2017-01-01,38.63999938964844,40.88999938964844,36.79999923706055,39.7599983215332,37.61301803588867,97240500.0
2017-02-01,39.959999084472656,40.56999969482422,36.20000076293945,36.40999984741211,34.443904876708984,76951600.0
2017-02-02,,,,,,
2017-03-01,36.869998931884766,37.33000183105469,32.33000183105469,34.34000015258789,32.5682258605957,101711200.0
2017-04-01,34.22999954223633,35.7400016784668,32.27000045776367,32.33000183105469,30.66193199157715,87941400.0
2017-05-01,32.18000030517578,33.27000045776367,28.290000915527344,28.690000534057617,27.209735870361328,177163800.0
2017-05-04,,,,,,
2017-06-01,28.709999084472656,30.190000534057617,27.65999984741211,28.299999237060547,26.929086685180664,139159900.0
2017-07-01,28.469999313354492,30.059999465942383,26.559999465942383,28.90999984741211,27.509536743164062,82812900.0
2017-08-01,28.81999969482422,28.81999969482422,22.989999771118164,23.770000457763672,22.6185302734375,116304200.0
2017-08-03,,,,,,
2017-09-01,23.780000686645508,28.610000610351562,23.59000015258789,28.360000610351562,27.082422256469727,117092100.0
2017-10-01,27.8799991607666,28.920000076293945,26.3700008392334,27.8700008392334,26.6144962310791,97906500.0
2017-11-01,28.290000915527344,29.139999389648438,25.360000610351562,25.799999237060547,24.637746810913086,139397700.0
2017-11-03,,,,,,
2017-12-01,26.6200008392334,29.579999923706055,25.59000015258789,29.139999389648438,27.927562713623047,92381000.0
2018-01-01,29.399999618530273,33.459999084472656,29.31999969482422,30.520000457763672,29.250144958496094,88838200.0
2018-02-01,30.600000381469727,31.75,24.290000915527344,29.829999923706055,28.58885383605957,149873900.0
2018-02-09,,,,,,
2018-03-01,29.90999984741211,31.469999313354492,28.489999771118164,30.299999237060547,29.153942108154297,96016200.0
2018-04-01,29.940000534057617,34.529998779296875,28.59000015258789,33.83000183105469,32.55042266845703,80711200.0
2018-05-01,33.040000915527344,37.66999816894531,32.150001525878906,35.70000076293945,34.34969711303711,83737200.0
2018-05-04,,,,,,
2018-06-01,35.689998626708984,36.91999816894531,33.25,35.279998779296875,34.060970306396484,98295300.0
2018-07-01,34.86000061035156,37.7599983215332,33.560001373291016,36.09000015258789,34.842987060546875,71923300.0
2018-08-01,35.54999923706055,35.9900016784668,28.459999084472656,29.719999313354492,28.693082809448242,128139800.0
2018-08-03,,,,,,
2018-09-01,29.799999237060547,31.90999984741211,28.56999969482422,31.190000534057617,30.20502471923828,73689200.0
2018-10-01,31.34000015258789,32.72999954223633,23.829999923706055,24.850000381469727,24.06523895263672,121893400.0
2018-11-01,25.100000381469727,28.959999084472656,23.489999771118164,23.739999771118164,22.990291595458984,139105000.0
2018-11-02,,,,,,
2018-12-01,24.610000610351562,25.219999313354492,17.110000610351562,18.760000228881836,18.24407196044922,132109600.0
2019-01-01,18.31999969482422,23.670000076293945,17.979999542236328,22.34000015258789,21.72561264038086,126715600.0
2019-02-01,22.440000534057617,24.229999542236328,19.90999984741211,22.149999618530273,21.54084014892578,130366100.0
2019-02-08,,,,,,
2019-03-01,22.25,25.549999237060547,21.31999969482422,24.729999542236328,24.17616081237793,117521000.0
2019-04-01,25.010000228881836,28.399999618530273,24.43000030517578,27.059999465942383,26.453981399536133,125562000.0
2019-05-01,27.100000381469727,27.239999771118164,21.09000015258789,21.399999618530273,20.920738220214844,116075000.0
2019-05-03,,,,,,
2019-06-01,21.559999465942383,22.40999984741211,19.479999542236328,22.399999618530273,22.001964569091797,119722500.0
2019-07-01,23.0,23.1299991607666,20.329999923706055,22.079999923706055,21.68764877319336,95120500.0
2019-08-01,21.709999084472656,23.31999969482422,20.389999389648438,22.579999923706055,22.17876434326172,123253400.0
2019-08-02,,,,,,
2019-09-01,22.110000610351562,27.309999465942383,21.549999237060547,22.459999084472656,22.19085693359375,123521700.0
2019-10-01,22.649999618530273,22.809999465942383,19.010000228881836,19.260000228881836,19.029205322265625,130865800.0
2019-11-01,19.350000381469727,21.889999389648438,19.15999984741211,20.760000228881836,20.51123046875,118042900.0
2019-11-01,,,,,,
2019-12-01,21.040000915527344,25.079999923706055,19.899999618530273,24.84000015258789,24.696208953857422,88587300.0
2020-01-01,24.790000915527344,24.989999771118164,19.65999984741211,19.770000457763672,19.65555763244629,113755400.0
2020-02-01,19.81999969482422,21.399999618530273,14.289999961853027,15.829999923706055,15.738365173339844,150944700.0
2020-02-07,,,,,,
2020-03-01,16.100000381469727,16.100000381469727,2.7300000190734863,6.119999885559082,6.119999885559082,327637800.0
2020-03-26,6.0,6.730000019073486,5.849999904632568,6.380000114440918,6.380000114440918,6911355.0
