Date,Open,High,Low,Close,Adj Close,Volume
1980-03-01,0.0,0.5625,0.453125,0.5078125,0.1676255762577057,385600.0
1980-04-01,0.0,0.546875,0.4765625,0.53125,0.17536218464374542,705600.0
1980-05-01,0.0,0.609375,0.5234375,0.5703125,0.1882564276456833,620800.0
1980-06-01,0.0,0.6484375,0.5625,0.625,0.2063084989786148,644800.0
1980-07-01,0.0,0.75,0.625,0.6875,0.2269393652677536,1052800.0
1980-08-01,0.0,0.7265625,0.625,0.7265625,0.23983357846736908,1104000.0
1980-09-01,0.0,0.7890625,0.65625,0.65625,0.216623917222023,1270400.0
1980-10-01,0.0,0.7734375,0.65625,0.7578125,0.2501489520072937,1260800.0
1980-11-01,0.0,0.78125,0.7109375,0.7734375,0.25530683994293213,953600.0
1980-12-01,0.0,0.828125,0.71875,0.734375,0.24241237342357635,672000.0
1981-01-01,0.0,0.859375,0.75,0.8515625,0.28109532594680786,787200.0
1981-02-01,0.0,0.9453125,0.8046875,0.84375,0.27851641178131104,1153600.0
1981-03-01,0.0,0.96875,0.8125,0.953125,0.31462034583091736,665600.0
1981-04-01,0.0,1.078125,0.9453125,1.03125,0.34040889143943787,1035200.0
1981-05-01,0.0,1.09375,0.9296875,1.078125,0.3558821678161621,1459200.0
1981-06-01,0.0,1.1875,1.0625,1.1171875,0.3687763810157776,932800.0
1981-07-01,0.0,1.109375,1.0625,1.0703125,0.35330331325531006,641600.0
1981-08-01,0.0,1.09375,0.9609375,0.9609375,0.31719931960105896,726400.0
1981-09-01,0.0,1.0,0.890625,0.90625,0.29914724826812744,881600.0
1981-10-01,0.0,1.1015625,0.890625,1.0625,0.35072436928749084,684800.0
1981-11-01,0.0,1.046875,0.9453125,0.9609375,0.31719931960105896,593600.0
1981-12-01,0.0,1.0234375,0.875,0.90625,0.29914724826812744,512000.0
1982-01-01,0.0,0.9765625,0.890625,0.96875,0.3197784125804901,494400.0
1982-02-01,0.0,1.0,0.890625,0.9375,0.3094627261161804,353600.0
1982-03-01,0.9375,0.9609375,0.796875,0.9609375,0.31719931960105896,720000.0
1982-04-01,0.0,0.9921875,0.9375,0.9375,0.3094627261161804,464000.0
1982-05-01,0.0,0.96875,0.84375,0.9140625,0.3017260730266571,680000.0
1982-06-01,0.0,0.90625,0.7890625,0.828125,0.2733587324619293,454400.0
1982-07-01,0.0,0.859375,0.8203125,0.828125,0.2733587324619293,462400.0
1982-08-01,0.0,0.953125,0.8125,0.9375,0.3094627261161804,464000.0
1982-09-01,0.0,1.09375,0.9453125,1.03125,0.34040889143943787,1640000.0
1982-10-01,0.0,1.53125,1.015625,1.46875,0.4848247468471527,3545600.0
1982-11-01,0.0,1.875,1.4609375,1.859375,0.6137677431106567,6337600.0
1982-12-01,0.0,1.96875,1.734375,1.921875,0.6343986392021179,2667200.0
1983-01-01,0.0,2.125,1.84375,1.875,0.6189254522323608,2033600.0
1983-02-01,0.0,2.203125,1.8828125,2.1875,0.722079873085022,1595200.0
1983-03-01,0.0,2.609375,2.09375,2.546875,0.8407069444656372,1388800.0
1983-03-21,,,,,,
1983-04-01,0.0,2.578125,2.40625,2.515625,0.8303917646408081,2048800.0
1983-05-01,0.0,2.90625,2.40625,2.8125,0.9283887147903442,2278400.0
1983-06-01,0.0,2.796875,2.46875,2.5,0.8252339959144592,1012000.0
1983-07-01,0.0,2.546875,2.21875,2.21875,0.7323952913284302,1754400.0
1983-08-01,0.0,2.40625,2.09375,2.328125,0.7684992551803589,1663200.0
1983-09-01,0.0,2.328125,2.171875,2.25,0.7427109479904175,1530400.0
1983-10-01,0.0,2.234375,1.875,1.875,0.6189254522323608,1270400.0
1983-11-01,0.0,1.96875,1.65625,1.90625,0.6292406916618347,5068800.0
1983-12-01,0.0,1.9375,1.828125,1.921875,0.6343986392021179,1110400.0
1984-01-01,0.0,2.140625,1.875,1.875,0.6189254522323608,3639200.0
1984-02-01,0.0,1.953125,1.8125,1.9375,0.6395568251609802,850400.0
1984-03-01,0.0,1.984375,1.75,1.8125,0.5982944965362549,2450400.0
1984-04-01,0.0,1.9375,1.765625,1.90625,0.6292406916618347,894400.0
1984-05-01,0.0,2.09375,1.796875,1.796875,0.5931366682052612,1491200.0
1984-06-01,0.0,1.875,1.734375,1.875,0.6189254522323608,1325600.0
1984-07-01,2.80856990814209,2.855370044708252,1.734375,2.387279987335205,0.7880256772041321,6510400.0
1984-08-01,0.0,2.203125,1.875,2.171875,0.7169220447540283,2588000.0
1984-09-01,0.0,2.203125,1.75,1.765625,0.5828217267990112,1678400.0
1984-10-01,0.0,1.765625,1.65625,1.703125,0.5621906518936157,2564000.0
1984-11-01,0.0,1.9375,1.703125,1.90625,0.6292406916618347,1835200.0
1984-12-01,0.0,1.984375,1.859375,1.953125,0.6447144746780396,660000.0
1985-01-01,0.0,2.359375,1.890625,2.328125,0.7684992551803589,2057600.0
1985-02-01,0.0,2.359375,2.15625,2.25,0.7427109479904175,1034400.0
1985-03-01,0.0,2.375,2.0625,2.0625,0.6808177828788757,1608800.0
1985-04-01,0.0,2.09375,1.921875,2.0,0.6601870656013489,1008000.0
1985-05-01,0.0,2.03125,1.90625,2.015625,0.6653448343276978,1229600.0
1985-06-01,0.0,2.03125,1.890625,2.03125,0.6705023050308228,1388800.0
1985-07-01,0.0,2.328125,2.046875,2.15625,0.7117643356323242,1032800.0
1985-08-01,0.0,2.125,1.953125,2.109375,0.6962912082672119,1173600.0
1985-09-01,0.0,2.15625,2.03125,2.046875,0.6756599545478821,939200.0
1985-10-01,0.0,2.53125,2.046875,2.4375,0.8046031594276428,2227200.0
1985-11-01,0.0,2.8125,2.4375,2.78125,0.9180727601051331,2940000.0
1985-12-01,0.0,2.828125,2.640625,2.765625,0.9129148721694946,1764800.0
1986-01-01,0.0,3.375,2.625,3.375,1.1140656471252441,2472800.0
1986-02-01,0.0,3.71875,3.09375,3.640625,1.2017470598220825,3644000.0
1986-02-10,,,,,,
1986-03-01,0.0,3.75,3.5625,3.71875,1.2954100370407104,8092800.0
1986-04-01,0.0,4.140625,3.59375,3.96875,1.3824968338012695,5600800.0
1986-05-01,0.0,4.203125,3.875,4.125,1.4369250535964966,3492000.0
1986-05-20,,,,,,
1986-06-01,0.0,4.59375,4.015625,4.1875,1.5228923559188843,3293600.0
1986-07-01,0.0,4.4375,3.09375,3.34375,1.2160409688949585,9577600.0
1986-08-01,0.0,3.5625,3.109375,3.328125,1.2103581428527832,3422400.0
1986-08-11,,,,,,
1986-09-01,0.0,3.578125,3.0,3.109375,1.1924188137054443,3602400.0
1986-10-01,0.0,3.671875,3.125,3.421875,1.3122599124908447,2937600.0
1986-11-01,0.0,3.6875,3.25,3.515625,1.3482121229171753,3870400.0
1986-11-07,,,,,,
1986-12-01,0.0,3.625,3.21875,3.375,1.3733106851577759,5069600.0
1987-01-01,0.0,3.875,3.390625,3.703125,1.5068273544311523,4388800.0
1987-02-01,0.0,4.515625,3.71875,4.515625,1.8374398946762085,3572000.0
1987-02-17,,,,,,
1987-03-01,0.0,4.59375,4.296875,4.5625,1.8686819076538086,3055200.0
1987-04-01,0.0,4.96875,4.09375,4.28125,1.7534880638122559,2941600.0
1987-05-01,0.0,4.359375,3.9375,4.265625,1.747090220451355,3157600.0
1987-05-11,,,,,,
1987-06-01,0.0,4.6875,4.21875,4.5,1.8543702363967896,3891200.0
1987-07-01,4.5,4.875,4.46875,4.84375,1.9960235357284546,6104800.0
1987-08-01,4.828125,5.375,4.703125,5.1875,2.137676477432251,4982400.0
1987-08-11,,,,,,
1987-09-01,5.15625,5.171875,4.796875,5.046875,2.0912463665008545,1607200.0
1987-10-01,5.0625,5.125,3.0625,3.40625,1.4114303588867188,3794400.0
1987-11-01,3.4375,3.5,2.640625,2.765625,1.1459771394729614,3374400.0
1987-11-06,,,,,,
1987-12-01,2.796875,3.59375,2.71875,3.515625,1.4683324098587036,4636000.0
1988-01-01,3.53125,4.046875,3.4375,4.046875,1.6902129650115967,3358400.0
1988-02-01,4.0625,4.9375,4.015625,4.921875,2.0556652545928955,4736800.0
1988-02-12,,,,,,
1988-03-01,4.921875,5.0625,4.671875,4.84375,2.0368924140930176,4873600.0
1988-04-01,4.875,5.125,4.75,4.75,1.99746835231781,5376800.0
1988-05-01,4.71875,4.75,4.46875,4.625,1.9449024200439453,3764800.0
1988-05-17,,,,,,
1988-06-01,4.625,5.53125,4.625,5.34375,2.262866258621216,3413600.0
1988-07-01,5.34375,5.84375,5.34375,5.375,2.2760982513427734,2304800.0
1988-08-01,5.34375,5.75,5.28125,5.46875,2.315798759460449,3460400.0
1988-08-09,,,,,,
1988-08-30,,,,,,
1988-09-01,5.5,6.125,5.46875,6.125,2.6108624935150146,2185200.0
1988-10-01,6.09375,7.40625,6.0,6.875,2.930560350418091,5029200.0
1988-11-01,6.84375,7.0,6.5625,6.78125,2.890597105026245,2904800.0
1988-11-08,,,,,,
1988-12-01,6.75,7.375,6.625,7.0625,3.027379274368286,3535600.0
1989-01-01,7.0625,7.53125,6.375,7.5,3.2149174213409424,9378400.0
1989-02-01,7.625,7.6875,7.21875,7.59375,3.255103588104248,4291600.0
1989-02-21,,,,,,
1989-03-01,7.53125,8.5625,7.5,8.5,3.6666979789733887,3751600.0
1989-04-01,8.5,9.1875,7.96875,9.1875,3.963270425796509,6264400.0
1989-05-01,9.15625,9.84375,9.125,9.84375,4.2463603019714355,5426800.0
1989-05-16,,,,,,
1989-06-01,9.78125,10.21875,9.28125,9.5625,4.146114826202393,4649200.0
1989-07-01,9.5625,11.09375,9.5,10.875,4.715187072753906,3608400.0
1989-08-01,10.84375,11.625,10.5625,11.0,4.76938533782959,5147200.0
1989-08-09,,,,,,
1989-09-01,10.96875,11.375,10.3125,11.375,4.956904888153076,4027600.0
1989-10-01,11.53125,12.625,11.1875,11.84375,5.161171913146973,5127600.0
1989-11-01,11.78125,11.8125,10.1875,10.75,4.684545993804932,6818400.0
1989-11-09,,,,,,
1989-12-01,10.71875,11.4375,9.125,11.0625,4.848917484283447,5764400.0
1989-12-04,,,,,,
1990-01-01,11.0625,12.0,9.875,11.625,5.0954718589782715,4602200.0
1990-02-01,11.625,12.625,11.1875,11.375,4.985891342163086,2832200.0
1990-02-20,,,,,,
1990-03-01,11.3125,13.25,11.3125,12.3125,5.424215316772461,3692200.0
1990-04-01,12.1875,13.5,11.6875,13.0,5.727085590362549,4959000.0
1990-05-01,13.0625,14.9375,12.9375,14.625,6.4429731369018555,5747000.0
1990-05-15,,,,,,
1990-06-01,14.875,16.0,14.5,16.0,7.079104423522949,4494600.0
1990-07-01,16.125,17.75,14.1875,14.9375,6.609010696411133,7272600.0
1990-08-01,14.9375,14.9375,10.25,13.0,5.751770973205566,8157800.0
1990-08-09,,,,,,
1990-09-01,13.0,13.25,8.875,9.25,4.11228609085083,4222800.0
1990-10-01,9.6875,10.6875,9.1875,10.3125,4.584640979766846,5182200.0
1990-11-01,10.375,12.375,10.25,12.0625,5.36264181137085,5403400.0
1990-11-08,,,,,,
1990-12-01,12.0625,13.4375,12.0625,12.375,5.533933639526367,4726200.0
1991-01-01,12.4375,15.0625,11.5,14.9375,6.679843902587891,5340400.0
1991-02-01,14.8125,15.375,13.75,14.25,6.372406959533691,6198800.0
1991-02-19,,,,,,
1991-03-01,14.125,16.25,14.0,16.0,7.190785884857178,3691400.0
1991-04-01,16.0,17.0625,14.3125,15.4375,6.937985897064209,5851000.0
1991-05-01,15.5,18.125,15.3125,17.6875,7.949188709259033,4433600.0
1991-05-15,,,,,,
1991-06-01,17.5625,17.625,16.4375,16.75,7.563587188720703,4629000.0
1991-07-01,16.8125,18.875,16.5625,18.75,8.466700553894043,4461200.0
1991-08-01,18.75,20.8125,18.125,20.6875,9.341591835021973,4811800.0
1991-08-09,,,,,,
1991-09-01,20.8125,21.8125,20.0,21.8125,9.888118743896484,4080400.0
1991-10-01,22.0,22.8125,19.75,21.8125,9.888118743896484,4584400.0
1991-11-01,21.875,22.4375,19.125,19.875,9.009804725646973,6436400.0
1991-11-08,,,,,,
1991-12-01,19.8125,22.875,19.75,22.875,10.404754638671875,7163000.0
1992-01-01,22.8125,26.5,22.5,24.4375,11.115455627441406,11505600.0
1992-02-01,24.4375,25.125,23.375,23.9375,10.888029098510742,6252200.0
1992-02-14,,,,,,
1992-03-01,23.5,23.875,21.6875,22.5625,10.294042587280273,8496400.0
1992-04-01,22.25,23.8125,20.125,20.75,9.467095375061035,10694000.0
1992-05-01,20.75,21.8125,17.875,18.5625,8.469058990478516,10998600.0
1992-05-19,,,,,,
1992-06-01,18.5,18.8125,16.875,17.875,8.185524940490723,11464000.0
1992-07-01,17.9375,20.1875,16.5,19.9375,9.130008697509766,11784800.0
1992-08-01,19.9375,20.625,19.5625,19.8125,9.07276439666748,6466800.0
1992-08-10,,,,,,
1992-09-01,19.875,21.1875,17.375,18.25,8.388808250427246,9571000.0
1992-10-01,18.25,20.8125,17.5,20.8125,9.566685676574707,7447200.0
1992-11-01,20.8125,21.8125,20.1875,21.625,9.940154075622559,4986000.0
1992-11-09,,,,,,
1992-12-01,21.625,21.625,19.25,20.375,9.399869918823242,6599800.0
1993-01-01,20.375,21.5,19.125,19.25,8.880854606628418,7173400.0
1993-02-01,19.5625,19.75,16.375,18.375,8.477178573608398,14201200.0
1993-02-16,,,,,,
1993-03-01,18.3125,19.625,17.0625,19.5,9.033060073852539,10569200.0
1993-04-01,19.5625,20.0,18.3125,19.4375,9.004105567932129,7434400.0
1993-05-01,19.5,19.75,18.4375,18.8125,8.71458625793457,6742400.0
1993-05-18,,,,,,
1993-06-01,18.875,19.1875,16.25,16.625,7.738284111022949,12570600.0
1993-07-01,16.5625,16.8125,15.375,16.25,7.563737869262695,8813200.0
1993-08-01,16.25,18.4375,16.1875,18.3125,8.523748397827148,9307800.0
1993-08-10,,,,,,
1993-09-01,18.3125,18.625,16.75,17.5625,8.216915130615234,6581200.0
1993-10-01,17.625,20.5,17.5,20.375,9.53278923034668,10944000.0
1993-11-01,20.25,20.75,19.0625,20.125,9.415822982788086,5968400.0
1993-11-16,,,,,,
1993-12-01,20.125,21.125,19.8125,20.1875,9.488030433654785,4988000.0
1994-01-01,20.0625,21.875,20.0,20.9375,9.840523719787598,8232400.0
1994-02-01,21.0,21.1875,19.5,20.125,9.458653450012207,6701400.0
1994-02-14,,,,,,
1994-03-01,20.0625,21.125,18.8125,19.625,9.265613555908203,5426800.0
1994-04-01,19.4375,20.875,19.0,19.5625,9.236100196838379,4960000.0
1994-05-01,19.6875,23.1875,19.25,22.6875,10.711511611938477,9355400.0
1994-05-16,,,,,,
1994-06-01,22.625,23.3125,21.5,23.125,10.972774505615234,9759400.0
1994-07-01,23.125,23.5,22.0,22.3125,10.587241172790527,7242000.0
1994-08-01,22.4375,23.8125,22.1875,23.8125,11.298995971679688,9719600.0
1994-08-09,,,,,,
1994-09-01,23.625,23.875,21.125,22.25,10.603813171386719,5600300.0
1994-09-02,,,,,,
1994-10-01,22.375,22.5,20.375,21.0,10.00809097290039,7053900.0
1994-11-01,21.0,22.0,20.5,21.5,10.246387481689453,7274900.0
1994-11-15,,,,,,
1994-12-01,21.5,22.25,20.375,21.0,10.053791999816895,6019800.0
1995-01-01,20.75,22.625,20.25,22.5,10.771918296813965,5488600.0
1995-02-01,22.25,24.5,22.25,23.875,11.430204391479492,5971100.0
1995-02-13,,,,,,
1995-02-14,,,,,,
1995-03-01,23.875,25.875,23.5,25.5,12.31330680847168,4975300.0
1995-04-01,25.5,25.5,22.875,23.625,11.407913208007812,4566600.0
1995-05-01,23.375,25.125,22.625,24.875,12.011510848999023,7266200.0
1995-05-15,,,,,,
1995-06-01,24.625,24.75,22.125,24.375,11.829216003417969,10788100.0
1995-07-01,24.125,25.625,23.25,25.375,12.3145170211792,6531700.0
1995-08-01,26.0,26.375,24.875,25.0,12.132525444030762,6410700.0
1995-08-14,,,,,,
1995-09-01,25.125,25.5,23.375,24.75,12.0674409866333,9362000.0
1995-10-01,24.75,26.25,23.75,24.125,11.762707710266113,6771200.0
1995-11-01,24.25,26.375,23.375,26.375,12.859750747680664,6849600.0
1995-11-09,,,,,,
1995-11-16,,,,,,
1995-12-01,26.25,27.25,25.0,25.875,12.743407249450684,3518800.0
1996-01-01,25.875,27.375,25.375,26.375,12.989657402038574,3988000.0
1996-02-01,26.375,28.875,25.5,27.75,13.666839599609375,8131900.0
1996-02-15,,,,,,
1996-02-26,,,,,,
1996-03-01,28.0,29.125,26.25,26.75,13.29939079284668,7639000.0
1996-04-01,27.0,28.75,25.0,28.5,14.16943073272705,7495400.0
1996-05-01,28.375,31.625,28.0,30.0,14.915192604064941,10759300.0
1996-05-15,,,,,,
1996-06-01,29.875,32.25,29.625,30.625,15.297623634338379,7396200.0
1996-07-01,31.0,32.375,28.0,32.0,15.984448432922363,9040000.0
1996-08-01,32.125,32.5,30.625,31.125,15.54737377166748,6199300.0
1996-08-06,,,,,,
1996-09-01,31.25,31.625,29.75,30.0,15.051276206970215,8708900.0
1996-10-01,30.0,31.125,28.125,28.375,14.235994338989258,9195700.0
1996-11-01,28.5,32.0,28.5,31.0,15.552980422973633,8090100.0
1996-11-05,,,,,,
1996-11-18,,,,,,
1996-12-01,31.0,33.75,30.125,31.5,15.955900192260742,6524300.0
1997-01-01,31.5,34.375,30.125,33.0,16.71570587158203,6716300.0
1997-02-01,33.0,38.625,32.875,37.125,18.80516242980957,8911900.0
1997-02-19,,,,,,
1997-03-01,36.875,38.0,33.5,33.5,17.043432235717773,4874800.0
1997-04-01,34.125,36.0,32.125,35.125,17.870162963867188,7504900.0
1997-05-01,34.875,38.25,34.0,38.25,19.460033416748047,7491600.0
1997-05-19,,,,,,
1997-06-01,38.25,40.75,36.5,39.75,20.311609268188477,9230700.0
1997-07-01,39.875,43.5625,39.0,42.125,21.525196075439453,5719100.0
1997-08-01,41.9375,43.8125,38.6875,39.5,20.183866500854492,5218000.0
1997-08-18,,,,,,
1997-09-01,39.625,40.625,36.875,40.0,20.52130889892578,9647300.0
1997-10-01,39.75,42.1875,32.75,38.375,19.687631607055664,7606600.0
1997-11-01,38.375,40.875,38.25,40.8125,20.938146591186523,5926400.0
1997-11-17,,,,,,
1997-12-01,41.0,43.75,40.0625,42.5,21.89342498779297,8393700.0
1998-01-01,42.375,43.125,39.875,41.0625,21.152915954589844,7905600.0
1998-02-01,41.6875,46.375,41.6875,45.875,23.63201332092285,5397200.0
1998-02-18,,,,,,
1998-03-01,45.875,50.375,44.4375,48.4375,25.0560359954834,10988900.0
1998-04-01,48.5,49.9375,45.1875,48.3125,24.99138832092285,11289600.0
1998-05-01,48.3125,48.6875,45.0625,48.25,24.959049224853516,6381200.0
1998-05-20,,,,,,
1998-06-01,48.25,50.0,46.375,49.8125,25.86744499206543,6570700.0
1998-07-01,49.9375,55.1875,48.6875,51.5,26.743757247924805,9403900.0
1998-08-01,50.875,51.75,46.875,47.75,24.79639434814453,8166300.0
1998-08-12,,,,,,
1998-09-01,47.375,48.4375,42.625,46.0625,24.65915870666504,11518800.0
1998-10-01,44.875,50.125,40.75,44.125,23.621923446655273,37266900.0
1998-11-01,44.375,46.875,43.625,44.25,23.688844680786133,22029800.0
1998-11-10,,,,,,
1998-12-01,44.25,45.1875,35.6875,41.25,22.169803619384766,30188700.0
1999-01-01,42.5,42.75,36.0625,41.5625,22.337759017944336,28176400.0
1999-02-01,43.0,47.625,40.375,42.5,22.841609954833984,23049000.0
1999-02-17,,,,,,
1999-03-01,42.5,50.625,42.0,47.5,25.642671585083008,21178000.0
1999-04-01,47.25,52.0,45.625,47.4375,25.608932495117188,17137300.0
1999-05-01,47.1875,48.4375,39.9375,40.5,21.863754272460938,22443100.0
1999-05-19,,,,,,
1999-06-01,39.375,46.75,38.5,46.375,25.146656036376953,29696600.0
1999-07-01,46.375,47.75,40.625,43.25,23.452138900756836,18618900.0
1999-08-01,43.25,43.5,40.0625,41.0,22.232078552246094,17472200.0
1999-08-18,,,,,,
1999-09-01,41.0,42.375,27.0,28.5625,15.562673568725586,48804800.0
1999-10-01,28.0,35.0,25.25,34.625,18.86591339111328,31219500.0
1999-11-01,34.6875,37.0625,29.0,32.8125,17.878347396850586,27079700.0
1999-11-10,,,,,,
1999-12-01,32.375,34.0,28.0,29.0,15.90042495727539,19615500.0
2000-01-01,29.0,31.75,27.375,29.9375,16.414451599121094,26347000.0
2000-02-01,29.75,31.875,21.0,23.25,12.747757911682129,56146900.0
2000-02-16,,,,,,
2000-03-01,23.125,25.5,21.125,24.8125,13.708439826965332,27260200.0
2000-04-01,25.25,28.0,24.75,25.1875,13.915613174438477,19944500.0
2000-05-01,25.0,28.5,24.25,26.25,14.502626419067383,19507900.0
2000-05-18,,,,,,
2000-06-01,26.25,27.375,23.75,25.75,14.335598945617676,23559300.0
2000-07-01,25.9375,29.0625,25.75,26.9375,14.996712684631348,20880700.0
2000-08-01,26.875,27.125,24.625,25.953125,14.44869327545166,25993800.0
2000-08-17,,,,,,
2000-09-01,25.8125,26.6875,21.375,22.8125,12.80466365814209,25532600.0
2000-10-01,22.8125,23.4375,18.25,19.1875,10.769947052001953,38678200.0
2000-11-01,18.5,20.0625,18.5,19.4375,10.9102783203125,22451500.0
2000-11-17,,,,,,
2000-12-01,19.5,23.1875,19.3125,22.75,12.907707214355469,28480200.0
2001-01-01,22.8125,27.3125,22.6875,27.200000762939453,15.432498931884766,25971000.0
2001-02-01,27.299999237060547,28.600000381469727,25.1200008392334,26.309999465942383,14.927549362182617,19338400.0
2001-02-15,,,,,,
2001-03-01,26.200000762939453,29.5,25.479999542236328,26.5,15.154219627380371,22864200.0
2001-04-01,26.510000228881836,27.600000381469727,25.040000915527344,26.959999084472656,15.417281150817871,14567700.0
2001-05-01,27.200000762939453,27.489999771118164,23.5,25.270000457763672,14.450841903686523,26217500.0
2001-05-17,,,,,,
2001-06-01,25.0,26.59000015258789,23.8700008392334,25.100000381469727,14.469149589538574,20760800.0
2001-07-01,25.100000381469727,25.489999771118164,21.600000381469727,21.68000030517578,12.49766731262207,23692200.0
2001-08-01,21.950000762939453,24.350000381469727,21.649999618530273,22.899999618530273,13.200942039489746,17963600.0
2001-08-23,,,,,,
2001-09-01,23.06999969482422,23.950000762939453,20.5,22.709999084472656,13.207216262817383,22223700.0
2001-10-01,22.709999084472656,28.049999237060547,22.479999542236328,27.639999389648438,16.074316024780273,18019100.0
2001-11-01,27.75,28.229999542236328,24.600000381469727,25.649999618530273,14.917011260986328,19893300.0
2001-11-14,,,,,,
2001-12-01,25.549999237060547,28.3700008392334,25.200000762939453,27.56999969482422,16.15985107421875,23803300.0
2002-01-01,27.520000457763672,27.790000915527344,26.690000534057617,27.610000610351562,16.18329429626465,28253500.0
2002-02-01,27.5,31.440000534057617,26.110000610351562,31.1299991607666,18.24651336669922,30733300.0
2002-02-15,,,,,,
2002-03-01,31.200000762939453,34.400001525878906,31.139999389648438,31.959999084472656,18.87255096435547,30395400.0
2002-04-01,31.959999084472656,32.849998474121094,30.100000381469727,31.399999618530273,18.541872024536133,39618700.0
2002-05-01,31.5,36.70000076293945,31.25,34.150001525878906,20.16575813293457,31666300.0
2002-05-21,,,,,,
2002-06-01,34.150001525878906,35.09000015258789,31.559999465942383,35.060001373291016,20.827835083007812,30944800.0
2002-07-01,34.900001525878906,35.5,26.75,30.079999923706055,17.869401931762695,39517200.0
2002-08-01,30.350000381469727,36.0,30.350000381469727,34.599998474121094,20.554567337036133,36352300.0
2002-08-16,,,,,,
2002-09-01,34.349998474121094,35.97999954223633,30.479999542236328,30.8700008392334,18.446765899658203,34266500.0
2002-10-01,31.100000381469727,34.79999923706055,28.469999313354492,32.41999816894531,19.37299346923828,36747500.0
2002-11-01,32.43000030517578,32.849998474121094,29.469999313354492,31.719999313354492,18.95470428466797,22545600.0
2002-11-18,,,,,,
2002-12-01,32.20000076293945,32.20000076293945,29.68000030517578,30.329999923706055,18.247825622558594,22100800.0
2003-01-01,30.75,32.0,26.649999618530273,27.850000381469727,16.75574493408203,48489800.0
2003-02-01,28.149999618530273,29.809999465942383,27.65999984741211,28.200000762939453,16.966318130493164,29392700.0
2003-02-18,,,,,,
2003-03-01,28.450000762939453,29.8700008392334,24.739999771118164,28.350000381469727,17.17856788635254,48075200.0
2003-04-01,28.260000228881836,31.34000015258789,27.959999084472656,30.479999542236328,18.469236373901367,34527500.0
2003-05-01,30.3799991607666,30.3799991607666,27.440000534057617,28.5,17.26946258544922,50419100.0
2003-05-19,,,,,,
2003-06-01,29.0,29.510000228881836,27.549999237060547,28.0,17.093597412109375,61634600.0
2003-07-01,27.8799991607666,29.450000762939453,23.389999389648438,23.6299991607666,14.425774574279785,52673900.0
2003-08-01,23.649999618530273,24.270000457763672,22.25,23.75,14.499031066894531,91522900.0
2003-08-18,,,,,,
2003-09-01,23.950000762939453,24.860000610351562,21.170000076293945,21.670000076293945,13.353028297424316,68621600.0
2003-10-01,22.0,24.229999542236328,21.770000457763672,22.799999237060547,14.04932975769043,48844400.0
2003-11-01,23.020000457763672,23.1200008392334,22.170000076293945,22.8700008392334,14.092466354370117,31880200.0
2003-11-18,,,,,,
2003-12-01,23.049999237060547,23.850000381469727,20.270000457763672,22.770000457763672,14.161561012268066,65312700.0
2004-01-01,22.459999084472656,24.700000762939453,22.440000534057617,24.43000030517578,15.193990707397461,43334300.0
2004-02-01,24.3799991607666,26.40999984741211,24.010000228881836,25.59000015258789,15.915443420410156,31001800.0
2004-02-19,,,,,,
2004-03-01,25.579999923706055,26.0,22.149999618530273,23.200000762939453,14.546263694763184,41590600.0
2004-04-01,23.31999969482422,25.030000686645508,23.219999313354492,23.639999389648438,14.822147369384766,28386200.0
2004-05-01,23.829999923706055,23.899999618530273,22.190000534057617,23.56999969482422,14.7782564163208,27120000.0
2004-05-26,,,,,,
2004-06-01,23.5,23.90999984741211,22.84000015258789,23.5,14.868368148803711,16731000.0
2004-07-01,23.5,23.600000381469727,21.149999618530273,21.600000381469727,13.666248321533203,21686300.0
2004-08-01,21.610000610351562,21.950000762939453,20.520000457763672,21.530000686645508,13.621960639953613,18925500.0
2004-08-12,,,,,,
2004-09-01,21.530000686645508,22.290000915527344,19.75,20.040000915527344,12.804896354675293,31584400.0
2004-10-01,20.040000915527344,21.559999465942383,19.049999237060547,21.559999465942383,13.776131629943848,48140900.0
2004-11-01,21.600000381469727,23.979999542236328,21.3700008392334,23.079999923706055,14.747356414794922,35440300.0
2004-11-12,,,,,,
2004-12-01,23.079999923706055,24.270000457763672,22.0,24.190000534057617,15.600296974182129,40443300.0
2005-01-01,24.299999237060547,24.549999237060547,21.399999618530273,21.520000457763672,13.878393173217773,32913400.0
2005-02-01,21.520000457763672,23.079999923706055,21.350000381469727,22.290000915527344,14.374968528747559,22958800.0
2005-02-17,,,,,,
2005-03-01,22.440000534057617,22.59000015258789,20.600000381469727,21.940000534057617,14.280094146728516,30564400.0
2005-04-01,22.020000457763672,22.610000610351562,20.5,21.729999542236328,14.143413543701172,33365300.0
2005-05-01,21.780000686645508,23.020000457763672,21.0,22.790000915527344,14.833332061767578,26701900.0
2005-05-25,,,,,,
2005-06-01,22.75,24.059999465942383,22.15999984741211,23.84000015258789,15.66086196899414,28326500.0
2005-07-01,23.84000015258789,25.520000457763672,23.200000762939453,24.8700008392334,16.33748435974121,30183900.0
2005-08-01,24.920000076293945,25.690000534057617,23.09000015258789,23.43000030517578,15.391531944274902,25855600.0
2005-08-18,,,,,,
2005-09-01,23.520000457763672,23.81999969482422,21.65999984741211,22.649999618530273,15.008894920349121,27499500.0
2005-10-01,22.899999618530273,23.940000534057617,21.540000915527344,22.989999771118164,15.234193801879883,45604000.0
2005-11-01,22.989999771118164,23.350000381469727,22.219999313354492,23.06999969482422,15.28720474243164,21306100.0
2005-11-17,,,,,,
2005-12-01,23.100000381469727,24.489999771118164,23.100000381469727,23.780000686645508,15.903141021728516,25137500.0
2006-01-01,24.360000610351562,24.579999923706055,23.25,23.639999389648438,15.809505462646484,31519800.0
2006-02-01,23.65999984741211,24.969999313354492,23.420000076293945,24.8700008392334,16.63208770751953,27593500.0
2006-02-17,,,,,,
2006-03-01,24.84000015258789,26.350000381469727,24.549999237060547,25.190000534057617,16.99294662475586,34419700.0
2006-04-01,25.3700008392334,27.799999237060547,24.59000015258789,27.420000076293945,18.497282028198242,32164600.0
2006-05-01,27.25,28.6299991607666,25.68000030517578,26.459999084472656,17.849672317504883,30532800.0
2006-05-26,,,,,,
2006-06-01,26.540000915527344,26.700000762939453,24.350000381469727,25.829999923706055,17.564619064331055,33137200.0
2006-07-01,25.899999618530273,27.40999984741211,24.040000915527344,26.360000610351562,17.92501449584961,33375100.0
2006-08-01,26.299999237060547,27.0,25.579999923706055,26.989999771118164,18.353422164916992,21467300.0
2006-08-29,,,,,,
2006-09-01,26.989999771118164,29.25,26.5,28.31999969482422,19.410442352294922,30168400.0
2006-10-01,28.469999313354492,29.979999542236328,27.75,28.780000686645508,19.72572898864746,28558100.0
2006-11-01,28.950000762939453,29.25,27.90999984741211,28.489999771118164,19.526960372924805,29699300.0
2006-11-28,,,,,,
2006-12-01,28.489999771118164,29.5,28.309999465942383,28.950000762939453,19.988758087158203,19951600.0
2007-01-01,29.049999237060547,30.649999618530273,28.65999984741211,29.540000915527344,20.396129608154297,31273900.0
2007-02-01,29.670000076293945,31.950000762939453,29.540000915527344,30.610000610351562,21.134916305541992,32250900.0
2007-02-26,,,,,,
2007-03-01,30.1200008392334,32.0,29.889999389648438,31.09000015258789,21.609312057495117,35157400.0
2007-04-01,31.299999237060547,31.649999618530273,30.149999618530273,30.670000076293945,21.317386627197266,29667600.0
2007-05-01,30.1299991607666,32.099998474121094,29.610000610351562,31.760000228881836,22.074995040893555,33336500.0
2007-05-29,,,,,,
2007-06-01,32.04999923706055,32.189998626708984,28.799999237060547,29.43000030517578,20.593154907226562,37276600.0
2007-07-01,29.600000381469727,29.8799991607666,26.190000534057617,26.450000762939453,18.50794792175293,51180300.0
2007-08-01,26.34000015258789,27.670000076293945,24.219999313354492,25.790000915527344,18.046127319335938,59439900.0
2007-08-29,,,,,,
2007-09-01,25.81999969482422,29.399999618530273,24.8799991607666,28.81999969482422,20.332387924194336,39586700.0
2007-10-01,28.850000381469727,29.5,27.31999969482422,29.15999984741211,20.572261810302734,33385400.0
2007-11-01,29.030000686645508,29.110000610351562,25.920000076293945,26.780000686645508,18.8931827545166,40577000.0
2007-11-28,,,,,,
2007-12-01,26.530000686645508,27.280000686645508,24.690000534057617,25.8799991607666,18.40530776977539,33836000.0
2008-01-01,25.90999984741211,25.940000534057617,22.079999923706055,24.059999465942383,17.110958099365234,61083900.0
2008-02-01,23.510000228881836,24.15999984741211,22.170000076293945,22.700000762939453,16.143760681152344,44402800.0
2008-02-27,,,,,,
2008-03-01,22.709999084472656,23.579999923706055,21.239999771118164,22.8700008392334,16.40793228149414,41851700.0
2008-04-01,23.079999923706055,24.079999923706055,20.209999084472656,20.530000686645508,14.72911262512207,43762500.0
2008-05-01,20.540000915527344,21.6299991607666,19.420000076293945,20.079999923706055,14.406265258789062,54743200.0
2008-05-28,,,,,,
2008-06-01,19.75,20.239999771118164,16.68000030517578,16.790000915527344,12.174346923828125,59297800.0
2008-07-01,16.6200008392334,17.760000228881836,14.890000343322754,16.530000686645508,11.985822677612305,80233100.0
2008-08-01,16.479999542236328,19.59000015258789,16.209999084472656,18.100000381469727,13.124221801757812,58631800.0
2008-08-27,,,,,,
2008-09-01,18.329999923706055,21.3799991607666,16.6299991607666,17.260000228881836,12.663290977478027,85331200.0
2008-10-01,17.040000915527344,17.59000015258789,11.800000190734863,13.75,10.088083267211914,95156000.0
2008-11-01,13.729999542236328,14.630000114440918,9.420000076293945,13.359999656677246,9.801947593688965,57904500.0
2008-11-25,,,,,,
2008-12-01,13.079999923706055,13.5,9.130000114440918,9.779999732971191,7.315415859222412,91727100.0
2009-01-01,9.800000190734863,10.949999809265137,8.0,8.079999923706055,6.043819427490234,81445200.0
2009-02-01,8.010000228881836,8.600000381469727,5.610000133514404,5.650000095367432,4.226185321807861,94641100.0
2009-02-25,,,,,,
2009-03-01,5.53000020980835,7.260000228881836,4.510000228881836,6.380000114440918,4.855530261993408,165469600.0
2009-04-01,6.269999980926514,11.149999618530273,6.21999979019165,10.449999809265137,7.953024387359619,146232200.0
2009-05-01,10.369999885559082,11.600000381469727,9.84000015258789,11.510000228881836,8.75974178314209,121665200.0
2009-05-27,,,,,,
2009-06-01,11.800000190734863,12.149999618530273,9.850000381469727,10.40999984741211,7.957510471343994,91796500.0
2009-07-01,10.510000228881836,13.25,9.789999961853027,12.869999885559082,9.83796215057373,105238300.0
2009-08-01,13.039999961853027,14.119999885559082,12.920000076293945,13.920000076293945,10.640596389770508,104619500.0
2009-08-27,,,,,,
2009-09-01,13.729999542236328,16.100000381469727,13.329999923706055,15.6899995803833,12.036835670471191,120181100.0
2009-10-01,15.569999694824219,15.729999542236328,13.65999984741211,14.510000228881836,11.131577491760254,106042100.0
2009-11-01,14.220000267028809,15.100000381469727,13.819999694824219,14.510000228881836,11.131577491760254,65266400.0
2009-11-25,,,,,,
2009-12-01,14.65999984741211,15.390000343322754,14.399999618530273,15.010000228881836,11.55440902709961,46836300.0
2010-01-01,15.119999885559082,15.869999885559082,13.210000038146973,13.569999694824219,10.445924758911133,86860600.0
2010-02-01,13.8100004196167,14.479999542236328,13.109999656677246,13.75,10.58448600769043,87678700.0
2010-02-24,,,,,,
2010-03-01,13.770000457763672,15.880000114440918,13.680000305175781,15.199999809265137,11.743494033813477,90656500.0
2010-04-01,15.34000015258789,17.959999084472656,15.239999771118164,17.06999969482422,13.188257217407227,103457300.0
2010-05-01,17.190000534057617,17.770000457763672,15.119999885559082,16.65999984741211,12.871492385864258,115523300.0
2010-05-26,,,,,,
2010-06-01,16.549999237060547,17.5,14.550000190734863,14.640000343322754,11.34614372253418,115117100.0
2010-07-01,14.699999809265137,16.059999465942383,14.140000343322754,15.5,12.012651443481445,75312600.0
2010-08-01,15.760000228881836,16.850000381469727,14.859999656677246,15.010000228881836,11.632894515991211,95270600.0
2010-08-27,,,,,,
2010-09-01,15.210000038146973,18.170000076293945,15.199999809265137,17.809999465942383,13.848594665527344,75810600.0
2010-10-01,17.969999313354492,18.479999542236328,17.190000534057617,17.649999618530273,13.724186897277832,77942700.0
2010-11-01,17.719999313354492,18.139999389648438,16.709999084472656,16.770000457763672,13.039924621582031,81225200.0
2010-11-26,,,,,,
2010-12-01,16.989999771118164,18.40999984741211,16.950000762939453,18.18000030517578,14.177562713623047,62256100.0
2011-01-01,18.270000457763672,19.739999771118164,17.56999969482422,19.25,15.012002944946289,83031000.0
2011-02-01,19.40999984741211,20.3799991607666,18.979999542236328,19.34000015258789,15.082183837890625,47879200.0
2011-02-24,,,,,,
2011-03-01,19.420000076293945,19.690000534057617,18.540000915527344,19.1299991607666,14.956653594970703,64334000.0
2011-04-01,19.239999771118164,19.809999465942383,18.540000915527344,19.059999465942383,14.901918411254883,55399900.0
2011-05-01,19.100000381469727,19.1299991607666,17.190000534057617,17.809999465942383,13.924620628356934,67064200.0
2011-05-26,,,,,,
2011-06-01,17.739999771118164,17.860000610351562,14.140000343322754,15.779999732971191,12.39416790008545,126474900.0
2011-07-01,15.850000381469727,16.270000457763672,14.229999542236328,15.520000457763672,12.189955711364746,71219900.0
2011-08-01,15.550000190734863,15.789999961853027,11.5,13.84000015258789,10.870420455932617,135743400.0
2011-08-29,,,,,,
2011-09-01,13.779999732971191,14.029999732971191,11.3100004196167,11.869999885559082,9.378860473632812,79390100.0
2011-10-01,11.720000267028809,15.979999542236328,10.869999885559082,14.800000190734863,11.693943977355957,93057300.0
2011-11-01,14.399999618530273,16.530000686645508,14.220000267028809,15.300000190734863,12.089010238647461,86988000.0
2011-11-28,,,,,,
2011-12-01,15.210000038146973,16.469999313354492,14.640000343322754,16.149999618530273,12.832663536071777,44992500.0
2012-01-01,16.479999542236328,18.950000762939453,15.930000305175781,18.469999313354492,14.676118850708008,71539600.0
2012-02-01,18.829999923706055,19.489999771118164,18.09000015258789,18.299999237060547,14.541036605834961,56813700.0
2012-02-27,,,,,,
2012-03-01,18.40999984741211,19.049999237060547,17.190000534057617,17.809999465942383,14.213556289672852,53139600.0
2012-04-01,17.81999969482422,18.959999084472656,16.6299991607666,18.200000762939453,14.524802207946777,55439500.0
2012-05-01,18.200000762939453,19.1200008392334,17.450000762939453,18.399999618530273,14.684412956237793,81222300.0
2012-05-29,,,,,,
2012-06-01,18.100000381469727,18.780000686645508,17.139999389648438,18.139999389648438,14.553754806518555,57261100.0
2012-07-01,18.229999542236328,18.719999313354492,17.209999084472656,17.649999618530273,14.160629272460938,57987100.0
2012-08-01,17.739999771118164,18.030000686645508,16.670000076293945,17.93000030517578,14.385270118713379,64583200.0
2012-08-29,,,,,,
2012-09-01,17.899999618530273,19.739999771118164,17.610000610351562,19.09000015258789,15.404677391052246,57168700.0
2012-10-01,19.079999923706055,21.229999542236328,18.799999237060547,20.639999389648438,16.655452728271484,63337700.0
2012-11-01,20.84000015258789,22.0,19.93000030517578,21.809999465942383,17.599584579467773,63245000.0
2012-11-28,,,,,,
2012-12-01,21.860000610351562,22.489999771118164,21.489999771118164,22.270000457763672,18.09787940979004,58042900.0
2013-01-01,22.6299991607666,23.709999084472656,21.719999313354492,23.479999542236328,19.081192016601562,57070200.0
2013-02-01,23.049999237060547,24.510000228881836,22.239999771118164,23.34000015258789,18.967418670654297,63586500.0
2013-02-26,,,,,,
2013-03-01,23.25,26.110000610351562,23.059999465942383,26.100000381469727,21.350568771362305,59211100.0
2013-04-01,26.149999618530273,26.959999084472656,24.899999618530273,26.34000015258789,21.546892166137695,55642900.0
2013-05-01,26.350000381469727,28.469999313354492,25.899999618530273,27.040000915527344,22.119518280029297,60534300.0
2013-05-29,,,,,,
2013-06-01,27.030000686645508,27.850000381469727,25.25,26.25,21.590784072875977,47227300.0
2013-07-01,26.239999771118164,27.969999313354492,25.889999389648438,27.020000457763672,22.224117279052734,34024900.0
2013-08-01,27.209999084472656,27.8799991607666,24.31999969482422,25.299999237060547,20.809404373168945,52005800.0
2013-08-28,,,,,,
2013-09-01,25.600000381469727,27.81999969482422,25.600000381469727,27.5,22.754365921020508,40168000.0
2013-10-01,27.520000457763672,30.440000534057617,26.290000915527344,29.6299991607666,24.516788482666016,43487000.0
2013-11-01,29.75,30.540000915527344,28.600000381469727,30.350000381469727,25.11254119873047,29079000.0
2013-11-26,,,,,,
2013-12-01,30.229999542236328,32.540000915527344,29.639999389648438,32.40999984741211,26.9505558013916,42690900.0
2014-01-01,32.400001525878906,32.540000915527344,29.59000015258789,30.899999618530273,25.694915771484375,50543200.0
2014-02-01,30.850000381469727,32.310001373291016,30.06999969482422,32.11000061035156,26.701086044311523,40930300.0
2014-02-26,,,,,,
2014-03-01,31.8799991607666,32.29999923706055,29.139999389648438,29.899999618530273,24.982027053833008,68011800.0
2014-04-01,30.059999465942383,30.610000610351562,28.610000610351562,30.110000610351562,25.157480239868164,43345600.0
2014-05-01,30.040000915527344,30.520000457763672,28.270000457763672,29.280000686645508,24.464000701904297,45416700.0
2014-05-28,,,,,,
2014-06-01,29.34000015258789,31.610000610351562,28.889999389648438,30.989999771118164,26.043437957763672,41550100.0
2014-07-01,31.030000686645508,33.16999816894531,30.850000381469727,32.47999954223633,27.295604705810547,41953900.0
2014-08-01,32.47999954223633,33.93000030517578,32.279998779296875,33.52000045776367,28.16960334777832,32628100.0
2014-08-27,,,,,,
2014-09-01,33.689998626708984,35.25,33.599998474121094,34.40999984741211,29.0657901763916,31099000.0
2014-10-01,34.40999984741211,35.43000030517578,31.139999389648438,33.33000183105469,28.15353012084961,47290700.0
2014-11-01,33.54999923706055,36.38999938964844,33.369998931884766,36.310001373291016,30.670703887939453,31693200.0
2014-11-25,,,,,,
2014-12-01,36.189998626708984,38.72999954223633,34.439998626708984,38.09000015258789,32.32640075683594,41265000.0
2015-01-01,38.150001525878906,38.77000045776367,36.689998626708984,36.869998931884766,31.291000366210938,41924200.0
2015-02-01,36.939998626708984,40.369998931884766,36.33000183105469,39.290000915527344,33.34481430053711,32937800.0
2015-02-25,,,,,,
2015-03-01,39.290000915527344,39.86000061035156,37.54999923706055,39.06999969482422,33.3170051574707,29469500.0
2015-04-01,39.04999923706055,40.72999954223633,37.95000076293945,38.130001068115234,32.515411376953125,27672400.0
2015-05-01,39.33000183105469,40.47999954223633,38.529998779296875,39.529998779296875,33.70925521850586,32033700.0
2015-05-27,,,,,,
2015-06-01,39.599998474121094,42.0,39.13999938964844,41.11000061035156,35.2259635925293,36747500.0
2015-07-01,41.4900016784668,44.0,40.15999984741211,43.279998779296875,37.08537292480469,32137900.0
2015-08-01,43.459999084472656,44.5099983215332,39.310001373291016,42.130001068115234,36.09996795654297,33735300.0
2015-08-27,,,,,,
2015-09-01,41.209999084472656,44.29999923706055,38.16999816894531,39.709999084472656,34.184837341308594,44047300.0
2015-10-01,40.08000183105469,43.900001525878906,39.38999938964844,42.43000030517578,36.52639389038086,46772300.0
2015-11-01,42.540000915527344,44.9900016784668,42.38999938964844,44.65999984741211,38.44611358642578,34423200.0
2015-11-25,,,,,,
2015-12-01,44.83000183105469,50.900001525878906,40.119998931884766,44.08000183105469,38.10883712768555,124919800.0
2016-01-01,43.310001373291016,43.83000183105469,34.5,38.779998779296875,33.52678298950195,117796700.0
2016-02-01,39.18000030517578,39.41999816894531,33.2599983215332,38.0099983215332,32.861083984375,110765600.0
2016-02-25,,,,,,
2016-03-01,38.33000183105469,45.56999969482422,37.959999084472656,44.290000915527344,38.484134674072266,108249200.0
2016-04-01,43.86000061035156,46.900001525878906,43.11000061035156,45.540000915527344,39.57027816772461,171146800.0
2016-05-01,46.209999084472656,49.18000030517578,45.84000015258789,47.689998626708984,41.43843460083008,96967200.0
2016-05-26,,,,,,
2016-06-01,47.689998626708984,49.4900016784668,44.83000183105469,48.56999969482422,42.3712158203125,94044500.0
2016-07-01,48.56999969482422,53.75,47.06999969482422,52.459999084472656,45.764747619628906,78553400.0
2016-08-01,52.58000183105469,55.45000076293945,52.40999984741211,53.08000183105469,46.30562210083008,85092600.0
2016-08-29,,,,,,
2016-09-01,52.84000015258789,54.380001068115234,49.11000061035156,52.65999984741211,46.10182571411133,83694900.0
2016-10-01,52.439998626708984,53.220001220703125,47.86000061035156,48.02000045776367,42.039676666259766,79411000.0
2016-11-01,48.560001373291016,50.70000076293945,45.95000076293945,47.0099983215332,41.155460357666016,99023700.0
2016-11-28,,,,,,
2016-12-01,46.869998931884766,48.02000045776367,44.2400016784668,44.650001525878906,39.24323654174805,83694400.0
2017-01-01,45.0,47.75,44.75,47.33000183105469,41.59871292114258,77074200.0
2017-02-01,47.29999923706055,50.16999816894531,43.43000030517578,49.029998779296875,43.092857360839844,104612000.0
2017-02-24,,,,,,
2017-03-01,49.41999816894531,49.77000045776367,46.95000076293945,47.16999816894531,41.62639236450195,72266400.0
2017-04-01,47.150001525878906,49.27000045776367,45.66999816894531,47.7400016784668,42.12941360473633,57002400.0
2017-05-01,47.18000030517578,53.630001068115234,45.189998626708984,52.95000076293945,46.727108001708984,105213500.0
2017-05-26,,,,,,
2017-06-01,53.0,55.08000183105469,52.0,53.619998931884766,47.52351760864258,80207500.0
2017-07-01,53.86000061035156,54.189998626708984,51.90999984741211,52.720001220703125,46.72584915161133,45085100.0
2017-08-01,53.029998779296875,53.099998474121094,47.130001068115234,48.279998779296875,42.7906608581543,86318400.0
2017-08-29,,,,,,
2017-09-01,48.63999938964844,49.2400016784668,40.880001068115234,42.66999816894531,37.999908447265625,130186100.0
2017-10-01,42.70000076293945,43.9900016784668,39.58000183105469,40.779998779296875,36.316768646240234,101159800.0
2017-11-01,40.88999938964844,41.310001373291016,27.459999084472656,30.969999313354492,27.580434799194336,232819600.0
2017-11-29,,,,,,
2017-12-01,30.899999618530273,32.279998779296875,30.1299991607666,30.899999618530273,27.725271224975586,114672800.0
2018-01-01,31.09000015258789,32.58000183105469,23.850000381469727,26.440000534057617,23.7235050201416,222358700.0
2018-02-01,26.440000534057617,30.170000076293945,25.559999465942383,25.690000534057617,23.050559997558594,228013700.0
2018-02-27,,,,,,
2018-03-01,27.5,29.549999237060547,24.600000381469727,25.479999542236328,23.05272102355957,213823700.0
2018-04-01,25.399999618530273,27.799999237060547,24.43000030517578,27.6299991607666,24.997909545898438,110883600.0
2018-05-01,27.459999084472656,28.3799991607666,23.40999984741211,23.579999923706055,21.33371925354004,145361900.0
2018-05-30,,,,,,
2018-06-01,23.59000015258789,26.709999084472656,22.600000381469727,25.790000915527344,23.551345825195312,151266200.0
2018-07-01,25.549999237060547,28.0,25.43000030517578,26.190000534057617,23.9166259765625,96034700.0
2018-08-01,26.020000457763672,27.040000915527344,20.209999084472656,21.719999313354492,19.83463478088379,251536500.0
2018-08-30,,,,,,
2018-09-01,21.6200008392334,22.34000015258789,20.139999389648438,20.299999237060547,18.72934913635254,142809300.0
2018-10-01,20.3799991607666,20.809999465942383,15.119999885559082,15.880000114440918,14.651333808898926,219580100.0
2018-11-01,15.899999618530273,24.219999313354492,15.75,23.399999618530273,21.58949851989746,239052600.0
2018-11-29,,,,,,
2018-12-01,23.889999389648438,24.56999969482422,17.709999084472656,18.59000015258789,17.320600509643555,179684900.0
2019-01-01,18.049999237060547,21.729999542236328,17.979999542236328,21.209999084472656,19.76169776916504,103412900.0
2019-02-01,21.229999542236328,22.059999465942383,16.06999969482422,16.229999542236328,15.121750831604004,170636300.0
2019-02-27,,,,,,
2019-03-01,16.280000686645508,16.399999618530273,14.739999771118164,15.34000015258789,14.487154006958008,147189500.0
2019-04-01,15.399999618530273,16.09000015258789,13.569999694824219,14.380000114440918,13.580526351928711,123731100.0
2019-05-01,14.420000076293945,16.700000762939453,13.039999961853027,13.420000076293945,12.673898696899414,137520500.0
2019-05-30,,,,,,
2019-06-01,13.279999732971191,15.640000343322754,13.279999732971191,15.420000076293945,14.81229019165039,91810300.0
2019-07-01,15.579999923706055,15.84000015258789,14.0,14.1899995803833,13.63076400756836,97868200.0
2019-08-01,14.100000381469727,16.770000457763672,13.390000343322754,16.600000381469727,15.945786476135254,130811700.0
2019-08-29,,,,,,
2019-09-01,16.520000457763672,19.649999618530273,16.15999984741211,18.719999313354492,18.240245819091797,95221700.0
2019-10-01,18.739999771118164,20.0,17.549999237060547,18.969999313354492,18.48383903503418,98116000.0
2019-11-01,19.860000610351562,20.989999771118164,18.719999313354492,19.219999313354492,18.727432250976562,78975300.0
2019-11-26,,,,,,
2019-12-01,19.25,19.989999771118164,18.260000228881836,19.219999313354492,18.953536987304688,72071100.0
2020-01-01,19.43000030517578,20.489999771118164,18.440000534057617,19.530000686645508,19.259241104125977,63530100.0
2020-02-01,19.6200008392334,20.799999237060547,14.5,15.430000305175781,15.216081619262695,81816600.0
2020-02-27,,,,,,
2020-03-01,15.510000228881836,16.770000457763672,10.4399995803833,12.760000228881836,12.760000228881836,110213100.0
2020-03-26,12.630000114440918,13.920000076293945,12.729999542236328,13.600000381469727,13.600000381469727,1997592.0
