Date,Open,High,Low,Close,Adj Close,Volume
2013-06-01,15.210000038146973,16.299999237060547,14.65999984741211,15.380000114440918,14.25051212310791,17502300.0
2013-07-01,15.479999542236328,16.3700008392334,14.520000457763672,16.09000015258789,14.908371925354004,73286100.0
2013-08-01,16.110000610351562,16.639999389648438,15.699999809265137,15.84000015258789,14.676732063293457,41664700.0
2013-09-01,16.020000457763672,17.459999084472656,15.880000114440918,16.43000030517578,15.223403930664062,22134000.0
2013-10-01,16.450000762939453,18.139999389648438,16.020000457763672,17.93000030517578,16.613243103027344,31488900.0
2013-11-01,17.8700008392334,18.260000228881836,17.0,17.969999313354492,16.650304794311523,15004400.0
2013-12-01,17.899999618530273,17.950000762939453,16.950000762939453,17.829999923706055,16.52058982849121,13667400.0
2014-01-01,17.84000015258789,18.030000686645508,15.579999923706055,15.609999656677246,14.463622093200684,18337800.0
2014-02-01,15.550000190734863,17.969999313354492,15.0,17.889999389648438,16.57617950439453,22983300.0
2014-03-01,17.709999084472656,18.020000457763672,16.440000534057617,16.700000762939453,15.473575592041016,12416600.0
2014-04-01,16.68000030517578,17.06999969482422,15.979999542236328,16.540000915527344,15.325325012207031,10358300.0
2014-05-01,16.600000381469727,17.649999618530273,16.31999969482422,16.59000015258789,15.371652603149414,11924500.0
2014-06-01,16.649999618530273,17.610000610351562,16.43000030517578,17.450000762939453,16.16849708557129,14715100.0
2014-07-01,17.450000762939453,17.81999969482422,17.170000076293945,17.209999084472656,15.94611644744873,16084900.0
2014-08-01,17.149999618530273,17.43000030517578,16.010000228881836,17.260000228881836,15.992448806762695,18614600.0
2014-09-01,17.25,17.440000534057617,16.06999969482422,16.1299991607666,14.945433616638184,16517300.0
2014-10-01,16.059999465942383,16.100000381469727,14.09000015258789,15.050000190734863,13.944747924804688,25322100.0
2014-11-01,15.020000457763672,15.4399995803833,14.34000015258789,15.050000190734863,13.944747924804688,33948800.0
2014-12-01,14.970000267028809,15.319999694824219,14.170000076293945,15.079999923706055,13.97254467010498,36368300.0
2015-01-01,15.130000114440918,15.279999732971191,14.25,14.4399995803833,13.379546165466309,18417300.0
2015-02-01,14.539999961853027,17.110000610351562,14.279999732971191,16.81999969482422,15.584761619567871,18592200.0
2015-03-01,16.81999969482422,17.06999969482422,15.8100004196167,15.869999885559082,14.704527854919434,20800200.0
2015-04-01,15.859999656677246,16.200000762939453,15.260000228881836,15.569999694824219,14.426559448242188,22409400.0
2015-05-01,15.6899995803833,16.170000076293945,14.779999732971191,14.949999809265137,13.852090835571289,23243600.0
2015-06-01,14.970000267028809,15.0600004196167,13.880000114440918,14.239999771118164,13.194232940673828,28690000.0
2015-07-01,14.350000381469727,14.649999618530273,13.640000343322754,14.270000457763672,13.222028732299805,22279500.0
2015-08-01,14.329999923706055,15.619999885559082,12.619999885559082,13.829999923706055,12.81434440612793,30930300.0
2015-09-01,13.579999923706055,13.75,12.329999923706055,12.819999694824219,11.87851619720459,50646900.0
2015-09-14,,,,,,
2015-10-01,12.850000381469727,15.510000228881836,12.239999771118164,15.479999542236328,14.45307731628418,24017300.0
2015-11-01,15.470000267028809,15.739999771118164,13.880000114440918,14.460000038146973,13.500743865966797,20125700.0
2015-12-01,14.5600004196167,14.800000190734863,13.479999542236328,13.960000038146973,13.033914566040039,21302500.0
2016-01-01,13.710000038146973,13.729999542236328,12.130000114440918,13.350000381469727,12.464380264282227,22834000.0
2016-02-01,13.1899995803833,13.329999923706055,10.739999771118164,11.40999984741211,10.653076171875,30957100.0
2016-03-01,11.489999771118164,13.489999771118164,11.300000190734863,13.25,12.371013641357422,23001000.0
2016-03-07,,,,,,
2016-04-01,13.140000343322754,13.550000190734863,12.720000267028809,12.960000038146973,12.204294204711914,15672000.0
2016-05-01,12.979999542236328,13.25,11.770000457763672,12.34000015258789,11.62044906616211,17507100.0
2016-06-01,12.300000190734863,12.5600004196167,10.899999618530273,11.670000076293945,10.989514350891113,20638000.0
2016-07-01,11.699999809265137,13.479999542236328,11.5,13.4399995803833,12.656306266784668,17916200.0
2016-08-01,13.430000305175781,14.470000267028809,13.029999732971191,14.430000305175781,13.588579177856445,18547500.0
2016-09-01,14.5,14.649999618530273,13.489999771118164,14.220000267028809,13.390824317932129,47075400.0
2016-09-12,,,,,,
2016-10-01,14.130000114440918,15.220000267028809,12.399999618530273,12.399999618530273,11.762557029724121,37161300.0
2016-11-01,12.5,12.699999809265137,11.25,11.949999809265137,11.335691452026367,17633800.0
2016-12-01,11.949999809265137,12.550000190734863,11.75,11.800000190734863,11.193401336669922,18460400.0
2017-01-01,11.949999809265137,12.800000190734863,11.899999618530273,12.649999618530273,11.999704360961914,12322000.0
2017-02-01,12.649999618530273,13.800000190734863,12.350000381469727,13.199999809265137,12.521431922912598,10183700.0
2017-03-01,13.300000190734863,13.800000190734863,12.5,13.5,12.806009292602539,12476800.0
2017-03-13,,,,,,
2017-04-01,13.550000190734863,13.550000190734863,12.600000381469727,13.0,12.428813934326172,8722600.0
2017-05-01,13.050000190734863,13.800000190734863,12.649999618530273,13.699999809265137,13.09805679321289,7970000.0
2017-06-01,13.699999809265137,14.399999618530273,13.550000190734863,14.149999618530273,13.528285026550293,12108100.0
2017-07-01,14.300000190734863,14.899999618530273,13.5,14.699999809265137,14.054119110107422,6463500.0
2017-08-01,14.800000190734863,14.899999618530273,13.449999809265137,13.699999809265137,13.09805679321289,8880600.0
2017-09-01,13.699999809265137,13.899999618530273,13.100000381469727,13.649999618530273,13.050251960754395,12281700.0
2017-09-12,,,,,,
2017-10-01,13.649999618530273,14.149999618530273,13.5,13.899999618530273,13.387344360351562,7806900.0
2017-11-01,14.0,16.600000381469727,13.850000381469727,16.399999618530273,15.795140266418457,15876700.0
2017-12-01,16.5,17.049999237060547,16.049999237060547,16.600000381469727,15.987765312194824,14611800.0
2018-01-01,16.649999618530273,17.700000762939453,16.600000381469727,17.450000762939453,16.806415557861328,7923700.0
2018-02-01,17.299999237060547,17.350000381469727,15.5,16.399999618530273,15.795140266418457,10400200.0
2018-03-01,16.299999237060547,17.100000381469727,15.699999809265137,16.100000381469727,15.506205558776855,12563700.0
2018-03-13,,,,,,
2018-04-01,16.100000381469727,16.5,15.5,16.25,15.744109153747559,6411100.0
2018-05-01,16.200000762939453,16.799999237060547,15.350000381469727,15.449999809265137,14.969016075134277,14814100.0
2018-06-01,15.5,16.68000030517578,15.5,15.850000381469727,15.356562614440918,10710300.0
2018-07-01,15.699999809265137,16.149999618530273,15.0,15.300000190734863,14.823685646057129,5516600.0
2018-08-01,15.199999809265137,15.630000114440918,13.199999809265137,13.600000381469727,13.17660903930664,17085800.0
2018-09-01,13.649999618530273,13.75,12.699999809265137,13.600000381469727,13.17660903930664,11555400.0
2018-09-11,,,,,,
2018-10-01,13.640000343322754,13.899999618530273,12.579999923706055,13.34000015258789,13.024508476257324,19020200.0
2018-11-01,13.350000381469727,14.539999961853027,12.859999656677246,13.399999618530273,13.083088874816895,11629700.0
2018-12-01,13.489999771118164,13.800000190734863,10.850000381469727,11.550000190734863,11.276841163635254,11810000.0
2019-01-01,11.40999984741211,12.989999771118164,11.319999694824219,12.930000305175781,12.624204635620117,15634000.0
2019-02-01,12.930000305175781,13.449999809265137,12.279999732971191,13.3100004196167,12.995217323303223,10276900.0
2019-03-01,13.40999984741211,13.6899995803833,12.270000457763672,12.489999771118164,12.194610595703125,19146700.0
2019-03-12,,,,,,
2019-04-01,12.600000381469727,12.9399995803833,12.329999923706055,12.489999771118164,12.287063598632812,10830400.0
2019-05-01,12.520000457763672,12.609999656677246,11.380000114440918,11.649999618530273,11.460711479187012,17837000.0
2019-06-01,11.630000114440918,14.069999694824219,11.630000114440918,13.960000038146973,13.733179092407227,18780700.0
2019-07-01,14.170000076293945,14.220000267028809,13.369999885559082,13.460000038146973,13.241303443908691,12121100.0
2019-08-01,13.420000076293945,14.729999542236328,12.819999694824219,14.15999984741211,13.929929733276367,13649100.0
2019-09-01,14.010000228881836,15.010000228881836,13.880000114440918,14.300000190734863,14.067654609680176,9404300.0
2019-09-10,,,,,,
2019-10-01,14.350000381469727,14.569999694824219,13.109999656677246,14.119999885559082,13.985395431518555,13745500.0
2019-11-01,14.130000114440918,14.350000381469727,12.869999885559082,13.170000076293945,13.044452667236328,13032100.0
2019-12-01,13.079999923706055,14.609999656677246,12.819999694824219,14.510000228881836,14.371678352355957,12923200.0
2020-01-01,14.630000114440918,15.359999656677246,13.609999656677246,13.970000267028809,13.83682632446289,13361700.0
2020-02-01,14.069999694824219,15.220000267028809,11.869999885559082,12.4399995803833,12.3214111328125,15647300.0
2020-03-01,12.489999771118164,13.0,7.920000076293945,8.609999656677246,8.527921676635742,32079800.0
2020-03-10,,,,,,
2020-03-26,8.65999984741211,9.300000190734863,8.65999984741211,9.109999656677246,9.109999656677246,416422.0
