Date,Open,High,Low,Close,Adj Close,Volume
1980-03-01,0.0,1.59375,1.40625,1.40625,0.1309051513671875,579200.0
1980-04-01,0.0,1.5625,1.375,1.515625,0.14108668267726898,801600.0
1980-05-01,0.0,1.65625,1.453125,1.578125,0.1469046175479889,1211200.0
1980-06-01,0.0,1.734375,1.5625,1.6875,0.15708622336387634,700800.0
1980-07-01,0.0,2.234375,1.6875,2.203125,0.20508481562137604,1971200.0
1980-08-01,0.0,2.3125,2.015625,2.015625,0.1876308172941208,2441600.0
1980-09-01,0.0,2.296875,2.046875,2.1875,0.203630268573761,1382400.0
1980-10-01,0.0,2.515625,2.1875,2.4375,0.2269023209810257,1086400.0
1980-11-01,0.0,2.625,2.421875,2.546875,0.23708386719226837,1371200.0
1980-12-01,0.0,2.546875,2.25,2.25,0.20944839715957642,1713600.0
1981-01-01,0.0,2.375,2.15625,2.21875,0.20653937757015228,1317600.0
1981-01-16,,,,,,
1981-02-01,0.0,2.375,2.21875,2.3125,0.21526627242565155,1951200.0
1981-03-01,0.0,2.40625,2.0625,2.0625,0.19199436902999878,1420800.0
1981-04-01,0.0,2.125,1.9375,1.9375,0.18035823106765747,2280000.0
1981-05-01,0.0,2.0625,1.9375,2.03125,0.1890852451324463,1389600.0
1981-06-01,0.0,2.0625,1.75,1.84375,0.17163123190402985,1089600.0
1981-07-01,0.0,1.9375,1.78125,1.90625,0.17744919657707214,402400.0
1981-08-01,0.0,1.9375,1.875,1.90625,0.17744919657707214,812000.0
1981-09-01,0.0,2.0,1.84375,1.875,0.17454016208648682,492800.0
1981-10-01,0.0,2.0625,1.84375,2.0,0.18617624044418335,452800.0
1981-11-01,0.0,2.15625,2.03125,2.0625,0.19199436902999878,484800.0
1981-12-01,0.0,2.28125,2.09375,2.21875,0.20653937757015228,376800.0
1982-01-01,0.0,2.40625,1.96875,1.96875,0.18326722085475922,549600.0
1982-02-01,0.0,1.9375,1.84375,1.84375,0.17163123190402985,598400.0
1982-03-01,0.0,1.96875,1.8125,1.8125,0.1687222421169281,652000.0
1982-04-01,0.0,2.21875,1.78125,1.90625,0.17744919657707214,1123200.0
1982-05-01,0.0,2.09375,1.875,1.96875,0.18326722085475922,848000.0
1982-06-01,0.0,2.125,1.9375,2.0,0.18617624044418335,820000.0
1982-07-01,0.0,2.09375,1.96875,1.96875,0.18326722085475922,856800.0
1982-08-01,0.0,2.375,1.875,2.34375,0.2181752622127533,1332000.0
1982-09-01,0.0,2.34375,2.03125,2.03125,0.1890852451324463,1204000.0
1982-10-01,0.0,2.21875,1.8125,2.1875,0.203630268573761,1332800.0
1982-11-01,0.0,2.4375,2.03125,2.125,0.1978122740983963,2121600.0
1982-12-01,0.0,2.75,2.15625,2.65625,0.24726541340351105,3172800.0
1983-01-01,0.0,2.9375,2.5,2.78125,0.2589012384414673,1828000.0
1983-02-01,0.0,3.03125,2.75,2.75,0.25599226355552673,941600.0
1983-03-01,0.0,2.9375,2.59375,2.59375,0.2414472997188568,758400.0
1983-04-01,0.0,3.25,2.59375,3.0,0.27926430106163025,605600.0
1983-05-01,0.0,3.625,3.0,3.46875,0.32289937138557434,689600.0
1983-06-01,0.0,3.53125,3.375,3.4375,0.3199906349182129,1550400.0
1983-07-01,0.0,3.5,3.40625,3.40625,0.3170813322067261,662400.0
1983-08-01,0.0,3.46875,2.625,2.75,0.25599226355552673,1099200.0
1983-09-01,0.0,2.796875,2.375,2.625,0.24435636401176453,1172000.0
1983-10-01,0.0,3.0,2.5625,2.9375,0.273446261882782,881600.0
1983-11-01,0.0,3.0,2.4375,2.5625,0.2385384738445282,795200.0
1983-12-01,0.0,2.5625,2.21875,2.375,0.2210843414068222,2790400.0
1984-01-01,0.0,2.46875,2.03125,2.1875,0.203630268573761,3420800.0
1984-02-01,0.0,2.1875,1.953125,2.0,0.18617624044418335,2309600.0
1984-03-01,0.0,2.25,2.0,2.25,0.20944839715957642,1186400.0
1984-04-01,0.0,2.28125,1.9375,2.0625,0.19199436902999878,1190400.0
1984-05-01,0.0,2.375,2.0,2.3125,0.21526627242565155,2664800.0
1984-06-01,0.0,2.75,2.21875,2.46875,0.22981137037277222,3481600.0
1984-07-01,0.0,2.46875,1.9375,1.9375,0.18035823106765747,2799200.0
1984-08-01,0.0,2.03125,1.71875,1.90625,0.17744919657707214,7072800.0
1984-09-01,0.0,2.15625,1.875,2.0625,0.19199436902999878,2915200.0
1984-10-01,0.0,2.3125,2.03125,2.15625,0.20072129368782043,2878400.0
1984-11-01,0.0,2.21875,2.03125,2.15625,0.20072129368782043,1620800.0
1984-12-01,0.0,2.34375,2.15625,2.21875,0.20653937757015228,1213600.0
1984-12-21,,,,,,
1985-01-01,0.0,2.5,2.140625,2.5,0.24485981464385986,2398400.0
1985-02-01,0.0,2.578125,2.40625,2.5,0.24485981464385986,3095200.0
1985-03-01,0.0,2.71875,2.5,2.625,0.25710296630859375,5585600.0
1985-03-25,,,,,,
1985-04-01,0.0,2.78125,2.59375,2.71875,0.2780782878398895,2446400.0
1985-05-01,0.0,3.0625,2.71875,2.875,0.2940599024295807,2291200.0
1985-06-01,0.0,3.28125,2.875,3.25,0.3324153423309326,5715200.0
1985-06-24,,,,,,
1985-07-01,0.0,3.375,3.1875,3.1875,0.3378562331199646,4753600.0
1985-08-01,0.0,3.1875,2.75,2.8125,0.2981084883213043,2397600.0
1985-09-01,0.0,2.84375,2.46875,2.46875,0.26167288422584534,3416800.0
1985-09-24,,,,,,
1985-10-01,0.0,2.59375,2.40625,2.59375,0.2874120771884918,5352000.0
1985-11-01,0.0,2.75,2.4375,2.53125,0.2804866135120392,2986400.0
1985-12-01,0.0,2.5625,2.234375,2.5625,0.2839493453502655,7761600.0
1985-12-24,,,,,,
1986-01-01,0.0,2.5625,2.34375,2.4375,0.2825295925140381,2811200.0
1986-02-01,0.0,2.53125,2.265625,2.5,0.2897739112377167,6081600.0
1986-03-01,0.0,2.78125,2.46875,2.78125,0.32237356901168823,6240800.0
1986-03-24,,,,,,
1986-04-01,0.0,3.5625,2.75,3.34375,0.4049561321735382,14182400.0
1986-05-01,0.0,3.375,2.84375,2.984375,0.3614325523376465,6077600.0
1986-06-01,0.0,3.03125,2.875,2.96875,0.35954049229621887,4191200.0
1986-06-24,,,,,,
1986-07-01,0.0,2.984375,2.625,2.625,0.3305568993091583,5785600.0
1986-08-01,0.0,2.71875,2.53125,2.71875,0.3423624336719513,2719200.0
1986-08-21,,,,,,
1986-09-01,0.0,2.75,2.109375,2.265625,0.2979375720024109,15068800.0
1986-10-01,0.0,2.46875,2.109375,2.15625,0.2835542559623718,17219200.0
1986-11-01,0.0,2.578125,2.125,2.5625,0.33697739243507385,31279200.0
1986-12-01,0.0,2.734375,2.484375,2.515625,0.33081334829330444,21326400.0
1986-12-09,,,,,,
1987-01-01,0.0,3.21875,2.515625,3.171875,0.4370841085910797,28074400.0
1987-02-01,0.0,3.203125,2.953125,3.171875,0.4370841085910797,13730400.0
1987-03-01,0.0,3.28125,2.890625,3.171875,0.4370841085910797,17099200.0
1987-03-10,,,,,,
1987-04-01,0.0,3.25,2.8125,2.9375,0.4215185344219208,15168800.0
1987-05-01,0.0,2.984375,2.5625,2.96875,0.42600277066230774,18712800.0
1987-06-01,0.0,3.09375,2.921875,3.046875,0.4372134506702423,19371200.0
1987-06-09,,,,,,
1987-07-01,0.0,3.0625,2.890625,2.984375,0.4467233121395111,13348000.0
1987-08-01,0.0,3.59375,2.96875,3.484375,0.5215669870376587,23993600.0
1987-09-01,0.0,3.59375,3.21875,3.359375,0.5028561353683472,19755200.0
1987-09-09,,,,,,
1987-10-01,0.0,3.453125,2.109375,2.109375,0.3281458020210266,16651200.0
1987-11-01,0.0,2.25,2.0,2.0,0.31113073229789734,17924000.0
1987-12-01,0.0,2.546875,1.921875,2.453125,0.3816211223602295,23931200.0
1987-12-09,,,,,,
1988-01-01,0.0,2.484375,2.15625,2.359375,0.3897254168987274,14454400.0
1988-02-01,0.0,2.4375,2.21875,2.4375,0.4026305079460144,8548800.0
1988-03-01,0.0,2.703125,2.375,2.515625,0.4155351221561432,20458400.0
1988-03-17,,,,,,
1988-04-01,0.0,2.75,2.46875,2.625,0.45488178730010986,15572800.0
1988-05-01,0.0,2.671875,2.359375,2.390625,0.4142671823501587,9321600.0
1988-06-01,0.0,2.515625,2.328125,2.4375,0.4223902225494385,11841600.0
1988-06-09,,,,,,
1988-07-01,0.0,2.453125,2.265625,2.359375,0.43039703369140625,18271200.0
1988-08-01,0.0,2.515625,2.328125,2.453125,0.44749876856803894,9359200.0
1988-09-01,0.0,2.484375,2.375,2.453125,0.44749876856803894,9676800.0
1988-09-09,,,,,,
1988-10-01,0.0,2.640625,2.4375,2.59375,0.49842411279678345,6616800.0
1988-11-01,0.0,2.609375,2.46875,2.5,0.48040857911109924,14382400.0
1988-12-01,0.0,2.53125,2.328125,2.453125,0.4714009165763855,21740000.0
1988-12-09,,,,,,
1989-01-01,0.0,2.65625,2.421875,2.625,0.5304867029190063,17610400.0
1989-02-01,0.0,2.71875,2.578125,2.578125,0.5210134387016296,15512000.0
1989-03-01,0.0,2.609375,2.4375,2.5,0.5052253603935242,10603200.0
1989-03-09,,,,,,
1989-04-01,0.0,2.6875,2.5,2.578125,0.5469064116477966,8395200.0
1989-05-01,0.0,2.9375,2.640625,2.84375,0.6032546162605286,19402400.0
1989-05-24,,,,,,
1989-06-01,0.0,3.015625,2.703125,2.75,0.6107978820800781,20941600.0
1989-07-01,0.0,2.953125,2.71875,2.921875,0.648972749710083,9104800.0
1989-08-01,0.0,3.0625,2.859375,2.9375,0.652442991733551,15986400.0
1989-09-01,0.0,3.078125,2.890625,3.015625,0.6697952747344971,15365600.0
1989-09-11,,,,,,
1989-10-01,0.0,3.203125,2.984375,3.0,0.6952348351478577,12826400.0
1989-11-01,0.0,3.09375,2.90625,2.96875,0.6879929304122925,10961600.0
1989-12-01,0.0,3.21875,2.96875,3.21875,0.7459291815757751,15404800.0
1989-12-11,,,,,,
1990-01-01,0.0,3.3125,2.921875,2.953125,0.7123650908470154,20361600.0
1990-02-01,0.0,3.046875,2.71875,2.890625,0.6972886323928833,18462400.0
1990-03-01,2.859380006790161,2.96875,2.84375,2.9375,0.7085958123207092,24677600.0
1990-03-09,,,,,,
1990-04-01,2.9375,2.9375,2.765625,2.890625,0.7275416254997253,12310400.0
1990-05-01,2.859375,3.25,2.859375,3.109375,0.782599151134491,16126400.0
1990-06-01,3.109375,3.3125,3.09375,3.28125,0.8258579969406128,11176800.0
1990-06-11,,,,,,
1990-07-01,3.265625,3.4375,3.21875,3.265625,0.8593920469284058,3447200.0
1990-08-01,3.25,3.28125,2.765625,3.0,0.7894889712333679,3323200.0
1990-09-01,2.96875,3.0,2.625,2.703125,0.7113625407218933,2328800.0
1990-09-10,,,,,,
1990-10-01,2.65625,2.71875,2.015625,2.109375,0.5822387933731079,11572800.0
1990-11-01,2.171875,2.859375,2.125,2.6875,0.7418153285980225,11374400.0
1990-12-01,2.71875,2.890625,2.671875,2.890625,0.7978824973106384,13388000.0
1990-12-10,,,,,,
1991-01-01,2.875,3.0,2.625,3.0,0.87042236328125,17996000.0
1991-02-01,2.96875,3.484375,2.890625,3.15625,0.9157575964927673,21700800.0
1991-03-01,3.171875,3.71875,3.125,3.625,1.0517605543136597,20771200.0
1991-03-11,,,,,,
1991-04-01,3.59375,3.890625,3.578125,3.796875,1.1475640535354614,19125600.0
1991-05-01,3.8125,3.828125,3.53125,3.796875,1.1475640535354614,14907200.0
1991-06-01,3.796875,3.8125,3.40625,3.546875,1.0720046758651733,12444800.0
1991-06-10,,,,,,
1991-07-01,3.53125,3.828125,3.4375,3.78125,1.1877336502075195,9158400.0
1991-08-01,3.765625,3.765625,3.5,3.734375,1.173009991645813,10707200.0
1991-09-01,3.71875,3.734375,3.5,3.640625,1.143561601638794,7502400.0
1991-09-10,,,,,,
1991-10-01,3.640625,4.25,3.59375,4.09375,1.3375564813613892,18069600.0
1991-11-01,4.125,4.15625,3.65625,3.875,1.2660831212997437,14409600.0
1991-12-01,3.84375,4.015625,3.65625,3.984375,1.3018195629119873,16148800.0
1991-12-10,,,,,,
1992-01-01,3.96875,4.453125,3.90625,4.34375,1.469800353050232,23372000.0
1992-02-01,4.34375,4.59375,4.296875,4.46875,1.5120961666107178,16618400.0
1992-03-01,4.46875,4.46875,4.140625,4.3125,1.459226131439209,9261600.0
1992-03-09,,,,,,
1992-04-01,4.3125,4.53125,4.0,4.53125,1.58340322971344,13320800.0
1992-05-01,4.53125,4.578125,4.25,4.390625,1.5342626571655273,13874400.0
1992-06-01,4.359375,4.4375,4.1875,4.375,1.5288022756576538,10172000.0
1992-06-08,,,,,,
1992-07-01,4.375,4.4375,4.0,4.109375,1.4882171154022217,10169600.0
1992-08-01,4.125,4.3125,4.125,4.28125,1.5504612922668457,8888800.0
1992-09-01,4.28125,4.484375,4.28125,4.390625,1.590071439743042,9061600.0
1992-09-17,,,,,,
1992-10-01,4.40625,4.8125,4.34375,4.75,1.7832542657852173,12928000.0
1992-11-01,4.75,5.0,4.71875,4.875,1.8301830291748047,12412000.0
1992-12-01,4.84375,5.234375,4.828125,5.15625,1.9357695579528809,18122400.0
1992-12-14,,,,,,
1993-01-01,5.1875,5.40625,4.96875,5.34375,2.0704269409179688,19465600.0
1993-02-01,5.359375,5.484375,4.796875,5.125,1.9856724739074707,20733600.0
1993-03-01,5.09375,5.9375,5.015625,5.90625,2.2883670330047607,21136800.0
1993-03-08,,,,,,
1993-04-01,5.90625,5.90625,5.15625,5.265625,2.1008176803588867,17030400.0
1993-05-01,5.28125,5.609375,5.28125,5.609375,2.2379627227783203,11151200.0
1993-06-01,5.609375,5.609375,4.78125,5.140625,2.0509462356567383,26966400.0
1993-06-09,,,,,,
1993-07-01,5.140625,5.3125,4.625,4.890625,2.0085339546203613,20592800.0
1993-08-01,4.90625,5.5625,4.8125,5.53125,2.2716310024261475,21416800.0
1993-09-01,5.53125,5.78125,5.484375,5.578125,2.2908830642700195,19463200.0
1993-09-20,,,,,,
1993-10-01,5.640625,5.796875,5.53125,5.6875,2.400237560272217,21058400.0
1993-11-01,5.609375,5.671875,5.1875,5.296875,2.2353861331939697,16808000.0
1993-12-01,5.265625,5.8125,5.265625,5.78125,2.4398016929626465,15472000.0
1993-12-13,,,,,,
1994-01-01,5.75,6.234375,5.46875,6.125,2.661041498184204,16496800.0
1994-02-01,6.1875,6.203125,6.0,6.109375,2.65425443649292,11712000.0
1994-03-01,6.109375,6.21875,5.890625,5.96875,2.5931594371795654,13592000.0
1994-03-14,,,,,,
1994-04-01,5.84375,6.109375,5.765625,6.0625,2.7030882835388184,11115200.0
1994-05-01,6.078125,6.078125,5.765625,5.875,2.6194870471954346,7179200.0
1994-05-24,,,,,,
1994-06-01,5.859375,6.1875,5.609375,6.03125,2.6917221546173096,14767200.0
1994-06-09,,,,,,
1994-07-01,6.03125,6.4375,5.96875,6.359375,2.9158079624176025,18770400.0
1994-08-01,6.375,6.421875,6.15625,6.265625,2.872823715209961,13874400.0
1994-09-01,6.28125,6.296875,6.015625,6.28125,2.8799870014190674,8301600.0
1994-09-20,,,,,,
1994-10-01,6.296875,6.65625,6.1875,6.65625,3.13085675239563,12010400.0
1994-11-01,6.65625,6.71875,6.15625,6.515625,3.0647127628326416,12739200.0
1994-12-01,6.5,6.59375,6.125,6.46875,3.0426626205444336,11960000.0
1994-12-09,,,,,,
1995-01-01,6.484375,6.484375,6.234375,6.28125,3.02960467338562,9763200.0
1995-02-01,6.28125,6.8125,6.28125,6.640625,3.2029387950897217,12717600.0
1995-03-01,6.625,7.109375,6.40625,6.84375,3.3009121417999268,14564000.0
1995-03-14,,,,,,
1995-04-01,6.84375,6.984375,6.734375,6.953125,3.4326744079589844,8351200.0
1995-05-01,6.9375,7.46875,6.828125,7.203125,3.5560953617095947,12664000.0
1995-06-01,7.21875,7.75,7.140625,7.578125,3.7412283420562744,9604000.0
1995-06-13,,,,,,
1995-07-01,7.609375,7.84375,7.296875,7.546875,3.8077359199523926,9661600.0
1995-08-01,7.578125,7.84375,7.28125,7.84375,3.957524299621582,13335200.0
1995-09-01,7.875,8.28125,7.84375,8.140625,4.107311725616455,10529600.0
1995-09-27,,,,,,
1995-10-01,8.15625,8.34375,7.78125,7.984375,4.116461277008057,9031200.0
1995-11-01,8.015625,8.59375,8.0,8.34375,4.301742076873779,12156000.0
1995-12-01,8.34375,9.375,8.25,9.3125,4.801194190979004,13902400.0
1995-12-13,,,,,,
1995-12-28,,,,,,
1996-01-01,9.3125,9.875,8.875,9.65625,5.078920841217041,16007600.0
1996-02-01,9.71875,10.25,9.03125,10.21875,5.374782085418701,13399200.0
1996-03-01,10.1875,11.25,10.0625,11.25,5.917190074920654,14111600.0
1996-03-13,,,,,,
1996-04-01,11.1875,11.71875,10.09375,10.84375,5.802890777587891,17024000.0
1996-05-01,10.875,11.0625,9.90625,10.90625,5.8363356590271,13159600.0
1996-06-01,10.84375,11.625,10.71875,11.625,6.220966815948486,11936000.0
1996-06-12,,,,,,
1996-07-01,11.5625,11.5625,9.5,10.125,5.50339937210083,13733200.0
1996-08-01,10.15625,11.4375,10.15625,11.34375,6.165841102600098,13976800.0
1996-09-01,11.3125,12.0,10.8125,11.6875,6.352685928344727,10284400.0
1996-09-25,,,,,,
1996-10-01,11.75,12.5625,11.375,12.40625,6.85856819152832,9202400.0
1996-11-01,12.1875,13.03125,11.8125,12.75,7.048604488372803,10754400.0
1996-12-01,12.8125,12.90625,10.8125,11.4375,6.323012351989746,16532400.0
1996-12-12,,,,,,
1997-01-01,11.4375,12.6875,11.125,12.15625,6.838006973266602,15496400.0
1997-02-01,12.15625,13.21875,11.625,12.40625,6.978632926940918,14404400.0
1997-03-01,12.3125,13.25,12.125,12.46875,7.013791084289551,14692000.0
1997-03-12,,,,,,
1997-04-01,12.40625,13.8125,11.875,13.25,7.5705671310424805,14117200.0
1997-05-01,13.375,14.5625,13.375,14.5,8.284771919250488,14850000.0
1997-06-01,14.625,16.140625,14.59375,15.40625,8.802568435668945,11058800.0
1997-06-11,,,,,,
1997-07-01,15.40625,17.5,15.375,17.421875,10.084879875183105,13678800.0
1997-08-01,17.453125,17.609375,16.484375,16.9375,9.804490089416504,10553200.0
1997-09-01,16.9375,18.75,16.78125,18.1875,10.528066635131836,11398000.0
1997-09-24,,,,,,
1997-10-01,18.234375,18.6875,16.375,17.65625,10.362256050109863,13771600.0
1997-11-01,17.71875,18.90625,17.15625,18.53125,10.87578010559082,8844400.0
1997-12-01,18.546875,21.1875,17.53125,21.1875,12.434700965881348,42576600.0
1997-12-12,,,,,,
1997-12-30,,,,,,
1998-01-01,21.0625,21.09375,18.5625,20.28125,12.073038101196289,21792400.0
1998-02-01,20.4375,23.0,20.40625,22.875,13.617033004760742,13341000.0
1998-03-01,22.9375,23.5625,20.875,23.53125,14.007694244384766,26641800.0
1998-03-11,,,,,,
1998-04-01,23.4375,23.9375,22.5,23.6875,14.179694175720215,20630400.0
1998-05-01,23.6875,24.6875,22.875,23.40625,14.011338233947754,15808600.0
1998-06-01,23.4375,25.0,22.59375,24.9375,14.927971839904785,18787800.0
1998-06-10,,,,,,
1998-07-01,25.0,28.4375,24.4375,26.25,15.797447204589844,21111400.0
1998-08-01,26.4375,29.21875,23.75,23.8125,14.330552101135254,17560400.0
1998-09-01,23.5,26.59375,22.0,22.5,13.54067325592041,23613000.0
1998-09-23,,,,,,
1998-10-01,22.4375,25.46875,18.5,24.8125,15.008060455322266,26317000.0
1998-11-01,24.8125,28.46875,24.59375,26.71875,16.16107177734375,14383400.0
1998-12-01,26.71875,29.25,24.78125,29.0,17.54090690612793,19540000.0
1998-12-11,,,,,,
1999-01-01,28.875,32.25,27.96875,32.0,19.460674285888672,25590000.0
1999-02-01,32.0,33.75,29.15625,33.125,20.144845962524414,22696800.0
1999-03-01,32.875,40.46875,32.8125,39.96875,24.306840896606445,32904400.0
1999-03-10,,,,,,
1999-04-01,39.84375,42.96875,35.0,36.25,22.143163681030273,28947000.0
1999-05-01,36.125,37.75,33.59375,35.0,21.379608154296875,18199000.0
1999-06-01,35.03125,40.0,33.125,40.0,24.433841705322266,23626000.0
1999-06-09,,,,,,
1999-07-01,39.5,39.5,35.0625,35.4375,21.744220733642578,16384600.0
1999-08-01,35.25,38.375,33.0,37.6875,23.124805450439453,22847200.0
1999-09-01,37.6875,40.75,36.15625,39.59375,24.29446029663086,24215800.0
1999-09-22,,,,,,
1999-10-01,39.65625,44.0,35.75,44.0,27.10875129699707,23767000.0
1999-11-01,43.875,46.96875,40.0,44.0625,27.14727020263672,28255200.0
1999-12-01,44.0625,53.75,43.5625,50.0,30.805404663085938,32733200.0
1999-12-16,,,,,,
2000-01-01,50.0,50.46875,44.90625,46.84375,28.965408325195312,25558000.0
2000-02-01,46.84375,49.96875,41.5,47.09375,29.1199893951416,30843400.0
2000-03-01,47.09375,50.3125,37.75,46.8125,28.946075439453125,52597600.0
2000-03-08,,,,,,
2000-04-01,46.8125,49.59375,40.84375,45.53125,28.276382446289062,32282000.0
2000-05-01,45.28125,45.6875,40.875,41.96875,26.063962936401367,24774200.0
2000-06-01,42.03125,48.75,41.75,44.53125,27.655344009399414,24573600.0
2000-06-07,,,,,,
2000-07-01,44.71875,45.5,40.5,42.5,26.49530792236328,32703400.0
2000-08-01,42.625,43.875,39.5,41.7265625,26.013126373291016,29079400.0
2000-09-01,41.84375,42.28125,34.0625,36.46875,22.735305786132812,41804600.0
2000-09-26,,,,,,
2000-10-01,36.5,46.5,35.0625,46.125,28.88832664489746,37569000.0
2000-11-01,45.875,46.4375,37.53125,39.3125,24.62162971496582,36760000.0
2000-12-01,39.375,45.3125,38.0,41.4375,25.952524185180664,34864200.0
2000-12-15,,,,,,
2001-01-01,41.4375,46.21875,38.34375,45.650001525878906,28.70950698852539,38601400.0
2001-02-01,45.650001525878906,47.724998474121094,43.154998779296875,45.345001220703125,28.51767921447754,48594600.0
2001-03-01,45.345001220703125,46.724998474121094,38.54999923706055,41.439998626708984,26.061813354492188,54958800.0
2001-03-07,,,,,,
2001-04-01,41.5,46.349998474121094,39.0,43.92499923706055,27.731159210205078,44356200.0
2001-05-01,43.91999816894531,49.099998474121094,42.525001525878906,46.540000915527344,29.382080078125,40936600.0
2001-06-01,46.45000076293945,47.04999923706055,40.400001525878906,43.0,27.147178649902344,53031200.0
2001-06-06,,,,,,
2001-07-01,43.0,44.599998474121094,39.125,43.685001373291016,27.697927474975586,60484200.0
2001-08-01,43.689998626708984,43.79999923706055,37.95500183105469,38.89500045776367,24.660886764526367,47711600.0
2001-09-01,38.42499923706055,38.89500045776367,29.549999237060547,32.45000076293945,20.57451820373535,61503000.0
2001-09-19,,,,,,
2001-10-01,31.75,40.494998931884766,30.625,38.38999938964844,24.487668991088867,72674200.0
2001-11-01,38.275001525878906,43.9900016784668,38.07500076293945,42.93000030517578,27.383569717407227,53374800.0
2001-12-01,42.525001525878906,45.345001220703125,41.57500076293945,44.67499923706055,28.496646881103516,44080200.0
2001-12-18,,,,,,
2002-01-01,44.20000076293945,46.0,42.30500030517578,43.685001373291016,27.9959774017334,46211200.0
2002-02-01,43.689998626708984,47.380001068115234,41.83000183105469,46.77000045776367,29.97303581237793,57885600.0
2002-03-01,46.974998474121094,48.67499923706055,45.41999816894531,47.20000076293945,30.24860382080078,61335200.0
2002-03-06,,,,,,
2002-04-01,46.70000076293945,47.46500015258789,42.57500076293945,43.619998931884766,28.07245445251465,58281000.0
2002-05-01,43.849998474121094,46.099998474121094,42.099998474121094,43.185001373291016,27.79250717163086,64887000.0
2002-06-01,43.185001373291016,43.29999923706055,18.25,22.899999618530273,14.737722396850586,308645000.0
2002-06-05,,,,,,
2002-07-01,23.049999237060547,28.520000457763672,19.389999389648438,26.655000686645508,17.238407135009766,158235800.0
2002-08-01,26.325000762939453,33.0099983215332,23.5,30.25,19.56338119506836,118286600.0
2002-09-01,29.549999237060547,32.345001220703125,26.899999618530273,27.84000015258789,18.00478172302246,85948800.0
2002-09-18,,,,,,
2002-10-01,27.885000228881836,32.45000076293945,24.125,28.815000534057617,18.7574520111084,140401200.0
2002-11-01,28.815000534057617,34.32500076293945,28.399999618530273,34.025001525878906,22.148969650268555,86086200.0
2002-12-01,34.67499923706055,35.25,31.200000762939453,32.29999923706055,21.02604866027832,59516400.0
2002-12-18,,,,,,
2003-01-01,32.650001525878906,34.125,29.149999618530273,30.149999618530273,19.745853424072266,66875600.0
2003-02-01,30.149999618530273,30.149999618530273,25.325000762939453,26.489999771118164,17.348844528198242,97413000.0
2003-03-01,26.700000762939453,29.739999771118164,23.25,27.084999084472656,17.738521575927734,102874000.0
2003-03-05,,,,,,
2003-04-01,27.084999084472656,32.01499938964844,26.575000762939453,30.950000762939453,20.427013397216797,85240200.0
2003-05-01,30.774999618530273,34.93000030517578,30.145000457763672,34.904998779296875,23.037311553955078,67900400.0
2003-06-01,36.125,38.21500015258789,34.564998626708984,35.849998474121094,23.661008834838867,79882600.0
2003-06-04,,,,,,
2003-07-01,35.849998474121094,37.724998474121094,34.80500030517578,36.939998626708984,24.52113151550293,57951000.0
2003-08-01,36.939998626708984,39.599998474121094,35.30500030517578,39.04999923706055,25.92176055908203,37398200.0
2003-09-01,39.29999923706055,40.59000015258789,35.80500030517578,35.92499923706055,23.847366333007812,57657800.0
2003-09-24,,,,,,
2003-10-01,35.92499923706055,40.05500030517578,35.900001525878906,39.900001525878906,26.623563766479492,52873800.0
2003-11-01,39.900001525878906,40.67499923706055,38.220001220703125,39.83000183105469,26.576866149902344,30283200.0
2003-12-01,39.82500076293945,43.79999923706055,39.790000915527344,43.665000915527344,29.13578987121582,37713400.0
2003-12-23,,,,,,
2004-01-01,43.599998474121094,44.40999984741211,41.19499969482422,41.20000076293945,27.61969757080078,39270200.0
2004-02-01,41.28499984741211,42.349998474121094,38.42499923706055,40.900001525878906,27.418577194213867,57079600.0
2004-03-01,40.900001525878906,41.17499923706055,37.32500076293945,40.125,26.899024963378906,60566800.0
2004-03-03,,,,,,
2004-04-01,40.29999923706055,41.58000183105469,38.849998474121094,39.755001068115234,26.80170440673828,41878200.0
2004-05-01,39.7599983215332,41.7400016784668,38.869998931884766,39.935001373291016,26.92306900024414,51103200.0
2004-06-01,39.70000076293945,41.279998779296875,37.525001525878906,37.94499969482422,25.581462860107422,46462200.0
2004-06-04,,,,,,
2004-07-01,37.95000076293945,38.07500076293945,33.95000076293945,36.0099983215332,24.413494110107422,74957400.0
2004-08-01,36.0099983215332,36.15999984741211,33.21500015258789,34.404998779296875,23.325355529785156,37989800.0
2004-09-01,34.275001525878906,36.66999816894531,33.94499969482422,36.529998779296875,24.76603126525879,43329400.0
2004-09-22,,,,,,
2004-10-01,36.59000015258789,40.45500183105469,35.48500061035156,39.45000076293945,26.914306640625,45839200.0
2004-11-01,39.3849983215332,42.2400016784668,39.26499938964844,40.5,27.630643844604492,40014200.0
2004-12-01,40.70000076293945,42.474998474121094,40.0,42.15999984741211,28.763174057006836,31504800.0
2004-12-21,,,,,,
2005-01-01,42.400001525878906,43.69499969482422,41.415000915527344,42.44499969482422,29.117610931396484,45964200.0
2005-02-01,42.42499923706055,45.7400016784668,42.005001068115234,45.53499984741211,31.237388610839844,36988400.0
2005-03-01,45.5,45.665000915527344,43.1349983215332,44.2599983215332,30.36271858215332,39291400.0
2005-03-08,,,,,,
2005-04-01,44.474998474121094,44.5,40.94499969482422,41.45000076293945,28.57854461669922,42997200.0
2005-05-01,41.57500076293945,43.28499984741211,40.90999984741211,40.94499969482422,28.230361938476562,38647000.0
2005-06-01,40.814998626708984,42.10499954223633,38.04999923706055,39.93000030517578,27.53055763244629,60929800.0
2005-06-07,,,,,,
2005-07-01,40.25,42.45000076293945,39.5,42.435001373291016,29.419208526611328,40768600.0
2005-08-01,42.689998626708984,43.18000030517578,39.505001068115234,40.220001220703125,27.88359260559082,35620000.0
2005-09-01,41.0,42.369998931884766,40.290000915527344,41.814998626708984,28.989377975463867,34269800.0
2005-09-21,,,,,,
2005-10-01,41.45000076293945,42.38999938964844,37.875,41.47999954223633,28.9119930267334,54968000.0
2005-11-01,41.5,42.845001220703125,40.099998474121094,42.279998779296875,29.469594955444336,36310800.0
2005-12-01,42.45000076293945,44.400001525878906,42.20000076293945,42.564998626708984,29.668251037597656,29696400.0
2005-12-14,,,,,,
2006-01-01,42.744998931884766,43.525001525878906,40.89500045776367,40.89500045776367,28.66829490661621,34686800.0
2006-02-01,40.849998474121094,42.40999984741211,39.375,39.90999984741211,27.97779655456543,51401800.0
2006-03-01,40.0,42.53499984741211,39.650001525878906,41.625,29.180038452148438,46089400.0
2006-03-07,,,,,,
2006-04-01,41.630001068115234,45.79999923706055,40.91999816894531,45.005001068115234,31.747047424316406,42495000.0
2006-05-01,44.80500030517578,47.57500076293945,44.60499954223633,47.55500030517578,33.54582595825195,51148800.0
2006-06-01,47.46500015258789,48.31999969482422,43.6349983215332,44.54499816894531,31.422544479370117,77265000.0
2006-06-05,,,,,,
2006-07-01,44.66999816894531,45.20500183105469,42.060001373291016,44.255001068115234,31.381315231323242,45413400.0
2006-08-01,44.130001068115234,44.7400016784668,43.025001525878906,43.709999084472656,30.994855880737305,38086400.0
2006-09-01,43.82500076293945,47.3849983215332,43.82500076293945,46.79999923706055,33.185977935791016,50342000.0
2006-09-19,,,,,,
2006-10-01,46.790000915527344,51.220001220703125,46.505001068115234,50.724998474121094,36.16593933105469,57647000.0
2006-11-01,50.724998474121094,51.75,49.935001373291016,51.08000183105469,36.419044494628906,30253800.0
2006-12-01,51.20000076293945,53.029998779296875,51.20000076293945,52.27000045776367,37.26750183105469,34685000.0
2006-12-14,,,,,,
2007-01-01,51.900001525878906,52.650001525878906,50.28499984741211,52.599998474121094,37.68146514892578,43672000.0
2007-02-01,52.54499816894531,53.45000076293945,50.30500030517578,51.810001373291016,37.115509033203125,53768200.0
2007-03-01,50.96500015258789,53.220001220703125,50.41999816894531,51.189998626708984,36.67136764526367,57943200.0
2007-03-06,,,,,,
2007-04-01,51.1349983215332,54.67499923706055,50.55500030517578,52.35499954223633,37.68867111206055,42968600.0
2007-05-01,52.529998779296875,52.92499923706055,51.17499923706055,52.650001525878906,37.90103530883789,47426600.0
2007-06-01,52.94499969482422,54.310001373291016,50.744998931884766,52.91999816894531,38.09538650512695,44490400.0
2007-06-04,,,,,,
2007-06-26,,,,,,
2007-07-01,53.279998779296875,55.45000076293945,51.400001525878906,51.869998931884766,37.55239486694336,47510900.0
2007-08-01,51.869998931884766,55.209999084472656,48.119998931884766,50.93000030517578,36.87186050415039,51835200.0
2007-09-01,50.97999954223633,52.08000183105469,47.40999984741211,48.09000015258789,34.81577682495117,44197100.0
2007-09-18,,,,,,
2007-10-01,48.310001373291016,53.06999969482422,47.290000915527344,50.97999954223633,37.021949768066406,62394100.0
2007-11-01,50.779998779296875,50.849998474121094,45.81999969482422,48.75,35.40251922607422,58278600.0
2007-12-01,48.41999816894531,50.5099983215332,46.900001525878906,47.529998779296875,34.51654815673828,38562500.0
2007-12-13,,,,,,
2008-01-01,47.59000015258789,47.59000015258789,40.86000061035156,45.369998931884766,33.0517463684082,67645000.0
2008-02-01,45.619998931884766,47.959999084472656,44.45000076293945,44.66999816894531,32.54180145263672,57176100.0
2008-03-01,44.65999984741211,45.43000030517578,42.189998626708984,44.18000030517578,32.184844970703125,53829100.0
2008-03-05,,,,,,
2008-04-01,44.34000015258789,48.630001068115234,43.7400016784668,47.7400016784668,34.89422607421875,50691200.0
2008-05-01,47.88999938964844,50.15999984741211,47.61000061035156,49.0099983215332,35.822505950927734,42599900.0
2008-06-01,48.91999816894531,48.95000076293945,44.209999084472656,44.880001068115234,32.80379867553711,58820700.0
2008-06-04,,,,,,
2008-07-01,44.130001068115234,44.20000076293945,39.77000045776367,42.689998626708984,31.30067253112793,98707700.0
2008-08-01,42.91999816894531,45.0,41.2599983215332,42.38999938964844,31.080686569213867,56547400.0
2008-09-01,42.900001525878906,44.439998626708984,37.22999954223633,38.560001373291016,28.27251625061035,58651900.0
2008-09-17,,,,,,
2008-10-01,38.25,38.41999816894531,25.010000228881836,29.540000915527344,21.741411209106445,99916400.0
2008-11-01,28.670000076293945,30.950000762939453,22.020000457763672,28.290000915527344,20.821409225463867,70890200.0
2008-12-01,27.670000076293945,29.860000610351562,24.610000610351562,26.920000076293945,19.813095092773438,65126000.0
2008-12-15,,,,,,
2009-01-01,26.899999618530273,28.770000457763672,24.6299991607666,25.889999389648438,19.158912658691406,53989500.0
2009-02-01,25.309999465942383,28.799999237060547,23.65999984741211,24.030000686645508,17.782489776611328,67807600.0
2009-03-01,23.540000915527344,25.309999465942383,20.09000015258789,23.399999618530273,17.316280364990234,79691900.0
2009-03-04,,,,,,
2009-04-01,23.040000915527344,32.15999984741211,23.010000228881836,31.469999313354492,23.44179916381836,62036600.0
2009-05-01,31.690000534057617,33.209999084472656,29.969999313354492,30.5,22.719249725341797,49114700.0
2009-06-01,30.84000015258789,33.04999923706055,30.829999923706055,31.579999923706055,23.52373504638672,52014100.0
2009-06-05,,,,,,
2009-07-01,31.809999465942383,34.880001068115234,29.709999084472656,34.0,25.445619583129883,50919300.0
2009-08-01,34.2599983215332,37.619998931884766,33.81999969482422,36.31999969482422,27.181896209716797,40932900.0
2009-09-01,36.130001068115234,38.4900016784668,35.0,36.939998626708984,27.64592170715332,42551200.0
2009-09-16,,,,,,
2009-10-01,36.869998931884766,39.11000061035156,34.2400016784668,34.279998779296875,25.759292602539062,57658800.0
2009-11-01,34.290000915527344,37.45000076293945,34.290000915527344,36.720001220703125,27.592798233032227,39901700.0
2009-12-01,36.9900016784668,39.9900016784668,35.689998626708984,39.150001525878906,29.41879653930664,40154800.0
2009-12-14,,,,,,
2010-01-01,39.5,39.7400016784668,35.130001068115234,35.29999923706055,26.633148193359375,44185200.0
2010-02-01,35.619998931884766,37.290000915527344,34.540000915527344,36.619998931884766,27.629060745239258,56730700.0
2010-03-01,36.630001068115234,40.290000915527344,36.58000183105469,38.810001373291016,29.281375885009766,51028500.0
2010-03-03,,,,,,
2010-04-01,38.4900016784668,44.08000183105469,38.4900016784668,42.65999984741211,32.35795974731445,86074500.0
2010-05-01,42.7599983215332,43.599998474121094,36.220001220703125,37.95000076293945,28.785383224487305,81506200.0
2010-06-01,37.540000915527344,39.13999938964844,34.18000030517578,34.29999923706055,26.016834259033203,68531700.0
2010-06-11,,,,,,
2010-07-01,34.20000076293945,38.720001220703125,33.5,37.2599983215332,28.414295196533203,71775100.0
2010-08-01,37.97999954223633,38.93000030517578,34.68000030517578,35.0099983215332,26.698453903198242,43589500.0
2010-09-01,35.47999954223633,40.0,35.47999954223633,39.47999954223633,30.107248306274414,41283000.0
2010-09-20,,,,,,
2010-10-01,39.650001525878906,44.38999938964844,38.540000915527344,43.959999084472656,33.69550323486328,57155000.0
2010-11-01,44.209999084472656,47.2400016784668,43.83000183105469,45.439998626708984,34.829917907714844,55116800.0
2010-12-01,46.16999816894531,47.880001068115234,45.65999984741211,45.79999923706055,35.10587692260742,37599400.0
2010-12-20,,,,,,
2011-01-01,46.119998931884766,47.5099983215332,44.56999969482422,44.880001068115234,34.54948425292969,46395900.0
2011-02-01,45.20000076293945,50.900001525878906,44.93000030517578,50.900001525878906,39.18378829956055,42161500.0
2011-03-01,51.02000045776367,51.25,46.11000061035156,49.060001373291016,37.76731872558594,52104900.0
2011-03-02,,,,,,
2011-04-01,49.060001373291016,49.779998779296875,46.04999923706055,49.189998626708984,38.058876037597656,51955500.0
2011-05-01,49.5099983215332,49.61000061035156,45.95000076293945,46.77000045776367,36.18649673461914,42560700.0
2011-06-01,46.59000015258789,48.290000915527344,44.61000061035156,48.15999984741211,37.26195526123047,48959300.0
2011-06-10,,,,,,
2011-07-01,48.18000030517578,49.54999923706055,46.5,46.91999816894531,36.49946975708008,39055400.0
2011-08-01,47.099998474121094,47.099998474121094,36.880001068115234,40.54999923706055,31.5441837310791,88055700.0
2011-09-01,40.47999954223633,40.81999969482422,35.27000045776367,36.84000015258789,28.65815544128418,58906400.0
2011-09-21,,,,,,
2011-10-01,36.5099983215332,45.650001525878906,35.34000015258789,44.47999954223633,34.82374572753906,54436400.0
2011-11-01,43.0099983215332,44.7400016784668,39.720001220703125,43.16999816894531,33.79813766479492,36989700.0
2011-12-01,43.2599983215332,45.0,41.040000915527344,44.58000183105469,34.90203857421875,34819900.0
2011-12-19,,,,,,
2012-01-01,45.18000030517578,47.959999084472656,43.83000183105469,45.61000061035156,35.92568588256836,33976000.0
2012-02-01,45.86000061035156,49.63999938964844,45.70000076293945,49.439998626708984,38.94247055053711,28708100.0
2012-03-01,49.349998474121094,51.380001068115234,47.54999923706055,50.650001525878906,39.89555358886719,31204300.0
2012-03-01,,,,,,
2012-04-01,49.349998474121094,51.709999084472656,47.41999816894531,51.310001373291016,40.66215133666992,44893300.0
2012-05-01,51.47999954223633,52.189998626708984,47.45000076293945,47.68000030517578,37.78544616699219,40936000.0
2012-06-01,46.939998626708984,48.619998931884766,45.650001525878906,48.599998474121094,38.51453399658203,37191200.0
2012-06-12,,,,,,
2012-07-01,48.779998779296875,50.720001220703125,47.029998779296875,50.18000030517578,40.018394470214844,34598300.0
2012-08-01,50.18000030517578,52.560001373291016,48.939998626708984,51.369998931884766,40.96741485595703,25425600.0
2012-09-01,51.31999969482422,54.7599983215332,51.25,51.560001373291016,41.118934631347656,32078300.0
2012-09-20,,,,,,
2012-10-01,51.58000183105469,53.06999969482422,46.849998474121094,47.90999984741211,38.42061996459961,31627800.0
2012-11-01,47.86000061035156,50.0,45.11000061035156,49.7400016784668,39.888153076171875,42688500.0
2012-12-01,49.849998474121094,51.11000061035156,48.84000015258789,49.959999084472656,40.0645751953125,33872400.0
2012-12-12,,,,,,
2013-01-01,50.5,54.56999969482422,50.400001525878906,54.279998779296875,43.79397201538086,30097900.0
2013-02-01,54.68000030517578,58.15999984741211,53.5099983215332,57.529998779296875,46.4161262512207,37872700.0
2013-03-01,56.84000015258789,60.04999923706055,56.689998626708984,58.900001525878906,47.521461486816406,28032100.0
2013-03-01,,,,,,
2013-04-01,58.779998779296875,60.790000915527344,57.72999954223633,59.77000045776367,48.5610237121582,37504800.0
2013-05-01,59.779998779296875,64.29000091552734,59.290000915527344,62.130001068115234,50.47845458984375,40095100.0
2013-06-01,62.150001525878906,64.25,60.11000061035156,62.869998931884766,51.07966613769531,33491200.0
2013-06-12,,,,,,
2013-07-01,62.88999938964844,70.5,61.7599983215332,64.2699966430664,52.55510330200195,59689600.0
2013-08-01,64.87999725341797,65.30000305175781,59.70000076293945,60.650001525878906,49.59494400024414,40336000.0
2013-09-01,61.61000061035156,66.36000061035156,60.13999938964844,63.439998626708984,51.876380920410156,24954600.0
2013-09-20,,,,,,
2013-10-01,64.16999816894531,68.95999908447266,61.349998474121094,68.11000061035156,56.03684616088867,33627300.0
2013-11-01,68.19000244140625,72.48999786376953,68.13999938964844,71.44999694824219,58.7848014831543,22503200.0
2013-12-01,71.37000274658203,74.5,68.79000091552734,74.37000274658203,61.18721008300781,26994300.0
2013-12-18,,,,,,
2014-01-01,74.5199966430664,75.36000061035156,71.31999969482422,72.58000183105469,60.05846405029297,30897500.0
2014-02-01,72.70999908447266,76.87000274658203,70.58999633789062,75.68000030517578,62.62364959716797,33698600.0
2014-02-27,,,,,,
2014-02-28,,,,,,
2014-03-01,74.8499984741211,76.18000030517578,70.72000122070312,72.5999984741211,60.718406677246094,27818400.0
2014-04-01,72.80000305175781,72.83999633789062,65.95999908447266,67.68000030517578,56.60358810424805,41026300.0
2014-05-01,67.54000091552734,71.30999755859375,65.43000030517578,71.1500015258789,59.50568389892578,61656700.0
2014-06-01,71.30000305175781,71.8499984741211,69.37999725341797,71.22000122070312,59.564239501953125,31506600.0
2014-06-11,,,,,,
2014-07-01,71.5,74.13999938964844,69.80000305175781,69.98999786376953,58.95009231567383,39240900.0
2014-08-01,69.7699966430664,72.7300033569336,69.55000305175781,72.01000213623047,60.65146255493164,21604400.0
2014-09-01,71.97000122070312,72.79000091552734,68.31999969482422,68.86000061035156,57.99833679199219,27870600.0
2014-09-19,,,,,,
2014-10-01,68.69000244140625,71.98999786376953,64.02999877929688,71.86000061035156,60.956459045410156,44809100.0
2014-11-01,72.08999633789062,77.38999938964844,71.91999816894531,77.2699966430664,65.54558563232422,23067200.0
2014-12-01,77.0999984741211,78.48999786376953,74.52999877929688,77.47000122070312,65.71525573730469,31880300.0
2014-12-19,,,,,,
2015-01-01,78.0,78.05999755859375,72.5,72.80000305175781,62.15724563598633,26840100.0
2015-02-01,73.13999938964844,80.52999877929688,71.9800033569336,79.54000091552734,67.91190338134766,31367800.0
2015-03-01,79.55999755859375,80.9800033569336,76.12999725341797,77.9800033569336,66.57996368408203,21218600.0
2015-03-05,,,,,,
2015-04-01,77.36000061035156,79.27999877929688,75.37000274658203,75.76000213623047,65.0960922241211,32077900.0
2015-05-01,76.22000122070312,78.5999984741211,74.05000305175781,74.52999877929688,64.03923034667969,24570500.0
2015-06-01,74.7699966430664,75.30999755859375,69.0199966430664,69.48999786376953,59.70865249633789,26116800.0
2015-06-10,,,,,,
2015-07-01,70.48999786376953,74.55999755859375,68.75,73.08000183105469,63.22753143310547,42743400.0
2015-08-01,73.13999938964844,74.0999984741211,64.30999755859375,66.9800033569336,57.949913024902344,31894100.0
2015-09-01,65.58999633789062,69.98999786376953,64.12000274658203,65.9000015258789,57.01552200317383,28360800.0
2015-09-18,,,,,,
2015-10-01,65.9000015258789,75.58000183105469,64.44000244140625,74.91999816894531,65.29216766357422,36375400.0
2015-11-01,74.93000030517578,75.30999755859375,71.19000244140625,73.91999816894531,64.4206771850586,31013400.0
2015-12-01,74.41999816894531,77.56999969482422,73.29000091552734,75.66000366210938,65.93708038330078,41869400.0
2015-12-16,,,,,,
2016-01-01,74.38999938964844,74.44000244140625,66.4800033569336,73.3499984741211,64.35890197753906,32915400.0
2016-02-01,72.91000366210938,78.69000244140625,68.05000305175781,77.80999755859375,68.27220916748047,44299600.0
2016-03-01,78.62999725341797,84.2300033569336,77.1500015258789,83.2300033569336,73.02783966064453,35961500.0
2016-03-07,,,,,,
2016-04-01,82.29000091552734,85.94999694824219,82.19000244140625,82.97000122070312,73.26482391357422,35432800.0
2016-05-01,83.45999908447266,84.62999725341797,81.55999755859375,83.33000183105469,73.58271789550781,32073200.0
2016-06-01,83.13999938964844,85.75,75.61000061035156,81.48999786376953,71.95793914794922,38971000.0
2016-06-09,,,,,,
2016-07-01,81.48999786376953,85.41999816894531,79.94000244140625,82.29000091552734,73.13555145263672,33414100.0
2016-08-01,82.44999694824219,86.5,80.62999725341797,86.12999725341797,76.54837036132812,25717300.0
2016-09-01,86.25,87.5,83.13999938964844,85.0,75.54405975341797,21615000.0
2016-09-20,,,,,,
2016-10-01,84.45999908447266,84.95999908447266,78.77999877929688,79.81999969482422,71.40782165527344,38525500.0
2016-11-01,80.0,88.79000091552734,78.66999816894531,86.94000244140625,77.7774429321289,33522000.0
2016-12-01,86.80000305175781,89.66000366210938,81.52999877929688,85.11000061035156,76.14030456542969,41874500.0
2016-12-15,,,,,,
2017-01-01,85.91000366210938,87.23999786376953,84.37999725341797,85.6500015258789,77.10591888427734,25157900.0
2017-02-01,85.66999816894531,87.43000030517578,83.81999969482422,85.0999984741211,76.61077880859375,30658600.0
2017-03-01,85.81999969482422,86.70999908447266,83.66999816894531,86.20999908447266,77.61006164550781,36463900.0
2017-03-07,,,,,,
2017-04-01,86.2699966430664,86.70999908447266,81.7300033569336,82.12000274658203,74.41233825683594,40184200.0
2017-05-01,82.4000015258789,84.5,81.27999877929688,83.72000122070312,75.86216735839844,37055800.0
2017-06-01,83.69000244140625,85.44000244140625,79.86000061035156,82.9000015258789,75.11913299560547,39699400.0
2017-06-12,,,,,,
2017-07-01,82.69000244140625,83.63999938964844,77.5,78.73999786376953,71.8343505859375,42983400.0
2017-08-01,78.76000213623047,80.26000213623047,71.80000305175781,72.37999725341797,66.0321273803711,41724900.0
2017-09-01,72.37999725341797,76.66999816894531,71.62999725341797,74.06999969482422,67.57392883300781,37412100.0
2017-09-21,,,,,,
2017-10-01,74.20999908447266,78.69999694824219,67.16999816894531,67.19000244140625,61.75406265258789,58065300.0
2017-11-01,67.68000030517578,74.97000122070312,65.31999969482422,71.44000244140625,65.66023254394531,51702000.0
2017-12-01,71.56999969482422,76.4800033569336,70.63999938964844,72.83000183105469,66.93777465820312,46673400.0
2017-12-18,,,,,,
2018-01-01,72.66000366210938,78.23999786376953,69.6500015258789,76.6500015258789,71.02139282226562,48954000.0
2018-02-01,76.22000122070312,83.33999633789062,71.4000015258789,76.2300033569336,70.63224029541016,67368600.0
2018-03-01,74.76000213623047,76.55999755859375,70.08999633789062,72.66999816894531,67.33365631103516,47849600.0
2018-03-08,,,,,,
2018-04-01,72.52999877929688,76.75,70.30999755859375,73.66000366210938,68.80803680419922,42664200.0
2018-05-01,73.36000061035156,75.9000015258789,69.13999938964844,72.08000183105469,67.33210754394531,35968000.0
2018-06-01,72.2300033569336,77.30999755859375,71.81999969482422,76.2699966430664,71.24612426757812,36527900.0
2018-06-13,,,,,,
2018-07-01,75.79000091552734,78.37999725341797,66.37999725341797,68.83000183105469,64.8106918334961,60704900.0
2018-08-01,68.51000213623047,69.87999725341797,66.1500015258789,69.31999969482422,65.2720718383789,31444900.0
2018-09-01,68.27999877929688,71.22000122070312,65.8499984741211,68.0199966430664,64.04798889160156,47597500.0
2018-09-20,,,,,,
2018-10-01,66.75,77.8499984741211,66.75,74.31999969482422,70.59414672851562,84302800.0
2018-11-01,74.75,77.83000183105469,74.41000366210938,76.97000122070312,73.11129760742188,50621400.0
2018-12-01,77.62999725341797,78.08000183105469,68.58000183105469,73.23999786376953,69.56828308105469,46859800.0
2018-12-20,,,,,,
2019-01-01,72.58999633789062,77.97000122070312,71.5,77.87999725341797,74.58145904541016,38419700.0
2019-02-01,78.0999984741211,78.75,71.75,75.69999694824219,72.4937744140625,44663900.0
2019-03-01,76.70999908447266,77.52999877929688,72.08999633789062,72.98999786376953,69.89856719970703,34733900.0
2019-03-08,,,,,,
2019-04-01,73.29000091552734,84.3499984741211,72.94999694824219,80.02999877929688,77.31532287597656,47424100.0
2019-05-01,79.93000030517578,80.97000122070312,76.9000015258789,77.36000061035156,74.73588562011719,35383700.0
2019-06-01,77.41999816894531,82.13999938964844,76.72000122070312,81.94999694824219,79.1701889038086,40988600.0
2019-06-13,,,,,,
2019-07-01,82.73999786376953,85.05000305175781,79.02999877929688,80.22000122070312,78.13531494140625,43834900.0
2019-08-01,80.30000305175781,80.88999938964844,74.62999725341797,76.05999755859375,74.08341979980469,31328200.0
2019-09-01,75.47000122070312,82.62999725341797,74.9800033569336,78.30000305175781,76.26520538330078,34112700.0
2019-09-19,,,,,,
2019-10-01,78.75,79.55000305175781,72.54000091552734,77.19000244140625,75.8058090209961,41442500.0
2019-11-01,77.41999816894531,80.83999633789062,76.41999816894531,79.4800033569336,78.05474853515625,29344800.0
2019-12-01,79.5,82.7300033569336,77.19999694824219,81.0199966430664,79.5671157836914,27403500.0
2019-12-19,,,,,,
2020-01-01,81.1500015258789,81.16999816894531,74.83999633789062,75.30999755859375,74.56627655029297,39066300.0
2020-02-01,75.6500015258789,80.25,67.05999755859375,69.27999877929688,68.59583282470703,46136100.0
2020-03-01,69.41000366210938,71.73999786376953,46.369998931884766,52.15999984741211,51.6448974609375,63161400.0
2020-03-09,,,,,,
2020-03-26,52.790000915527344,56.52000045776367,52.540000915527344,55.709999084472656,55.709999084472656,1688344.0
