Date,Open,High,Low,Close,Adj Close,Volume
1980-03-01,0.0,5.382716178894043,4.938271522521973,5.061728477478027,1.0805819034576416,440900.0
1980-04-01,0.0,5.358024597167969,4.839506149291992,5.061728477478027,1.0805819034576416,1300500.0
1980-05-01,0.0,5.185184955596924,4.7160491943359375,5.037036895751953,1.0753108263015747,1144500.0
1980-06-01,0.0,5.333333492279053,4.913580417633057,4.913580417633057,1.0489548444747925,787300.0
1980-07-01,0.0,6.197530746459961,4.913580417633057,6.04938268661499,1.291427493095398,1595200.0
1980-08-01,0.0,6.172839641571045,5.530864238739014,5.55555534362793,1.1860042810440063,1185300.0
1980-09-01,0.0,5.851851940155029,5.333333492279053,5.382716178894043,1.149106740951538,1326200.0
1980-10-01,0.0,5.728394985198975,5.259259223937988,5.259259223937988,1.1227507591247559,1519000.0
1980-11-01,0.0,6.864197731018066,5.2839508056640625,6.320987701416016,1.349410057067871,2272600.0
1980-12-01,0.0,6.543210029602051,5.9259257316589355,6.419753074645996,1.3704935312271118,1660000.0
1981-01-01,0.0,6.419753074645996,5.55555534362793,5.851851940155029,1.2492587566375732,926500.0
1981-02-01,0.0,6.246913433074951,5.604938507080078,6.123456954956055,1.3072401285171509,1514900.0
1981-03-01,0.0,6.913580417633057,5.95061731338501,6.543210029602051,1.396849513053894,2411100.0
1981-04-01,0.0,6.987654209136963,6.320987701416016,6.864197731018066,1.4653735160827637,3339400.0
1981-05-01,0.0,7.2839508056640625,6.6913580894470215,7.160493850708008,1.5286288261413574,2119900.0
1981-06-01,0.0,7.55555534362793,6.962963104248047,7.061728477478027,1.507543921470642,1446200.0
1981-07-01,0.0,7.111111164093018,6.44444465637207,6.518518447875977,1.3915786743164062,1094400.0
1981-08-01,0.0,6.765431880950928,6.320987701416016,6.320987701416016,1.349410057067871,1035000.0
1981-09-01,0.0,6.419753074645996,3.5308642387390137,3.7530863285064697,0.8012121319770813,772100.0
1981-09-08,,,,,,
1981-10-01,0.0,4.024691581726074,3.580246925354004,3.8518519401550293,0.8222965002059937,1704100.0
1981-11-01,0.0,4.641975402832031,3.7283949851989746,4.641975402832031,0.9909724593162537,2807600.0
1981-12-01,0.0,4.641975402832031,4.0740742683410645,4.518518447875977,0.9646164178848267,1377300.0
1982-01-01,0.0,4.4938273429870605,3.8518519401550293,3.975308656692505,0.8486519455909729,1245700.0
1982-02-01,0.0,3.975308656692505,3.3580245971679688,3.802469253540039,0.8117541074752808,3320000.0
1982-03-01,0.0,3.9259259700775146,3.2839505672454834,3.7037036418914795,0.7906694412231445,1544800.0
1982-04-01,0.0,4.0987653732299805,3.6543209552764893,3.9259259700775146,0.8381098508834839,2117400.0
1982-05-01,0.0,3.975308656692505,3.3333332538604736,3.3580245971679688,0.7168735265731812,1552800.0
1982-06-01,0.0,3.432098865509033,2.9629628658294678,3.1358025074005127,0.6694334745407104,3506600.0
1982-07-01,0.0,3.209876537322998,2.9629628658294678,3.1358025074005127,0.6694334745407104,2437600.0
1982-08-01,0.0,3.7037036418914795,2.9382715225219727,3.629629611968994,0.7748561501502991,3675100.0
1982-09-01,0.0,4.0,3.4567902088165283,3.5308642387390137,0.753771960735321,5597700.0
1982-10-01,0.0,4.320987701416016,3.555555582046509,3.8518519401550293,0.8222965002059937,5204600.0
1982-11-01,0.0,4.617283821105957,3.827160596847534,4.592592716217041,0.9804306626319885,5138500.0
1982-12-01,0.0,4.6913580894470215,3.802469253540039,4.222222328186035,0.9013634324073792,1990300.0
1983-01-01,0.0,5.135802268981934,4.0,4.790123462677002,1.022599220275879,5064600.0
1983-02-01,0.0,5.407407283782959,4.6913580894470215,5.2839508056640625,1.1280221939086914,4548500.0
1983-03-01,0.0,5.629629611968994,4.888888835906982,5.358024597167969,1.1438350677490234,4104900.0
1983-04-01,0.0,5.9012346267700195,5.209876537322998,5.432098865509033,1.1596488952636719,3161500.0
1983-05-01,0.0,5.55555534362793,5.135802268981934,5.407407283782959,1.154377818107605,4036000.0
1983-06-01,0.0,5.975308418273926,4.839506149291992,5.9012346267700195,1.2597997188568115,5239700.0
1983-07-01,0.0,6.296296119689941,5.604938507080078,5.975308418273926,1.2756133079528809,2847800.0
1983-08-01,0.0,5.9012346267700195,5.259259223937988,5.456789970397949,1.1649200916290283,2625700.0
1983-09-01,0.0,6.172839641571045,5.456789970397949,5.753086566925049,1.2281728982925415,3754700.0
1983-10-01,0.0,6.0740742683410645,5.604938507080078,6.04938268661499,1.291427493095398,4302300.0
1983-11-01,0.0,7.3086419105529785,5.975308418273926,7.061728477478027,1.507543921470642,6012300.0
1983-12-01,0.0,7.086419582366943,6.518518447875977,7.037036895751953,1.5022730827331543,7663900.0
1984-01-01,0.0,7.259259223937988,6.123456954956055,6.222222328186035,1.3283251523971558,5290400.0
1984-02-01,0.0,6.518518447875977,5.876543045043945,6.0987653732299805,1.3019695281982422,3573900.0
1984-03-01,0.0,6.6913580894470215,5.654321193695068,6.617283821105957,1.4126639366149902,4262900.0
1984-04-01,0.0,7.061728477478027,6.567901134490967,6.987654209136963,1.4917298555374146,4434400.0
1984-05-01,0.0,7.111111164093018,5.679012298583984,5.9259257316589355,1.2650712728500366,4844400.0
1984-06-01,0.0,6.320987701416016,5.777777671813965,5.95061731338501,1.2703421115875244,3233800.0
1984-07-01,0.0,5.9012346267700195,4.987654209136963,5.456789970397949,1.1649200916290283,4002100.0
1984-08-01,0.0,6.962963104248047,5.382716178894043,6.567901134490967,1.40212082862854,7036200.0
1984-09-01,0.0,6.7160491943359375,6.197530746459961,6.469135761260986,1.3810365200042725,3999600.0
1984-10-01,0.0,6.567901134490967,5.679012298583984,6.419753074645996,1.3704935312271118,4870100.0
1984-11-01,0.0,6.864197731018066,6.345678806304932,6.44444465637207,1.3757644891738892,3153600.0
1984-12-01,0.0,6.666666507720947,6.04938268661499,6.222222328186035,1.3283251523971558,4798900.0
1985-01-01,0.0,7.703703880310059,6.148148059844971,7.679012298583984,1.6393225193023682,8697800.0
1985-02-01,0.0,7.802469253540039,7.209876537322998,7.209876537322998,1.5391703844070435,4400300.0
1985-03-01,0.0,7.456789970397949,5.827160358428955,6.345678806304932,1.3546801805496216,9323800.0
1985-04-01,0.0,6.370370388031006,5.679012298583984,5.728394985198975,1.2229019403457642,8289600.0
1985-05-01,0.0,6.419753074645996,5.580246925354004,6.0,1.2808855772018433,7387900.0
1985-06-01,0.0,6.7160491943359375,5.95061731338501,6.592592716217041,1.4073916673660278,6842600.0
1985-07-01,6.543210029602051,6.839506149291992,6.4938273429870605,6.666666507720947,1.423205018043518,4639900.0
1985-08-01,6.666666507720947,6.814815044403076,6.4938273429870605,6.641975402832031,1.4179342985153198,3008900.0
1985-08-14,,,,,,
1985-09-01,6.592592716217041,6.666666507720947,6.123456954956055,6.469135761260986,1.3926331996917725,3022500.0
1985-10-01,6.4938273429870605,6.592592716217041,6.172839641571045,6.246913433074951,1.3447949886322021,2848700.0
1985-11-01,6.271605014801025,7.160493850708008,6.172839641571045,7.111111164093018,1.5308340787887573,5935100.0
1985-11-14,,,,,,
1985-12-01,7.111111164093018,7.703703880310059,7.037036895751953,7.604938507080078,1.6509395837783813,5528200.0
1986-01-01,7.604938507080078,7.728394985198975,6.790123462677002,7.703703880310059,1.6723816394805908,6537300.0
1986-02-01,7.679012298583984,8.938271522521973,7.456789970397949,8.913579940795898,1.9350308179855347,5486400.0
1986-02-11,,,,,,
1986-03-01,8.913579940795898,9.185185432434082,8.296296119689941,8.864197731018066,1.9715547561645508,5029800.0
1986-04-01,8.88888931274414,8.88888931274414,8.074073791503906,8.370369911193848,1.8617181777954102,4591200.0
1986-05-01,8.34567928314209,8.370369911193848,7.604938507080078,8.0,1.7793415784835815,3265000.0
1986-05-07,,,,,,
1986-06-01,8.0,8.370369911193848,6.962963104248047,7.814815044403076,1.7835495471954346,4308300.0
1986-06-09,,,,,,
1986-07-01,7.740740776062012,7.888888835906982,6.0,6.259259223937988,1.428529977798462,6338000.0
1986-08-01,6.333333492279053,8.259259223937988,6.296296119689941,8.259259223937988,1.8849833011627197,9615700.0
1986-08-13,,,,,,
1986-09-01,8.259259223937988,8.333333015441895,6.888888835906982,7.629629611968994,1.7912651300430298,7041800.0
1986-10-01,7.592592716217041,8.074073791503906,6.888888835906982,7.740740776062012,1.81735098361969,4308900.0
1986-11-01,7.740740776062012,8.0,7.111111164093018,7.9259257316589355,1.8608283996582031,5329400.0
1986-11-12,,,,,,
1986-12-01,7.9259257316589355,8.11111068725586,7.55555534362793,7.629629611968994,1.8379735946655273,9181200.0
1987-01-01,7.703703880310059,9.925926208496094,7.703703880310059,9.481481552124023,2.284083843231201,9114500.0
1987-02-01,9.481481552124023,11.148148536682129,9.407407760620117,9.88888931274414,2.382227659225464,11208100.0
1987-02-11,,,,,,
1987-03-01,9.851851463317871,10.88888931274414,9.629630088806152,10.037036895751953,2.466646194458008,5398200.0
1987-04-01,10.0,10.777777671813965,9.481481552124023,9.925926208496094,2.439340114593506,5774800.0
1987-05-01,9.88888931274414,10.592592239379883,9.333333015441895,9.407407760620117,2.311912775039673,7329000.0
1987-05-13,,,,,,
1987-06-01,9.481481552124023,10.074073791503906,8.777777671813965,9.777777671813965,2.450824022293091,10593200.0
1987-07-01,9.703703880310059,11.851851463317871,9.629630088806152,11.777777671813965,2.9521303176879883,13370800.0
1987-08-01,11.814814567565918,12.296296119689941,10.962963104248047,12.259259223937988,3.0728142261505127,12226500.0
1987-08-12,,,,,,
1987-09-01,12.296296119689941,14.44444465637207,11.703703880310059,14.148148536682129,3.60577392578125,13896700.0
1987-10-01,14.296296119689941,14.518518447875977,7.259259223937988,8.925926208496094,2.2748470306396484,17865700.0
1987-11-01,8.925926208496094,10.259259223937988,8.148148536682129,9.518518447875977,2.425874710083008,12961900.0
1987-11-12,,,,,,
1987-12-01,9.518518447875977,12.11111068725586,8.851851463317871,10.777777671813965,2.8145182132720947,16921000.0
1988-01-01,10.777777671813965,11.222222328186035,9.703703880310059,10.074073791503906,2.630751371383667,7524400.0
1988-02-01,10.0,10.814814567565918,9.851851463317871,10.629630088806152,2.7758312225341797,6200000.0
1988-02-16,,,,,,
1988-03-01,10.666666984558105,11.44444465637207,10.407407760620117,10.740740776062012,2.862262010574341,8171800.0
1988-04-01,10.592592239379883,11.222222328186035,10.0,10.851851463317871,2.891874074935913,6201400.0
1988-05-01,10.962963104248047,11.037036895751953,10.037036895751953,10.370369911193848,2.763563632965088,6929400.0
1988-05-11,,,,,,
1988-06-01,10.296296119689941,10.925926208496094,10.185185432434082,10.740740776062012,2.9208550453186035,9476700.0
1988-07-01,10.814814567565918,10.814814567565918,9.481481552124023,9.481481552124023,2.578411340713501,8475300.0
1988-08-01,9.55555534362793,9.592592239379883,8.0,8.407407760620117,2.286325693130493,9643300.0
1988-08-10,,,,,,
1988-09-01,8.333333015441895,9.0,8.185185432434082,8.481481552124023,2.360954523086548,5511700.0
1988-10-01,8.518518447875977,8.925926208496094,8.037036895751953,8.148148536682129,2.268164873123169,9105200.0
1988-11-01,8.148148536682129,8.333333015441895,7.851851940155029,8.0,2.226925849914551,8682500.0
1988-11-09,,,,,,
1988-12-01,8.0,8.518518447875977,8.0,8.333333015441895,2.3805911540985107,9735700.0
1989-01-01,8.296296119689941,8.777777671813965,8.222222328186035,8.703703880310059,2.4863955974578857,7322000.0
1989-02-01,8.629630088806152,9.037036895751953,8.370369911193848,8.518518447875977,2.433492422103882,7800900.0
1989-02-13,,,,,,
1989-03-01,8.481481552124023,8.777777671813965,7.9259257316589355,8.333333015441895,2.438513994216919,6434800.0
1989-04-01,8.296296119689941,8.370369911193848,7.777777671813965,8.0,2.3409736156463623,9673500.0
1989-05-01,7.9259257316589355,8.592592239379883,7.888888835906982,8.481481552124023,2.481865406036377,11154500.0
1989-05-11,,,,,,
1989-06-01,8.407407760620117,8.44444465637207,7.9259257316589355,8.0,2.404160976409912,17526700.0
1989-07-01,8.074073791503906,9.074073791503906,7.962963104248047,9.037036895751953,2.715810775756836,8210700.0
1989-08-01,9.148148536682129,9.518518447875977,8.407407760620117,9.11111068725586,2.7380707263946533,9985500.0
1989-08-10,,,,,,
1989-09-01,9.185185432434082,9.296296119689941,8.629630088806152,8.666666984558105,2.6645331382751465,6593800.0
1989-10-01,8.703703880310059,8.740740776062012,7.407407283782959,7.55555534362793,2.322927474975586,10645400.0
1989-11-01,7.629629611968994,8.0,7.111111164093018,7.629629611968994,2.3457000255584717,9373300.0
1989-11-08,,,,,,
1989-12-01,7.592592716217041,7.851851940155029,7.148148059844971,7.481481552124023,2.368048906326294,9497500.0
1990-01-01,7.44444465637207,8.222222328186035,7.185184955596924,8.148148536682129,2.5790646076202393,8700800.0
1990-02-01,8.148148536682129,8.740740776062012,7.814815044403076,8.592592239379883,2.7197389602661133,7845400.0
1990-02-14,,,,,,
1990-03-01,8.55555534362793,8.88888931274414,8.259259223937988,8.740740776062012,2.8485918045043945,8811300.0
1990-04-01,8.592592239379883,8.814814567565918,8.296296119689941,8.370369911193848,2.7278900146484375,4972800.0
1990-05-01,8.44444465637207,9.44444465637207,8.333333015441895,9.370369911193848,3.0537877082824707,7247400.0
1990-05-10,,,,,,
1990-06-01,9.407407760620117,9.703703880310059,8.629630088806152,8.740740776062012,2.924318313598633,5606500.0
1990-07-01,8.703703880310059,8.88888931274414,7.851851940155029,7.9259257316589355,2.65171217918396,5537100.0
1990-08-01,8.0,8.0,6.148148059844971,6.9259257316589355,2.3171513080596924,8890000.0
1990-08-16,,,,,,
1990-09-01,6.888888835906982,7.259259223937988,6.407407283782959,6.740740776062012,2.328274965286255,4322000.0
1990-10-01,6.740740776062012,7.148148059844971,5.518518447875977,5.888888835906982,2.0340425968170166,6756800.0
1990-11-01,5.9259257316589355,6.777777671813965,5.888888835906982,6.629629611968994,2.2898976802825928,7265400.0
1990-11-15,,,,,,
1990-12-01,6.703703880310059,7.407407283782959,6.629629611968994,7.0740742683410645,2.5297956466674805,6490700.0
1991-01-01,7.185184955596924,7.962963104248047,6.740740776062012,7.9259257316589355,2.8344314098358154,7922900.0
1991-02-01,7.851851940155029,8.370369911193848,7.629629611968994,7.814815044403076,2.79469633102417,4109000.0
1991-02-13,,,,,,
1991-03-01,7.703703880310059,8.518518447875977,7.185184955596924,7.481481552124023,2.7547543048858643,9547100.0
1991-04-01,7.407407283782959,8.0,7.111111164093018,7.777777671813965,2.8638510704040527,6778100.0
1991-05-01,7.814815044403076,8.666666984558105,7.481481552124023,8.666666984558105,3.1911494731903076,4996300.0
1991-05-16,,,,,,
1991-06-01,8.703703880310059,8.925926208496094,7.703703880310059,7.962963104248047,3.02016019821167,7138300.0
1991-07-01,8.11111068725586,8.222222328186035,7.814815044403076,7.888888835906982,2.9920637607574463,3964000.0
1991-08-01,7.888888835906982,8.0,7.44444465637207,7.814815044403076,2.963970422744751,5602500.0
1991-08-16,,,,,,
1991-09-01,7.814815044403076,7.888888835906982,7.296296119689941,7.55555534362793,2.952606678009033,6749300.0
1991-10-01,7.55555534362793,8.925926208496094,7.44444465637207,8.925926208496094,3.488128423690796,9060000.0
1991-11-01,8.851851463317871,9.185185432434082,8.44444465637207,8.703703880310059,3.401287794113159,6464300.0
1991-11-14,,,,,,
1991-12-01,8.703703880310059,9.11111068725586,8.0,9.074073791503906,3.639885902404785,6164100.0
1992-01-01,9.074073791503906,9.851851463317871,8.666666984558105,9.518518447875977,3.8181674480438232,9997700.0
1992-02-01,9.481481552124023,10.333333015441895,9.0,10.296296119689941,4.130155563354492,7638400.0
1992-02-12,,,,,,
1992-03-01,10.222222328186035,10.518518447875977,9.037036895751953,9.962963104248047,4.093931198120117,7828800.0
1992-04-01,9.88888931274414,10.740740776062012,9.407407760620117,10.333333015441895,4.246122360229492,8090200.0
1992-05-01,10.296296119689941,10.703703880310059,9.703703880310059,9.740740776062012,4.002617359161377,4962800.0
1992-05-14,,,,,,
1992-06-01,9.703703880310059,9.814814567565918,8.0,8.629630088806152,3.6314103603363037,11079600.0
1992-07-01,8.666666984558105,9.185185432434082,8.259259223937988,8.88888931274414,3.740508556365967,4350300.0
1992-08-01,8.814814567565918,8.962963104248047,8.185185432434082,8.740740776062012,3.678166151046753,3264200.0
1992-08-13,,,,,,
1992-09-01,8.851851463317871,9.481481552124023,8.666666984558105,9.037036895751953,3.915250062942505,5711200.0
1992-10-01,9.037036895751953,9.037036895751953,7.740740776062012,8.333333015441895,3.610373020172119,7071000.0
1992-11-01,8.296296119689941,8.666666984558105,7.777777671813965,8.407407760620117,3.6424660682678223,6148800.0
1992-11-12,,,,,,
1992-12-01,8.370369911193848,8.777777671813965,7.9259257316589355,8.777777671813965,3.914820432662964,7950000.0
1993-01-01,8.740740776062012,9.777777671813965,8.740740776062012,9.666666984558105,4.311258792877197,9472200.0
1993-02-01,9.666666984558105,10.148148536682129,9.222222328186035,9.592592239379883,4.278223514556885,6555500.0
1993-02-11,,,,,,
1993-03-01,9.518518447875977,10.074073791503906,9.296296119689941,9.629630088806152,4.402528285980225,6166800.0
1993-04-01,9.666666984558105,9.666666984558105,8.296296119689941,8.814814567565918,4.03000545501709,8894800.0
1993-05-01,8.851851463317871,9.592592239379883,8.814814567565918,9.518518447875977,4.3517303466796875,6464500.0
1993-05-14,,,,,,
1993-06-01,9.55555534362793,10.11111068725586,9.518518447875977,9.814814567565918,4.607741355895996,7230400.0
1993-07-01,9.88888931274414,9.88888931274414,8.88888931274414,9.222222328186035,4.329535961151123,10945400.0
1993-08-01,9.222222328186035,10.296296119689941,9.222222328186035,10.074073791503906,4.729452610015869,8742100.0
1993-08-13,,,,,,
1993-09-01,10.074073791503906,10.370369911193848,9.666666984558105,10.11111068725586,4.8632731437683105,5425400.0
1993-10-01,10.074073791503906,10.814814567565918,10.037036895751953,10.148148536682129,4.881089210510254,12380300.0
1993-11-01,10.148148536682129,11.185185432434082,10.037036895751953,10.666666984558105,5.130486965179443,8667500.0
1993-11-18,,,,,,
1993-12-01,10.703703880310059,11.296296119689941,10.55555534362793,11.185185432434082,5.5008697509765625,7412200.0
1994-01-01,11.148148536682129,11.703703880310059,10.814814567565918,11.333333015441895,5.573729038238525,5219300.0
1994-02-01,11.333333015441895,11.44444465637207,10.333333015441895,10.481481552124023,5.154788970947266,9084800.0
1994-02-15,,,,,,
1994-03-01,10.44444465637207,11.629630088806152,10.296296119689941,10.481481552124023,5.2782769203186035,11780800.0
1994-04-01,10.370369911193848,12.88888931274414,10.074073791503906,12.851851463317871,6.471950531005859,15127100.0
1994-05-01,12.851851463317871,13.296296119689941,12.148148536682129,12.777777671813965,6.434652328491211,12988200.0
1994-05-13,,,,,,
1994-06-01,12.740740776062012,13.037036895751953,11.814814567565918,12.629630088806152,6.4902567863464355,11623100.0
1994-07-01,12.629630088806152,13.370369911193848,12.296296119689941,12.777777671813965,6.56639289855957,8170400.0
1994-08-01,12.851851463317871,12.925926208496094,12.0,12.44444465637207,6.395097255706787,7129700.0
1994-08-17,,,,,,
1994-09-01,12.370369911193848,12.44444465637207,11.11111068725586,11.814814567565918,6.196220874786377,7240200.0
1994-10-01,11.814814567565918,13.962963104248047,11.333333015441895,13.851851463317871,7.2645368576049805,16715300.0
1994-11-01,13.925926208496094,13.925926208496094,12.55555534362793,13.0,6.8177809715271,15464700.0
1994-11-14,,,,,,
1994-12-01,12.962963104248047,13.851851463317871,12.88888931274414,13.481481552124023,7.203132152557373,8357200.0
1995-01-01,13.481481552124023,14.629630088806152,13.11111068725586,14.0,7.480170726776123,13142300.0
1995-02-01,14.0,14.296296119689941,13.333333015441895,13.851851463317871,7.4010186195373535,9864900.0
1995-02-13,,,,,,
1995-02-17,,,,,,
1995-03-01,13.962963104248047,13.962963104248047,12.259259223937988,13.11111068725586,7.2598981857299805,14055400.0
1995-04-01,13.11111068725586,15.666666984558105,12.962963104248047,15.407407760620117,8.531402587890625,11863500.0
1995-05-01,15.481481552124023,16.925926208496094,15.259259223937988,16.925926208496094,9.372235298156738,10584300.0
1995-05-12,,,,,,
1995-06-01,16.925926208496094,17.55555534362793,15.666666984558105,16.11111068725586,9.072758674621582,6706400.0
1995-06-02,,,,,,
1995-07-01,16.05555534362793,18.22222137451172,16.05555534362793,18.11111068725586,10.199029922485352,8224300.0
1995-08-01,18.11111068725586,18.22222137451172,16.55555534362793,17.61111068725586,9.917463302612305,8221800.0
1995-08-22,,,,,,
1995-09-01,17.66666603088379,18.44444465637207,15.666666984558105,16.88888931274414,9.609911918640137,8878300.0
1995-10-01,16.88888931274414,16.88888931274414,13.722222328186035,15.0,8.535120010375977,14782600.0
1995-11-01,14.94444465637207,17.05555534362793,14.666666984558105,16.33333396911621,9.293797492980957,10928600.0
1995-11-20,,,,,,
1995-11-21,,,,,,
1995-12-01,16.44444465637207,16.77777862548828,14.61111068725586,15.222222328186035,8.871672630310059,13416900.0
1996-01-01,15.11111068725586,16.22222137451172,14.166666984558105,15.222222328186035,8.871672630310059,26667700.0
1996-02-01,15.166666984558105,16.66666603088379,14.833333015441895,15.55555534362793,9.065946578979492,14410400.0
1996-02-16,,,,,,
1996-02-19,,,,,,
1996-02-20,,,,,,
1996-03-01,15.666666984558105,17.66666603088379,15.166666984558105,16.66666603088379,9.989828109741211,11132100.0
1996-04-01,16.77777862548828,18.83333396911621,16.44444465637207,18.77777862548828,11.255209922790527,9367300.0
1996-05-01,18.66666603088379,19.61111068725586,17.83333396911621,18.11111068725586,10.855615615844727,9125100.0
1996-05-21,,,,,,
1996-06-01,18.0,18.83333396911621,17.83333396911621,18.83333396911621,11.398750305175781,5004300.0
1996-07-01,18.83333396911621,19.16666603088379,14.833333015441895,15.5,9.381270408630371,10095500.0
1996-08-01,15.333333015441895,17.44444465637207,15.166666984558105,17.33333396911621,10.490886688232422,11758900.0
1996-08-20,,,,,,
1996-09-01,17.22222137451172,19.55555534362793,17.05555534362793,18.66666603088379,11.422064781188965,8176200.0
1996-10-01,18.55555534362793,18.66666603088379,16.05555534362793,16.83333396911621,10.300253868103027,12207300.0
1996-11-01,16.94444465637207,18.83333396911621,16.55555534362793,18.05555534362793,11.04813003540039,7150000.0
1996-11-19,,,,,,
1996-12-01,18.05555534362793,18.44444465637207,17.11111068725586,17.22222137451172,10.646007537841797,7126500.0
1997-01-01,17.0,19.27777862548828,16.61111068725586,19.16666603088379,11.84797191619873,14603500.0
1997-02-01,19.22222137451172,19.77777862548828,18.72222137451172,19.44444465637207,12.019680976867676,6682500.0
1997-02-18,,,,,,
1997-03-01,19.22222137451172,20.55555534362793,18.94444465637207,19.0,11.865931510925293,7058000.0
1997-04-01,18.77777862548828,22.16666603088379,18.0,22.11111068725586,13.808884620666504,14233500.0
1997-05-01,22.22222137451172,23.83333396911621,21.94444465637207,23.38888931274414,14.606886863708496,10525900.0
1997-05-20,,,,,,
1997-06-01,23.33333396911621,27.33333396911621,23.16666603088379,26.97222137451172,16.993202209472656,14735300.0
1997-07-01,26.5,29.13888931274414,26.16666603088379,28.61111068725586,18.025747299194336,11878000.0
1997-08-01,28.55555534362793,30.0,27.30555534362793,28.58333396911621,18.008249282836914,13255100.0
1997-08-19,,,,,,
1997-09-01,28.58333396911621,32.54166793823242,27.66666603088379,30.0,19.05328369140625,9625800.0
1997-09-08,,,,,,
1997-10-01,30.16666603088379,34.16666793823242,26.54166603088379,28.08333396911621,17.83599090576172,13805700.0
1997-11-01,27.95833396911621,31.91666603088379,26.95833396911621,29.66666603088379,18.841590881347656,16176400.0
1997-11-18,,,,,,
1997-12-01,29.83333396911621,33.75,27.0,30.58333396911621,19.518596649169922,7931000.0
1998-01-01,30.75,32.79166793823242,27.66666603088379,29.125,18.58786964416504,14945100.0
1998-02-01,29.29166603088379,31.16666603088379,28.75,31.08333396911621,19.837697982788086,8504700.0
1998-02-17,,,,,,
1998-03-01,31.29166603088379,35.08333206176758,30.25,34.25,21.969003677368164,9763600.0
1998-04-01,33.83333206176758,34.91666793823242,28.0,29.66666603088379,19.029115676879883,11482000.0
1998-05-01,29.70833396911621,30.33333396911621,27.33333396911621,27.375,17.559165954589844,8708600.0
1998-05-19,,,,,,
1998-06-01,27.41666603088379,28.58333396911621,24.625,25.41666603088379,16.386829376220703,11303400.0
1998-07-01,25.5,25.83333396911621,20.91666603088379,22.875,14.748147964477539,21115900.0
1998-08-01,22.75,23.29166603088379,19.16666603088379,19.33333396911621,12.464736938476562,15934300.0
1998-08-18,,,,,,
1998-09-01,19.33333396911621,20.25,17.70833396911621,19.79166603088379,12.853527069091797,13810900.0
1998-10-01,19.625,24.125,18.0,23.83333396911621,15.478354454040527,11889500.0
1998-11-01,24.33333396911621,25.54166603088379,22.25,23.16666603088379,15.045388221740723,8471300.0
1998-11-17,,,,,,
1998-12-01,22.83333396911621,23.04166603088379,20.04166603088379,21.83333396911621,14.271037101745605,11824500.0
1999-01-01,21.83333396911621,23.33333396911621,19.66666603088379,20.5,13.399535179138184,9980000.0
1999-02-01,20.83333396911621,26.5,20.79166603088379,24.75,16.177494049072266,12302200.0
1999-02-22,,,,,,
1999-03-01,24.33333396911621,25.83333396911621,22.58333396911621,22.83333396911621,15.031336784362793,9248900.0
1999-04-01,22.83333396911621,33.70833206176758,22.66666603088379,31.29166603088379,20.599510192871094,20184800.0
1999-05-01,31.25,33.66666793823242,27.5,29.125,19.17319107055664,11098100.0
1999-05-18,,,,,,
1999-06-01,28.875,32.125,28.58333396911621,30.5,20.190288543701172,10503100.0
1999-07-01,30.5,32.08333206176758,29.16666603088379,31.45833396911621,20.824682235717773,6292400.0
1999-08-01,31.5,31.66666603088379,28.75,29.16666603088379,19.307653427124023,8366400.0
1999-08-20,,,,,,
1999-09-01,29.08333396911621,31.66666603088379,28.83333396911621,29.875,19.892166137695312,8539100.0
1999-10-01,29.83333396911621,32.5,28.0,30.54166603088379,20.336069107055664,12434400.0
1999-11-01,30.54166603088379,32.66666793823242,27.45833396911621,31.375,20.89093589782715,11476500.0
1999-11-19,,,,,,
1999-12-01,31.20833396911621,34.29166793823242,29.91666603088379,34.20833206176758,22.897113800048828,12187100.0
2000-01-01,34.20833206176758,36.0,27.79166603088379,28.83333396911621,19.299396514892578,16400400.0
2000-02-01,28.75,29.83333396911621,22.75,24.16666603088379,16.175796508789062,17405500.0
2000-02-22,,,,,,
2000-03-01,23.91666603088379,28.625,22.625,27.54166603088379,18.549673080444336,14613400.0
2000-04-01,27.375,32.04166793823242,27.0,31.0,20.87890625,12192500.0
2000-05-01,30.875,32.20833206176758,27.70833396911621,27.79166603088379,18.718050003051758,10242000.0
2000-05-16,,,,,,
2000-06-01,27.375,30.0,22.82291603088379,22.83333396911621,15.46522045135498,19284100.0
2000-07-01,23.08333396911621,26.45833396911621,23.08333396911621,23.70833396911621,16.05786895751953,14910600.0
2000-08-01,23.75,26.0,20.91666603088379,23.20833396911621,15.719216346740723,20452800.0
2000-08-16,,,,,,
2000-09-01,23.29166603088379,25.41666603088379,20.66666603088379,22.5,15.342413902282715,15432600.0
2000-10-01,22.5,27.83333396911621,20.79166603088379,27.58333396911621,18.80865478515625,16903700.0
2000-11-01,27.25,27.58333396911621,24.66666603088379,25.79166603088379,17.586946487426758,12118200.0
2000-11-14,,,,,,
2000-12-01,25.33333396911621,31.625,25.0,29.41666603088379,20.197980880737305,14202800.0
2001-01-01,29.5,31.16666603088379,27.66666603088379,29.200000762939453,20.049205780029297,19443900.0
2001-02-01,29.33333396911621,29.726667404174805,27.0,28.68666648864746,19.696746826171875,10022700.0
2001-02-13,,,,,,
2001-03-01,28.83333396911621,30.700000762939453,25.046667098999023,26.479999542236328,18.297502517700195,18294800.0
2001-04-01,26.33333396911621,31.33333396911621,25.66666603088379,31.079999923706055,21.476070404052734,11809400.0
2001-05-01,31.299999237060547,33.400001525878906,30.066667556762695,32.2066650390625,22.254594802856445,9847200.0
2001-05-15,,,,,,
2001-06-01,32.29999923706055,32.79999923706055,27.940000534057617,28.293333053588867,19.66312599182129,10344300.0
2001-07-01,27.33333396911621,30.5,27.16666603088379,29.799999237060547,20.710227966308594,15602200.0
2001-08-01,29.933332443237305,30.899999618530273,28.639999389648438,29.33333396911621,20.385910034179688,11056300.0
2001-08-21,,,,,,
2001-09-01,29.33333396911621,29.97333335876465,20.266666412353516,22.866666793823242,15.985958099365234,17484800.0
2001-10-01,22.96666717529297,26.5,22.399999618530273,23.933332443237305,16.731660842895508,15226800.0
2001-11-01,24.16666603088379,27.700000762939453,23.733333587646484,27.366666793823242,19.131879806518555,13643100.0
2001-11-19,,,,,,
2001-12-01,27.433332443237305,31.540000915527344,26.96666717529297,30.606666564941406,21.54387092590332,16916900.0
2002-01-01,30.613332748413086,32.733333587646484,29.100000381469727,32.69333267211914,23.012664794921875,18646900.0
2002-02-01,32.69333267211914,34.28666687011719,30.600000381469727,33.21333312988281,23.378686904907227,21884800.0
2002-02-12,,,,,,
2002-03-01,33.060001373291016,36.586666107177734,31.986665725708008,33.266666412353516,23.550064086914062,27861200.0
2002-04-01,32.939998626708984,34.59333419799805,30.0,33.29999923706055,23.573659896850586,34478800.0
2002-05-01,33.30666732788086,33.88666534423828,31.593334197998047,32.66666793823242,23.125320434570312,25760400.0
2002-05-21,,,,,,
2002-06-01,32.53333282470703,32.7599983215332,29.513334274291992,31.860000610351562,22.677019119262695,28758600.0
2002-07-01,31.200000762939453,31.53333282470703,24.96666717529297,26.84000015258789,19.103923797607422,44374600.0
2002-08-01,26.860000610351562,28.81999969482422,24.553333282470703,27.040000915527344,19.246286392211914,26154300.0
2002-08-20,,,,,,
2002-09-01,27.040000915527344,27.040000915527344,23.96666717529297,25.47333335876465,18.248626708984375,30839400.0
2002-10-01,25.8799991607666,29.85333251953125,23.013334274291992,29.086666107177734,20.837146759033203,40466700.0
2002-11-01,29.046667098999023,31.66666603088379,28.133333206176758,31.126667022705078,22.298568725585938,17001700.0
2002-11-18,,,,,,
2002-12-01,31.793333053588867,32.13333511352539,29.766666412353516,30.753334045410156,22.16512107849121,16811300.0
2003-01-01,31.16666603088379,32.619998931884766,26.219999313354492,26.873332977294922,19.3686580657959,31099300.0
2003-02-01,26.773332595825195,28.33333396911621,26.19333267211914,26.873332977294922,19.3686580657959,20908200.0
2003-02-18,,,,,,
2003-03-01,27.239999771118164,28.093334197998047,23.8799991607666,25.8266658782959,18.74515151977539,31569100.0
2003-04-01,25.8266658782959,27.906665802001953,25.33333396911621,27.1200008392334,19.683870315551758,29585500.0
2003-05-01,27.1200008392334,27.96666717529297,25.933332443237305,26.953332901000977,19.56290054321289,24243900.0
2003-05-20,,,,,,
2003-06-01,27.33333396911621,30.559999465942383,26.600000381469727,27.99333381652832,20.46461296081543,38311800.0
2003-07-01,27.899999618530273,31.420000076293945,27.1733341217041,30.733333587646484,22.467700958251953,34421600.0
2003-08-01,30.733333587646484,33.31999969482422,29.733333587646484,33.01333236694336,24.134502410888672,26672800.0
2003-08-19,,,,,,
2003-09-01,33.266666412353516,33.900001525878906,29.266666412353516,29.799999237060547,21.912185668945312,26434500.0
2003-10-01,29.733333587646484,34.779998779296875,29.713333129882812,33.97999954223633,24.985769271850586,30469000.0
2003-11-01,33.97999954223633,36.70000076293945,33.9466667175293,36.65999984741211,26.956384658813477,26275400.0
2003-11-18,,,,,,
2003-12-01,36.66666793823242,39.86666488647461,36.573333740234375,39.66666793823242,29.32339859008789,23526900.0
2004-01-01,39.66666793823242,40.66666793823242,35.86666488647461,36.65999984741211,27.100723266601562,25521500.0
2004-02-01,36.53333282470703,39.12666702270508,35.66666793823242,37.4466667175293,27.68227767944336,22507200.0
2004-02-17,,,,,,
2004-03-01,37.8466682434082,39.526668548583984,36.29999923706055,37.66666793823242,27.98312759399414,27878900.0
2004-04-01,37.79999923706055,39.973331451416016,36.63333511352539,36.86000061035156,27.38385009765625,33563000.0
2004-05-01,36.86000061035156,37.35333251953125,34.48666763305664,37.040000915527344,27.51757049560547,29221900.0
2004-05-18,,,,,,
2004-06-01,37.040000915527344,39.686668395996094,36.90666580200195,39.63999938964844,29.608278274536133,22293000.0
2004-07-01,39.50666809082031,39.61333465576172,36.80666732788086,38.253334045410156,28.57253074645996,25204300.0
2004-08-01,38.13333511352539,38.78666687011719,35.426666259765625,36.246665954589844,27.07368278503418,23229200.0
2004-08-18,,,,,,
2004-09-01,36.14666748046875,39.46666717529297,36.0,39.2400016784668,29.46170425415039,20461400.0
2004-10-01,39.33333206176758,47.20000076293945,39.099998474121094,47.086666107177734,35.3530387878418,43323600.0
2004-11-01,47.46666717529297,50.733333587646484,47.2599983215332,49.86666488647461,37.44027328491211,28270900.0
2004-11-16,,,,,,
2004-12-01,49.86666488647461,52.279998779296875,49.08000183105469,50.49333190917969,38.05720901489258,20967800.0
2005-01-01,50.81999969482422,50.81999969482422,41.439998626708984,43.439998626708984,32.74104309082031,47383700.0
2005-02-01,43.53333282470703,45.073333740234375,42.599998474121094,43.86666488647461,33.06262969970703,35087600.0
2005-02-15,,,,,,
2005-03-01,44.06666564941406,46.459999084472656,39.413333892822266,40.61333465576172,30.748783111572266,44905000.0
2005-04-01,40.63333511352539,41.09333419799805,37.86666488647461,39.959999084472656,30.25413703918457,30499300.0
2005-05-01,40.060001373291016,41.459999084472656,38.21333312988281,40.220001220703125,30.45099449157715,24981000.0
2005-05-17,,,,,,
2005-06-01,40.3466682434082,41.98666763305664,40.040000915527344,41.34000015258789,31.459848403930664,20858600.0
2005-07-01,41.43333435058594,45.21333312988281,40.2066650390625,43.813331604003906,33.34206008911133,23183900.0
2005-08-01,43.959999084472656,44.93333435058594,41.439998626708984,42.959999084472656,32.69267654418945,21321000.0
2005-08-18,,,,,,
2005-09-01,42.7933349609375,45.766666412353516,41.83333206176758,42.87333297729492,32.800777435302734,18869300.0
2005-10-01,43.0,43.560001373291016,40.48666763305664,41.78666687011719,31.96941566467285,19132400.0
2005-11-01,41.78666687011719,46.060001373291016,41.540000915527344,45.606666564941406,34.891963958740234,18110900.0
2005-11-15,,,,,,
2005-12-01,45.939998626708984,47.03333282470703,43.81999969482422,43.973331451416016,33.817405700683594,15968200.0
2006-01-01,43.973331451416016,50.9466667175293,43.439998626708984,50.51333236694336,38.846954345703125,29907000.0
2006-02-01,50.61333465576172,53.53333282470703,50.22666549682617,52.11333465576172,40.07741165161133,21258700.0
2006-02-14,,,,,,
2006-03-01,52.20000076293945,55.59333419799805,52.119998931884766,53.7400016784668,41.513336181640625,23913100.0
2006-04-01,53.87333297729492,56.939998626708984,51.53333282470703,54.03333282470703,41.73993682861328,25408500.0
2006-05-01,54.79999923706055,57.99333190917969,50.54666519165039,52.01333236694336,40.179534912109375,24675600.0
2006-05-16,,,,,,
2006-06-01,52.33333206176758,53.02000045776367,47.426666259765625,51.733333587646484,40.13167190551758,31263500.0
2006-07-01,52.12666702270508,52.13333511352539,46.46666717529297,48.15999984741211,37.35967254638672,27856200.0
2006-08-01,48.66666793823242,50.82666778564453,46.8466682434082,49.36666488647461,38.295738220214844,26948000.0
2006-08-24,,,,,,
2006-09-01,49.599998474121094,52.63333511352539,48.64666748046875,51.81999969482422,40.409393310546875,26345800.0
2006-10-01,51.733333587646484,58.66666793823242,51.473331451416016,55.753334045410156,43.476600646972656,35933400.0
2006-11-01,56.253334045410156,57.0,53.606666564941406,55.6533317565918,43.39863586425781,36176700.0
2006-11-14,,,,,,
2006-12-01,55.560001373291016,56.59333419799805,51.1533317565918,51.253334045410156,40.15315628051758,29306300.0
2007-01-01,51.47999954223633,56.43333435058594,50.413333892822266,55.17333221435547,43.224159240722656,40250100.0
2007-02-01,55.63999938964844,58.7933349609375,54.540000915527344,54.913333892822266,43.020484924316406,27704800.0
2007-02-13,,,,,,
2007-03-01,54.04666519165039,58.2599983215332,53.56666564941406,57.540000915527344,45.29079055786133,30033100.0
2007-04-01,57.53333282470703,62.66666793823242,57.026668548583984,61.426666259765625,48.35004806518555,28499700.0
2007-05-01,61.64666748046875,67.78666687011719,61.14666748046875,67.57333374023438,53.188194274902344,29665300.0
2007-05-15,,,,,,
2007-06-01,67.57333374023438,68.95333099365234,63.79999923706055,65.27333068847656,51.58839416503906,29028600.0
2007-07-01,65.59333038330078,71.72000122070312,65.40666961669922,65.78666687011719,51.99409866333008,29001500.0
2007-08-01,65.80000305175781,72.4800033569336,58.186668395996094,71.64666748046875,56.62552261352539,50891500.0
2007-08-23,,,,,,
2007-09-01,71.48666381835938,78.42666625976562,68.3066635131836,74.55333709716797,59.192996978759766,41479800.0
2007-10-01,74.55333709716797,80.94999694824219,71.1500015258789,80.37000274658203,63.81126022338867,39895600.0
2007-10-02,,,,,,
2007-11-01,79.3499984741211,86.55999755859375,74.47000122070312,79.43000030517578,63.06489562988281,47953100.0
2007-11-13,,,,,,
2007-12-01,79.5,82.86000061035156,72.7699966430664,75.30999755859375,59.95183563232422,28089400.0
2008-01-01,75.12000274658203,76.02999877929688,58.099998474121094,67.61000061035156,53.822113037109375,56232500.0
2008-02-01,67.61000061035156,69.30999755859375,63.06999969482422,64.62999725341797,51.4498176574707,33106900.0
2008-02-19,,,,,,
2008-03-01,64.62000274658203,69.58999633789062,60.650001525878906,69.2699966430664,55.3199462890625,32844200.0
2008-04-01,69.9800033569336,83.41000366210938,69.9000015258789,79.8499984741211,63.7692756652832,39153100.0
2008-05-01,80.66999816894531,86.91000366210938,79.37999725341797,84.66999816894531,67.61862182617188,30030800.0
2008-05-13,,,,,,
2008-06-01,84.51000213623047,84.76000213623047,69.45999908447266,71.31999969482422,57.09865951538086,49242300.0
2008-07-01,70.0,72.69000244140625,61.27000045776367,61.68000030517578,49.38087463378906,62605900.0
2008-08-01,62.15999984741211,66.98999786376953,59.81999969482422,64.06999969482422,51.29430389404297,50030000.0
2008-08-21,,,,,,
2008-09-01,64.97000122070312,65.5999984741211,48.66999816894531,53.0,42.60314178466797,47709300.0
2008-10-01,52.0099983215332,52.52000045776367,32.880001068115234,38.77000045776367,31.164592742919922,57670500.0
2008-11-01,38.709999084472656,41.209999084472656,31.290000915527344,41.08000183105469,33.02146530151367,29252500.0
2008-11-18,,,,,,
2008-12-01,39.90999984741211,43.0,35.099998474121094,42.540000915527344,34.44197463989258,39680200.0
2009-01-01,43.189998626708984,46.45000076293945,36.380001068115234,38.209999084472656,30.93623924255371,39741200.0
2009-02-01,37.619998931884766,42.189998626708984,33.209999084472656,33.369998931884766,27.017597198486328,36663400.0
2009-02-17,,,,,,
2009-03-01,32.86000061035156,36.310001373291016,27.690000534057617,33.97999954223633,27.681554794311523,51254100.0
2009-04-01,33.630001068115234,47.119998931884766,33.130001068115234,45.349998474121094,36.94403839111328,64722400.0
2009-05-01,45.2599983215332,47.91999816894531,41.459999084472656,42.2599983215332,34.42679977416992,49348700.0
2009-05-19,,,,,,
2009-06-01,43.060001373291016,48.45000076293945,39.91999816894531,42.959999084472656,35.19009780883789,44148500.0
2009-07-01,43.150001525878906,48.13999938964844,39.529998779296875,44.279998779296875,36.271366119384766,42606600.0
2009-08-01,44.72999954223633,51.04999923706055,44.52000045776367,48.65999984741211,39.85917663574219,29381000.0
2009-08-20,,,,,,
2009-09-01,48.400001525878906,55.88999938964844,46.68000030517578,51.84000015258789,42.68461227416992,35287700.0
2009-10-01,51.61000061035156,59.36000061035156,49.36000061035156,52.959999084472656,43.60679626464844,35914900.0
2009-11-01,53.150001525878906,57.720001220703125,52.459999084472656,53.959999084472656,44.43020248413086,27361400.0
2009-11-17,,,,,,
2009-12-01,54.209999084472656,56.279998779296875,53.29999923706055,53.880001068115234,44.559906005859375,19259700.0
2010-01-01,54.65999984741211,62.849998474121094,53.75,55.90999984741211,46.23875427246094,34195200.0
2010-02-01,56.20000076293945,60.45000076293945,53.5,60.310001373291016,49.87764358520508,31975600.0
2010-02-16,,,,,,
2010-03-01,60.16999816894531,66.70999908447266,60.150001525878906,64.73999786376953,53.78108215332031,33645900.0
2010-04-01,65.12000274658203,72.5,64.80000305175781,69.18000030517578,57.46952438354492,37626300.0
2010-05-01,69.87000274658203,70.9800033569336,57.31999969482422,61.459999084472656,51.05632019042969,47107500.0
2010-05-18,,,,,,
2010-06-01,60.65999984741211,63.54999923706055,55.18000030517578,55.459999084472656,46.25344467163086,45965100.0
2010-07-01,55.70000076293945,63.290000915527344,54.2599983215332,62.119998931884766,51.80785369873047,42530800.0
2010-08-01,63.36000061035156,66.25,58.709999084472656,59.15999984741211,49.339229583740234,45947900.0
2010-08-19,,,,,,
2010-09-01,60.189998626708984,72.12000274658203,60.189998626708984,70.05999755859375,58.6702880859375,28853100.0
2010-10-01,70.55999755859375,78.70999908447266,67.5199966430664,76.55000305175781,64.10517883300781,36308900.0
2010-11-01,77.30999755859375,82.30000305175781,76.2699966430664,80.2300033569336,67.18694305419922,24766800.0
2010-11-08,,,,,,
2010-12-01,81.80000305175781,87.36000061035156,81.80000305175781,86.30000305175781,72.52764892578125,19653600.0
2011-01-01,86.76000213623047,93.1500015258789,85.2300033569336,89.41000366210938,75.141357421875,33967000.0
2011-02-01,90.37000274658203,93.5999984741211,85.93000030517578,89.18000030517578,74.94801330566406,20757500.0
2011-02-08,,,,,,
2011-03-01,89.63999938964844,95.0,82.80000305175781,94.68000030517578,79.84892272949219,41948300.0
2011-04-01,95.52999877929688,99.4000015258789,91.0999984741211,94.31999969482422,79.5452880859375,28972100.0
2011-05-01,94.79000091552734,95.25,83.83000183105469,88.8499984741211,74.93215942382812,42114000.0
2011-05-06,,,,,,
2011-06-01,88.2699966430664,90.58999633789062,83.6500015258789,89.73999786376953,75.99825286865234,43180500.0
2011-07-01,89.75,92.01000213623047,77.23999786376953,79.0199966430664,66.9197998046875,31946000.0
2011-08-01,80.5,80.63999938964844,62.029998779296875,73.43000030517578,62.185791015625,80030800.0
2011-08-25,,,,,,
2011-09-01,73.3499984741211,74.16999816894531,60.36000061035156,63.130001068115234,53.75615310668945,48709900.0
2011-10-01,62.66999816894531,85.19999694824219,59.2599983215332,81.55000305175781,69.4410629272461,52522100.0
2011-11-01,78.4800033569336,85.83999633789062,74.95999908447266,82.77999877929688,70.48843383789062,39317100.0
2011-11-08,,,,,,
2011-12-01,82.77999877929688,84.62000274658203,73.62000274658203,76.25,65.21890258789062,28964200.0
2012-01-01,78.30999755859375,86.5999984741211,76.91999816894531,80.68000030517578,69.00801086425781,35884600.0
2012-02-01,82.26000213623047,91.47000122070312,81.31999969482422,89.80999755859375,76.81717681884766,29973200.0
2012-02-08,,,,,,
2012-03-01,90.06999969482422,91.0,83.69999694824219,84.55000305175781,72.6409912109375,24696300.0
2012-04-01,84.5199966430664,89.44999694824219,80.44000244140625,87.69000244140625,75.3387222290039,29608600.0
2012-05-01,87.33000183105469,88.72000122070312,80.01000213623047,81.73999786376953,70.22679138183594,38893700.0
2012-05-08,,,,,,
2012-06-01,80.13999938964844,82.97000122070312,71.9000015258789,76.87999725341797,66.3725814819336,39976100.0
2012-07-01,77.19999694824219,81.75,70.41999816894531,80.31999969482422,69.3424301147461,35696000.0
2012-08-01,80.9800033569336,84.0,76.16000366210938,79.9800033569336,69.04887390136719,29449500.0
2012-08-24,,,,,,
2012-09-01,79.69000244140625,87.70999908447266,78.95999908447266,83.58000183105469,72.5205307006836,24210600.0
2012-10-01,83.7699966430664,85.41999816894531,75.80000305175781,78.66000366210938,68.25154876708984,34993600.0
2012-11-01,78.7300033569336,83.5999984741211,77.33999633789062,82.1500015258789,71.27973937988281,31789000.0
2012-11-07,,,,,,
2012-12-01,82.75,87.04000091552734,80.1500015258789,85.05999755859375,74.18287658691406,22470900.0
2013-01-01,87.44999694824219,94.80999755859375,86.51000213623047,92.97000122070312,81.08139038085938,29837000.0
2013-02-01,93.91999816894531,97.5,90.83000183105469,94.4800033569336,82.3982925415039,22597000.0
2013-02-06,,,,,,
2013-03-01,93.81999969482422,98.1500015258789,88.69000244140625,91.58000183105469,80.23637390136719,22260900.0
2013-04-01,91.38999938964844,91.5999984741211,84.5,88.56999969482422,77.59919738769531,28167800.0
2013-05-01,88.04000091552734,101.87999725341797,87.05999755859375,99.76000213623047,87.40314483642578,23652900.0
2013-05-08,,,,,,
2013-06-01,99.95999908447266,100.2699966430664,92.08000183105469,95.4000015258789,83.98899841308594,24261600.0
2013-07-01,96.36000061035156,104.37999725341797,94.80999755859375,103.27999877929688,90.92645263671875,18192200.0
2013-08-01,104.47000122070312,107.26000213623047,99.75,99.94999694824219,87.9947509765625,20845200.0
2013-08-23,,,,,,
2013-09-01,101.98999786376953,110.20999908447266,100.31999969482422,108.72000122070312,96.1329345703125,18323700.0
2013-10-01,109.2699966430664,117.94000244140625,103.36000061035156,116.72000122070312,103.20673370361328,26259600.0
2013-11-01,116.51000213623047,120.12000274658203,114.2699966430664,117.83999633789062,104.1970443725586,15965000.0
2013-11-06,,,,,,
2013-12-01,117.81999969482422,129.77000427246094,114.31999969482422,128.63999938964844,114.18989562988281,19340100.0
2014-01-01,128.10000610351562,129.39999389648438,111.94000244140625,113.37000274658203,100.63517761230469,27714100.0
2014-02-01,113.20999908447266,121.56999969482422,108.66000366210938,120.55000305175781,107.00863647460938,26554000.0
2014-02-06,,,,,,
2014-03-01,119.0,125.3499984741211,116.11000061035156,119.70999908447266,106.71785736083984,21208800.0
2014-04-01,120.58999633789062,127.0999984741211,118.45999908447266,126.87999725341797,113.10966491699219,23011900.0
2014-05-01,126.41999816894531,127.27999877929688,121.01000213623047,125.2300033569336,111.63878631591797,15978300.0
2014-05-07,,,,,,
2014-06-01,125.58000183105469,130.44000244140625,123.9000015258789,125.7300033569336,112.52217102050781,16552300.0
2014-07-01,126.08999633789062,127.5999984741211,114.88999938964844,114.94999694824219,102.87460327148438,18769300.0
2014-08-01,114.51000213623047,118.7699966430664,105.91000366210938,115.5,103.36681365966797,30479000.0
2014-08-26,,,,,,
2014-09-01,115.6500015258789,119.33000183105469,112.33000183105469,114.1500015258789,102.57940673828125,25240600.0
2014-10-01,113.68000030517578,127.58999633789062,99.81999969482422,127.02999877929688,114.15385437011719,37577800.0
2014-11-01,127.41999816894531,133.41000366210938,125.33999633789062,129.02999877929688,115.95113372802734,21934800.0
2014-11-06,,,,,,
2014-12-01,129.19000244140625,132.0800018310547,120.54000091552734,128.9499969482422,116.4533920288086,24689600.0
2015-01-01,129.24000549316406,129.5399932861328,116.05000305175781,116.45999908447266,105.1738052368164,34459500.0
2015-02-01,117.44999694824219,124.7300033569336,116.30999755859375,122.69000244140625,110.8000717163086,21129100.0
2015-02-06,,,,,,
2015-03-01,122.69000244140625,125.94000244140625,115.86000061035156,118.77999877929688,107.83354949951172,29080800.0
2015-04-01,118.43000030517578,124.9800033569336,116.91000366210938,119.36000061035156,108.360107421875,29086000.0
2015-05-01,120.08999633789062,125.33000183105469,119.44999694824219,120.43000030517578,109.33149719238281,25398800.0
2015-05-06,,,,,,
2015-06-01,120.70999908447266,122.13999938964844,115.6500015258789,116.33000183105469,106.1565170288086,24766500.0
2015-07-01,117.06999969482422,117.9800033569336,108.7699966430664,112.75,102.88964080810547,25467300.0
2015-08-01,112.75,114.98999786376953,99.73999786376953,107.66000366210938,98.2447509765625,50118500.0
2015-08-26,,,,,,
2015-09-01,105.13999938964844,109.08999633789062,94.63999938964844,97.30000305175781,89.35134887695312,32921100.0
2015-10-01,96.94999694824219,107.86000061035156,93.47000122070312,104.69999694824219,96.14679718017578,37906000.0
2015-11-01,104.58999633789062,108.0,98.63999938964844,104.66000366210938,96.11006927490234,20976100.0
2015-11-06,,,,,,
2015-12-01,104.77999877929688,105.2300033569336,93.55000305175781,96.9800033569336,89.58898162841797,26841800.0
2016-01-01,96.9800033569336,97.29000091552734,83.31999969482422,97.16000366210938,89.75527954101562,35059800.0
2016-02-01,96.05000305175781,103.62999725341797,93.45999908447266,101.19999694824219,93.48737335205078,34235600.0
2016-02-08,,,,,,
2016-03-01,103.18000030517578,113.51000213623047,102.08999633789062,111.08000183105469,103.2552261352539,24822200.0
2016-04-01,109.58999633789062,117.23999786376953,107.38999938964844,116.0199966430664,107.84723663330078,27561400.0
2016-05-01,116.1500015258789,116.2300033569336,107.72000122070312,114.83999633789062,106.7503662109375,21905000.0
2016-05-06,,,,,,
2016-06-01,113.9800033569336,117.77999877929688,99.0999984741211,108.05000305175781,101.00708770751953,26444900.0
2016-07-01,108.05000305175781,115.4000015258789,105.0,114.19000244140625,106.74687194824219,17938200.0
2016-08-01,113.91999816894531,125.0,112.26000213623047,122.52999877929688,114.54325866699219,25459000.0
2016-08-25,,,,,,
2016-09-01,122.66999816894531,126.58999633789062,119.25,125.52999877929688,117.95027160644531,17764900.0
2016-10-01,125.3499984741211,128.24000549316406,120.0999984741211,122.75,115.33814239501953,28431100.0
2016-11-01,123.43000030517578,140.07000732421875,118.7699966430664,138.92999267578125,130.54115295410156,25647800.0
2016-11-08,,,,,,
2016-12-01,140.02999877929688,145.44000244140625,139.49000549316406,140.0,132.20944213867188,22171900.0
2017-01-01,142.1999969482422,150.13999938964844,139.9199981689453,147.1300048828125,138.9426727294922,20426600.0
2017-02-01,147.14999389648438,156.83999633789062,145.08999633789062,154.83999633789062,146.22361755371094,21494300.0
2017-02-08,,,,,,
2017-03-01,156.94000244140625,161.22999572753906,152.6199951171875,160.32000732421875,152.07699584960938,23666800.0
2017-04-01,160.1699981689453,166.60000610351562,153.47000122070312,160.8000030517578,152.53231811523438,24552200.0
2017-05-01,161.2899932861328,161.2899932861328,151.1699981689453,157.47000122070312,149.37353515625,23398600.0
2017-05-08,,,,,,
2017-06-01,158.24000549316406,165.1699981689453,152.00999450683594,159.82000732421875,152.23382568359375,28285900.0
2017-07-01,160.57000732421875,167.5,159.1300048828125,165.97999572753906,158.1014404296875,16727600.0
2017-08-01,166.1199951171875,166.94000244140625,153.64999389648438,160.88999938964844,153.25303649902344,22212800.0
2017-08-24,,,,,,
2017-09-01,161.6300048828125,177.61000061035156,157.02999877929688,175.02000427246094,167.41360473632812,20536500.0
2017-10-01,172.0,185.52000427246094,170.66000366210938,182.61000061035156,174.6737518310547,14575600.0
2017-11-01,184.66000366210938,189.8300018310547,177.74000549316406,187.49000549316406,179.34165954589844,14233900.0
2017-11-09,,,,,,
2017-12-01,187.49000549316406,200.82000732421875,183.36000061035156,199.5800018310547,191.59022521972656,15881100.0
2018-01-01,200.10000610351562,212.8000030517578,198.38999938964844,201.4199981689453,193.3565673828125,19332100.0
2018-02-01,195.7899932861328,198.1999969482422,168.44000244140625,178.47000122070312,171.32533264160156,26202700.0
2018-02-08,,,,,,
2018-03-01,178.5,187.86000061035156,167.5,171.02999877929688,164.77645874023438,24447100.0
2018-04-01,170.02000427246094,179.47999572753906,154.1999969482422,164.6199951171875,158.60079956054688,30752900.0
2018-05-01,163.88999938964844,183.91000366210938,163.07000732421875,170.89999389648438,164.6511993408203,22143200.0
2018-05-09,,,,,,
2018-06-01,172.27999877929688,176.3300018310547,152.47000122070312,155.85000610351562,150.8213653564453,23470200.0
2018-07-01,154.8800048828125,169.30999755859375,153.86000061035156,169.0500030517578,163.59547424316406,23646100.0
2018-08-01,167.75999450683594,176.24000549316406,157.32000732421875,175.60000610351562,169.93411254882812,25872500.0
2018-08-27,,,,,,
2018-09-01,175.2100067138672,193.19000244140625,173.8800048828125,183.92999267578125,178.7874755859375,17935200.0
2018-10-01,185.36000061035156,187.24000549316406,143.0,151.6300048828125,147.3905792236328,32688200.0
2018-11-01,151.9499969482422,172.60000610351562,150.22000122070312,172.0399932861328,167.22991943359375,28309000.0
2018-11-08,,,,,,
2018-12-01,176.27999877929688,179.2100067138672,140.82000732421875,149.13999938964844,145.61724853515625,20386600.0
2019-01-01,146.77000427246094,166.39999389648438,143.8000030517578,164.80999755859375,160.91712951660156,20876800.0
2019-02-01,164.4199981689453,178.27000427246094,160.1199951171875,176.16000366210938,171.99905395507812,15905200.0
2019-02-07,,,,,,
2019-03-01,177.92999267578125,178.47000122070312,162.3000030517578,171.6199951171875,168.33697509765625,18094200.0
2019-04-01,173.77000427246094,190.97000122070312,173.77000427246094,181.0800018310547,177.6160125732422,18056000.0
2019-05-01,181.58999633789062,181.9600067138672,152.17999267578125,152.32000732421875,149.4062042236328,22512200.0
2019-05-09,,,,,,
2019-06-01,152.4499969482422,173.0,152.4499969482422,170.00999450683594,167.61558532714844,17523400.0
2019-07-01,172.7100067138672,179.8000030517578,159.92999267578125,175.0800018310547,172.6141815185547,20679200.0
2019-08-01,175.0,182.0800018310547,156.02000427246094,165.77000427246094,163.43531799316406,15906600.0
2019-08-27,,,,,,
2019-09-01,163.83999633789062,184.64999389648438,158.9600067138672,180.61000061035156,179.06008911132812,16155400.0
2019-10-01,182.27999877929688,194.16000366210938,166.19000244140625,183.49000549316406,181.91537475585938,21287000.0
2019-11-01,186.08999633789062,202.3000030517578,185.5399932861328,198.7899932861328,197.0840606689453,16674800.0
2019-11-07,,,,,,
2019-12-01,199.85000610351562,212.0500030517578,192.39999389648438,205.82000732421875,204.95932006835938,17914600.0
2020-01-01,207.00999450683594,209.77000427246094,192.5,195.69000244140625,194.87167358398438,20345000.0
2020-02-01,196.63999938964844,215.94000244140625,176.3000030517578,184.77000427246094,183.99734497070312,20034900.0
2020-02-06,,,,,,
2020-03-01,186.1999969482422,198.80999755859375,93.0,126.52999877929688,126.52999877929688,39440700.0
2020-03-26,128.91000366210938,132.75999450683594,123.11000061035156,130.0399932861328,130.0399932861328,1194431.0
