Date,Open,High,Low,Close,Adj Close,Volume
1997-11-01,23.5,23.5,22.25,23.0,8.835051536560059,5013700.0
1997-12-01,23.0625,25.125,22.875,25.125,9.651339530944824,2484500.0
1997-12-16,,,,,,
1998-01-01,25.0,25.0,23.75,24.5,9.465962409973145,1275200.0
1998-02-01,24.5,24.8125,23.5,23.5,9.07958984375,933900.0
1998-03-01,23.75,24.9375,23.25,24.125,9.321070671081543,1594600.0
1998-03-16,,,,,,
1998-04-01,24.0625,24.5625,22.5625,23.0,9.015742301940918,1060700.0
1998-05-01,23.0,25.0,23.0,23.8125,9.334236145019531,936200.0
1998-06-01,23.9375,25.0,22.3125,24.5,9.603732109069824,1988200.0
1998-06-26,,,,,,
1998-07-01,24.5,24.875,23.5,23.875,9.493866920471191,1203500.0
1998-08-01,24.0,25.875,22.75,23.5,9.34475040435791,1842900.0
1998-09-01,23.625,26.0,22.125,25.8125,10.264311790466309,1339600.0
1998-09-14,,,,,,
1998-10-01,25.6875,25.6875,22.625,23.0,9.283045768737793,1248500.0
1998-11-01,23.0,23.0,22.1875,22.25,8.980335235595703,1184300.0
1998-12-01,22.125,22.125,20.75,22.0,8.879430770874023,6735700.0
1998-12-29,,,,,,
1999-01-01,21.875,23.125,21.5,22.125,9.073172569274902,3849700.0
1999-02-01,22.0,22.1875,20.75,21.0,8.611828804016113,2731400.0
1999-03-01,21.125,21.625,20.375,20.75,8.509305000305176,1806200.0
1999-03-29,,,,,,
1999-04-01,20.75,22.125,20.3125,22.0,9.176229476928711,5106500.0
1999-05-01,22.0,22.625,21.875,22.5,9.384778022766113,4325000.0
1999-06-01,22.5,23.5,22.375,23.5,9.80187702178955,2067700.0
1999-07-01,23.0,23.125,22.25,22.5,9.384778022766113,1282200.0
1999-07-01,,,,,,
1999-08-01,22.5,22.5,21.0,21.5,9.103257179260254,1988400.0
1999-09-01,21.375,21.625,19.8125,21.1875,8.970940589904785,2370100.0
1999-10-01,20.75,21.25,19.8125,19.875,8.415217399597168,703200.0
1999-10-01,,,,,,
1999-11-01,19.9375,21.0,19.75,20.0,8.610382080078125,1431600.0
1999-12-01,20.0625,20.125,18.0,19.9375,8.583474159240723,4279800.0
1999-12-15,,,,,,
2000-01-01,19.9375,20.6875,18.8125,20.4375,8.96610164642334,3246800.0
2000-02-01,20.5,20.6875,20.0,20.1875,8.856422424316406,3167500.0
2000-03-01,20.25,21.5,19.9375,21.5,9.432226181030273,4554200.0
2000-04-01,21.125,22.125,21.0,22.0625,9.67900276184082,3866500.0
2000-04-03,,,,,,
2000-05-01,22.0625,23.125,22.0,22.5,10.043782234191895,4407400.0
2000-06-01,22.5625,23.625,22.375,22.828125,10.190254211425781,3744500.0
2000-06-30,,,,,,
2000-07-01,22.6875,24.0,22.6875,23.875,10.82713508605957,4608200.0
2000-08-01,23.9375,24.4375,23.75,24.1875,10.968852996826172,4587600.0
2000-09-01,24.25,25.0,24.0625,24.5625,11.138915061950684,2942600.0
2000-10-01,24.125,24.375,22.8125,23.5,10.65707778930664,2644900.0
2000-10-02,,,,,,
2000-11-01,23.5,23.8125,22.5,23.8125,10.963951110839844,4513600.0
2000-12-01,23.75,26.0625,23.3125,25.8125,11.884808540344238,4812400.0
2000-12-08,,,,,,
2001-01-01,25.6875,25.875,23.75,24.649999618530273,11.522696495056152,4706700.0
2001-02-01,24.600000381469727,24.709999084472656,23.549999237060547,24.709999084472656,11.550737380981445,2728300.0
2001-03-01,24.600000381469727,25.149999618530273,23.15999984741211,24.600000381469727,11.499321937561035,3600200.0
2001-04-01,24.25,25.049999237060547,22.75,24.899999618530273,11.63955307006836,4139200.0
2001-04-02,,,,,,
2001-05-01,24.950000762939453,25.149999618530273,23.899999618530273,24.700000762939453,11.734484672546387,3030400.0
2001-06-01,24.700000762939453,25.799999237060547,24.399999618530273,25.760000228881836,12.23807144165039,3914900.0
2001-07-01,25.110000610351562,25.969999313354492,24.75,25.0,11.877008438110352,3337600.0
2001-07-02,,,,,,
2001-08-01,25.0,26.690000534057617,25.0,25.6299991607666,12.365926742553711,4697400.0
2001-09-01,25.3799991607666,25.700000762939453,23.149999618530273,24.5,11.820724487304688,5227700.0
2001-10-01,24.75,24.969999313354492,23.079999923706055,24.309999465942383,11.729057312011719,6515600.0
2001-10-02,,,,,,
2001-11-01,24.350000381469727,25.729999542236328,24.110000610351562,25.5,12.500953674316406,3686100.0
2001-12-01,25.5,26.389999389648438,25.200000762939453,26.0,12.746073722839355,5004200.0
2001-12-12,,,,,,
2002-01-01,26.0,26.43000030517578,25.0,25.610000610351562,12.746986389160156,2764200.0
2002-02-01,25.59000015258789,26.450000762939453,25.350000381469727,26.049999237060547,12.965986251831055,3866700.0
2002-03-01,26.200000762939453,27.649999618530273,26.100000381469727,27.5,13.687708854675293,4049200.0
2002-04-01,27.530000686645508,29.399999618530273,27.290000915527344,28.040000915527344,13.956480979919434,5267600.0
2002-04-02,,,,,,
2002-05-01,28.040000915527344,29.5,27.649999618530273,29.149999618530273,14.728231430053711,5527900.0
2002-06-01,29.25,31.100000381469727,29.0,31.0,15.662955284118652,5537000.0
2002-07-01,31.0,31.0,25.530000686645508,29.549999237060547,14.930329322814941,10010500.0
2002-07-02,,,,,,
2002-08-01,29.200000762939453,29.959999084472656,28.649999618530273,29.75,15.23398208618164,4526200.0
2002-09-01,29.65999984741211,29.739999771118164,28.09000015258789,28.899999618530273,14.798720359802246,4579700.0
2002-10-01,28.899999618530273,28.950000762939453,24.700000762939453,26.799999237060547,13.723381042480469,10107500.0
2002-10-02,,,,,,
2002-11-01,26.799999237060547,28.200000762939453,26.350000381469727,27.649999618530273,14.36225700378418,7299100.0
2002-12-01,27.65999984741211,28.450000762939453,26.84000015258789,27.360000610351562,14.211621284484863,5350600.0
2002-12-18,,,,,,
2003-01-01,27.450000762939453,28.049999237060547,25.899999618530273,27.649999618530273,14.576229095458984,16243500.0
2003-02-01,27.600000381469727,28.149999618530273,26.850000381469727,28.0,14.760735511779785,4816500.0
2003-03-01,28.0,28.799999237060547,27.290000915527344,28.25,14.892526626586914,6873700.0
2003-04-01,28.25,28.799999237060547,26.8799991607666,27.299999237060547,14.391716003417969,8500500.0
2003-04-02,,,,,,
2003-05-01,27.350000381469727,28.559999465942383,26.3799991607666,27.40999984741211,14.661413192749023,6670000.0
2003-06-01,27.700000762939453,29.139999389648438,27.360000610351562,28.170000076293945,15.06793212890625,7529100.0
2003-07-01,27.950000762939453,28.700000762939453,26.829999923706055,28.100000381469727,15.030486106872559,8797900.0
2003-07-01,,,,,,
2003-08-01,28.149999618530273,28.579999923706055,27.309999465942383,28.5,15.472384452819824,5081100.0
2003-09-01,28.969999313354492,31.0,28.549999237060547,30.809999465942383,16.726465225219727,8160300.0
2003-10-01,30.450000762939453,31.68000030517578,29.90999984741211,29.989999771118164,16.281288146972656,6902000.0
2003-10-01,,,,,,
2003-11-01,30.100000381469727,32.060001373291016,29.969999313354492,31.459999084472656,17.312532424926758,4980400.0
2003-12-01,31.700000762939453,33.599998474121094,31.450000762939453,32.880001068115234,18.093965530395508,4071700.0
2003-12-18,,,,,,
2004-01-01,33.02000045776367,35.529998779296875,32.77000045776367,34.95000076293945,19.479562759399414,4147700.0
2004-02-01,35.0,36.25,34.619998931884766,35.41999816894531,19.74152183532715,5622600.0
2004-03-01,35.52000045776367,37.209999084472656,35.13999938964844,37.16999816894531,20.71688461303711,6330900.0
2004-04-01,36.79999923706055,37.29999923706055,29.84000015258789,30.299999237060547,16.887859344482422,10322200.0
2004-04-01,,,,,,
2004-05-01,30.25,33.04999923706055,28.149999618530273,33.04999923706055,18.633636474609375,6284600.0
2004-06-01,32.95000076293945,36.59000015258789,32.400001525878906,34.630001068115234,19.52444839477539,7470400.0
2004-06-30,,,,,,
2004-07-01,34.29999923706055,36.75,33.849998474121094,35.13999938964844,20.056291580200195,6227600.0
2004-08-01,35.11000061035156,37.459999084472656,34.34000015258789,37.349998474121094,21.317657470703125,8052200.0
2004-09-01,37.43000030517578,38.150001525878906,35.810001373291016,37.02000045776367,21.129314422607422,5481400.0
2004-10-01,36.439998626708984,37.95000076293945,35.849998474121094,37.5,21.40327262878418,5117100.0
2004-10-01,,,,,,
2004-11-01,37.650001525878906,40.650001525878906,37.27000045776367,39.95000076293945,23.06642723083496,5357500.0
2004-12-01,39.95000076293945,41.349998474121094,39.290000915527344,40.38999938964844,23.320476531982422,7053300.0
2004-12-21,,,,,,
2005-01-01,41.08000183105469,41.45000076293945,36.70000076293945,37.22999954223633,21.72447967529297,9397200.0
2005-02-01,37.25,39.900001525878906,36.75,38.81999969482422,22.652280807495117,7605900.0
2005-03-01,38.81999969482422,40.349998474121094,36.52000045776367,37.79999923706055,22.057090759277344,7003900.0
2005-04-01,37.79999923706055,39.15999984741211,36.7400016784668,38.9900016784668,22.751483917236328,6079800.0
2005-04-01,,,,,,
2005-05-01,38.9900016784668,41.29999923706055,38.540000915527344,40.310001373291016,23.79875946044922,5473400.0
2005-06-01,40.31999969482422,44.0,40.25,43.43000030517578,25.64078140258789,7359300.0
2005-07-01,43.189998626708984,46.459999084472656,42.79999923706055,45.9900016784668,27.152189254760742,8510500.0
2005-07-01,,,,,,
2005-08-01,45.9900016784668,46.25,41.849998474121094,44.33000183105469,26.440019607543945,7855300.0
2005-09-01,44.43000030517578,45.75,42.790000915527344,44.900001525878906,26.779958724975586,6226400.0
2005-10-01,44.459999084472656,44.93000030517578,40.91999816894531,44.18000030517578,26.350536346435547,8098900.0
2005-10-03,,,,,,
2005-11-01,44.04999923706055,46.91999816894531,42.45000076293945,46.7599983215332,28.165346145629883,7014300.0
2005-12-01,46.900001525878906,50.25,46.900001525878906,49.16999816894531,29.616987228393555,12026600.0
2005-12-20,,,,,,
2006-01-01,49.400001525878906,52.2400016784668,48.88999938964844,52.20000076293945,31.727914810180664,9239100.0
2006-02-01,51.900001525878906,54.09000015258789,49.93000030517578,53.650001525878906,32.60923385620117,9229600.0
2006-03-01,53.75,56.529998779296875,51.91999816894531,54.27000045776367,32.986083984375,10230100.0
2006-04-01,54.25,54.25,49.5,49.9900016784668,30.3846378326416,8732500.0
2006-04-04,,,,,,
2006-05-01,50.25,51.91999816894531,46.2599983215332,49.43000030517578,30.307912826538086,11417800.0
2006-06-01,49.56999969482422,51.68000030517578,47.720001220703125,50.54999923706055,30.994630813598633,8307800.0
2006-07-01,50.849998474121094,53.04999923706055,50.04999923706055,52.43000030517578,32.14734649658203,8697700.0
2006-07-05,,,,,,
2006-08-01,52.650001525878906,56.029998779296875,52.0,55.83000183105469,34.54045104980469,6611600.0
2006-09-01,55.970001220703125,58.650001525878906,55.0,55.11000061035156,34.09501266479492,7336500.0
2006-10-01,55.029998779296875,58.630001068115234,54.4900016784668,58.40999984741211,36.13663101196289,11022700.0
2006-10-04,,,,,,
2006-11-01,58.599998474121094,62.22999954223633,56.9900016784668,61.27000045776367,38.21763229370117,9399400.0
2006-12-01,61.29999923706055,63.02000045776367,57.08000183105469,58.61000061035156,36.558433532714844,7500400.0
2006-12-20,,,,,,
2007-01-01,58.79999923706055,60.97999954223633,56.02000045776367,60.849998474121094,38.25187683105469,11325000.0
2007-02-01,60.900001525878906,65.37999725341797,58.619998931884766,58.79999923706055,36.963191986083984,12752900.0
2007-03-01,57.77000045776367,60.869998931884766,56.209999084472656,58.790000915527344,36.956912994384766,22525100.0
2007-04-01,58.790000915527344,62.83000183105469,58.66999816894531,60.90999984741211,38.28960037231445,13907400.0
2007-04-03,,,,,,
2007-05-01,61.0,61.709999084472656,54.380001068115234,57.849998474121094,36.674339294433594,14795300.0
2007-06-01,57.91999816894531,59.779998779296875,51.529998779296875,53.220001220703125,33.7391242980957,15624000.0
2007-07-01,55.20000076293945,57.209999084472656,52.130001068115234,53.279998779296875,33.77714920043945,20184500.0
2007-07-03,,,,,,
2007-08-01,52.599998474121094,55.54999923706055,48.099998474121094,54.97999954223633,35.17003631591797,26092200.0
2007-09-01,54.88999938964844,60.0,53.119998931884766,59.810001373291016,38.25971984863281,13426500.0
2007-10-01,59.970001220703125,66.86000061035156,59.77000045776367,65.3499984741211,41.803592681884766,18011600.0
2007-10-03,,,,,,
2007-11-01,64.58999633789062,64.8499984741211,55.56999969482422,61.15999984741211,39.437442779541016,24977200.0
2007-12-01,60.84000015258789,64.31999969482422,54.279998779296875,57.560001373291016,37.116092681884766,14466600.0
2007-12-19,,,,,,
2008-01-01,57.47999954223633,57.91999816894531,47.06999969482422,50.56999969482422,32.90524673461914,31295000.0
2008-02-01,50.880001068115234,52.790000915527344,47.72999954223633,50.18000030517578,32.65148162841797,22987600.0
2008-03-01,50.38999938964844,56.97999954223633,45.75,54.41999816894531,35.4103889465332,24347400.0
2008-04-01,55.029998779296875,59.7599983215332,52.790000915527344,57.75,37.57719039916992,21293200.0
2008-04-02,,,,,,
2008-05-01,57.599998474121094,60.16999816894531,56.209999084472656,58.939998626708984,38.70323181152344,15526000.0
2008-06-01,58.81999969482422,59.04999923706055,49.90999984741211,50.380001068115234,33.0822639465332,19512800.0
2008-07-01,49.66999816894531,54.06999969482422,44.77000045776367,48.959999084472656,32.149803161621094,34988500.0
2008-07-01,,,,,,
2008-08-01,48.869998931884766,51.5,42.849998474121094,45.38999938964844,30.116405487060547,26486200.0
2008-09-01,46.290000915527344,57.130001068115234,40.27000045776367,45.29999923706055,30.05669403076172,40437700.0
2008-10-01,44.18000030517578,44.18000030517578,15.069999694824219,24.030000686645508,15.943981170654297,57040700.0
2008-10-02,,,,,,
2008-11-01,23.920000076293945,26.40999984741211,8.729999542236328,17.219999313354492,11.564014434814453,69044200.0
2008-12-01,16.59000015258789,23.700000762939453,12.90999984741211,23.420000076293945,15.7275972366333,75764100.0
2009-01-01,24.0,26.030000686645508,15.5,16.1200008392334,10.825315475463867,62361800.0
2009-02-01,16.149999618530273,18.190000534057617,11.529999732971191,11.90999984741211,7.99810791015625,64474000.0
2009-03-01,11.359999656677246,15.09000015258789,9.119999885559082,14.399999618530273,9.670258522033691,144889800.0
2009-04-01,14.220000267028809,19.90999984741211,13.8100004196167,19.09000015258789,12.819805145263672,111616100.0
2009-04-02,,,,,,
2009-05-01,19.09000015258789,20.0,15.930000305175781,17.850000381469727,12.220656394958496,82448600.0
2009-06-01,18.209999084472656,20.75,16.8799991607666,18.809999465942383,12.877903938293457,61178200.0
2009-07-01,19.739999771118164,19.899999618530273,15.90999984741211,19.809999465942383,13.562532424926758,56292900.0
2009-07-01,,,,,,
2009-08-01,20.0,24.280000686645508,19.850000381469727,22.829999923706055,15.866300582885742,53289800.0
2009-09-01,22.6299991607666,25.959999084472656,20.200000762939453,22.950000762939453,15.949697494506836,49420500.0
2009-10-01,22.65999984741211,24.260000228881836,20.709999084472656,21.979999542236328,15.27557373046875,57057000.0
2009-10-01,,,,,,
2009-11-01,22.25,25.719999313354492,21.15999984741211,23.549999237060547,16.568828582763672,38016300.0
2009-12-01,23.700000762939453,27.43000030517578,23.3799991607666,25.549999237060547,17.97594451904297,34600400.0
2009-12-21,,,,,,
2010-01-01,25.760000228881836,26.1299991607666,23.139999389648438,24.0,17.073795318603516,24565300.0
2010-02-01,24.3700008392334,25.020000457763672,21.799999237060547,24.34000015258789,17.315671920776367,31561200.0
2010-03-01,24.459999084472656,29.600000381469727,24.299999237060547,27.239999771118164,19.37875747680664,33093800.0
2010-03-31,,,,,,
2010-04-01,27.479999542236328,29.170000076293945,26.510000228881836,27.860000610351562,20.021705627441406,58414400.0
2010-05-01,28.1299991607666,29.0,23.139999389648438,25.93000030517578,18.634702682495117,52417400.0
2010-06-01,25.739999771118164,27.780000686645508,23.489999771118164,23.709999084472656,17.039295196533203,45153300.0
2010-07-01,23.600000381469727,25.459999084472656,22.049999237060547,24.959999084472656,17.937606811523438,51313300.0
2010-07-01,,,,,,
2010-08-01,25.420000076293945,26.18000030517578,22.969999313354492,23.790000915527344,17.301101684570312,33241600.0
2010-09-01,24.270000457763672,26.969999313354492,23.899999618530273,26.469999313354492,19.250104904174805,30526200.0
2010-10-01,26.440000534057617,28.350000381469727,26.139999389648438,28.190000534057617,20.500961303710938,41065400.0
2010-10-01,,,,,,
2010-11-01,28.579999923706055,30.729999542236328,27.600000381469727,29.190000534057617,21.45516014099121,33570900.0
2010-12-01,29.670000076293945,32.18000030517578,29.31999969482422,31.709999084472656,23.307401657104492,30744300.0
2010-12-21,,,,,,
2011-01-01,31.969999313354492,36.040000915527344,31.75,33.54999923706055,24.882139205932617,43107700.0
2011-02-01,33.599998474121094,36.380001068115234,32.72999954223633,36.380001068115234,26.980993270874023,33839200.0
2011-02-10,,,,,,
2011-03-01,36.369998931884766,36.470001220703125,32.709999084472656,35.970001220703125,26.900493621826172,35114300.0
2011-04-01,36.209999084472656,37.060001373291016,34.52000045776367,36.400001525878906,27.222064971923828,29883400.0
2011-05-01,36.709999084472656,37.439998626708984,34.349998474121094,36.9900016784668,27.663297653198242,38543400.0
2011-05-12,,,,,,
2011-06-01,36.81999969482422,37.06999969482422,31.760000228881836,35.84000015258789,27.015626907348633,170697400.0
2011-07-01,35.75,37.459999084472656,34.029998779296875,35.630001068115234,26.857332229614258,70595300.0
2011-08-01,35.939998626708984,36.209999084472656,23.940000534057617,27.229999542236328,20.525545120239258,133500400.0
2011-09-01,27.139999389648438,28.610000610351562,24.239999771118164,24.25,18.279268264770508,99718000.0
2011-09-15,,,,,,
2011-10-01,23.979999542236328,30.559999465942383,21.739999771118164,29.760000228881836,22.6716251373291,95953400.0
2011-11-01,28.59000015258789,29.959999084472656,24.90999984741211,27.81999969482422,21.193706512451172,74142900.0
2011-12-01,27.719999313354492,29.25,26.649999618530273,28.59000015258789,21.780302047729492,55972800.0
2011-12-15,,,,,,
2012-01-01,29.43000030517578,32.97999954223633,28.15999984741211,31.709999084472656,24.41060447692871,72334600.0
2012-02-01,32.02000045776367,34.72999954223633,31.989999771118164,33.65999984741211,25.911724090576172,57233500.0
2012-03-01,33.65999984741211,36.029998779296875,33.40999984741211,36.02000045776367,27.728469848632812,61973700.0
2012-03-08,,,,,,
2012-04-01,35.95000076293945,36.40999984741211,33.099998474121094,35.7599983215332,27.755489349365234,55215600.0
2012-05-01,35.0,36.619998931884766,30.799999237060547,31.979999542236328,24.82160186767578,68701100.0
2012-06-01,31.110000610351562,33.2599983215332,30.030000686645508,33.22999954223633,25.791805267333984,79846900.0
2012-06-07,,,,,,
2012-07-01,33.36000061035156,33.630001068115234,31.030000686645508,32.33000183105469,25.31476593017578,47253100.0
2012-08-01,32.47999954223633,34.33000183105469,31.950000762939453,34.16999816894531,26.75550079345703,50604100.0
2012-09-01,34.20000076293945,37.58000183105469,33.779998779296875,35.029998779296875,27.42890167236328,59405100.0
2012-09-12,,,,,,
2012-10-01,35.09000015258789,36.459999084472656,33.709999084472656,34.290000915527344,27.05887794494629,51936300.0
2012-11-01,34.279998779296875,34.720001220703125,32.310001373291016,33.939998626708984,26.78268814086914,52201500.0
2012-12-01,34.13999938964844,36.79999923706055,33.54999923706055,36.4900016784668,28.794944763183594,53039700.0
2012-12-13,,,,,,
2013-01-01,37.2400016784668,41.02000045776367,37.040000915527344,39.900001525878906,31.737791061401367,62394600.0
2013-02-01,40.209999084472656,41.0099983215332,38.130001068115234,38.939998626708984,30.974178314208984,51100600.0
2013-03-01,38.7599983215332,40.18000030517578,37.9900016784668,39.97999954223633,31.801424026489258,55805100.0
2013-03-08,,,,,,
2013-04-01,39.880001068115234,43.209999084472656,38.849998474121094,41.95000076293945,33.60696029663086,91106400.0
2013-05-01,41.97999954223633,45.52000045776367,40.2599983215332,40.29999923706055,32.28511428833008,67012100.0
2013-06-01,40.2599983215332,41.0,35.09000015258789,37.720001220703125,30.218217849731445,86158600.0
2013-06-07,,,,,,
2013-07-01,38.290000915527344,40.58000183105469,36.779998779296875,38.36000061035156,30.951683044433594,52598400.0
2013-08-01,38.59000015258789,38.72999954223633,34.599998474121094,35.2400016784668,28.434240341186523,44875000.0
2013-09-01,35.630001068115234,39.7400016784668,34.810001373291016,37.619998931884766,30.354595184326172,50293100.0
2013-09-12,,,,,,
2013-10-01,37.779998779296875,40.9900016784668,37.310001373291016,39.95000076293945,32.477569580078125,57958800.0
2013-11-01,40.11000061035156,40.88999938964844,37.90999984741211,37.93000030517578,30.83538818359375,37049200.0
2013-12-01,37.91999816894531,38.08000183105469,35.709999084472656,36.95000076293945,30.038698196411133,50158800.0
2013-12-16,,,,,,
2014-01-01,36.9900016784668,39.15999984741211,36.33000183105469,38.7599983215332,31.755165100097656,53599800.0
2014-02-01,38.81999969482422,41.38999938964844,38.0099983215332,41.189998626708984,33.74600601196289,45840200.0
2014-03-01,40.91999816894531,42.099998474121094,39.59000015258789,40.83000183105469,33.45106506347656,42368600.0
2014-03-10,,,,,,
2014-04-01,40.900001525878906,41.619998931884766,39.720001220703125,40.630001068115234,33.55817413330078,56006800.0
2014-05-01,40.630001068115234,41.790000915527344,40.36000061035156,41.5099983215332,34.285011291503906,48382800.0
2014-06-01,41.58000183105469,42.65999984741211,40.560001373291016,41.09000015258789,33.93810272216797,42310800.0
2014-06-09,,,,,,
2014-07-01,41.2599983215332,42.380001068115234,40.38999938964844,40.810001373291016,33.972572326660156,42807800.0
2014-08-01,40.75,41.52000045776367,39.59000015258789,40.939998626708984,34.080780029296875,36395600.0
2014-09-01,41.0,41.65999984741211,37.279998779296875,37.70000076293945,31.38362693786621,54830200.0
2014-09-17,,,,,,
2014-10-01,37.68000030517578,41.709999084472656,37.119998931884766,41.650001525878906,34.9677848815918,66670400.0
2014-11-01,41.720001220703125,42.619998931884766,40.630001068115234,42.279998779296875,35.496700286865234,47093800.0
2014-12-01,42.189998626708984,44.04999923706055,40.900001525878906,43.029998779296875,36.126380920410156,59455300.0
2014-12-15,,,,,,
2015-01-01,43.310001373291016,47.560001373291016,43.060001373291016,45.13999938964844,38.19626235961914,69088300.0
2015-02-01,45.380001068115234,45.810001373291016,42.31999969482422,42.709999084472656,36.14006423950195,61089300.0
2015-03-01,42.709999084472656,44.959999084472656,41.150001525878906,43.560001373291016,36.85931396484375,77079000.0
2015-03-16,,,,,,
2015-04-01,43.560001373291016,44.47999954223633,39.9900016784668,40.20000076293945,34.3071174621582,69503000.0
2015-05-01,40.400001525878906,41.439998626708984,39.34000015258789,39.59000015258789,33.78653335571289,59337200.0
2015-06-01,39.470001220703125,40.2400016784668,37.029998779296875,37.099998474121094,31.66153335571289,68994400.0
2015-06-09,,,,,,
2015-07-01,37.290000915527344,40.9900016784668,37.04999923706055,40.61000061035156,34.973365783691406,59299700.0
2015-08-01,40.65999984741211,42.4900016784668,36.41999816894531,38.720001220703125,33.34568405151367,77303300.0
2015-09-01,37.220001220703125,39.20000076293945,36.2599983215332,38.900001525878906,33.50069808959961,64133600.0
2015-09-16,,,,,,
2015-10-01,39.11000061035156,43.689998626708984,38.65999984741211,42.72999954223633,37.19331359863281,57258600.0
2015-11-01,42.72999954223633,43.68000030517578,40.58000183105469,42.75,37.210716247558594,50429000.0
2015-12-01,42.90999984741211,43.689998626708984,40.470001220703125,42.91999816894531,37.35869216918945,63332400.0
2015-12-11,,,,,,
2016-01-01,42.36000061035156,42.939998626708984,36.68000030517578,39.470001220703125,34.68614196777344,73122800.0
2016-02-01,39.18000030517578,39.790000915527344,35.25,38.459999084472656,33.798553466796875,75356700.0
2016-03-01,38.880001068115234,44.2599983215332,38.66999816894531,44.18000030517578,38.82527542114258,61425600.0
2016-03-16,,,,,,
2016-04-01,43.97999954223633,46.09000015258789,43.45000076293945,45.40999984741211,40.30592727661133,65682100.0
2016-05-01,45.470001220703125,48.20000076293945,44.77000045776367,47.529998779296875,42.18763732910156,55166300.0
2016-06-01,47.40999984741211,50.7400016784668,46.7599983215332,49.040000915527344,43.52791213989258,84746000.0
2016-06-09,,,,,,
2016-07-01,48.86000061035156,54.56999969482422,48.459999084472656,54.4900016784668,48.7804069519043,63521300.0
2016-08-01,54.61000061035156,54.869998931884766,51.27000045776367,53.11000061035156,47.545005798339844,52889500.0
2016-09-01,53.13999938964844,54.790000915527344,50.470001220703125,53.540000915527344,47.92995071411133,54418600.0
2016-09-15,,,,,,
2016-10-01,53.33000183105469,53.36000061035156,49.619998931884766,52.15999984741211,47.0784912109375,48278400.0
2016-11-01,51.959999084472656,52.0099983215332,45.93000030517578,50.900001525878906,45.94124221801758,78372600.0
2016-12-01,50.689998626708984,53.5099983215332,49.58000183105469,52.38999938964844,47.28608703613281,53366100.0
2016-12-15,,,,,,
2017-01-01,53.27000045776367,54.25,48.619998931884766,48.849998474121094,44.45165252685547,57589300.0
2017-02-01,48.84000015258789,51.65999984741211,48.33000183105469,51.04999923706055,46.45357131958008,52031100.0
2017-03-01,51.099998474121094,51.939998626708984,48.79999923706055,51.880001068115234,47.20884323120117,64149400.0
2017-03-13,,,,,,
2017-04-01,51.790000915527344,55.93000030517578,51.65999984741211,54.40999984741211,49.955997467041016,56473400.0
2017-05-01,54.54999923706055,56.150001525878906,53.150001525878906,55.540000915527344,50.993499755859375,47701100.0
2017-06-01,55.5099983215332,59.4900016784668,55.209999084472656,58.63999938964844,53.8397331237793,69533300.0
2017-06-12,,,,,,
2017-07-01,58.91999816894531,61.810001373291016,56.59000015258789,60.810001373291016,56.265438079833984,45089900.0
2017-08-01,61.06999969482422,63.58000183105469,59.36000061035156,63.36000061035156,58.6248664855957,40513800.0
2017-09-01,63.43000030517578,65.48999786376953,62.11000061035156,63.459999084472656,58.71739196777344,44020400.0
2017-09-15,,,,,,
2017-10-01,63.68000030517578,65.62999725341797,63.150001525878906,64.58000183105469,60.15911102294922,42722700.0
2017-11-01,64.5999984741211,67.52999877929688,64.31999969482422,66.2300033569336,61.69615173339844,37140600.0
2017-12-01,66.4000015258789,67.05000305175781,62.9900016784668,64.51000213623047,60.09390640258789,38919200.0
2017-12-15,,,,,,
2018-01-01,64.58999633789062,65.16999816894531,61.09000015258789,65.11000061035156,61.06045150756836,53665400.0
2018-02-01,65.01000213623047,65.19000244140625,58.279998779296875,60.68000030517578,56.90597915649414,63599500.0
2018-03-01,60.5099983215332,64.0199966430664,59.25,62.9900016784668,59.072303771972656,44279300.0
2018-03-14,,,,,,
2018-04-01,63.16999816894531,67.0,60.81999969482422,64.91000366210938,61.33750534057617,52223300.0
2018-05-01,65.13999938964844,65.75,62.7400016784668,64.3499984741211,60.808319091796875,64671700.0
2018-06-01,64.63999938964844,66.5,63.400001525878906,65.69000244140625,62.0745735168457,64515600.0
2018-06-13,,,,,,
2018-07-01,65.58999633789062,66.43000030517578,61.880001068115234,65.62000274658203,62.46612548828125,67980400.0
2018-08-01,65.23999786376953,68.19999694824219,63.90999984741211,67.18000030517578,63.95114517211914,99974600.0
2018-09-01,67.11000061035156,67.86000061035156,65.66000366210938,67.79000091552734,64.53182220458984,53234800.0
2018-09-14,,,,,,
2018-10-01,67.69000244140625,67.98999786376953,61.91999816894531,64.47000122070312,61.81034469604492,70561300.0
2018-11-01,64.61000061035156,68.12999725341797,63.54999923706055,67.33999633789062,64.56194305419922,45396100.0
2018-12-01,67.44000244140625,68.94999694824219,55.209999084472656,58.720001220703125,56.29755783081055,60815400.0
2018-12-17,,,,,,
2019-01-01,58.040000915527344,69.44999694824219,56.400001525878906,69.16000366210938,66.80162048339844,59350600.0
2019-02-01,69.44000244140625,71.91999816894531,68.16999816894531,70.05999755859375,67.67091369628906,48355000.0
2019-03-01,70.05999755859375,72.81999969482422,68.95999908447266,71.94999694824219,69.49646759033203,50265400.0
2019-03-14,,,,,,
2019-04-01,72.01000213623047,76.81999969482422,71.26000213623047,76.66999816894531,74.60179138183594,46182100.0
2019-05-01,76.66999816894531,78.55999755859375,72.5,73.66999816894531,71.6827163696289,46692600.0
2019-06-01,74.41000366210938,82.81999969482422,73.66999816894531,80.0999984741211,77.93926239013672,45838800.0
2019-06-12,,,,,,
2019-07-01,80.91000366210938,83.98999786376953,78.83999633789062,80.61000061035156,78.96642303466797,47529200.0
2019-08-01,80.5199966430664,84.22000122070312,77.5,83.62000274658203,81.9150619506836,45921300.0
2019-09-01,83.1500015258789,86.94000244140625,81.86000061035156,85.22000122070312,83.48243713378906,43836400.0
2019-09-19,,,,,,
2019-10-01,85.25,92.48999786376953,83.2300033569336,87.76000213623047,86.50638580322266,65823900.0
2019-11-01,88.18000030517578,92.80000305175781,85.08000183105469,91.55000305175781,90.24224090576172,57277400.0
2019-12-01,91.47000122070312,92.25,86.69999694824219,89.13999938964844,87.86666870117188,52851500.0
2019-12-18,,,,,,
2020-01-01,89.66999816894531,96.95999908447266,87.55000305175781,92.87999725341797,92.11238861083984,59979100.0
2020-02-01,93.5,99.79000091552734,80.94000244140625,84.27999877929688,83.58346557617188,105877200.0
2020-03-01,84.69999694824219,94.47000122070312,59.81999969482422,72.19000244140625,71.59339141845703,114761500.0
2020-03-13,,,,,,
2020-03-26,72.38999938964844,76.66000366210938,71.36000061035156,75.43000030517578,75.43000030517578,1963900.0
