Date,Open,High,Low,Close,Adj Close,Volume
2008-03-01,50.0,54.70000076293945,46.900001525878906,50.58000183105469,28.80637550354004,58655400.0
2008-04-01,51.099998474121094,52.43000030517578,47.43000030517578,51.029998779296875,29.062671661376953,229897200.0
2008-05-01,50.83000183105469,53.95000076293945,50.400001525878906,52.65999984741211,29.99099349975586,148768600.0
2008-06-01,52.150001525878906,52.75,48.529998779296875,49.38999938964844,28.128643035888672,196787300.0
2008-06-26,,,,,,
2008-07-01,49.029998779296875,54.43000030517578,48.72999954223633,51.650001525878906,29.679481506347656,186814100.0
2008-08-01,51.75,56.2599983215332,51.279998779296875,53.70000076293945,30.85747528076172,149527200.0
2008-09-01,53.75,55.72999954223633,46.79999923706055,48.099998474121094,27.63956069946289,252888100.0
2008-09-11,,,,,,
2008-10-01,47.959999084472656,51.95000076293945,33.29999923706055,43.470001220703125,25.228458404541016,346357500.0
2008-11-01,43.22999954223633,46.470001220703125,36.0,42.15999984741211,24.468177795410156,232665000.0
2008-12-01,40.90999984741211,44.5,39.0,43.5099983215332,25.25166893005371,234520600.0
2008-12-23,,,,,,
2009-01-01,43.470001220703125,45.02000045776367,36.9900016784668,37.150001525878906,21.840229034423828,202378900.0
2009-02-01,36.68000030517578,38.709999084472656,33.41999816894531,33.470001220703125,19.676776885986328,250174200.0
2009-03-01,32.790000915527344,39.279998779296875,32.040000915527344,35.58000183105469,20.917232513427734,275644800.0
2009-03-23,,,,,,
2009-04-01,35.220001220703125,38.959999084472656,35.150001525878906,36.20000076293945,21.585588455200195,197184900.0
2009-05-01,36.279998779296875,43.70000076293945,36.18000030517578,42.63999938964844,25.425682067871094,180974400.0
2009-06-01,42.68000030517578,45.439998626708984,41.150001525878906,43.619998931884766,26.010042190551758,218092100.0
2009-06-22,,,,,,
2009-07-01,43.900001525878906,48.630001068115234,42.02000045776367,46.599998474121094,28.147586822509766,167317300.0
2009-08-01,47.029998779296875,47.88999938964844,45.029998779296875,45.709999084472656,27.60999870300293,138815800.0
2009-09-01,45.66999816894531,49.95000076293945,45.0,48.7400016784668,29.44019889831543,161300700.0
2009-09-24,,,,,,
2009-10-01,48.68000030517578,52.349998474121094,47.06999969482422,47.36000061035156,28.946504592895508,176938100.0
2009-11-01,47.380001068115234,50.97999954223633,47.08000183105469,48.09000015258789,29.392683029174805,147841300.0
2009-12-01,48.529998779296875,50.540000915527344,48.119998931884766,48.189998626708984,29.453798294067383,176290800.0
2009-12-23,,,,,,
2010-01-01,48.33000183105469,50.20000076293945,45.43000030517578,45.5099983215332,28.1448974609375,137751700.0
2010-02-01,45.7400016784668,50.40999984741211,45.0099983215332,48.97999954223633,30.290863037109375,167471200.0
2010-03-01,49.04999923706055,53.06999969482422,48.790000915527344,52.15999984741211,32.257476806640625,165378400.0
2010-03-23,,,,,,
2010-04-01,52.2400016784668,53.90999984741211,48.220001220703125,49.08000183105469,30.689237594604492,147152700.0
2010-05-01,49.31999969482422,49.75,42.970001220703125,44.119998931884766,27.587799072265625,227720100.0
2010-06-01,43.77000045776367,47.08000183105469,42.939998626708984,45.84000015258789,28.663305282592773,240063200.0
2010-06-22,,,,,,
2010-07-01,45.77000045776367,51.54999923706055,45.54999923706055,51.040000915527344,32.31977462768555,156133600.0
2010-08-01,51.470001220703125,53.2400016784668,50.540000915527344,51.36000061035156,32.522396087646484,154365400.0
2010-09-01,51.880001068115234,57.11000061035156,51.880001068115234,56.02000045776367,35.473228454589844,151489800.0
2010-09-22,,,,,,
2010-10-01,56.040000915527344,59.849998474121094,55.099998474121094,58.5099983215332,37.477962493896484,146381600.0
2010-11-01,58.61000061035156,60.869998931884766,56.75,56.88999938964844,36.44028854370117,151210900.0
2010-12-01,57.369998931884766,60.13999938964844,56.709999084472656,58.529998779296875,37.49077606201172,131809500.0
2010-12-21,,,,,,
2011-01-01,58.880001068115234,58.9900016784668,55.849998474121094,57.2400016784668,37.06266784667969,142677900.0
2011-02-01,57.52000045776367,63.119998931884766,57.33000183105469,62.779998779296875,40.64979934692383,112672100.0
2011-03-01,63.060001373291016,65.91999816894531,61.349998474121094,65.62999725341797,42.49516677856445,171779900.0
2011-03-22,,,,,,
2011-04-01,65.87000274658203,69.79000091552734,64.48999786376953,69.44000244140625,45.4239501953125,119448500.0
2011-05-01,69.80999755859375,71.75,67.83999633789062,71.75,46.93500518798828,132389600.0
2011-06-01,71.69999694824219,71.75,64.68000030517578,66.7699966430664,43.677371978759766,150506200.0
2011-06-21,,,,,,
2011-07-01,66.66000366210938,72.73999786376953,66.16999816894531,71.16999816894531,46.99097442626953,124137100.0
2011-08-01,71.62000274658203,71.66000366210938,64.2300033569336,69.31999969482422,45.769474029541016,233093800.0
2011-09-01,69.41999816894531,70.06999969482422,62.31999969482422,62.380001068115234,41.187259674072266,219327000.0
2011-09-23,,,,,,
2011-10-01,62.2400016784668,72.48999786376953,60.45000076293945,69.87000274658203,46.68601608276367,174761100.0
2011-11-01,68.18000030517578,76.4000015258789,67.75,76.23999786376953,50.942352294921875,132014400.0
2011-12-01,76.0999984741211,79.41999816894531,74.38999938964844,78.4800033569336,52.439090728759766,115149500.0
2011-12-20,,,,,,
2012-01-01,79.16000366210938,79.95999908447266,72.8499984741211,74.7699966430664,50.470130920410156,124239100.0
2012-02-01,75.19000244140625,84.30000305175781,75.1500015258789,83.5199966430664,56.37641525268555,105317700.0
2012-03-01,83.5,88.86000061035156,82.91000366210938,88.61000061035156,59.81216812133789,118464900.0
2012-03-27,,,,,,
2012-04-01,88.86000061035156,90.62999725341797,86.0999984741211,89.51000213623047,60.952110290527344,113298100.0
2012-05-01,89.30999755859375,91.05000305175781,83.77999877929688,84.51000213623047,57.547367095947266,112116200.0
2012-06-01,83.16000366210938,88.93000030517578,81.0999984741211,87.26000213623047,59.41995620727539,122184900.0
2012-06-25,,,,,,
2012-07-01,87.33999633789062,91.80999755859375,86.83000183105469,91.44000244140625,62.828826904296875,99888800.0
2012-08-01,91.44999694824219,93.5999984741211,88.27999877929688,89.30000305175781,61.35842514038086,90812000.0
2012-09-01,89.44000244140625,92.58999633789062,86.11000061035156,89.94000244140625,61.79816436767578,134386400.0
2012-09-25,,,,,,
2012-10-01,90.2699966430664,94.12999725341797,87.4000015258789,88.55999755859375,61.416595458984375,92848000.0
2012-11-01,88.97000122070312,90.83999633789062,82.0999984741211,89.87999725341797,62.332027435302734,110799000.0
2012-12-01,90.01000213623047,90.48999786376953,82.44000244140625,83.63999938964844,58.00456619262695,106731900.0
2012-12-20,,,,,,
2012-12-24,,,,,,
2013-01-01,84.69999694824219,90.29000091552734,84.33000183105469,88.16000366210938,61.78560256958008,106238400.0
2013-02-01,88.91999816894531,93.61000061035156,86.80000305175781,91.75,64.30160522460938,94565700.0
2013-03-01,91.69000244140625,92.94000244140625,90.04000091552734,92.70999908447266,64.97441101074219,108999200.0
2013-03-26,,,,,,
2013-04-01,92.73999786376953,96.5999984741211,90.69999694824219,95.58999633789062,67.61759185791016,99218600.0
2013-05-01,95.31999969482422,96.7300033569336,90.88999938964844,90.91000366210938,64.3071060180664,115908400.0
2013-06-01,90.94999694824219,93.16999816894531,86.05000305175781,86.62000274658203,61.27248001098633,119759300.0
2013-06-25,,,,,,
2013-07-01,87.11000061035156,91.4000015258789,86.58000183105469,89.18000030517578,63.70684814453125,97688900.0
2013-08-01,89.61000061035156,89.9000015258789,82.86000061035156,83.44000244140625,59.60641860961914,94747300.0
2013-09-01,83.83000183105469,91.25,83.16000366210938,86.58999633789062,61.856651306152344,113585800.0
2013-09-24,,,,,,
2013-10-01,86.7300033569336,90.66000366210938,84.16000366210938,89.12000274658203,64.33783721923828,110473000.0
2013-11-01,89.36000061035156,91.80999755859375,84.86000061035156,85.54000091552734,61.753334045410156,102889500.0
2013-12-01,85.33000183105469,87.33999633789062,83.80999755859375,87.12999725341797,62.901206970214844,99812100.0
2013-12-23,,,,,,
2014-01-01,87.0,87.19999694824219,77.19000244140625,78.13999938964844,57.038047790527344,136015900.0
2014-02-01,78.08999633789062,81.5999984741211,75.27999877929688,80.91000366210938,59.06000900268555,117411700.0
2014-03-01,80.25,81.94999694824219,78.79000091552734,81.87000274658203,59.7607421875,106948700.0
2014-03-25,,,,,,
2014-04-01,81.73999786376953,85.83000183105469,81.69999694824219,85.43000030517578,63.096885681152344,104308200.0
2014-05-01,85.48999786376953,88.80000305175781,84.81999969482422,88.54000091552734,65.39385986328125,80180200.0
2014-06-01,88.33000183105469,91.62999725341797,84.05000305175781,84.30999755859375,62.26966094970703,111587100.0
2014-06-24,,,,,,
2014-07-01,84.3499984741211,86.8499984741211,82.0,82.01000213623047,61.20717239379883,92184600.0
2014-08-01,82.0,85.69000244140625,81.19000244140625,85.58000183105469,63.87158966064453,63797800.0
2014-09-01,85.30000305175781,86.06999969482422,82.27999877929688,83.4000015258789,62.24458694458008,98199400.0
2014-09-23,,,,,,
2014-10-01,83.25,89.23999786376953,81.9000015258789,89.01000213623047,67.21263885498047,113236000.0
2014-11-01,88.8499984741211,90.25,85.48999786376953,86.93000030517578,65.64197540283203,76973700.0
2014-12-01,86.37000274658203,87.68000030517578,81.16000366210938,81.44999694824219,61.503971099853516,101359600.0
2014-12-22,,,,,,
2015-01-01,81.5999984741211,85.29000091552734,79.86000061035156,80.23999786376953,61.328739166259766,118540900.0
2015-02-01,80.23999786376953,83.86000061035156,80.05999755859375,82.95999908447266,63.407676696777344,85348500.0
2015-03-01,82.95999908447266,83.22000122070312,75.30000305175781,75.33000183105469,57.57594299316406,132574200.0
2015-03-24,,,,,,
2015-04-01,75.2699966430664,85.75,75.2699966430664,83.47000122070312,64.60647583007812,128987000.0
2015-05-01,83.47000122070312,86.91000366210938,82.55999755859375,83.06999969482422,64.29686737060547,70039200.0
2015-06-01,82.9000015258789,83.66000366210938,79.37999725341797,80.16999816894531,62.05225372314453,95653400.0
2015-06-23,,,,,,
2015-07-01,80.36000061035156,86.51000213623047,80.0999984741211,85.52999877929688,67.00698852539062,80944700.0
2015-08-01,85.5,86.33999633789062,76.54000091552734,80.77999877929688,63.285675048828125,94243600.0
2015-09-01,78.20999908447266,83.05000305175781,77.0,79.33000183105469,62.14971923828125,91379800.0
2015-09-28,,,,,,
2015-10-01,79.68000030517578,90.08000183105469,78.41000366210938,88.4000015258789,70.14311218261719,91745600.0
2015-11-01,88.7300033569336,88.9800033569336,83.2699966430664,87.38999938964844,69.34168243408203,71774300.0
2015-12-01,87.44000244140625,90.2699966430664,85.73999786376953,87.91000366210938,69.75432586669922,93028100.0
2015-12-21,,,,,,
2016-01-01,86.8499984741211,90.23999786376953,84.45999908447266,90.01000213623047,72.2686767578125,104390100.0
2016-02-01,89.79000091552734,92.87000274658203,87.41999816894531,91.02999877929688,73.0876235961914,95732900.0
2016-03-01,91.5999984741211,99.52999877929688,90.79000091552734,98.11000061035156,78.7721176147461,107735200.0
2016-03-22,,,,,,
2016-03-23,,,,,,
2016-04-01,97.7699966430664,102.0,95.91000366210938,98.12000274658203,80.45198059082031,93058200.0
2016-05-01,98.41999816894531,102.55000305175781,97.19999694824219,98.68000030517578,80.91114044189453,73213400.0
2016-06-01,98.68000030517578,102.01000213623047,96.88999938964844,101.72000122070312,83.40375518798828,114661400.0
2016-06-21,,,,,,
2016-07-01,101.72000122070312,104.19999694824219,96.94999694824219,100.26000213623047,83.04073333740234,96415300.0
2016-08-01,99.73999786376953,100.58000183105469,98.23999786376953,99.93000030517578,82.76740264892578,78010900.0
2016-09-01,99.80000305175781,102.37999725341797,97.12000274658203,97.22000122070312,80.52284240722656,90976000.0
2016-09-26,,,,,,
2016-10-01,97.3499984741211,98.01000213623047,95.0,96.44000244140625,80.7034683227539,88215300.0
2016-11-01,96.62999725341797,98.20999908447266,86.9000015258789,88.27999877929688,73.87496185302734,134134400.0
2016-12-01,87.8499984741211,92.62999725341797,86.77999877929688,91.48999786376953,76.5611801147461,92019400.0
2016-12-20,,,,,,
2017-01-01,91.79000091552734,96.97000122070312,89.97000122070312,96.12999725341797,81.36931610107422,88370600.0
2017-02-01,95.61000061035156,109.98999786376953,95.19999694824219,109.3499984741211,92.55937957763672,91400800.0
2017-03-01,109.0,114.6500015258789,108.68000030517578,112.9000015258789,95.56430053710938,107867000.0
2017-03-21,,,,,,
2017-04-01,112.91000366210938,115.62999725341797,108.55999755859375,110.83999633789062,94.68431091308594,89203100.0
2017-05-01,111.0,121.11000061035156,109.94999694824219,119.80000305175781,102.33833312988281,73694100.0
2017-06-01,120.0,123.55000305175781,116.7300033569336,117.44999694824219,100.33084869384766,78309300.0
2017-06-21,,,,,,
2017-07-01,117.86000061035156,121.69000244140625,109.30999755859375,116.70999908447266,100.55513000488281,89413200.0
2017-08-01,117.01000213623047,118.29000091552734,113.87999725341797,116.93000030517578,100.74468994140625,78485900.0
2017-09-01,117.16999816894531,119.43000030517578,110.94000244140625,111.01000213623047,95.64411163330078,69824700.0
2017-09-26,,,,,,
2017-10-01,111.2300033569336,115.27999877929688,104.26000213623047,104.63999938964844,91.01578521728516,94069600.0
2017-11-01,104.77999877929688,105.0,101.58000183105469,102.75,89.37185668945312,88067200.0
2017-12-01,103.2699966430664,110.2699966430664,102.1500015258789,105.6500015258789,91.894287109375,92831700.0
2017-12-20,,,,,,
2018-01-01,105.81999969482422,111.25,103.0199966430664,107.2300033569336,94.2008056640625,103349400.0
2018-02-01,107.04000091552734,107.58000183105469,96.66000366210938,103.55000305175781,90.96795654296875,117982800.0
2018-03-01,103.66999816894531,109.9000015258789,95.51000213623047,99.4000015258789,87.32220458984375,115299300.0
2018-03-21,,,,,,
2018-04-01,99.58999633789062,103.55000305175781,80.47000122070312,82.0,72.81343078613281,178649700.0
2018-05-01,81.4000015258789,83.04000091552734,78.61000061035156,79.54000091552734,70.6290283203125,135047300.0
2018-06-01,79.44999694824219,82.13999938964844,76.20999908447266,80.73999786376953,71.69459533691406,144284100.0
2018-06-21,,,,,,
2018-07-01,80.62000274658203,86.97000122070312,76.5199966430664,86.30000305175781,77.71543884277344,131104500.0
2018-08-01,86.02999877929688,87.44000244140625,77.4800033569336,77.88999938964844,70.14200592041016,107633800.0
2018-09-01,78.0,83.86000061035156,77.16999816894531,81.54000091552734,73.4289321899414,106004500.0
2018-09-25,,,,,,
2018-10-01,81.41000366210938,92.69000244140625,80.44999694824219,88.06999969482422,80.43292999267578,151642000.0
2018-11-01,88.33000183105469,90.87999725341797,82.83000183105469,86.52999877929688,79.02647399902344,110103300.0
2018-12-01,86.52999877929688,88.5199966430664,64.66999816894531,66.76000213623047,60.970848083496094,168983500.0
2018-12-19,,,,,,
2019-01-01,66.12999725341797,77.0999984741211,65.73999786376953,76.72000122070312,71.14613342285156,157116000.0
2019-02-01,77.02999877929688,87.69999694824219,75.26000213623047,86.94000244140625,80.6236343383789,112311600.0
2019-03-01,87.41999816894531,92.73999786376953,85.94999694824219,88.38999938964844,81.96827697753906,120310500.0
2019-03-25,,,,,,
2019-04-01,88.37999725341797,89.08999633789062,82.44999694824219,86.55999755859375,81.28766632080078,100042900.0
2019-05-01,87.05000305175781,87.56999969482422,76.98999786376953,77.12999725341797,72.43204498291016,81403100.0
2019-06-01,77.51000213623047,79.48999786376953,75.58000183105469,78.52999877929688,73.74676513671875,116326300.0
2019-06-20,,,,,,
2019-07-01,78.80000305175781,89.9800033569336,77.83000183105469,83.61000061035156,79.70275115966797,104244600.0
2019-08-01,84.30000305175781,86.05000305175781,69.2699966430664,72.08999633789062,68.72109985351562,171358800.0
2019-09-01,72.0,77.87999725341797,70.56999969482422,75.93000030517578,72.38165283203125,162063000.0
2019-09-24,,,,,,
2019-10-01,76.20999908447266,82.44999694824219,75.80999755859375,81.44000244140625,78.91655731201172,114545000.0
2019-11-01,81.83000183105469,85.5999984741211,81.55000305175781,82.93000030517578,80.36038970947266,89239000.0
2019-12-01,82.55000305175781,87.08000183105469,81.4000015258789,85.08999633789062,82.45345306396484,93518400.0
2019-12-18,,,,,,
2020-01-01,85.51000213623047,89.12999725341797,82.2699966430664,82.69999694824219,81.24343872070312,102807900.0
2020-02-01,82.63999938964844,90.16999816894531,77.7300033569336,81.87000274658203,80.42806243896484,108426900.0
2020-03-01,81.61000061035156,89.18000030517578,56.0099983215332,66.06999969482422,64.90634155273438,169606300.0
2020-03-20,,,,,,
2020-03-26,66.12999725341797,69.7300033569336,65.98210144042969,68.43000030517578,68.43000030517578,2868683.0
