Date,Open,High,Low,Close,Adj Close,Volume
1997-08-01,37.6875,40.0,34.75,39.9375,37.81509017944336,11411500.0
1997-09-01,39.9375,44.375,38.5,42.0,39.76799392700195,11940800.0
1997-09-12,,,,,,
1997-10-01,41.875,43.8125,38.5625,40.0625,37.97893142700195,7947800.0
1997-11-01,40.3125,40.4375,29.625,31.9375,30.2764949798584,9100200.0
1997-12-01,31.9375,31.9375,25.625,29.0,27.491771697998047,9420700.0
1998-01-01,29.5,30.0,20.625,21.6875,20.559581756591797,10303900.0
1998-02-01,21.9375,23.75,21.0,23.6875,22.455564498901367,13424100.0
1998-02-12,,,,,,
1998-03-01,23.75,27.75,22.1875,24.875,23.633676528930664,9946400.0
1998-04-01,25.0,25.9375,23.375,23.9375,22.742961883544922,5718400.0
1998-05-01,23.875,24.75,22.1875,23.25,22.089767456054688,5602000.0
1998-06-01,23.25,23.875,21.375,23.875,22.683582305908203,6722400.0
1998-07-01,23.9375,24.6875,19.0625,19.6875,18.705049514770508,10109400.0
1998-08-01,19.4375,19.4375,14.625,14.6875,13.954557418823242,5794000.0
1998-08-13,,,,,,
1998-09-01,14.625,15.9375,13.25,14.0625,13.399447441101074,5921000.0
1998-10-01,13.9375,15.1875,12.625,15.0625,14.35229778289795,5321300.0
1998-11-01,15.0,16.0,13.0,13.25,12.625255584716797,3900600.0
1998-12-01,13.25,13.375,7.75,8.75,8.337433815002441,8129500.0
1999-01-01,8.875,9.75,7.9375,8.25,7.861009120941162,6343000.0
1999-02-01,8.125,8.6875,5.0,5.1875,4.942905902862549,4026200.0
1999-03-01,5.25,9.375,5.0,7.75,7.384584426879883,7406300.0
1999-04-01,7.875,12.0,7.0625,11.6875,11.136428833007812,5723600.0
1999-05-01,11.8125,13.1875,10.25,10.875,10.362237930297852,4671500.0
1999-06-01,10.375,11.5,10.0625,11.0,10.481344223022461,5348300.0
1999-07-01,11.0,11.9375,10.75,11.625,11.076874732971191,4431500.0
1999-08-01,11.5625,12.8125,10.75,11.375,10.838663101196289,5908400.0
1999-09-01,11.5,11.625,9.375,10.625,10.124024391174316,5251000.0
1999-10-01,10.625,11.0,9.375,9.375,8.932963371276855,3224100.0
1999-11-01,9.4375,11.5,8.25,8.3125,7.920562744140625,3601800.0
1999-12-01,8.4375,9.375,7.625,8.9375,8.516092300415039,5731300.0
2000-01-01,8.5625,10.1875,8.125,8.5625,8.158772468566895,4959100.0
2000-02-01,8.625,9.5,6.75,8.3125,7.920562744140625,5549700.0
2000-03-01,8.1875,10.75,7.875,10.5,10.004920959472656,6066000.0
2000-04-01,10.625,10.875,9.0,10.3125,9.826260566711426,3484000.0
2000-05-01,10.25,15.125,10.1875,14.9375,14.233192443847656,7370700.0
2000-06-01,15.1875,15.625,12.125,12.765625,12.163722038269043,8144000.0
2000-07-01,12.6875,13.0625,10.625,10.75,10.243131637573242,4426100.0
2000-08-01,10.875,14.1875,10.875,13.875,13.220787048339844,6373100.0
2000-09-01,13.875,16.0625,13.5,14.1875,13.51855182647705,7239800.0
2000-10-01,14.0625,15.1875,12.625,13.0625,12.446596145629883,11164800.0
2000-11-01,13.0625,14.75,12.4375,14.5,13.816316604614258,6829600.0
2000-12-01,14.5,20.625,14.4375,19.6875,18.759227752685547,11392900.0
2001-01-01,19.5,19.9375,16.3125,17.5,16.674867630004883,8401500.0
2001-02-01,18.0,19.239999771118164,16.5,16.850000381469727,16.055519104003906,5125700.0
2001-03-01,16.989999771118164,20.239999771118164,15.449999809265137,15.699999809265137,14.959734916687012,10525300.0
2001-04-01,15.899999618530273,20.100000381469727,14.300000190734863,19.110000610351562,18.20895004272461,8833600.0
2001-05-01,19.200000762939453,23.049999237060547,17.299999237060547,21.100000381469727,20.10512351989746,10118700.0
2001-06-01,21.100000381469727,22.350000381469727,16.75,17.049999237060547,16.24608039855957,8420800.0
2001-07-01,16.850000381469727,17.549999237060547,15.0,16.989999771118164,16.18891143798828,6823700.0
2001-08-01,16.899999618530273,19.3799991607666,16.579999923706055,17.5,16.674867630004883,7529500.0
2001-09-01,17.75,19.079999923706055,12.619999885559082,14.229999542236328,13.559049606323242,8132500.0
2001-10-01,14.210000038146973,17.989999771118164,13.220000267028809,17.010000228881836,16.207969665527344,8831900.0
2001-11-01,17.25,18.239999771118164,14.5,16.75,15.960225105285645,9212400.0
2001-12-01,16.649999618530273,19.700000762939453,16.290000915527344,19.260000228881836,18.351884841918945,8077100.0
2002-01-01,19.010000228881836,19.020000457763672,16.100000381469727,17.420000076293945,16.59864616394043,7642600.0
2002-02-01,17.889999389648438,19.850000381469727,17.079999923706055,19.81999969482422,18.885480880737305,5636500.0
2002-03-01,19.940000534057617,22.299999237060547,19.450000762939453,22.290000915527344,21.239013671875,7978100.0
2002-04-01,22.290000915527344,24.299999237060547,20.0,23.989999771118164,22.858861923217773,16662700.0
2002-05-01,23.940000534057617,25.239999771118164,23.25,24.1299991607666,22.992259979248047,10792800.0
2002-06-01,24.100000381469727,26.049999237060547,22.280000686645508,26.049999237060547,24.82172966003418,10269500.0
2002-07-01,25.850000381469727,25.850000381469727,19.5,24.209999084472656,23.068490982055664,13071500.0
2002-08-01,23.959999084472656,26.229999542236328,21.600000381469727,24.889999389648438,23.7164249420166,9890800.0
2002-09-01,24.149999618530273,26.219999313354492,22.829999923706055,24.25,23.10660171508789,12785200.0
2002-10-01,24.5,27.5,23.399999618530273,24.8700008392334,23.697370529174805,15240500.0
2002-11-01,24.75,25.450000762939453,21.700000762939453,24.65999984741211,23.497272491455078,11536500.0
2002-12-01,24.850000381469727,27.049999237060547,24.40999984741211,25.25,24.0594539642334,12182200.0
2003-01-01,25.5,26.6200008392334,23.270000457763672,24.280000686645508,23.135183334350586,11312700.0
2003-02-01,24.290000915527344,27.440000534057617,23.600000381469727,26.149999618530273,24.91701316833496,12876100.0
2003-03-01,26.25,27.190000534057617,23.5,25.100000381469727,23.916528701782227,16968400.0
2003-04-01,25.049999237060547,26.989999771118164,22.850000381469727,23.920000076293945,22.79216194152832,17655900.0
2003-05-01,24.0,26.75,23.200000762939453,26.739999771118164,25.479196548461914,17232500.0
2003-06-01,26.719999313354492,28.440000534057617,25.190000534057617,26.100000381469727,24.869373321533203,11622300.0
2003-07-01,26.0,26.520000457763672,22.850000381469727,24.0,22.868391036987305,13687200.0
2003-08-01,24.100000381469727,26.3799991607666,22.760000228881836,25.360000610351562,24.164264678955078,14960300.0
2003-09-01,25.360000610351562,25.940000534057617,23.700000762939453,25.459999084472656,24.25954246520996,12230900.0
2003-10-01,25.299999237060547,26.899999618530273,25.0,26.450000762939453,25.202869415283203,15228500.0
2003-11-01,26.649999618530273,28.43000030517578,26.010000228881836,28.360000610351562,27.02281379699707,9943300.0
2003-12-01,28.399999618530273,32.900001525878906,28.360000610351562,31.93000030517578,30.424489974975586,22804600.0
2004-01-01,32.029998779296875,34.060001373291016,31.559999465942383,31.920000076293945,30.41495704650879,16259500.0
2004-02-01,31.670000076293945,32.5,29.600000381469727,32.119998931884766,30.605525970458984,21769600.0
2004-03-01,31.950000762939453,34.68000030517578,31.290000915527344,32.29999923706055,30.77703857421875,19742800.0
2004-03-25,,,,,,
2004-04-01,32.25,34.93000030517578,31.18000030517578,32.709999084472656,31.267162322998047,19771600.0
2004-05-01,32.880001068115234,33.66999816894531,29.270000457763672,30.950000762939453,29.58479118347168,37257800.0
2004-06-01,31.0,35.18000030517578,30.0,35.08000183105469,33.532615661621094,20357500.0
2004-07-01,35.08000183105469,37.5,34.529998779296875,36.04999923706055,34.459842681884766,18903400.0
2004-08-01,36.04999923706055,36.04999923706055,31.030000686645508,33.45000076293945,31.97451400756836,22016900.0
2004-09-01,33.54999923706055,34.959999084472656,31.450000762939453,34.47999954223633,32.95908737182617,27990900.0
2004-09-27,,,,,,
2004-10-01,34.47999954223633,36.849998474121094,30.799999237060547,32.400001525878906,31.06309700012207,47950800.0
2004-11-01,32.650001525878906,36.150001525878906,31.899999618530273,35.20000076293945,33.7475471496582,29184300.0
2004-12-01,35.0,35.279998779296875,33.209999084472656,35.099998474121094,33.651676177978516,23680700.0
2005-01-01,35.0,38.599998474121094,32.90999984741211,38.38999938964844,36.80592727661133,34931200.0
2005-02-01,38.45000076293945,43.70000076293945,38.209999084472656,42.16999816894531,40.42995071411133,28357800.0
2005-03-01,42.0,44.81999969482422,40.220001220703125,42.720001220703125,40.95725631713867,37235800.0
2005-03-29,,,,,,
2005-04-01,43.119998931884766,45.2400016784668,40.22999954223633,40.65999984741211,39.07658386230469,30128100.0
2005-05-01,40.65999984741211,41.099998474121094,36.66999816894531,40.130001068115234,38.567222595214844,40018600.0
2005-06-01,40.369998931884766,43.5099983215332,40.04999923706055,42.08000183105469,40.44127655029297,26957100.0
2005-07-01,42.33000183105469,44.77000045776367,41.58000183105469,43.33000183105469,41.642608642578125,21543000.0
2005-08-01,43.58000183105469,49.880001068115234,39.65999984741211,49.400001525878906,47.47621536254883,56640400.0
2005-09-01,53.599998474121094,56.349998474121094,50.79999923706055,54.91999816894531,52.78124237060547,52345200.0
2005-09-28,,,,,,
2005-10-01,55.099998474121094,55.97999954223633,45.38999938964844,50.04999923706055,48.20793533325195,39845800.0
2005-11-01,50.0099983215332,53.95000076293945,45.93000030517578,50.93000030517578,49.05554962158203,30931000.0
2005-12-01,51.18000030517578,54.900001525878906,50.150001525878906,51.27000045776367,49.38302993774414,28457700.0
2006-01-01,51.599998474121094,54.33000183105469,48.54999923706055,53.099998474121094,51.14567947387695,25996400.0
2006-02-01,53.11000061035156,54.459999084472656,41.59000015258789,42.09000015258789,40.5408935546875,40136900.0
2006-03-01,42.45000076293945,44.70000076293945,37.97999954223633,44.25,42.621402740478516,48155000.0
2006-03-27,,,,,,
2006-04-01,44.349998474121094,45.27000045776367,41.27000045776367,42.81999969482422,41.35944366455078,35646500.0
2006-05-01,43.20000076293945,43.72999954223633,38.619998931884766,40.810001373291016,39.41801452636719,49247200.0
2006-06-01,40.810001373291016,46.75,36.43000030517578,46.40999984741211,44.82699966430664,56352500.0
2006-07-01,46.40999984741211,46.70000076293945,41.5,45.349998474121094,43.80315399169922,23155700.0
2006-08-01,45.290000915527344,46.310001373291016,41.290000915527344,41.709999084472656,40.28731155395508,24387700.0
2006-09-01,41.68000030517578,42.959999084472656,37.06999969482422,39.119998931884766,37.78565216064453,29298900.0
2006-09-26,,,,,,
2006-10-01,39.0099983215332,43.0,36.47999954223633,40.72999954223633,39.47633361816406,25170600.0
2006-11-01,41.20000076293945,44.459999084472656,39.97999954223633,43.54999923706055,42.20952606201172,22820000.0
2006-12-01,43.560001373291016,44.439998626708984,39.34000015258789,39.689998626708984,38.46834945678711,17200900.0
2007-01-01,39.689998626708984,41.209999084472656,37.470001220703125,41.0,39.73802185058594,24114200.0
2007-02-01,41.279998779296875,41.61000061035156,38.25,38.4900016784668,37.30527877807617,19250100.0
2007-03-01,38.220001220703125,43.619998931884766,37.18000030517578,43.11000061035156,41.7830696105957,27249600.0
2007-03-28,,,,,,
2007-04-01,43.119998931884766,51.5,42.529998779296875,50.20000076293945,48.80849838256836,42584000.0
2007-05-01,50.29999923706055,52.029998779296875,47.630001068115234,51.619998931884766,50.18914794921875,33288300.0
2007-06-01,51.75,54.16999816894531,48.33000183105469,48.709999084472656,47.359806060791016,24769400.0
2007-07-01,49.0,49.779998779296875,45.5,45.5,44.23878479003906,20981200.0
2007-08-01,45.290000915527344,46.81999969482422,35.5099983215332,41.04999923706055,39.912132263183594,31919000.0
2007-09-01,41.130001068115234,46.27000045776367,41.040000915527344,44.97999954223633,43.73320007324219,22606200.0
2007-09-26,,,,,,
2007-10-01,45.20000076293945,51.060001373291016,44.59000015258789,51.02000045776367,49.761356353759766,28373100.0
2007-11-01,50.900001525878906,54.869998931884766,42.91999816894531,44.56999969482422,43.470462799072266,33410400.0
2007-12-01,44.04999923706055,49.43000030517578,43.81999969482422,48.84000015258789,47.6351318359375,16939600.0
2008-01-01,48.77000045776367,49.9900016784668,36.369998931884766,41.900001525878906,40.86634063720703,36898600.0
2008-02-01,41.790000915527344,46.95000076293945,40.02000045776367,44.790000915527344,43.6850471496582,24504900.0
2008-03-01,44.810001373291016,50.0,43.29999923706055,49.119998931884766,47.90822219848633,39508800.0
2008-03-27,,,,,,
2008-04-01,49.16999816894531,60.720001220703125,48.4900016784668,57.72999954223633,56.46817398071289,38822000.0
2008-05-01,57.45000076293945,72.8499984741211,55.060001373291016,71.79000091552734,70.22086334228516,41747700.0
2008-06-01,71.44999694824219,82.16000366210938,70.66000366210938,78.27999877929688,76.56902313232422,40642100.0
2008-07-01,77.62000274658203,82.20999908447266,57.18000030517578,59.45000076293945,58.15057373046875,49565300.0
2008-08-01,59.380001068115234,66.9000015258789,53.470001220703125,63.16999816894531,61.78927993774414,42421100.0
2008-09-01,60.810001373291016,62.13999938964844,46.2400016784668,52.279998779296875,51.137306213378906,69632700.0
2008-09-26,,,,,,
2008-10-01,51.459999084472656,52.27000045776367,20.59000015258789,27.829999923706055,27.296846389770508,79748700.0
2008-11-01,27.649999618530273,29.290000915527344,15.930000305175781,20.079999923706055,19.6953182220459,60261000.0
2008-12-01,19.729999542236328,19.729999542236328,14.029999732971191,16.18000030517578,15.870033264160156,57426800.0
2009-01-01,16.3700008392334,20.440000534057617,14.489999771118164,14.640000343322754,14.359535217285156,55835600.0
2009-02-01,14.390000343322754,17.8700008392334,13.680000305175781,14.59000015258789,14.310492515563965,76840300.0
2009-03-01,14.0,19.239999771118164,11.880000114440918,16.469999313354492,16.154481887817383,79953700.0
2009-03-27,,,,,,
2009-04-01,16.079999923706055,24.059999465942383,15.670000076293945,23.1200008392334,22.726350784301758,60039900.0
2009-05-01,23.1299991607666,30.559999465942383,23.100000381469727,28.1200008392334,27.641216278076172,51756500.0
2009-06-01,28.709999084472656,30.18000030517578,23.0,25.5,25.06583023071289,55230100.0
2009-07-01,25.959999084472656,28.979999542236328,21.780000686645508,28.549999237060547,28.063894271850586,44332000.0
2009-08-01,29.059999465942383,32.11000061035156,27.510000228881836,28.959999084472656,28.4669132232666,38603500.0
2009-09-01,29.010000228881836,36.7400016784668,28.1200008392334,36.290000915527344,35.67211151123047,44509200.0
2009-09-28,,,,,,
2009-10-01,36.040000915527344,46.38999938964844,33.4900016784668,41.11000061035156,40.4567756652832,46553400.0
2009-11-01,41.38999938964844,44.77000045776367,40.15999984741211,41.349998474121094,40.69297409057617,29572200.0
2009-12-01,41.63999938964844,50.0,39.130001068115234,48.16999816894531,47.40460205078125,28541700.0
2010-01-01,49.380001068115234,54.029998779296875,43.61000061035156,43.97999954223633,43.28117752075195,31099500.0
2010-02-01,44.56999969482422,49.72999954223633,41.880001068115234,46.650001525878906,45.90875244140625,36813100.0
2010-03-01,46.93000030517578,56.880001068115234,46.7400016784668,56.31999969482422,55.42510986328125,38615400.0
2010-03-29,,,,,,
2010-04-01,56.939998626708984,66.81999969482422,56.939998626708984,64.12999725341797,63.158817291259766,39405300.0
2010-05-01,64.70999908447266,66.95999908447266,54.720001220703125,63.70000076293945,62.7353401184082,58974300.0
2010-06-01,62.380001068115234,74.0,59.060001373291016,59.45000076293945,58.5496940612793,59379700.0
2010-07-01,58.97999954223633,63.15999984741211,54.88999938964844,57.91999816894531,57.04286193847656,42805200.0
2010-08-01,59.20000076293945,61.959999084472656,55.4900016784668,57.81999969482422,56.94437789916992,29751300.0
2010-09-01,58.849998474121094,67.7699966430664,58.65999984741211,65.02999877929688,64.04519653320312,28617500.0
2010-09-28,,,,,,
2010-10-01,65.80000305175781,74.48999786376953,64.97000122070312,69.80000305175781,68.78571319580078,29420900.0
2010-11-01,70.55000305175781,80.77999877929688,70.48999786376953,80.11000061035156,78.94588470458984,21943900.0
2010-12-01,81.83999633789062,88.0,81.05000305175781,86.81999969482422,85.5583724975586,22149700.0
2011-01-01,87.86000061035156,95.25,85.9000015258789,95.16000366210938,93.77717590332031,26481100.0
2011-02-01,95.44999694824219,103.66000366210938,92.19999694824219,102.33999633789062,100.85285186767578,27601700.0
2011-03-01,102.69999694824219,104.29000091552734,92.77999877929688,101.91999816894531,100.43896484375,30532200.0
2011-03-29,,,,,,
2011-04-01,102.91999816894531,106.06999969482422,95.79000091552734,102.2300033569336,100.7848129272461,27630300.0
2011-05-01,102.62000274658203,103.31999969482422,87.95999908447266,91.81999969482422,90.52198028564453,47607400.0
2011-06-01,92.73999786376953,94.88999938964844,82.41000366210938,89.56999969482422,88.30376434326172,31466200.0
2011-07-01,89.56999969482422,99.63999938964844,85.94000244140625,92.98999786376953,91.67543029785156,28684800.0
2011-08-01,94.62000274658203,94.91000366210938,69.6500015258789,78.16999816894531,77.0649185180664,54183600.0
2011-09-01,78.94999694824219,80.73999786376953,65.7300033569336,65.7699966430664,64.84024047851562,38903300.0
2011-09-28,,,,,,
2011-10-01,64.87000274658203,89.43000030517578,58.630001068115234,83.9000015258789,82.75992584228516,42441900.0
2011-11-01,79.06999969482422,97.0999984741211,77.8499984741211,94.54000091552734,93.25534057617188,52559700.0
2011-12-01,94.16000366210938,95.69000244140625,80.94999694824219,89.4800033569336,88.26409149169922,29879800.0
2012-01-01,91.83999633789062,102.48999786376953,90.26000213623047,99.30000305175781,97.9506607055664,39087600.0
2012-02-01,100.29000091552734,119.19000244140625,98.23999786376953,109.63999938964844,108.150146484375,42260200.0
2012-03-01,110.62000274658203,112.58000183105469,99.81999969482422,111.58999633789062,110.07365417480469,44645600.0
2012-03-28,,,,,,
2012-04-01,111.54000091552734,116.12999725341797,102.3499984741211,115.81999969482422,114.28904724121094,34695200.0
2012-05-01,116.19000244140625,117.62999725341797,94.56999969482422,96.69999694824219,95.42176818847656,46758100.0
2012-06-01,94.45999908447266,98.29000091552734,77.41000366210938,88.20999908447266,87.04400634765625,60354700.0
2012-07-01,88.61000061035156,94.73999786376953,82.18000030517578,88.62999725341797,87.45845031738281,39530100.0
2012-08-01,90.0,101.9800033569336,90.0,97.36000061035156,96.07304382324219,35040700.0
2012-09-01,97.44000244140625,115.69000244140625,95.94000244140625,104.4000015258789,103.02000427246094,35362800.0
2012-09-26,,,,,,
2012-10-01,105.2699966430664,110.19000244140625,99.75,105.6500015258789,104.2939682006836,29301400.0
2012-11-01,103.1500015258789,110.66999816894531,100.4800033569336,107.0,105.62664794921875,34718100.0
2012-12-01,107.73999786376953,109.7699966430664,101.08999633789062,106.58999633789062,105.2219009399414,22717700.0
2013-01-01,109.43000030517578,123.86000061035156,107.29000091552734,117.54000091552734,116.0313491821289,31413600.0
2013-02-01,118.27999877929688,133.67999267578125,117.73999786376953,125.80999755859375,124.1952133178711,47682400.0
2013-03-01,124.75,129.97000122070312,120.94999694824219,124.25,122.65523529052734,28100600.0
2013-03-26,,,,,,
2013-04-01,124.19999694824219,124.95999908447266,109.18000030517578,122.2300033569336,120.70069122314453,32348800.0
2013-05-01,121.08999633789062,146.67999267578125,118.06999969482422,138.67999267578125,136.9448699951172,36982100.0
2013-06-01,139.8000030517578,157.80999755859375,137.44000244140625,144.75,142.93894958496094,28074200.0
2013-07-01,146.19000244140625,157.88999938964844,146.19000244140625,154.75999450683594,152.8236846923828,22851900.0
2013-08-01,173.6999969482422,182.6699981689453,166.14999389648438,174.97000122070312,172.78082275390625,24531400.0
2013-09-01,177.08999633789062,190.14999389648438,175.9199981689453,188.8000030517578,186.43780517578125,18343700.0
2013-09-26,,,,,,
2013-10-01,189.33999633789062,227.4199981689453,188.1999969482422,204.77999877929688,202.2613067626953,42336600.0
2013-11-01,205.1999969482422,221.1999969482422,172.60000610351562,177.75,175.56375122070312,47803900.0
2013-12-01,178.0,190.8000030517578,174.35000610351562,184.07000732421875,181.80606079101562,32049200.0
2014-01-01,182.9499969482422,184.24000549316406,163.89999389648438,169.32000732421875,167.23745727539062,36096200.0
2014-02-01,169.36000061035156,204.1699981689453,164.10000610351562,201.17999267578125,198.70559692382812,41242300.0
2014-03-01,199.47000122070312,205.88999938964844,177.32000732421875,187.13999938964844,184.83827209472656,29669600.0
2014-03-27,,,,,,
2014-04-01,187.5399932861328,204.66000366210938,177.52999877929688,193.27000427246094,190.9353485107422,29403000.0
2014-05-01,192.94000244140625,211.47000122070312,191.47999572753906,210.16000366210938,207.6212921142578,24986400.0
2014-06-01,211.3699951171875,234.1999969482422,207.80999755859375,229.80999755859375,227.033935546875,27701600.0
2014-07-01,231.41000366210938,234.60000610351562,216.92999267578125,221.4600067138672,218.78477478027344,22008200.0
2014-08-01,219.30999755859375,224.22000122070312,199.38999938964844,208.64999389648438,206.1295166015625,29060200.0
2014-09-01,207.92999267578125,209.25,193.02999877929688,196.97000122070312,194.59063720703125,28857500.0
2014-09-26,,,,,,
2014-10-01,196.64999389648438,199.55999755859375,156.82000732421875,189.05999755859375,186.8145751953125,50269900.0
2014-11-01,190.74000549316406,195.7899932861328,139.05999755859375,143.22999572753906,141.5288848876953,52845100.0
2014-12-01,142.13999938964844,154.39999389648438,127.30999755859375,148.85000610351562,147.08212280273438,60217400.0
2015-01-01,147.5399932861328,156.61000061035156,133.9499969482422,150.52999877929688,148.7421875,45779500.0
2015-02-01,153.5,162.8300018310547,143.24000549316406,152.52000427246094,150.7085418701172,48630100.0
2015-03-01,151.92999267578125,167.3000030517578,150.58999633789062,163.50999450683594,161.56802368164062,43285600.0
2015-03-27,,,,,,
2015-04-01,164.94000244140625,181.97000122070312,164.9199981689453,172.77999877929688,170.76956176757812,31767600.0
2015-05-01,172.99000549316406,174.39999389648438,147.3800048828125,147.8300018310547,146.1099090576172,49743200.0
2015-06-01,147.94000244140625,154.8699951171875,136.17999267578125,138.69000244140625,137.0762481689453,41720700.0
2015-07-01,137.75,140.0800018310547,120.1500015258789,126.7699966430664,125.29493713378906,48760500.0
2015-08-01,125.37999725341797,131.5,105.83000183105469,115.37999725341797,114.03746032714844,55535100.0
2015-09-01,119.19000244140625,127.11000061035156,111.79000091552734,121.63999938964844,120.2246322631836,40125700.0
2015-09-28,,,,,,
2015-10-01,122.95999908447266,140.83999633789062,120.12999725341797,137.13999938964844,135.58859252929688,53900000.0
2015-11-01,135.52999877929688,150.0,134.47999572753906,144.75,143.11248779296875,36439000.0
2015-12-01,145.97999572753906,149.6999969482422,114.4000015258789,125.37999725341797,123.96163177490234,62198300.0
2016-01-01,125.19000244140625,127.08999633789062,103.5,123.94999694824219,122.54781341552734,80376000.0
2016-02-01,121.79000091552734,133.7899932861328,105.22000122070312,120.52999877929688,119.16650390625,62468300.0
2016-03-01,121.56999969482422,145.8699951171875,120.08000183105469,140.74000549316406,139.1479034423828,59837600.0
2016-03-29,,,,,,
2016-04-01,137.19000244140625,171.8800048828125,136.97000122070312,166.10000610351562,164.26881408691406,49766200.0
2016-05-01,165.80999755859375,168.5,155.75,160.32000732421875,158.55252075195312,34750200.0
2016-06-01,160.32000732421875,169.4600067138672,146.0800018310547,151.2100067138672,149.54295349121094,53847600.0
2016-07-01,151.6699981689453,163.1300048828125,147.2100067138672,162.57000732421875,160.7777099609375,42196300.0
2016-08-01,161.0399932861328,186.3300018310547,155.6300048828125,179.0500030517578,177.07601928710938,43588600.0
2016-09-01,178.02999877929688,190.94000244140625,170.30999755859375,185.64999389648438,183.603271484375,37779500.0
2016-09-28,,,,,,
2016-10-01,185.0,193.38999938964844,178.42999267578125,179.02000427246094,177.08734130859375,27977700.0
2016-11-01,179.92999267578125,193.1699981689453,166.5,191.0399932861328,188.9775848388672,42611100.0
2016-12-01,193.97000122070312,195.0,179.3000030517578,180.07000732421875,178.1260223388672,31286200.0
2017-01-01,182.99000549316406,188.42999267578125,177.74000549316406,180.22999572753906,178.28428649902344,26532600.0
2017-02-01,181.4600067138672,199.8300018310547,168.1300048828125,185.97000122070312,183.96229553222656,42478500.0
2017-03-01,188.5,196.0,177.0,186.22999572753906,184.21949768066406,48610900.0
2017-03-29,,,,,,
2017-04-01,186.14999389648438,192.92999267578125,170.58999633789062,172.99000549316406,171.15936279296875,30981700.0
2017-05-01,173.33999633789062,177.86000061035156,162.3300018310547,166.86000061035156,165.09422302246094,39050100.0
2017-06-01,167.47999572753906,172.39999389648438,153.4199981689453,159.5800018310547,157.89126586914062,40285900.0
2017-07-01,160.39999389648438,166.2899932861328,153.10000610351562,163.10000610351562,161.37403869628906,24833800.0
2017-08-01,163.2899932861328,164.75,125.45999908447266,129.64999389648438,128.2779998779297,66489200.0
2017-09-01,130.0,150.6699981689453,127.26000213623047,147.5399932861328,145.9786834716797,35340100.0
2017-09-28,,,,,,
2017-10-01,145.69000244140625,154.1699981689453,140.30999755859375,149.6699981689453,148.12576293945312,38288400.0
2017-11-01,150.9199981689453,162.52000427246094,144.1300048828125,156.0399932861328,154.43003845214844,35413400.0
2017-12-01,157.24000549316406,174.58999633789062,150.0399932861328,172.85000610351562,171.06658935546875,26964600.0
2018-01-01,174.3000030517578,189.9499969482422,172.2899932861328,182.91000366210938,181.02279663085938,35578000.0
2018-02-01,183.3000030517578,186.64999389648438,159.42999267578125,170.22999572753906,168.4736328125,35395600.0
2018-03-01,170.86000061035156,176.97999572753906,164.60000610351562,171.77999877929688,170.00762939453125,28875500.0
2018-03-28,,,,,,
2018-04-01,170.89999389648438,204.5500030517578,163.25,201.5500030517578,199.65647888183594,30438900.0
2018-05-01,200.47999572753906,213.39999389648438,186.3300018310547,193.10000610351562,191.2858428955078,32873100.0
2018-06-01,194.3699951171875,197.4199981689453,176.50999450683594,189.24000549316406,187.46212768554688,35643500.0
2018-07-01,188.80999755859375,193.02999877929688,179.00999450683594,189.27000427246094,187.49183654785156,26160000.0
2018-08-01,187.33999633789062,189.77000427246094,171.5399932861328,174.6999969482422,173.0587158203125,30885000.0
2018-09-01,175.32000732421875,178.5,160.8000030517578,174.19000244140625,172.5535125732422,29507500.0
2018-09-27,,,,,,
2018-10-01,175.11000061035156,189.77999877929688,140.5399932861328,147.27000427246094,146.02069091796875,37185300.0
2018-11-01,147.42999267578125,162.30999755859375,144.58999633789062,147.75,146.4966278076172,34793600.0
2018-12-01,152.22999572753906,154.8300018310547,119.08000183105469,131.52000427246094,130.404296875,39542100.0
2019-01-01,128.77999877929688,146.69000244140625,128.67999267578125,142.32000732421875,141.1126708984375,35603100.0
2019-02-01,142.99000549316406,146.9600067138672,132.0,140.9499969482422,139.75430297851562,39695200.0
2019-03-01,141.5,155.89999389648438,129.67999267578125,152.27999877929688,150.98818969726562,38353300.0
2019-03-28,,,,,,
2019-04-01,153.77000427246094,178.22000122070312,145.10000610351562,166.4600067138672,165.40760803222656,44184900.0
2019-05-01,166.6199951171875,167.60000610351562,141.10000610351562,141.9600067138672,141.06251525878906,43494100.0
2019-06-01,142.4199981689453,157.30999755859375,139.2899932861328,153.86000061035156,152.88726806640625,30901300.0
2019-07-01,156.38999938964844,156.8000030517578,131.9199981689453,138.0399932861328,137.1672821044922,28468800.0
2019-08-01,136.0,136.0,114.79000091552734,123.41999816894531,122.63970947265625,38995000.0
2019-09-01,120.44999694824219,145.6699981689453,119.56999969482422,125.7699966430664,124.974853515625,34772400.0
2019-09-26,,,,,,
2019-10-01,126.91999816894531,133.88999938964844,119.0,123.0199966430664,122.66336822509766,35437600.0
2019-11-01,124.33999633789062,142.94000244140625,123.41000366210938,127.83999633789062,127.46939849853516,30048500.0
2019-12-01,128.8300018310547,153.39999389648438,122.63999938964844,151.3699951171875,150.93118286132812,30374300.0
2019-12-30,,,,,,
2020-01-01,152.02000427246094,159.00999450683594,133.5,135.0,135.0,34235100.0
2020-02-01,135.25999450683594,147.24000549316406,117.30000305175781,122.77999877929688,122.77999877929688,32652500.0
2020-03-01,124.45999908447266,125.12999725341797,48.619998931884766,72.30999755859375,72.30999755859375,73061300.0
2020-03-26,72.44000244140625,74.75,71.63999938964844,72.08000183105469,72.08000183105469,1302815.0
