Date,Open,High,Low,Close,Adj Close,Volume
1991-04-01,22.0,23.25,12.0,12.625,12.625,8944200
1991-05-01,12.75,14.125,10.25,12.25,12.25,3041000
1991-06-01,12.5,12.5,10.25,11.125,11.125,1258100
1991-07-01,10.75,12.0,9.75,11.5,11.5,830000
1991-08-01,11.625,12.25,9.75,11.5,11.5,1567100
1991-09-01,12.125,17.5,12.0,14.75,14.75,3674500
1991-10-01,14.25,20.5,14.25,19.25,19.25,4524700
1991-11-01,19.75,21.0,13.75,15.75,15.75,5509800
1991-12-01,15.5,18.25,14.5,18.125,18.125,1405700
1992-01-01,18.25,21.0,17.0,20.5,20.5,4001800
1992-02-01,21.0,23.25,15.25,18.0,18.0,3010400
1992-03-01,18.0,18.5,14.5,15.25,15.25,931400
1992-04-01,15.75,16.5,10.75,13.5,13.5,1666100
1992-05-01,13.25,14.25,10.75,13.75,13.75,677700
1992-06-01,13.5,14.5,9.875,11.25,11.25,1217200
1992-07-01,11.25,12.5,10.25,12.5,12.5,803200
1992-08-01,12.5,12.75,7.75,8.25,8.25,1790400
1992-09-01,8.75,9.75,8.25,8.5,8.5,819800
1992-10-01,9.0,9.25,7.75,8.75,8.75,890200
1992-11-01,9.25,14.25,8.25,14.0,14.0,1419400
1992-12-01,14.0,14.25,10.5,12.0,12.0,1014200
1993-01-01,12.0,16.5,12.0,15.0,15.0,3619200
1993-02-01,15.25,16.5,10.5,12.75,12.75,1642700
1993-03-01,12.75,15.5,10.75,15.25,15.25,1585100
1993-04-01,15.0,16.5,12.75,15.0,15.0,1397100
1993-05-01,14.75,17.5,13.0,15.375,15.375,1597100
1993-06-01,15.25,17.0,15.25,16.5,16.5,1582200
1993-07-01,16.5,21.5,16.5,18.25,18.25,1762400
1993-08-01,18.25,19.75,14.5,16.0,16.0,3970800
1993-09-01,16.125,18.25,13.625,15.5,15.5,3542600
1993-10-01,15.375,18.375,14.375,18.25,18.25,2869400
1993-11-01,18.0,18.5,14.25,14.75,14.75,2695100
1993-12-01,14.75,16.625,14.25,15.5,15.5,1292200
1994-01-01,15.5,17.375,14.875,15.875,15.875,2842800
1994-02-01,16.0,16.0,13.5,14.0,14.0,1164700
1994-03-01,14.0,14.125,6.5,6.875,6.875,6554000
1994-04-01,6.75,8.25,6.125,7.875,7.875,1828500
1994-05-01,7.875,8.625,5.875,6.375,6.375,1630600
1994-06-01,6.375,8.5,3.625,4.5,4.5,3348300
1994-07-01,4.5,4.625,3.75,3.875,3.875,1390900
1994-08-01,3.875,4.25,3.5,4.125,4.125,914800
1994-09-01,4.125,5.5,3.75,4.875,4.875,1905000
1994-10-01,4.625,5.0,3.75,4.0625,4.0625,628200
1994-11-01,4.25,4.625,3.5,4.25,4.25,2434500
1994-12-01,4.0,4.25,3.0,3.0,3.0,2890300
1995-01-01,3.375,7.25,3.125,6.625,6.625,9589000
1995-02-01,6.75,7.125,6.0,6.25,6.25,1311800
1995-03-01,6.25,6.375,5.625,6.25,6.25,1410900
1995-04-01,6.25,7.125,5.875,6.375,6.375,912100
1995-05-01,6.25,6.625,5.875,6.125,6.125,982600
1995-06-01,5.875,10.125,5.5,9.0,9.0,5460100
1995-07-01,9.0,13.125,8.75,13.0625,13.0625,4878400
1995-08-01,13.625,15.5,11.375,15.375,15.375,4947300
1995-09-01,15.125,16.5,11.0,15.625,15.625,6317100
1995-10-01,15.625,16.0,12.25,12.875,12.875,2202500
1995-11-01,12.625,12.75,8.5,11.125,11.125,6741500
1995-12-01,11.125,14.125,11.0,12.75,12.75,4022600
1996-01-01,12.75,16.75,11.75,15.25,15.25,5456700
1996-02-01,15.125,16.0,11.25,12.0,12.0,3373100
1996-03-01,11.75,14.375,11.75,12.75,12.75,4047600
1996-04-01,12.75,15.25,11.75,14.125,14.125,3137600
1996-05-01,14.0,19.875,12.6875,17.375,17.375,7987200
1996-06-01,17.5,19.125,14.875,17.375,17.375,5149500
1996-07-01,17.375,17.5,13.25,15.75,15.75,4543700
1996-08-01,15.875,17.875,15.375,16.75,16.75,2929600
1996-09-01,16.375,20.875,16.125,20.125,20.125,4208100
1996-10-01,20.0,24.875,17.5,19.0,19.0,5388600
1996-11-01,18.875,20.375,18.25,19.125,19.125,2137300
1996-12-01,18.875,22.375,14.875,16.125,16.125,5831800
1997-01-01,16.125,21.25,8.0,9.75,9.75,15609900
1997-02-01,9.625,10.75,9.25,10.0,10.0,1580700
1997-03-01,9.875,10.125,7.5,8.0,8.0,1934700
1997-04-01,7.875,8.75,6.125,6.5,6.5,2976300
1997-05-01,6.25,13.125,6.25,10.625,10.625,6703400
1997-06-01,10.125,11.125,9.875,10.125,10.125,1733300
1997-07-01,10.125,10.75,8.75,10.0,10.0,1788700
1997-08-01,10.125,10.5,8.75,9.25,9.25,1282400
1997-09-01,8.875,11.75,8.75,11.1875,11.1875,2513000
1997-10-01,11.125,13.0,9.75,10.4375,10.4375,2141900
1997-11-01,10.75,11.5,9.125,9.875,9.875,668300
1997-12-01,9.9375,10.375,8.0,8.5625,8.5625,1317900
1998-01-01,8.75,9.375,7.0,7.0,7.0,1231900
1998-02-01,7.125,9.5,7.125,8.125,8.125,5626200
1998-03-01,8.0,9.125,7.3125,7.375,7.375,3027800
1998-04-01,7.625,11.0,7.25,9.8125,9.8125,3624500
1998-05-01,9.8125,10.65625,9.0,9.34375,9.34375,1201800
1998-06-01,9.75,9.75,8.375,9.21875,9.21875,1218800
1998-07-01,9.4375,9.75,7.75,8.0,8.0,1319900
1998-08-01,8.0,8.25,6.0,6.5625,6.5625,1497100
1998-09-01,6.875,8.5,5.75,7.6875,7.6875,1568700
1998-10-01,7.1875,8.75,5.875,8.25,8.25,1718800
1998-11-01,8.4375,8.625,7.375,8.25,8.25,872100
1998-12-01,8.1875,8.625,6.3125,7.375,7.375,1879700
1999-01-01,7.0,8.375,6.875,8.0,8.0,1067300
1999-02-01,7.75,10.125,7.375,7.75,7.75,2106400
1999-03-01,7.75,8.0,6.375,6.625,6.625,1660600
1999-04-01,6.5625,7.25,5.375,6.625,6.625,1365300
1999-05-01,6.625,7.4375,6.125,7.125,7.125,1071700
1999-06-01,7.25,8.25,6.25,7.8125,7.8125,1343200
1999-07-01,7.875,8.8125,7.875,8.375,8.375,1333100
1999-08-01,8.25,9.9375,8.25,9.5,9.5,1324100
1999-09-01,9.4375,9.6875,6.875,8.125,8.125,1785800
1999-10-01,8.125,8.375,6.5,8.0,8.0,1042600
1999-11-01,7.9375,9.25,7.3125,7.625,7.625,1159400
1999-12-01,7.875,13.0,7.5625,12.75,12.75,2842900
2000-01-01,13.1875,18.25,10.953125,12.3125,12.3125,3952000
2000-02-01,12.03125,57.375,12.03125,56.5,56.5,15014700
2000-03-01,55.875,56.0,20.5,29.5625,29.5625,12697000
2000-04-01,29.375,30.25,15.125,28.5625,28.5625,7410100
2000-05-01,28.625,32.625,19.0,20.375,20.375,2591700
2000-06-01,23.75,30.25,21.5625,29.8125,29.8125,3481800
2000-07-01,29.0,33.1875,24.625,28.0625,28.0625,3691000
2000-08-01,28.0625,36.25,26.25,35.4375,35.4375,4598500
2000-09-01,35.625,36.25,29.875,32.625,32.625,2632400
2000-10-01,32.375,33.1875,21.25,26.75,26.75,4344700
2000-11-01,26.125,30.5,19.625,24.375,24.375,5365100
2000-12-01,24.75,41.6875,24.25,35.265625,35.265625,6757400
2001-01-01,36.4375,40.25,29.875,32.75,32.75,5148500
2001-02-01,33.0,36.9375,30.0,31.375,31.375,1705700
2001-03-01,31.0,32.125,21.125,22.1875,22.1875,7834400
2001-04-01,22.5,31.299999237060547,20.875,31.010000228881836,31.010000228881836,2934000
2001-05-01,30.670000076293945,31.950000762939453,26.0,31.90999984741211,31.90999984741211,3121800
2001-06-01,31.540000915527344,38.0,31.540000915527344,34.650001525878906,34.650001525878906,4994100
2001-07-01,34.15999984741211,35.29999923706055,25.440000534057617,26.8700008392334,26.8700008392334,2872900
2001-08-01,29.299999237060547,31.75,25.510000228881836,30.1200008392334,30.1200008392334,3123300
2001-09-01,29.719999313354492,30.860000610351562,20.239999771118164,22.239999771118164,22.239999771118164,3188100
2001-10-01,22.200000762939453,28.34000015258789,20.34000015258789,22.100000381469727,22.100000381469727,14339400
2001-11-01,22.260000228881836,28.59000015258789,21.350000381469727,27.670000076293945,27.670000076293945,6711900
2001-12-01,27.360000610351562,29.93000030517578,26.0,28.15999984741211,28.15999984741211,4966800
2002-01-01,28.040000915527344,30.200000762939453,24.450000762939453,24.799999237060547,24.799999237060547,9705300
2002-02-01,25.0,26.25,19.739999771118164,22.709999084472656,22.709999084472656,17332000
2002-03-01,22.649999618530273,27.0,21.399999618530273,24.989999771118164,24.989999771118164,8711400
2002-04-01,24.579999923706055,25.399999618530273,17.5,20.649999618530273,20.649999618530273,10550300
2002-05-01,21.299999237060547,21.309999465942383,16.0,16.520000457763672,16.520000457763672,8847600
2002-06-01,16.799999237060547,17.020000457763672,12.210000038146973,14.510000228881836,14.510000228881836,10689800
2002-07-01,14.369999885559082,18.34000015258789,11.25,17.200000762939453,17.200000762939453,9672600
2002-08-01,17.450000762939453,17.940000534057617,13.729999542236328,15.449999809265137,15.449999809265137,7063000
2002-09-01,15.550000190734863,15.550000190734863,11.34000015258789,13.5,13.5,6736100
2002-10-01,13.649999618530273,16.020000457763672,12.25,15.130000114440918,15.130000114440918,7296400
2002-11-01,15.329999923706055,22.850000381469727,14.989999771118164,21.649999618530273,21.649999618530273,6958600
2002-12-01,21.75,22.200000762939453,18.049999237060547,18.510000228881836,18.510000228881836,6863900
2003-01-01,18.549999237060547,21.489999771118164,18.489999771118164,18.729999542236328,18.729999542236328,11145700
2003-02-01,18.600000381469727,19.030000686645508,16.3700008392334,18.34000015258789,18.34000015258789,7620400
2003-03-01,18.200000762939453,20.850000381469727,7.400000095367432,7.519999980926514,7.519999980926514,45743800
2003-04-01,7.53000020980835,7.659999847412109,5.769999980926514,6.329999923706055,6.329999923706055,28081500
2003-05-01,6.400000095367432,14.300000190734863,6.269999980926514,13.739999771118164,13.739999771118164,34867600
2003-06-01,14.960000038146973,18.780000686645508,13.140000343322754,15.760000228881836,15.760000228881836,32346500
2003-07-01,16.079999923706055,16.950000762939453,14.210000038146973,15.399999618530273,15.399999618530273,7681600
2003-08-01,15.380000114440918,15.649999618530273,12.220000267028809,15.210000038146973,15.210000038146973,7889200
2003-09-01,15.479999542236328,22.350000381469727,15.170000076293945,17.670000076293945,17.670000076293945,20049600
2003-10-01,17.600000381469727,18.719999313354492,12.529999732971191,13.84000015258789,13.84000015258789,19004300
2003-11-01,13.850000381469727,14.039999961853027,11.800000190734863,12.880000114440918,12.880000114440918,6806900
2003-12-01,12.859999656677246,15.640000343322754,12.390000343322754,14.710000038146973,14.710000038146973,7097800
2004-01-01,14.8100004196167,16.969999313354492,14.5,14.859999656677246,14.859999656677246,8655000
2004-02-01,14.850000381469727,17.0,13.289999961853027,14.15999984741211,14.15999984741211,12485400
2004-03-01,14.239999771118164,16.450000762939453,12.800000190734863,13.579999923706055,13.579999923706055,10894100
2004-04-01,13.550000190734863,15.850000381469727,12.100000381469727,12.529999732971191,12.529999732971191,14697700
2004-05-01,12.59000015258789,13.710000038146973,10.760000228881836,11.229999542236328,11.229999542236328,10168200
2004-06-01,11.25,11.649999618530273,8.529999732971191,10.529999732971191,10.529999732971191,12659600
2004-07-01,10.609999656677246,10.800000190734863,7.28000020980835,8.5600004196167,8.5600004196167,5703100
2004-08-01,8.630000114440918,9.180000305175781,6.760000228881836,8.90999984741211,8.90999984741211,5657500
2004-09-01,8.880000114440918,9.630000114440918,8.199999809265137,8.680000305175781,8.680000305175781,3419900
2004-10-01,8.649999618530273,9.25,6.539999961853027,7.269999980926514,7.269999980926514,7076400
2004-11-01,7.159999847412109,9.270000457763672,7.159999847412109,9.220000267028809,9.220000267028809,5260600
2004-12-01,9.350000381469727,9.850000381469727,8.539999961853027,9.210000038146973,9.210000038146973,5666100
2005-01-01,9.359999656677246,9.359999656677246,6.949999809265137,7.199999809265137,7.199999809265137,6140500
2005-02-01,7.28000020980835,7.510000228881836,6.110000133514404,6.110000133514404,6.110000133514404,6338500
2005-03-01,6.110000133514404,6.199999809265137,4.75,5.110000133514404,5.110000133514404,7536400
2005-04-01,5.110000133514404,5.900000095367432,4.610000133514404,5.570000171661377,5.570000171661377,9066100
2005-05-01,5.599999904632568,7.590000152587891,5.599999904632568,6.230000019073486,6.230000019073486,10053600
2005-06-01,6.170000076293945,8.84000015258789,5.909999847412109,8.390000343322754,8.390000343322754,8422700
2005-07-01,8.399999618530273,10.670000076293945,8.369999885559082,9.640000343322754,9.640000343322754,5704700
2005-08-01,9.649999618530273,10.220000267028809,7.360000133514404,7.46999979019165,7.46999979019165,6055800
2005-09-01,7.480000019073486,9.720000267028809,7.46999979019165,9.489999771118164,9.489999771118164,6810200
2005-10-01,9.430000305175781,12.699999809265137,8.550000190734863,12.510000228881836,12.510000228881836,11546600
2005-11-01,12.510000228881836,13.399999618530273,10.449999809265137,11.170000076293945,11.170000076293945,9641800
2005-12-01,11.149999618530273,17.3700008392334,10.149999618530273,15.899999618530273,15.899999618530273,11594900
2006-01-01,15.800000190734863,17.68000030517578,14.350000381469727,15.229999542236328,15.229999542236328,11015500
2006-02-01,15.149999618530273,18.0,14.65999984741211,16.3700008392334,16.3700008392334,8207600
2006-03-01,16.3700008392334,18.0,16.0,16.6299991607666,16.6299991607666,8385800
2006-04-01,16.549999237060547,16.690000534057617,13.579999923706055,14.520000457763672,14.520000457763672,7189000
2006-05-01,14.65999984741211,15.779999732971191,10.970000267028809,12.9399995803833,12.9399995803833,9250700
2006-06-01,12.930000305175781,13.420000076293945,11.789999961853027,12.819999694824219,12.819999694824219,8271100
2006-07-01,12.819999694824219,13.930000305175781,10.880000114440918,13.65999984741211,13.65999984741211,6587200
2006-08-01,13.59000015258789,16.190000534057617,13.010000228881836,15.880000114440918,15.880000114440918,5288900
2006-09-01,15.920000076293945,17.0,15.220000267028809,15.6899995803833,15.6899995803833,7414300
2006-10-01,15.569999694824219,20.43000030517578,15.270000457763672,20.049999237060547,20.049999237060547,8928400
2006-11-01,20.200000762939453,24.850000381469727,19.690000534057617,21.510000228881836,21.510000228881836,15985700
2006-12-01,21.540000915527344,21.940000534057617,19.760000228881836,20.06999969482422,20.06999969482422,9467700
2007-01-01,19.93000030517578,22.84000015258789,19.229999542236328,19.889999389648438,19.889999389648438,9997800
2007-02-01,19.790000915527344,22.81999969482422,18.969999313354492,19.84000015258789,19.84000015258789,12044600
2007-03-01,19.360000610351562,22.649999618530273,17.8700008392334,21.6200008392334,21.6200008392334,15081600
2007-04-01,21.6200008392334,28.719999313354492,21.520000457763672,27.200000762939453,27.200000762939453,16149100
2007-05-01,27.139999389648438,28.739999771118164,21.8799991607666,22.440000534057617,22.440000534057617,22373600
2007-06-01,22.450000762939453,23.5,17.549999237060547,17.920000076293945,17.920000076293945,28420800
2007-07-01,18.040000915527344,18.690000534057617,14.869999885559082,14.890000343322754,14.890000343322754,13226800
2007-08-01,14.8100004196167,19.75,13.550000190734863,19.459999084472656,19.459999084472656,24471500
2007-09-01,19.450000762939453,21.780000686645508,17.65999984741211,17.799999237060547,17.799999237060547,13533100
2007-10-01,18.040000915527344,22.760000228881836,17.18000030517578,22.0,22.0,15354300
2007-11-01,21.75,23.75,16.770000457763672,21.780000686645508,21.780000686645508,16213100
2007-12-01,22.299999237060547,24.899999618530273,21.360000610351562,24.149999618530273,24.149999618530273,12706300
2008-01-01,24.020000457763672,25.25,19.959999084472656,20.280000686645508,20.280000686645508,13352500
2008-02-01,20.31999969482422,21.6200008392334,17.350000381469727,19.770000457763672,19.770000457763672,11527800
2008-03-01,19.780000686645508,21.329999923706055,15.609999656677246,19.190000534057617,19.190000534057617,16952800
2008-04-01,19.290000915527344,21.299999237060547,17.760000228881836,19.6200008392334,19.6200008392334,9983300
2008-05-01,19.450000762939453,21.68000030517578,18.010000228881836,19.899999618530273,19.899999618530273,13500400
2008-06-01,19.8799991607666,19.889999389648438,13.75,14.4399995803833,14.4399995803833,17958600
2008-07-01,14.350000381469727,22.649999618530273,13.289999961853027,21.889999389648438,21.889999389648438,13991200
2008-08-01,21.84000015258789,23.25,19.43000030517578,21.719999313354492,21.719999313354492,12932400
2008-09-01,22.040000915527344,24.0,18.209999084472656,21.829999923706055,21.829999923706055,16925000
2008-10-01,21.59000015258789,22.81999969482422,14.4399995803833,19.299999237060547,19.299999237060547,14289100
2008-11-01,19.479999542236328,20.75,12.619999885559082,15.460000038146973,15.460000038146973,9644600
2008-12-01,14.680000305175781,19.450000762939453,13.65999984741211,18.360000610351562,18.360000610351562,9741000
2009-01-01,18.420000076293945,19.399999618530273,14.920000076293945,17.479999542236328,17.479999542236328,6654700
2009-02-01,17.18000030517578,20.079999923706055,14.180000305175781,14.25,14.25,9266500
2009-03-01,14.039999961853027,15.130000114440918,11.8100004196167,13.859999656677246,13.859999656677246,13003400
2009-04-01,13.619999885559082,13.949999809265137,12.109999656677246,13.260000228881836,13.260000228881836,11648300
2009-05-01,14.199999809265137,16.719999313354492,13.479999542236328,15.270000457763672,15.270000457763672,11631800
2009-06-01,15.199999809265137,18.420000076293945,14.90999984741211,17.920000076293945,17.920000076293945,12010700
2009-07-01,18.110000610351562,22.0,16.049999237060547,21.479999542236328,21.479999542236328,10370700
2009-08-01,22.0,23.040000915527344,20.829999923706055,22.729999542236328,22.729999542236328,8797700
2009-09-01,22.540000915527344,23.489999771118164,19.170000076293945,19.299999237060547,19.299999237060547,9831000
2009-10-01,19.290000915527344,19.350000381469727,15.430000305175781,15.699999809265137,15.699999809265137,12352000
2009-11-01,15.760000228881836,19.959999084472656,15.020000457763672,18.350000381469727,18.350000381469727,14868300
2009-12-01,18.440000534057617,24.969999313354492,18.280000686645508,24.18000030517578,24.18000030517578,12849200
2010-01-01,24.239999771118164,27.139999389648438,23.549999237060547,26.65999984741211,26.65999984741211,9926000
2010-02-01,26.700000762939453,30.510000228881836,24.010000228881836,24.459999084472656,24.459999084472656,17938900
2010-03-01,24.530000686645508,27.68000030517578,23.420000076293945,26.489999771118164,26.489999771118164,12295000
2010-04-01,26.59000015258789,27.5,23.719999313354492,25.530000686645508,25.530000686645508,8653900
2010-05-01,25.709999084472656,28.950000762939453,22.899999618530273,28.56999969482422,28.56999969482422,16728800
2010-06-01,28.299999237060547,30.579999923706055,22.31999969482422,22.31999969482422,22.31999969482422,24979800
2010-07-01,22.309999465942383,25.600000381469727,20.450000762939453,24.190000534057617,24.190000534057617,14054500
2010-08-01,24.670000076293945,25.700000762939453,21.5,21.979999542236328,21.979999542236328,6732100
2010-09-01,22.43000030517578,27.530000686645508,22.0,27.399999618530273,27.399999618530273,6486800
2010-10-01,27.530000686645508,29.639999389648438,26.06999969482422,26.110000610351562,26.110000610351562,12466800
2010-11-01,26.3700008392334,30.899999618530273,24.290000915527344,28.81999969482422,28.81999969482422,17089300
2010-12-01,29.1200008392334,33.939998626708984,28.950000762939453,32.83000183105469,32.83000183105469,11893900
2011-01-01,32.689998626708984,35.869998931884766,32.31999969482422,33.68000030517578,33.68000030517578,8992300
2011-02-01,33.689998626708984,38.099998474121094,33.400001525878906,36.27000045776367,36.27000045776367,11849500
2011-03-01,36.43000030517578,45.11000061035156,35.970001220703125,44.939998626708984,44.939998626708984,10827500
2011-04-01,44.779998779296875,71.73999786376953,41.83000183105469,51.040000915527344,51.040000915527344,44174700
2011-05-01,51.119998931884766,60.380001068115234,46.599998474121094,60.02000045776367,60.02000045776367,22633900
2011-06-01,59.83000183105469,61.04999923706055,51.380001068115234,56.709999084472656,56.709999084472656,19989500
2011-07-01,56.459999084472656,61.279998779296875,51.5099983215332,53.060001373291016,53.060001373291016,14231800
2011-08-01,54.0,63.45000076293945,42.83000183105469,59.029998779296875,59.029998779296875,30218800
2011-09-01,59.439998626708984,79.9000015258789,57.43000030517578,58.20000076293945,58.20000076293945,35667900
2011-10-01,57.369998931884766,66.47000122070312,54.029998779296875,55.29999923706055,55.29999923706055,27384900
2011-11-01,54.279998779296875,59.709999084472656,49.58000183105469,59.41999816894531,59.41999816894531,20724700
2011-12-01,59.099998474121094,60.380001068115234,50.27000045776367,55.43000030517578,55.43000030517578,32233500
2012-01-01,56.5099983215332,91.75,56.0099983215332,90.86000061035156,90.86000061035156,31221600
2012-02-01,90.45999908447266,116.93000030517578,89.91999816894531,104.79000091552734,104.79000091552734,30846600
2012-03-01,104.31999969482422,121.38999938964844,102.0199966430664,116.62000274658203,116.62000274658203,17282900
2012-04-01,117.45999908447266,145.0399932861328,115.91999816894531,135.25999450683594,135.25999450683594,18294200
2012-05-01,134.94000244140625,138.72999572753906,119.48999786376953,135.64999389648438,135.64999389648438,22426100
2012-06-01,133.22999572753906,134.89999389648438,107.30999755859375,114.22000122070312,114.22000122070312,22006300
2012-07-01,115.1500015258789,138.67999267578125,111.5,134.64999389648438,134.64999389648438,17525800
2012-08-01,136.3000030517578,148.22999572753906,131.24000549316406,148.0500030517578,148.0500030517578,13983400
2012-09-01,148.39999389648438,153.97999572753906,141.83999633789062,152.66000366210938,152.66000366210938,13476500
2012-10-01,153.11000061035156,166.38999938964844,141.57000732421875,142.3000030517578,142.3000030517578,16418200
2012-11-01,144.5,188.9499969482422,136.1300048828125,176.5500030517578,176.5500030517578,19225100
2012-12-01,180.14999389648438,188.9199981689453,164.05999755859375,171.07000732421875,171.07000732421875,16572900
2013-01-01,176.4199981689453,185.77999877929688,164.0,173.94000244140625,173.94000244140625,14998200
2013-02-01,175.13999938964844,182.58999633789062,154.16000366210938,167.0,167.0,18017100
2013-03-01,166.64999389648438,177.99000549316406,165.25,176.39999389648438,176.39999389648438,10955100
2013-04-01,180.0,220.97999572753906,177.1199951171875,215.13999938964844,215.13999938964844,33854500
2013-05-01,214.75,283.989990234375,214.6999969482422,241.8800048828125,241.8800048828125,25130500
2013-06-01,241.8300018310547,261.75,206.3000030517578,224.8800048828125,224.8800048828125,20450400
2013-07-01,231.60000610351562,282.2699890136719,225.77999877929688,270.05999755859375,270.05999755859375,14502200
2013-08-01,272.57000732421875,278.7300109863281,227.63999938964844,242.30999755859375,242.30999755859375,14001000
2013-09-01,245.99000549316406,319.8299865722656,245.99000549316406,312.8699951171875,312.8699951171875,16255900
2013-10-01,316.5799865722656,319.5,271.1499938964844,287.6000061035156,287.6000061035156,15132600
2013-11-01,290.80999755859375,305.6700134277344,268.010009765625,293.8599853515625,293.8599853515625,18020200
2013-12-01,292.4100036621094,297.5899963378906,257.69000244140625,275.239990234375,275.239990234375,14237000
2014-01-01,275.7699890136719,304.4200134277344,262.9700012207031,288.5899963378906,288.5899963378906,19504800
2014-02-01,288.9100036621094,348.25,274.0199890136719,332.5,332.5,23679800
2014-03-01,328.0899963378906,352.489990234375,296.6099853515625,300.2799987792969,300.2799987792969,27725200
2014-04-01,304.760009765625,316.0,273.2300109863281,296.8900146484375,296.8900146484375,21935800
2014-05-01,297.1000061035156,311.69000244140625,276.010009765625,306.9599914550781,306.9599914550781,15361600
2014-06-01,308.70001220703125,320.0,269.5,282.4700012207031,282.4700012207031,18323800
2014-07-01,285.5,336.94000244140625,285.05999755859375,316.2200012207031,316.2200012207031,19959800
2014-08-01,323.739990234375,354.7900085449219,314.0,350.4599914550781,350.4599914550781,13941100
2014-09-01,367.0,369.30999755859375,340.3900146484375,360.5199890136719,360.5199890136719,16774200
2014-10-01,363.95001220703125,410.17999267578125,320.05999755859375,393.7200012207031,393.7200012207031,20885900
2014-11-01,395.2699890136719,419.2699890136719,365.25,416.1099853515625,416.1099853515625,15016100
2014-12-01,413.9800109863281,437.6400146484375,383.8699951171875,410.25,410.25,16987000
2015-01-01,413.8999938964844,427.45001220703125,395.55999755859375,416.6600036621094,416.6600036621094,17185100
2015-02-01,419.7900085449219,432.3800048828125,393.0,413.8399963378906,413.8399963378906,16313000
2015-03-01,416.2799987792969,495.5,406.8500061035156,451.4800109863281,451.4800109863281,21053400
2015-04-01,450.0,486.0,433.4700012207031,457.4599914550781,457.4599914550781,15868700
2015-05-01,463.0199890136719,519.4600219726562,462.0,512.5599975585938,512.5599975585938,15383600
2015-06-01,517.0800170898438,544.0,482.9200134277344,510.1300048828125,510.1300048828125,17538900
2015-07-01,515.22998046875,569.9099731445312,503.6400146484375,553.6599731445312,553.6599731445312,13328200
2015-08-01,558.469970703125,605.9299926757812,480.5,513.5,513.5,18111500
2015-09-01,499.2900085449219,557.8699951171875,435.5199890136719,465.1400146484375,465.1400146484375,20759500
2015-10-01,464.010009765625,578.0,448.1000061035156,557.3900146484375,557.3900146484375,19779700
2015-11-01,568.2899780273438,592.5900268554688,540.260009765625,544.5,544.5,15062800
2015-12-01,549.25,563.7899780273438,526.260009765625,542.8699951171875,542.8699951171875,12981500
2016-01-01,531.760009765625,532.9099731445312,400.0,420.0899963378906,420.0899963378906,21407200
2016-02-01,417.19000244140625,437.5299987792969,350.260009765625,384.0199890136719,384.0199890136719,19529800
2016-03-01,387.8599853515625,419.0,348.9599914550781,360.44000244140625,360.44000244140625,20597900
2016-04-01,373.989990234375,433.92999267578125,360.80999755859375,376.7099914550781,376.7099914550781,20814900
2016-05-01,377.95001220703125,402.4800109863281,360.25,398.92999267578125,398.92999267578125,20724600
2016-06-01,398.75,408.3500061035156,329.0899963378906,349.2300109863281,349.2300109863281,20553100
2016-07-01,349.0,425.8800048828125,348.42999267578125,425.1199951171875,425.1199951171875,15297000
2016-08-01,425.0899963378906,443.989990234375,390.0199890136719,392.54998779296875,392.54998779296875,17166400
2016-09-01,394.75,424.3500061035156,384.010009765625,402.0199890136719,402.0199890136719,16489500
2016-10-01,402.0199890136719,407.7900085449219,344.8500061035156,345.0199890136719,345.0199890136719,12726000
2016-11-01,345.5199890136719,452.9599914550781,325.3500061035156,379.239990234375,379.239990234375,24676400
2016-12-01,379.4800109863281,396.67999267578125,348.82000732421875,367.0899963378906,367.0899963378906,17772000
2017-01-01,370.8399963378906,389.2200012207031,340.0899963378906,359.2900085449219,359.2900085449219,21779200
2017-02-01,358.739990234375,384.5799865722656,347.0,373.5,373.5,17098400
2017-03-01,378.0,401.2099914550781,364.44000244140625,387.510009765625,387.510009765625,22474800
2017-04-01,388.0,393.5,360.0,388.489990234375,388.489990234375,16523900
2017-05-01,388.79998779296875,464.3999938964844,388.2200012207031,459.05999755859375,459.05999755859375,20548900
2017-06-01,460.0,543.5499877929688,453.5400085449219,491.1400146484375,491.1400146484375,25695600
2017-07-01,494.20001220703125,526.1199951171875,482.510009765625,491.6199951171875,491.6199951171875,14085100
2017-08-01,486.6000061035156,502.4200134277344,459.1400146484375,496.8999938964844,496.8999938964844,15287300
2017-09-01,498.239990234375,505.489990234375,426.4700012207031,447.1199951171875,447.1199951171875,16433500
2017-10-01,448.30999755859375,477.0,400.19000244140625,402.6199951171875,402.6199951171875,18169400
2017-11-01,403.80999755859375,432.5,353.1400146484375,361.8599853515625,361.8599853515625,21696400
2017-12-01,356.3699951171875,390.9100036621094,355.0299987792969,375.9599914550781,375.9599914550781,13329900
2018-01-01,379.4800109863281,396.7799987792969,363.0,366.6499938964844,366.6499938964844,17209800
2018-02-01,366.69000244140625,370.989990234375,313.5299987792969,320.44000244140625,320.44000244140625,24593300
2018-03-01,320.3500061035156,352.5899963378906,317.7099914550781,344.3599853515625,344.3599853515625,17220100
2018-04-01,342.45001220703125,345.489990234375,298.19000244140625,303.67999267578125,303.67999267578125,18044800
2018-05-01,302.92999267578125,314.8399963378906,281.8900146484375,300.32000732421875,300.32000732421875,21212200
2018-06-01,301.3399963378906,349.239990234375,297.7799987792969,344.989990234375,344.989990234375,17603000
2018-07-01,344.95001220703125,376.75,342.5799865722656,368.010009765625,368.010009765625,16131300
2018-08-01,366.739990234375,416.489990234375,361.19000244140625,406.75,406.75,17704700
2018-09-01,405.5,410.739990234375,375.2099914550781,404.0400085449219,404.0400085449219,11059000
2018-10-01,406.4100036621094,410.0,327.5799865722656,339.239990234375,339.239990234375,18094400
2018-11-01,339.0,368.239990234375,331.5400085449219,365.6499938964844,365.6499938964844,14346300
2018-12-01,372.5,396.32000732421875,339.1300048828125,373.5,373.5,15396100
2019-01-01,368.1499938964844,430.5799865722656,366.010009765625,429.2699890136719,429.2699890136719,16942900
2019-02-01,428.5199890136719,434.3500061035156,399.2900085449219,430.739990234375,430.739990234375,11181000
2019-03-01,434.79998779296875,442.0,388.489990234375,410.6199951171875,410.6199951171875,15042200
2019-04-01,412.510009765625,415.8900146484375,329.0,343.1400146484375,343.1400146484375,18332700
2019-05-01,343.0400085449219,345.44000244140625,295.7300109863281,301.7200012207031,301.7200012207031,20246800
2019-06-01,301.1300048828125,327.8299865722656,295.2699890136719,313.0,313.0,17375300
2019-07-01,317.6099853515625,320.760009765625,287.6600036621094,304.760009765625,304.760009765625,17639000
2019-08-01,306.67999267578125,313.92999267578125,279.3900146484375,290.04998779296875,290.04998779296875,14629800
2019-09-01,289.20001220703125,299.9800109863281,271.3699951171875,277.3999938964844,277.3999938964844,13618800
2019-10-01,277.2699890136719,313.3900146484375,272.260009765625,306.2799987792969,306.2799987792969,15009000
2019-11-01,309.0,372.5899963378906,307.44000244140625,369.0,369.0,18586600
2019-12-01,368.17999267578125,382.25,357.0,375.4800109863281,375.4800109863281,15130800
2020-01-01,378.0,396.4700012207031,328.1300048828125,337.94000244140625,337.94000244140625,16144400
2020-02-01,339.69000244140625,470.0,339.3900146484375,444.57000732421875,444.57000732421875,25179700
2020-03-01,445.0,518.0,418.010009765625,429.7799987792969,429.7799987792969,31810700
2020-03-26,443.0400085449219,446.8900146484375,424.0199890136719,435.0400085449219,435.0400085449219,976082
