Date,Open,High,Low,Close,Adj Close,Volume
1983-07-01,0.0,0.9071787595748901,0.7462276816368103,0.8193873167037964,0.19088301062583923,7490500.0
1983-08-01,0.0,0.8632830381393433,0.7023319602012634,0.7023319602012634,0.16361403465270996,1099500.0
1983-09-01,0.0,0.7315958142280579,0.6438043117523193,0.6438043117523193,0.1499795913696289,728300.0
1983-10-01,0.0,0.673068106174469,0.5560128092765808,0.5560128092765808,0.1295277625322342,780500.0
1983-11-01,0.0,0.673068106174469,0.5267489552497864,0.6291723847389221,0.14657092094421387,1500700.0
1983-12-01,0.0,0.6438043117523193,0.5413808822631836,0.5413808822631836,0.1261191964149475,1561100.0
1984-01-01,0.0,0.6291723847389221,0.5413808822631836,0.5560128092765808,0.1295277625322342,1059000.0
1984-02-01,0.0,0.5999085307121277,0.4682213068008423,0.49748513102531433,0.11589333415031433,708800.0
1984-03-01,0.0,0.5267489552497864,0.4682213068008423,0.4755372703075409,0.11078037321567535,378200.0
1984-04-01,0.0,0.4901691675186157,0.43895748257637024,0.43895748257637024,0.10225876420736313,408500.0
1984-05-01,0.0,0.4682213068008423,0.395061731338501,0.4023776948451996,0.09373720735311508,503300.0
1984-06-01,0.0,0.43895748257637024,0.395061731338501,0.395061731338501,0.09203292429447174,774400.0
1984-07-01,0.0,0.424325555562973,0.395061731338501,0.395061731338501,0.09203292429447174,379500.0
1984-08-01,0.0,0.5413808822631836,0.395061731338501,0.4828532338142395,0.1124846413731575,889200.0
1984-09-01,0.0,0.5121170282363892,0.4682213068008423,0.4682213068008423,0.1090761125087738,1077300.0
1984-10-01,0.0,0.5121170282363892,0.4682213068008423,0.4755372703075409,0.11078037321567535,797300.0
1984-11-01,0.0,0.49748513102531433,0.395061731338501,0.395061731338501,0.09203292429447174,858800.0
1984-12-01,0.0,0.4096936583518982,0.36579790711402893,0.36579790711402893,0.08521563559770584,797900.0
1985-01-01,0.0,0.5560128092765808,0.36579790711402893,0.5267489552497864,0.1227104663848877,948400.0
1985-01-09,,,,,,
1985-02-01,0.0,0.5999085307121277,0.5121170282363892,0.5486968159675598,0.13240592181682587,1224400.0
1985-03-01,0.0,0.570644736289978,0.5486968159675598,0.5560128092765808,0.13417135179042816,1017700.0
1985-04-01,0.0,0.570644736289978,0.5121170282363892,0.5486968159675598,0.13240592181682587,454300.0
1985-05-01,0.0,0.570644736289978,0.5267489552497864,0.5560128092765808,0.13417135179042816,378100.0
1985-06-01,0.0,0.6072245240211487,0.5121170282363892,0.5779606699943542,0.13946767151355743,1061300.0
1985-07-01,0.0,0.673068106174469,0.5852766633033752,0.5852766633033752,0.14123302698135376,2302700.0
1985-07-03,,,,,,
1985-08-01,0.0,0.6291723847389221,0.570644736289978,0.5999085307121277,0.14780877530574799,1247300.0
1985-09-01,0.0,0.5999085307121277,0.5560128092765808,0.570644736289978,0.14059863984584808,663700.0
1985-10-01,0.0,0.6291723847389221,0.570644736289978,0.570644736289978,0.14059863984584808,949300.0
1985-11-01,0.0,0.7169638872146606,0.570644736289978,0.7169638872146606,0.1766495704650879,2171500.0
1985-12-01,0.0,0.7754915356636047,0.6584362387657166,0.6584362387657166,0.16222918033599854,1709200.0
1985-12-30,,,,,,
1986-01-01,0.0,0.848651111125946,0.6584362387657166,0.848651111125946,0.227627232670784,2245000.0
1986-02-01,0.0,0.9803383350372314,0.8340191841125488,0.9364426136016846,0.25117483735084534,3370300.0
1986-03-01,0.0,1.1705533266067505,0.9218106865882874,1.0973936319351196,0.29434552788734436,3906600.0
1986-04-01,0.0,1.1047096252441406,0.9803383350372314,0.9876543283462524,0.2649109363555908,2538400.0
1986-05-01,0.0,0.9949702620506287,0.8267032504081726,0.9803383350372314,0.262948602437973,1995000.0
1986-06-01,0.0,0.9876543283462524,0.8340191841125488,0.9364426136016846,0.25117483735084534,2514600.0
1986-06-12,,,,,,
1986-07-01,0.0,0.9510745406150818,0.7608596086502075,0.7608596086502075,0.20860549807548523,2838300.0
1986-08-01,0.0,0.8193873167037964,0.7315958142280579,0.790123462677002,0.21662868559360504,1777500.0
1986-09-01,0.0,0.7974393963813782,0.7096478939056396,0.7169638872146606,0.1965705305337906,780600.0
1986-10-01,0.0,0.8047553896903992,0.7096478939056396,0.7754915356636047,0.2126171737909317,3086800.0
1986-11-01,0.0,0.8047553896903992,0.6877000331878662,0.7315958142280579,0.2005821317434311,1278400.0
1986-12-01,0.0,0.7535436749458313,0.7096478939056396,0.7096478939056396,0.1945645958185196,1261300.0
1986-12-23,,,,,,
1987-01-01,0.0,0.9949702620506287,0.7169638872146606,0.9364426136016846,0.26056966185569763,3059000.0
1987-02-01,0.0,1.2071330547332764,0.9364426136016846,1.2071330547332764,0.33589041233062744,2956200.0
1987-03-01,0.0,1.4924553632736206,1.177869200706482,1.3827160596847534,0.3847472071647644,5341300.0
1987-03-03,,,,,,
1987-04-01,0.0,1.5070873498916626,1.2144490480422974,1.2217649221420288,0.34942805767059326,2701600.0
1987-05-01,0.0,1.2217649221420288,1.0681298971176147,1.0973936319351196,0.31385746598243713,1277300.0
1987-06-01,0.0,1.1486053466796875,1.0534979104995728,1.0608139038085938,0.30339542031288147,2655700.0
1987-06-08,,,,,,
1987-07-01,0.0,1.0608139038085938,0.965706467628479,0.9949702620506287,0.287554532289505,4486600.0
1987-08-01,0.0,1.185185194015503,0.9730224013328552,1.1632373332977295,0.33618485927581787,2782100.0
1987-09-01,0.0,1.1705533266067505,0.9803383350372314,0.9949702620506287,0.287554532289505,1315300.0
1987-09-08,,,,,,
1987-10-01,0.0,1.0022861957550049,0.5999085307121277,0.6438043117523193,0.18811462819576263,2528900.0
1987-11-01,0.0,0.673068106174469,0.570644736289978,0.570644736289978,0.16673798859119415,3405700.0
1987-12-01,0.541379988193512,0.6145404577255249,0.5048010945320129,0.5486999750137329,0.16032586991786957,5371800.0
1988-01-01,0.563328742980957,0.6364883184432983,0.563328742980957,0.6218564510345459,0.18170155584812164,2000900.0
1988-01-05,,,,,,
1988-02-01,0.6291723847389221,0.6364883184432983,0.563328742980957,0.5999085307121277,0.17893864214420319,1727700.0
1988-03-01,0.6145404577255249,0.7315958142280579,0.6145404577255249,0.6511202454566956,0.1942138522863388,3443800.0
1988-03-08,,,,,,
1988-04-01,0.6511202454566956,0.673068106174469,0.5852766633033752,0.6072245240211487,0.18434390425682068,737800.0
1988-05-01,0.6072245240211487,0.6072245240211487,0.5560128092765808,0.5779606699943542,0.17545975744724274,1929800.0
1988-06-01,0.5779606699943542,0.6218564510345459,0.563328742980957,0.570644736289978,0.1732388436794281,765400.0
1988-06-14,,,,,,
1988-07-01,0.563328742980957,0.5852766633033752,0.5560128092765808,0.5852766633033752,0.18115340173244476,1109500.0
1988-08-01,0.5852766633033752,0.5999085307121277,0.5486968159675598,0.5560128092765808,0.17209577560424805,660700.0
1988-09-01,0.5560128092765808,0.5925925970077515,0.5413808822631836,0.563328742980957,0.17436011135578156,536500.0
1988-09-06,,,,,,
1988-10-01,0.563328742980957,0.6291723847389221,0.5267489552497864,0.6291723847389221,0.1989039182662964,856200.0
1988-10-11,,,,,,
1988-11-01,0.6218564510345459,0.6218564510345459,0.5486968159675598,0.5852766633033752,0.185808926820755,993700.0
1988-12-01,0.5779606699943542,0.6511202454566956,0.5779606699943542,0.6438043117523193,0.2043897807598114,1359600.0
1988-12-20,,,,,,
1989-01-01,0.6438043117523193,0.7681756019592285,0.6145404577255249,0.7681756019592285,0.25014838576316833,1411900.0
1989-02-01,0.7681756019592285,0.8340191841125488,0.7608596086502075,0.8047553896903992,0.2620602548122406,2159700.0
1989-02-27,,,,,,
1989-03-01,0.7974393963813782,0.855967104434967,0.7754915356636047,0.7974393963813782,0.2645478844642639,1233300.0
1989-04-01,0.8047553896903992,0.8267032504081726,0.7974393963813782,0.8120713233947754,0.26940205693244934,845400.0
1989-05-01,0.8193873167037964,0.8998628258705139,0.7974393963813782,0.8852308988571167,0.2936725616455078,1266100.0
1989-06-01,0.8925468921661377,1.0681298971176147,0.8705989718437195,0.9437585473060608,0.31308892369270325,3409100.0
1989-06-06,,,,,,
1989-07-01,0.9510745406150818,1.0973936319351196,0.9364426136016846,1.0827617645263672,0.36525994539260864,2144900.0
1989-08-01,1.0900777578353882,1.0973936319351196,1.0315500497817993,1.0681298971176147,0.36032384634017944,693000.0
1989-09-01,1.0608139038085938,1.1193416118621826,1.0608139038085938,1.0754457712173462,0.36279192566871643,1395400.0
1989-09-12,,,,,,
1989-10-01,1.0754457712173462,1.0827617645263672,0.9364426136016846,0.9437585473060608,0.32274410128593445,1726300.0
1989-11-01,0.9510745406150818,0.9803383350372314,0.9364426136016846,0.958390474319458,0.32774797081947327,1312700.0
1989-12-01,0.958390474319458,0.965706467628479,0.8925468921661377,0.8998628258705139,0.30773261189460754,1159300.0
1990-01-01,0.8998628258705139,0.965706467628479,0.8779149651527405,0.8852308988571167,0.30272889137268066,1388100.0
1990-01-02,,,,,,
1990-02-01,0.8779149651527405,1.0242340564727783,0.8779149651527405,1.0169181823730469,0.35474884510040283,1934600.0
1990-03-01,1.0242340564727783,1.1486053466796875,1.0242340564727783,1.0900777578353882,0.38027042150497437,1386900.0
1990-03-06,,,,,,
1990-04-01,1.0900777578353882,1.1486053466796875,1.0608139038085938,1.0754457712173462,0.3812817633152008,2688200.0
1990-05-01,1.0608139038085938,1.2071330547332764,1.0534979104995728,1.1998170614242554,0.4253755807876587,1754000.0
1990-05-29,,,,,,
1990-06-01,1.1998170614242554,1.3241883516311646,1.1193416118621826,1.1559213399887085,0.41603341698646545,2152500.0
1990-07-01,1.1632373332977295,1.2802926301956177,1.0388660430908203,1.1559213399887085,0.41603341698646545,7426300.0
1990-08-01,1.1559213399887085,1.1559213399887085,0.9803383350372314,1.0388660430908203,0.37390339374542236,4443100.0
1990-09-01,1.0315500497817993,1.0900777578353882,0.9071787595748901,0.9144947528839111,0.32914042472839355,6668000.0
1990-09-04,,,,,,
1990-10-01,0.9218106865882874,0.9291266798973083,0.8632830381393433,0.8705989718437195,0.3187790811061859,2389300.0
1990-11-01,0.8779149651527405,0.9803383350372314,0.8413351774215698,0.9437585473060608,0.3455672562122345,2030900.0
1990-12-01,0.9364426136016846,1.0827617645263672,0.9364426136016846,1.0754457712173462,0.393785685300827,2338000.0
1990-12-31,,,,,,
1991-01-01,1.0900777578353882,1.1559213399887085,0.9510745406150818,1.1559213399887085,0.4330315589904785,2010900.0
1991-02-01,1.1632373332977295,1.4266117811203003,1.1632373332977295,1.4046639204025269,0.5262155532836914,1766500.0
1991-02-26,,,,,,
1991-03-01,1.3973479270935059,1.7850937843322754,1.3827160596847534,1.7850937843322754,0.6803144812583923,5295100.0
1991-04-01,1.7850937843322754,2.128943681716919,1.7631458044052124,1.8875170946121216,0.7193488478660583,7086200.0
1991-04-22,,,,,,
1991-05-01,1.8765431642532349,2.096021890640259,1.689986228942871,2.008230447769165,0.7653541564941406,2734300.0
1991-06-01,2.0192043781280518,2.1947872638702393,1.8875170946121216,1.9204390048980713,0.7318954467773438,2860800.0
1991-06-04,,,,,,
1991-07-01,1.931412935256958,1.9972565174102783,1.8436213731765747,1.9862825870513916,0.7671835422515869,3697000.0
1991-08-01,1.9753086566925049,2.0631000995635986,1.7997256517410278,2.0631000995635986,0.796853244304657,3578300.0
1991-09-01,2.041152238845825,2.293552875518799,1.9204390048980713,2.293552875518799,0.8858637809753418,4158300.0
1991-09-10,,,,,,
1991-10-01,2.3045268058776855,2.5788750648498535,2.1179697513580322,2.5349793434143066,0.9923703670501709,5076400.0
1991-11-01,2.52400541305542,2.8093278408050537,1.931412935256958,2.216735363006592,0.8677874207496643,10527900.0
1991-12-01,2.1508915424346924,2.72153639793396,2.1508915424346924,2.6995885372161865,1.056809663772583,6890500.0
1992-01-01,2.677640676498413,3.303154945373535,2.6556928157806396,3.1385459899902344,1.2286491394042969,7193600.0
1992-01-07,,,,,,
1992-02-01,3.1385459899902344,3.242798328399658,2.984910726547241,3.1275720596313477,1.2414906024932861,4782400.0
1992-02-04,,,,,,
1992-03-01,3.1275720596313477,3.8683128356933594,3.1111111640930176,3.5226337909698486,1.398309588432312,7372400.0
1992-03-03,,,,,,
1992-04-01,3.4897119998931885,3.5226337909698486,2.831275701522827,3.0452675819396973,1.223388433456421,7433200.0
1992-05-01,3.0452675819396973,3.226337432861328,2.633744955062866,2.781893014907837,1.1175812482833862,5011900.0
1992-06-01,2.781893014907837,2.781893014907837,2.2551441192626953,2.7325103282928467,1.0977426767349243,3600500.0
1992-06-02,,,,,,
1992-07-01,2.7489712238311768,2.781893014907837,2.5349793434143066,2.7489712238311768,1.1206586360931396,3156100.0
1992-08-01,2.765432119369507,2.831275701522827,2.4691357612609863,2.5514402389526367,1.0401320457458496,3329700.0
1992-09-01,2.5185184478759766,2.600823163986206,2.205761432647705,2.2551441192626953,0.9193428158760071,5700200.0
1992-09-08,,,,,,
1992-10-01,2.2716050148010254,2.567901134490967,1.9753086566925049,2.5185184478759766,1.0428476333618164,5310700.0
1992-11-01,2.5020575523376465,3.0617284774780273,2.5020575523376465,3.0452675819396973,1.2609591484069824,2493600.0
1992-12-01,3.0452675819396973,3.0781893730163574,2.8641974925994873,2.9465019702911377,1.2200640439987183,3385300.0
1993-01-01,2.9465019702911377,3.7366254329681396,2.9300410747528076,3.3415637016296387,1.3836472034454346,4213700.0
1993-01-05,,,,,,
1993-02-01,3.3086419105529785,3.4897119998931885,2.8641974925994873,2.8806583881378174,1.214591383934021,3675100.0
1993-03-01,2.8971192836761475,3.2921810150146484,2.831275701522827,2.995884656906128,1.2631747722625732,4988700.0
1993-03-09,,,,,,
1993-04-01,2.995884656906128,3.3251028060913086,2.831275701522827,3.012345790863037,1.2917301654815674,2717800.0
1993-05-01,3.028806686401367,3.176954746246338,2.8971192836761475,3.1275720596313477,1.3411403894424438,2616400.0
1993-06-01,3.1275720596313477,3.1275720596313477,2.6831276416778564,3.1275720596313477,1.3411403894424438,4133100.0
1993-06-01,,,,,,
1993-07-01,3.1111111640930176,3.226337432861328,2.831275701522827,2.9465019702911377,1.2853426933288574,2489800.0
1993-08-01,2.9629628658294678,3.423868417739868,2.8971192836761475,3.390946388244629,1.4792211055755615,3440900.0
1993-08-24,,,,,,
1993-09-01,3.390946388244629,3.818930149078369,3.3251028060913086,3.6872427463531494,1.6359912157058716,3914500.0
1993-10-01,3.7201645374298096,4.0,3.5390946865081787,3.555555582046509,1.577562689781189,3205800.0
1993-11-01,3.5390946865081787,3.637860059738159,3.185185194015503,3.4567902088165283,1.5337426662445068,3400300.0
1993-11-16,,,,,,
1993-12-01,3.5061728954315186,3.580246925354004,3.1358025074005127,3.2839505672454834,1.457054615020752,3777100.0
1994-01-01,3.2592592239379883,3.7037036418914795,3.160493850708008,3.4814815521240234,1.5446977615356445,3537100.0
1994-01-04,,,,,,
1994-02-01,3.4814815521240234,3.5061728954315186,3.1358025074005127,3.234567880630493,1.4724102020263672,2965900.0
1994-03-01,3.234567880630493,3.2839505672454834,2.9629628658294678,3.0617284774780273,1.3937314748764038,7184000.0
1994-03-08,,,,,,
1994-04-01,3.012345790863037,3.209876537322998,2.9135801792144775,2.9382715225219727,1.3717162609100342,2385200.0
1994-05-01,2.9629628658294678,3.0370371341705322,2.8888888359069824,2.9135801792144775,1.3601890802383423,2586900.0
1994-05-31,,,,,,
1994-06-01,2.9382715225219727,3.0864198207855225,2.8641974925994873,2.8641974925994873,1.3742340803146362,2058200.0
1994-07-01,2.8641974925994873,2.9382715225219727,2.592592477798462,2.6666667461395264,1.2794594764709473,5368900.0
1994-08-01,2.6419754028320312,3.185185194015503,2.592592477798462,3.160493850708008,1.5163962841033936,2768000.0
1994-09-01,3.160493850708008,3.160493850708008,2.765432119369507,3.0617284774780273,1.4690090417861938,2898400.0
1994-09-06,,,,,,
1994-10-01,3.0617284774780273,3.0617284774780273,2.839506149291992,2.9629628658294678,1.4604018926620483,2900700.0
1994-11-01,2.9382715225219727,2.9629628658294678,2.790123462677002,2.839506149291992,1.3995510339736938,4022900.0
1994-12-01,2.839506149291992,2.8888888359069824,2.617284059524536,2.765432119369507,1.3630415201187134,4087600.0
1995-01-01,2.765432119369507,3.0617284774780273,2.7160494327545166,3.012345790863037,1.484741449356079,4296300.0
1995-01-03,,,,,,
1995-02-01,2.987654209136963,3.5308642387390137,2.987654209136963,3.5061728954315186,1.7863491773605347,5029800.0
1995-03-01,3.5061728954315186,3.555555582046509,3.2592592239379883,3.407407522201538,1.7360289096832275,2312500.0
1995-03-07,,,,,,
1995-04-01,3.3580245971679688,3.580246925354004,3.209876537322998,3.4567902088165283,1.808327555656433,1859900.0
1995-05-01,3.432098865509033,3.7530863285064697,3.2839505672454834,3.629629611968994,1.898743748664856,2964100.0
1995-06-01,3.604938268661499,4.04938268661499,3.580246925354004,3.827160596847534,2.0020768642425537,3620400.0
1995-06-08,,,,,,
1995-07-01,3.8518519401550293,4.395061492919922,3.6543209552764893,4.296296119689941,2.3035378456115723,2973800.0
1995-08-01,4.345678806304932,4.345678806304932,4.0740742683410645,4.345678806304932,2.3300139904022217,2228400.0
1995-09-01,4.320987701416016,4.469135761260986,4.222222328186035,4.296296119689941,2.3035378456115723,1586500.0
1995-09-07,,,,,,
1995-10-01,4.296296119689941,4.44444465637207,3.975308656692505,4.246913433074951,2.3247227668762207,1649000.0
1995-11-01,4.222222328186035,4.567901134490967,4.222222328186035,4.469135761260986,2.446364402770996,2100000.0
1995-12-01,4.469135761260986,4.987654209136963,4.172839641571045,4.197530746459961,2.297689914703369,2371900.0
1995-12-07,,,,,,
1996-01-01,4.172839641571045,4.395061492919922,3.7530863285064697,4.345678806304932,2.4252803325653076,5212000.0
1996-02-01,4.345678806304932,4.617283821105957,4.320987701416016,4.370370388031006,2.4390604496002197,2453400.0
1996-03-01,4.370370388031006,4.469135761260986,4.0,4.44444465637207,2.480400323867798,2310000.0
1996-03-07,,,,,,
1996-03-14,,,,,,
1996-04-01,4.469135761260986,4.543210029602051,4.04938268661499,4.469135761260986,2.6080870628356934,1897100.0
1996-05-01,4.44444465637207,4.592592716217041,4.123456954956055,4.4938273429870605,2.6224958896636963,2605300.0
1996-06-01,4.44444465637207,4.641975402832031,4.419753074645996,4.469135761260986,2.6080870628356934,1524000.0
1996-06-13,,,,,,
1996-07-01,4.469135761260986,4.469135761260986,3.9012346267700195,4.123456954956055,2.4570038318634033,1767700.0
1996-08-01,4.172839641571045,4.790123462677002,4.172839641571045,4.617283821105957,2.7512552738189697,1770300.0
1996-09-01,4.617283821105957,4.814815044403076,4.543210029602051,4.790123462677002,2.854243516921997,1143100.0
1996-09-12,,,,,,
1996-09-13,,,,,,
1996-10-01,4.740740776062012,5.111111164093018,4.6913580894470215,4.814815044403076,2.9885621070861816,1916700.0
1996-11-01,4.790123462677002,5.728394985198975,4.790123462677002,5.604938507080078,3.478991985321045,2550300.0
1996-12-01,5.604938507080078,6.0740742683410645,5.111111164093018,5.95061731338501,3.693556308746338,3097200.0
1996-12-11,,,,,,
1997-01-01,5.9012346267700195,6.740740776062012,5.530864238739014,6.370370388031006,4.035340309143066,4210200.0
1997-02-01,6.419753074645996,7.580246925354004,6.395061492919922,6.592592716217041,4.176108360290527,8684500.0
1997-03-01,6.567901134490967,7.530864238739014,6.123456954956055,6.246913433074951,3.957134962081909,5249300.0
1997-03-05,,,,,,
1997-04-01,6.04938268661499,7.222222328186035,5.802469253540039,6.9259257316589355,4.467062473297119,5430500.0
1997-04-04,,,,,,
1997-05-01,6.851851940155029,8.370369911193848,6.851851940155029,8.148148536682129,5.255367279052734,4350600.0
1997-06-01,8.11111068725586,8.666666984558105,7.888888835906982,8.11111068725586,5.231479644775391,3838300.0
1997-06-11,,,,,,
1997-07-01,8.11111068725586,8.574073791503906,7.629629611968994,8.574073791503906,5.584161758422852,4541300.0
1997-08-01,8.55555534362793,8.648148536682129,7.962963104248047,8.592592239379883,5.596222877502441,3690700.0
1997-09-01,8.629630088806152,11.0,8.592592239379883,10.666666984558105,6.9470343589782715,7866300.0
1997-09-15,,,,,,
1997-10-01,10.703703880310059,11.037036895751953,8.0,8.88888931274414,5.83768892288208,6818000.0
1997-11-01,8.962963104248047,10.851851463317871,8.962963104248047,10.574073791503906,6.9444146156311035,6086500.0
1997-12-01,10.648148536682129,11.833333015441895,10.648148536682129,11.759259223937988,7.722774028778076,5785200.0
1997-12-15,,,,,,
1998-01-01,11.833333015441895,11.925926208496094,9.61111068725586,10.259259223937988,6.792475700378418,6021800.0
1998-02-01,10.333333015441895,12.0,10.333333015441895,11.814814567565918,7.822381019592285,4457400.0
1998-03-01,11.833333015441895,12.94444465637207,11.407407760620117,12.907407760620117,8.545766830444336,6673900.0
1998-03-06,,,,,,
1998-04-01,12.907407760620117,16.22222137451172,12.814814567565918,14.472222328186035,9.657721519470215,5788400.0
1998-04-03,,,,,,
1998-05-01,14.69444465637207,14.88888931274414,13.19444465637207,13.44444465637207,8.971858024597168,3038300.0
1998-06-01,13.44444465637207,14.166666984558105,12.666666984558105,13.30555534362793,8.87917423248291,4451200.0
1998-06-05,,,,,,
1998-07-01,13.472222328186035,14.5,11.38888931274414,11.38888931274414,7.634457588195801,4896100.0
1998-08-01,11.277777671813965,11.666666984558105,7.611111164093018,7.666666507720947,5.139293670654297,5991500.0
1998-09-01,7.666666507720947,9.38888931274414,7.583333492279053,9.333333015441895,6.256529808044434,4899200.0
1998-09-09,,,,,,
1998-10-01,9.166666984558105,10.38888931274414,7.44444465637207,10.19444465637207,6.88193941116333,7439800.0
1998-11-01,10.44444465637207,11.666666984558105,10.083333015441895,11.0,7.425744533538818,4808200.0
1998-12-01,10.916666984558105,10.916666984558105,8.833333015441895,9.38888931274414,6.338137149810791,5072100.0
1998-12-08,,,,,,
1999-01-01,9.277777671813965,10.05555534362793,8.25,8.472222328186035,5.758007049560547,7123300.0
1999-02-01,8.416666984558105,10.0,8.083333015441895,8.11111068725586,5.512584209442139,8793800.0
1999-03-01,8.166666984558105,9.61111068725586,8.0,8.777777671813965,5.965673446655273,6972500.0
1999-03-12,,,,,,
1999-04-01,8.86111068725586,10.472222328186035,8.38888931274414,9.583333015441895,6.568309307098389,6356300.0
1999-05-01,9.55555534362793,10.44444465637207,9.36111068725586,9.833333015441895,6.739662170410156,3979500.0
1999-06-01,9.777777671813965,10.75,9.0,10.666666984558105,7.310818195343018,4981900.0
1999-06-14,,,,,,
1999-07-01,10.63888931274414,11.19444465637207,9.472222328186035,9.527777671813965,6.57912540435791,5830300.0
1999-08-01,9.416666984558105,9.88888931274414,8.44444465637207,8.69444465637207,6.0036940574646,4441800.0
1999-09-01,8.777777671813965,9.11111068725586,8.36111068725586,8.86111068725586,6.118782043457031,3010700.0
1999-09-14,,,,,,
1999-10-01,8.80555534362793,9.027777671813965,7.416666507720947,9.0,6.264631271362305,5224100.0
1999-11-01,9.0,9.527777671813965,8.333333015441895,8.36111068725586,5.819919109344482,4786100.0
1999-12-01,8.36111068725586,8.75,7.666666507720947,8.277777671813965,5.761912822723389,7378800.0
1999-12-10,,,,,,
2000-01-01,8.19444465637207,9.083333015441895,7.263888835906982,8.44444465637207,5.934289932250977,9785600.0
2000-02-01,8.44444465637207,8.86111068725586,7.861111164093018,8.777777671813965,6.168540954589844,5091000.0
2000-03-01,8.833333015441895,9.69444465637207,8.222222328186035,9.222222328186035,6.480870723724365,8758400.0
2000-03-17,,,,,,
2000-04-01,9.166666984558105,9.44444465637207,7.111111164093018,8.94444465637207,6.338930606842041,6967500.0
2000-05-01,8.94444465637207,9.25,8.19444465637207,8.722222328186035,6.181445598602295,5529000.0
2000-06-01,8.80555534362793,10.63888931274414,8.75,9.99305534362793,7.082084655761719,6203600.0
2000-06-16,,,,,,
2000-07-01,9.94444465637207,12.30555534362793,9.833333015441895,11.11111068725586,7.9361419677734375,6919800.0
2000-08-01,11.027777671813965,14.166666984558105,10.472222328186035,12.666666984558105,9.047203063964844,9498400.0
2000-09-01,12.722222328186035,14.69444465637207,12.19444465637207,14.63888931274414,10.455866813659668,7456700.0
2000-09-15,,,,,,
2000-10-01,14.69444465637207,15.027777671813965,12.44444465637207,15.027777671813965,10.792088508605957,7887200.0
2000-11-01,14.69444465637207,15.38888931274414,12.416666984558105,12.55555534362793,9.016684532165527,5937100.0
2000-12-01,12.63888931274414,18.22222137451172,12.13888931274414,15.5,11.13121223449707,9878100.0
2000-12-11,,,,,,
2001-01-01,15.55555534362793,17.83333396911621,15.527777671813965,17.102222442626953,12.358247756958008,12001100.0
2001-02-01,17.200000762939453,18.377777099609375,14.528888702392578,14.711111068725586,10.630410194396973,8370100.0
2001-02-16,,,,,,
2001-03-01,14.711111068725586,15.266666412353516,11.577777862548828,12.355555534362793,8.975768089294434,9061300.0
2001-03-19,,,,,,
2001-04-01,12.466666221618652,15.25777816772461,11.342222213745117,13.48888874053955,9.866559028625488,9198000.0
2001-05-01,13.644444465637207,14.524444580078125,12.733333587646484,12.933333396911621,9.460189819335938,9950600.0
2001-06-01,13.04444408416748,13.866666793823242,12.213333129882812,13.600000381469727,9.947832107543945,8139800.0
2001-06-18,,,,,,
2001-07-01,13.600000381469727,13.600000381469727,11.95555591583252,13.288888931274414,9.789801597595215,6323100.0
2001-08-01,13.311111450195312,13.822221755981445,12.355555534362793,12.58666706085205,9.272480964660645,6425600.0
2001-09-01,12.688888549804688,13.155555725097656,10.382222175598145,12.066666603088379,8.889399528503418,7049600.0
2001-09-17,,,,,,
2001-10-01,12.071110725402832,13.95555591583252,11.577777862548828,12.991110801696777,9.642348289489746,6743300.0
2001-11-01,12.968889236450195,14.90666675567627,12.573333740234375,14.355555534362793,10.655072212219238,5065800.0
2001-12-01,14.288888931274414,15.90666675567627,13.822221755981445,15.786666870117188,11.717286109924316,4517700.0
2001-12-12,,,,,,
2002-01-01,15.733333587646484,16.66666603088379,14.04888916015625,14.897777557373047,11.123796463012695,6321200.0
2002-02-01,14.853333473205566,15.39555549621582,13.457777976989746,14.133333206176758,10.553009033203125,5615800.0
2002-03-01,14.066666603088379,16.266666412353516,13.866666793823242,15.213333129882812,11.359418869018555,7821400.0
2002-03-18,,,,,,
2002-04-01,15.213333129882812,15.546667098999023,14.311111450195312,14.862222671508789,11.16064453125,8107700.0
2002-05-01,14.95111083984375,16.577777862548828,14.60444450378418,14.88888931274414,11.18067455291748,8727700.0
2002-06-01,14.733333587646484,15.04444408416748,12.515555381774902,12.65333366394043,9.501903533935547,11031600.0
2002-06-17,,,,,,
2002-07-01,12.764444351196289,13.0,10.11111068725586,12.088889122009277,9.138654708862305,14379300.0
2002-08-01,12.04444408416748,12.977777481079102,10.973333358764648,12.533333778381348,9.474632263183594,8513700.0
2002-09-01,12.422222137451172,13.11111068725586,11.199999809265137,12.031110763549805,9.094975471496582,8703200.0
2002-09-26,,,,,,
2002-10-01,12.031110763549805,14.222222328186035,10.25777816772461,13.911110877990723,10.59745979309082,12183400.0
2002-11-01,13.915555953979492,14.64888858795166,12.800000190734863,14.222222328186035,10.83445930480957,8118100.0
2002-12-01,14.399999618530273,14.640000343322754,12.800000190734863,13.146666526794434,10.015105247497559,7513500.0
2002-12-26,,,,,,
2003-01-01,13.213333129882812,14.457777976989746,10.786666870117188,11.333333015441895,8.689967155456543,20354100.0
2003-02-01,11.342222213745117,11.80888843536377,10.826666831970215,11.324444770812988,8.683152198791504,13254900.0
2003-03-01,11.377778053283691,12.422222137451172,10.119999885559082,11.497777938842773,8.81605339050293,10012000.0
2003-03-27,,,,,,
2003-04-01,11.542222023010254,13.284444808959961,11.382222175598145,12.74666690826416,9.847517013549805,7927200.0
2003-05-01,12.724444389343262,13.644444465637207,12.453332901000977,13.5600004196167,10.47585678100586,5833800.0
2003-06-01,13.666666984558105,15.408888816833496,13.666666984558105,14.688888549804688,11.347984313964844,11423500.0
2003-06-26,,,,,,
2003-07-01,14.688888549804688,16.44444465637207,14.377778053283691,15.44444465637207,12.00572681427002,10574900.0
2003-08-01,15.44444465637207,16.600000381469727,14.640000343322754,15.897777557373047,12.358126640319824,7888100.0
2003-09-01,15.933333396911621,17.102222442626953,15.88888931274414,16.155555725097656,12.558507919311523,6608500.0
2003-09-25,,,,,,
2003-10-01,16.195554733276367,18.293333053588867,16.195554733276367,18.128889083862305,14.170971870422363,9260100.0
2003-11-01,18.06222152709961,18.360000610351562,16.1200008392334,16.426666259765625,12.840376853942871,16266400.0
2003-12-01,16.46666717529297,16.933332443237305,16.035554885864258,16.755556106567383,13.097469329833984,8150200.0
2003-12-31,,,,,,
2004-01-01,16.844444274902344,17.85333251953125,15.968889236450195,16.906665802001953,13.286553382873535,9998200.0
2004-02-01,16.906665802001953,17.546667098999023,16.324443817138672,16.986665725708008,13.349428176879883,7158100.0
2004-03-01,17.004444122314453,17.337778091430664,15.235555648803711,16.566667556762695,13.019359588623047,8253800.0
2004-03-25,,,,,,
2004-03-30,,,,,,
2004-04-01,16.66666603088379,17.5,16.1200008392334,16.746665954589844,13.215703964233398,10043900.0
2004-05-01,16.726667404174805,17.66666603088379,15.953332901000977,17.200000762939453,13.573452949523926,9096500.0
2004-06-01,17.280000686645508,17.773332595825195,16.97333335876465,17.633333206176758,13.915423393249512,7902300.0
2004-06-24,,,,,,
2004-07-01,17.566667556762695,17.760000228881836,15.286666870117188,15.579999923706055,12.344228744506836,15184400.0
2004-08-01,15.513333320617676,16.14666748046875,14.513333320617676,16.14666748046875,12.793206214904785,10965800.0
2004-09-01,16.14666748046875,16.65999984741211,15.566666603088379,16.079999923706055,12.740382194519043,9424400.0
2004-09-23,,,,,,
2004-10-01,16.079999923706055,17.593334197998047,15.859999656677246,17.399999618530273,13.84688663482666,8300100.0
2004-11-01,17.53333282470703,20.100000381469727,17.433332443237305,19.719999313354492,15.693140029907227,10839400.0
2004-12-01,19.69333267211914,21.106666564941406,19.600000381469727,20.65333366394043,16.43588638305664,7527100.0
2004-12-30,,,,,,
2005-01-01,20.766666412353516,20.85333251953125,19.266666412353516,20.780000686645508,16.601072311401367,11299200.0
2005-02-01,20.733333587646484,21.02666664123535,19.573333740234375,20.30666732788086,16.22292709350586,7338100.0
2005-03-01,20.246665954589844,22.80666732788086,19.913333892822266,20.200000762939453,16.137712478637695,10508500.0
2005-03-24,,,,,,
2005-04-01,20.266666412353516,20.386667251586914,17.49333381652832,17.979999542236328,14.419405937194824,15968700.0
2005-05-01,17.986665725708008,18.459999084472656,17.253334045410156,17.940000534057617,14.38733196258545,9287300.0
2005-06-01,18.0,19.239999771118164,17.953332901000977,18.83333396911621,15.103751182556152,7630000.0
2005-06-23,,,,,,
2005-07-01,18.873332977294922,20.933332443237305,18.46666717529297,19.899999618530273,16.0277156829834,8665600.0
2005-08-01,19.96666717529297,20.299999237060547,19.433332443237305,20.219999313354492,16.285449981689453,5309500.0
2005-09-01,20.219999313354492,21.459999084472656,19.893333435058594,21.413333892822266,17.24657440185547,7446000.0
2005-09-29,,,,,,
2005-10-01,21.413333892822266,22.84000015258789,20.253334045410156,22.68666648864746,18.341869354248047,10035200.0
2005-11-01,22.65333366394043,25.386667251586914,22.65333366394043,24.15999984741211,19.533042907714844,8062200.0
2005-12-01,24.3266658782959,25.719999313354492,24.31999969482422,25.113332748413086,20.303802490234375,7745900.0
2005-12-29,,,,,,
2006-01-01,25.213333129882812,28.5,24.47333335876465,28.373332977294922,23.047956466674805,12911700.0
2006-02-01,28.206666946411133,31.446666717529297,28.03333282470703,28.65333366394043,23.275402069091797,10856800.0
2006-03-01,28.81999969482422,30.02666664123535,28.15999984741211,29.559999465942383,24.011899948120117,11002400.0
2006-03-23,,,,,,
2006-03-30,,,,,,
2006-04-01,29.469999313354492,31.600000381469727,28.649999618530273,30.350000381469727,24.721820831298828,8301300.0
2006-05-01,30.34000015258789,31.65999984741211,28.040000915527344,29.309999465942383,23.874677658081055,9305500.0
2006-06-01,29.260000228881836,30.329999923706055,26.34000015258789,30.270000457763672,24.65665626525879,13296200.0
2006-06-29,,,,,,
2006-07-01,30.270000457763672,30.56999969482422,26.450000762939453,29.059999465942383,23.73664093017578,12264700.0
2006-08-01,29.020000457763672,30.040000915527344,27.010000228881836,27.719999313354492,22.642108917236328,8899700.0
2006-09-01,27.760000228881836,29.729999542236328,27.459999084472656,29.239999771118164,23.8836669921875,8311200.0
2006-09-28,,,,,,
2006-10-01,29.1299991607666,32.2400016784668,28.530000686645508,31.860000610351562,26.095584869384766,7586000.0
2006-11-01,32.060001373291016,33.630001068115234,30.739999771118164,31.510000228881836,25.808908462524414,6039100.0
2006-12-01,31.510000228881836,32.29999923706055,29.75,30.309999465942383,24.826021194458008,6835000.0
2006-12-28,,,,,,
2007-01-01,30.399999618530273,32.459999084472656,29.760000228881836,31.920000076293945,26.229990005493164,8839100.0
2007-02-01,32.099998474121094,32.52000045776367,29.479999542236328,30.100000381469727,24.734424591064453,6270400.0
2007-03-01,29.799999237060547,30.969999313354492,27.3799991607666,29.760000228881836,24.455039978027344,11451300.0
2007-03-30,,,,,,
2007-04-01,29.809999465942383,31.59000015258789,29.100000381469727,30.68000030517578,25.29583168029785,9371800.0
2007-05-01,30.59000015258789,34.619998931884766,29.860000610351562,33.310001373291016,27.46428871154785,12152600.0
2007-06-01,33.810001373291016,33.810001373291016,30.469999313354492,30.899999618530273,25.477231979370117,11502700.0
2007-06-29,,,,,,
2007-07-01,31.049999237060547,34.5,29.350000381469727,30.670000076293945,25.368078231811523,19948200.0
2007-08-01,29.799999237060547,33.84000015258789,28.649999618530273,32.790000915527344,27.12158966064453,25055700.0
2007-09-01,32.939998626708984,36.0,31.270000457763672,32.849998474121094,27.17121696472168,16428900.0
2007-09-28,,,,,,
2007-10-01,32.689998626708984,37.599998474121094,31.59000015258789,37.25,30.90346908569336,18263100.0
2007-11-01,36.29999923706055,36.54999923706055,28.040000915527344,32.47999954223633,26.946170806884766,25793800.0
2007-12-01,32.56999969482422,36.5,31.940000534057617,32.65999984741211,27.095502853393555,17799000.0
2008-01-01,32.470001220703125,32.72999954223633,25.5,28.09000015258789,23.30412483215332,41627700.0
2008-01-02,,,,,,
2008-02-01,28.200000762939453,29.809999465942383,22.399999618530273,22.469999313354492,18.704635620117188,43915600.0
2008-03-01,22.510000228881836,24.299999237060547,19.3799991607666,22.979999542236328,19.129173278808594,59115300.0
2008-03-28,,,,,,
2008-04-01,23.40999984741211,29.59000015258789,21.760000228881836,28.770000457763672,24.06492805480957,36160600.0
2008-05-01,28.780000686645508,31.229999542236328,27.420000076293945,29.75,24.88465690612793,20455700.0
2008-06-01,29.729999542236328,31.360000610351562,26.030000686645508,26.389999389648438,22.074155807495117,27140800.0
2008-06-27,,,,,,
2008-07-01,26.040000915527344,31.5,22.600000381469727,28.899999618530273,24.271610260009766,51537200.0
2008-08-01,28.950000762939453,32.709999084472656,28.059999465942383,30.829999923706055,25.89251708984375,32512700.0
2008-09-01,31.170000076293945,38.25,25.770000457763672,32.97999954223633,27.698196411132812,42817400.0
2008-09-29,,,,,,
2008-10-01,31.969999313354492,32.88999938964844,16.950000762939453,23.290000915527344,19.630983352661133,47538600.0
2008-11-01,23.260000228881836,24.489999771118164,12.539999961853027,21.969999313354492,18.518362045288086,39180400.0
2008-12-01,21.260000228881836,21.260000228881836,15.720000267028809,17.1299991607666,14.438756942749023,40316500.0
2008-12-31,,,,,,
2009-01-01,17.239999771118164,20.489999771118164,14.420000076293945,18.510000228881836,15.706663131713867,38739200.0
2009-02-01,18.290000915527344,21.75,13.930000305175781,13.960000038146973,11.845754623413086,50928900.0
2009-03-01,13.949999809265137,20.209999084472656,10.770000457763672,19.700000762939453,16.716440200805664,64534600.0
2009-03-30,,,,,,
2009-04-01,18.979999542236328,20.030000686645508,14.649999618530273,15.6899995803833,13.388545989990234,49737400.0
2009-05-01,15.699999809265137,19.1200008392334,15.100000381469727,15.899999618530273,13.567742347717285,38964800.0
2009-06-01,16.31999969482422,18.280000686645508,14.949999809265137,17.209999084472656,14.685582160949707,35029700.0
2009-06-29,,,,,,
2009-07-01,17.200000762939453,20.790000915527344,15.680000305175781,20.520000457763672,17.625333786010742,26420500.0
2009-08-01,21.0,23.829999923706055,20.829999923706055,22.75,19.54075813293457,27406100.0
2009-09-01,22.600000381469727,25.6299991607666,20.829999923706055,23.280000686645508,19.99599266052246,28960400.0
2009-09-29,,,,,,
2009-10-01,23.18000030517578,26.110000610351562,21.950000762939453,23.610000610351562,20.37404441833496,23937700.0
2009-11-01,23.709999084472656,26.649999618530273,23.1200008392334,24.290000915527344,20.96084976196289,14602800.0
2009-12-01,24.739999771118164,24.799999237060547,22.56999969482422,23.770000457763672,20.512117385864258,12311800.0
2009-12-30,,,,,,
2010-01-01,23.940000534057617,27.030000686645508,23.709999084472656,25.309999465942383,21.941570281982422,14244800.0
2010-02-01,25.40999984741211,27.309999465942383,24.700000762939453,25.860000610351562,22.418376922607422,15992100.0
2010-03-01,25.899999618530273,28.290000915527344,25.770000457763672,26.739999771118164,23.18126106262207,14168100.0
2010-03-30,,,,,,
2010-04-01,26.899999618530273,31.25,26.860000610351562,30.639999389648438,26.669404983520508,17444400.0
2010-05-01,30.889999389648438,31.09000015258789,25.510000228881836,28.270000457763672,24.606523513793945,19166100.0
2010-06-01,28.040000915527344,28.850000381469727,24.639999389648438,24.690000534057617,21.49045181274414,19045500.0
2010-06-29,,,,,,
2010-07-01,24.639999389648438,27.90999984741211,23.610000610351562,26.68000030517578,23.318613052368164,16562800.0
2010-08-01,27.1299991607666,27.729999542236328,22.90999984741211,23.079999923706055,20.172170639038086,10114300.0
2010-09-01,23.43000030517578,26.3700008392334,23.25,25.329999923706055,22.138694763183594,11906900.0
2010-09-29,,,,,,
2010-10-01,25.479999542236328,29.969999313354492,25.209999084472656,28.219999313354492,24.77190589904785,17233300.0
2010-11-01,28.440000534057617,30.81999969482422,28.100000381469727,28.68000030517578,25.175695419311523,12791900.0
2010-12-01,29.1299991607666,33.619998931884766,29.1299991607666,32.70000076293945,28.704509735107422,13438200.0
2010-12-30,,,,,,
2011-01-01,33.0,36.689998626708984,31.899999618530273,36.220001220703125,31.91990089416504,13415700.0
2011-02-01,36.54999923706055,39.68000030517578,36.29999923706055,38.31999969482422,33.77056884765625,11225600.0
2011-03-01,38.29999923706055,39.2400016784668,35.52000045776367,38.2400016784668,33.700069427490234,16359300.0
2011-03-30,,,,,,
2011-04-01,38.47999954223633,39.0,36.099998474121094,37.5,33.16311264038086,9566000.0
2011-05-01,37.630001068115234,37.790000915527344,33.400001525878906,35.7400016784668,31.60666275024414,15373900.0
2011-06-01,35.599998474121094,35.599998474121094,31.100000381469727,32.150001525878906,28.43184471130371,16904300.0
2011-06-29,,,,,,
2011-07-01,32.06999969482422,34.459999084472656,30.90999984741211,31.760000228881836,28.203899383544922,17203600.0
2011-08-01,32.220001220703125,32.369998931884766,24.15999984741211,28.079999923706055,24.935945510864258,25209000.0
2011-09-01,28.100000381469727,28.450000762939453,24.489999771118164,25.959999084472656,23.053314208984375,21642100.0
2011-09-29,,,,,,
2011-10-01,25.690000534057617,32.369998931884766,23.15999984741211,30.3700008392334,27.10346031188965,21493300.0
2011-11-01,28.780000686645508,31.84000015258789,25.8700008392334,29.809999465942383,26.603687286376953,15291700.0
2011-12-01,29.6200008392334,31.420000076293945,28.719999313354492,30.959999084472656,27.629987716674805,15433200.0
2011-12-29,,,,,,
2012-01-01,31.850000381469727,35.20000076293945,31.59000015258789,35.0,31.36794662475586,17108800.0
2012-02-01,35.349998474121094,36.189998626708984,33.5,35.369998931884766,31.699554443359375,24094100.0
2012-03-01,35.540000915527344,38.18000030517578,34.04999923706055,36.529998779296875,32.73917007446289,14894500.0
2012-03-29,,,,,,
2012-04-01,36.43000030517578,37.66999816894531,33.810001373291016,36.619998931884766,32.935577392578125,14999400.0
2012-05-01,36.560001373291016,37.130001068115234,32.540000915527344,34.18000030517578,30.741079330444336,14631300.0
2012-06-01,33.279998779296875,34.869998931884766,31.959999084472656,34.2400016784668,30.795028686523438,14339200.0
2012-06-28,,,,,,
2012-07-01,34.470001220703125,34.79999923706055,30.989999771118164,33.619998931884766,30.35660743713379,14330500.0
2012-08-01,33.849998474121094,35.84000015258789,31.93000030517578,35.20000076293945,31.783241271972656,10196600.0
2012-09-01,35.279998779296875,38.95000076293945,35.04999923706055,36.650001525878906,33.09250259399414,11830200.0
2012-09-27,,,,,,
2012-10-01,36.97999954223633,38.45000076293945,36.2599983215332,38.13999938964844,34.56058883666992,11475300.0
2012-11-01,38.20000076293945,39.9900016784668,36.349998474121094,37.75,34.20718765258789,13009300.0
2012-12-01,37.77000045776367,39.75,36.369998931884766,38.529998779296875,34.91399383544922,12331300.0
2012-12-28,,,,,,
2013-01-01,39.560001373291016,45.25,39.22999954223633,44.630001068115234,40.590152740478516,15763700.0
2013-02-01,45.09000015258789,46.36000061035156,43.04999923706055,43.880001068115234,39.908050537109375,11571300.0
2013-03-01,43.47999954223633,48.220001220703125,42.9900016784668,46.099998474121094,41.92708969116211,13837200.0
2013-03-27,,,,,,
2013-04-01,45.959999084472656,46.72999954223633,39.959999084472656,41.41999816894531,37.785709381103516,24764200.0
2013-05-01,41.41999816894531,46.25,39.310001373291016,43.970001220703125,40.11196517944336,34676000.0
2013-06-01,44.189998626708984,44.34000015258789,41.119998931884766,42.97999954223633,39.20882797241211,17240000.0
2013-06-27,,,,,,
2013-07-01,43.20000076293945,45.06999969482422,42.599998474121094,44.06999969482422,40.33597183227539,16036300.0
2013-08-01,43.970001220703125,45.54999923706055,41.369998931884766,41.83000183105469,38.285770416259766,19901500.0
2013-09-01,42.31999969482422,44.72999954223633,41.11000061035156,41.66999816894531,38.139320373535156,15200800.0
2013-09-27,,,,,,
2013-10-01,41.779998779296875,47.20000076293945,40.0099983215332,45.650001525878906,41.92061996459961,22160400.0
2013-11-01,45.650001525878906,48.83000183105469,44.810001373291016,48.18000030517578,44.24393844604492,10892500.0
2013-12-01,48.22999954223633,52.470001220703125,47.650001525878906,52.189998626708984,47.92633056640625,13054500.0
2013-12-30,,,,,,
2014-01-01,52.33000183105469,56.310001373291016,50.54999923706055,50.90999984741211,46.89546203613281,17575800.0
2014-02-01,50.95000076293945,53.369998931884766,48.130001068115234,52.779998779296875,48.61801528930664,17997700.0
2014-03-01,52.209999084472656,55.970001220703125,51.689998626708984,55.93000030517578,51.51961898803711,14894200.0
2014-03-28,,,,,,
2014-04-01,56.290000915527344,56.31999969482422,48.380001068115234,49.70000076293945,45.918495178222656,16886700.0
2014-05-01,49.7599983215332,51.36000061035156,47.4900016784668,48.400001525878906,44.7174072265625,11373100.0
2014-06-01,48.59000015258789,51.15999984741211,47.869998931884766,50.72999954223633,46.87013244628906,10609800.0
2014-06-27,,,,,,
2014-07-01,50.88999938964844,53.54999923706055,48.90999984741211,50.95000076293945,47.22300338745117,12927700.0
2014-08-01,50.619998931884766,55.209999084472656,49.65999984741211,54.63999938964844,50.643089294433594,11159400.0
2014-09-01,54.939998626708984,56.61000061035156,53.43000030517578,53.58000183105469,49.660621643066406,15526400.0
2014-09-29,,,,,,
2014-10-01,53.279998779296875,56.439998626708984,48.060001373291016,56.130001068115234,52.176212310791016,19040900.0
2014-11-01,56.31999969482422,57.58000183105469,54.7400016784668,56.29999923706055,52.33423614501953,8939300.0
2014-12-01,55.939998626708984,58.18000030517578,53.880001068115234,57.290000915527344,53.25450134277344,11725100.0
2014-12-30,,,,,,
2015-01-01,57.68000030517578,58.040000915527344,50.970001220703125,52.619998931884766,49.06654739379883,12493000.0
2015-02-01,53.099998474121094,57.939998626708984,51.959999084472656,57.130001068115234,53.2719841003418,10382200.0
2015-03-01,57.130001068115234,59.77000045776367,55.83000183105469,56.779998779296875,52.94561004638672,13936900.0
2015-03-30,,,,,,
2015-04-01,56.709999084472656,57.81999969482422,54.9900016784668,56.529998779296875,52.879730224609375,14205300.0
2015-05-01,56.869998931884766,59.119998931884766,56.65999984741211,58.119998931884766,54.3670539855957,9996600.0
2015-06-01,58.369998931884766,61.459999084472656,57.56999969482422,59.58000183105469,55.73278045654297,13703900.0
2015-06-29,,,,,,
2015-07-01,60.380001068115234,61.81999969482422,56.91999816894531,59.0,55.353355407714844,14206000.0
2015-08-01,59.119998931884766,60.2599983215332,49.61000061035156,52.9900016784668,49.71481704711914,17310500.0
2015-09-01,51.68000030517578,53.45000076293945,48.2400016784668,49.630001068115234,46.5624885559082,18168500.0
2015-09-29,,,,,,
2015-10-01,49.5,56.41999816894531,45.86000061035156,55.11000061035156,51.89615249633789,17712100.0
2015-11-01,55.369998931884766,58.970001220703125,55.11000061035156,58.72999954223633,55.3050422668457,13458800.0
2015-12-01,58.83000183105469,59.810001373291016,55.66999816894531,57.970001220703125,54.58937072753906,23911300.0
2015-12-30,,,,,,
2016-01-01,56.560001373291016,56.68000030517578,42.52000045776367,43.810001373291016,41.39512252807617,35088900.0
2016-02-01,43.439998626708984,45.41999816894531,39.84000015258789,43.84000015258789,41.4234619140625,33190200.0
2016-03-01,44.27000045776367,48.70000076293945,44.08000183105469,47.61000061035156,44.98566436767578,17010500.0
2016-03-30,,,,,,
2016-04-01,47.189998626708984,54.77000045776367,44.220001220703125,52.16999816894531,49.501739501953125,22779800.0
2016-05-01,52.20000076293945,56.189998626708984,50.060001373291016,56.06999969482422,53.202274322509766,16187800.0
2016-06-01,55.34000015258789,56.689998626708984,46.540000915527344,49.29999923706055,46.77851486206055,20685100.0
2016-06-29,,,,,,
2016-07-01,48.79999923706055,55.09000015258789,46.29999923706055,54.900001525878906,52.313350677490234,15522800.0
2016-08-01,55.08000183105469,58.5,53.18000030517578,58.16999816894531,55.42928695678711,11767100.0
2016-09-01,58.290000915527344,58.970001220703125,56.060001373291016,58.209999084472656,55.46739959716797,11984600.0
2016-09-29,,,,,,
2016-10-01,58.0,62.72999954223633,56.61000061035156,60.119998931884766,57.487083435058594,12384600.0
2016-11-01,60.5099983215332,73.58999633789062,58.65999984741211,71.94000244140625,68.78943634033203,19349500.0
2016-12-01,72.41000366210938,74.69999694824219,68.97000122070312,69.2699966430664,66.23636627197266,13891300.0
2016-12-29,,,,,,
2017-01-01,70.37999725341797,77.79000091552734,69.08999633789062,74.93000030517578,71.87398529052734,14091500.0
2017-02-01,75.83000183105469,80.05000305175781,73.83999633789062,78.55999755859375,75.3559341430664,10467400.0
2017-03-01,79.80999755859375,81.91999816894531,72.12999725341797,76.26000213623047,73.1497573852539,42564000.0
2017-03-30,,,,,,
2017-04-01,76.29000091552734,76.80999755859375,72.18000030517578,74.5199966430664,71.69117736816406,16298900.0
2017-05-01,75.0,77.38999938964844,71.3499984741211,72.2699966430664,69.5265884399414,14679900.0
2017-06-01,72.83999633789062,82.58999633789062,72.08000183105469,80.22000122070312,77.17479705810547,16762800.0
2017-06-29,,,,,,
2017-07-01,80.87999725341797,85.97000122070312,80.38999938964844,83.19000244140625,80.25080871582031,11954300.0
2017-08-01,83.81999969482422,84.02999877929688,77.16000366210938,78.31999969482422,75.5528793334961,11634400.0
2017-09-01,78.55999755859375,85.16999816894531,74.13999938964844,84.33000183105469,81.35054016113281,12575400.0
2017-09-29,,,,,,
2017-10-01,84.33000183105469,87.22000122070312,83.44000244140625,84.77999877929688,81.99793243408203,15660300.0
2017-11-01,85.37999725341797,90.2699966430664,81.9000015258789,88.30000305175781,85.40243530273438,13524500.0
2017-12-01,88.19000244140625,91.29000091552734,84.97000122070312,89.30000305175781,86.36962127685547,16141800.0
2018-01-01,89.61000061035156,99.0999984741211,88.1500015258789,96.38999938964844,93.22695922851562,20326100.0
2018-01-02,,,,,,
2018-02-01,96.22000122070312,97.4000015258789,84.37000274658203,92.70999908447266,89.91944885253906,18574200.0
2018-03-01,92.72000122070312,99.26000213623047,85.93000030517578,89.41000366210938,86.71878051757812,18444800.0
2018-03-29,,,,,,
2018-04-01,89.16000366210938,92.0,83.88999938964844,89.75,87.29723358154297,18102400.0
2018-05-01,89.61000061035156,102.16999816894531,85.98999786376953,96.55999755859375,93.9211196899414,17965500.0
2018-06-01,98.18000030517578,101.19000244140625,89.29000091552734,89.3499984741211,86.90815734863281,15550500.0
2018-06-29,,,,,,
2018-07-01,88.52999877929688,97.62000274658203,87.55999755859375,91.58999633789062,89.38314819335938,17827200.0
2018-08-01,92.06999969482422,94.33999633789062,89.06999969482422,93.04000091552734,90.79820251464844,13312200.0
2018-09-01,92.83000183105469,96.76000213623047,90.94999694824219,92.05000305175781,89.83206176757812,11197000.0
2018-09-28,,,,,,
2018-10-01,92.94999694824219,96.0999984741211,71.93000030517578,76.69000244140625,75.08502197265625,30535000.0
2018-11-01,77.19999694824219,82.4000015258789,74.29000091552734,79.7300033569336,78.06139373779297,24264500.0
2018-12-01,81.1500015258789,81.83000183105469,69.11000061035156,74.41000366210938,72.85274505615234,28091100.0
2019-01-01,72.93000030517578,81.9000015258789,71.38999938964844,80.5,78.81527709960938,23607000.0
2019-01-02,,,,,,
2019-02-01,80.6500015258789,84.81999969482422,78.77999877929688,82.58000183105469,81.22289276123047,14526700.0
2019-03-01,83.4800033569336,85.52999877929688,76.0,80.41000366210938,79.08855438232422,20773200.0
2019-03-29,,,,,,
2019-04-01,81.20999908447266,91.70999908447266,81.19999694824219,91.56999969482422,90.44984436035156,20165100.0
2019-05-01,91.55999755859375,92.0,82.45999908447266,82.58000183105469,81.56982421875,19502500.0
2019-06-01,82.4800033569336,85.77999877929688,79.48999786376953,84.55000305175781,83.51571655273438,19580900.0
2019-06-28,,,,,,
2019-07-01,85.6500015258789,87.16999816894531,80.08000183105469,80.66999816894531,80.01293182373047,20312700.0
2019-08-01,80.44999694824219,81.0999984741211,72.94000244140625,78.51000213623047,77.87052917480469,20176400.0
2019-09-01,77.72000122070312,87.9000015258789,76.19000244140625,82.45999908447266,81.7883529663086,17620300.0
2019-09-30,,,,,,
2019-10-01,81.73999786376953,88.11000061035156,75.44000244140625,83.48999786376953,83.14703369140625,26001900.0
2019-11-01,84.41999816894531,90.5199966430664,84.31999969482422,89.81999969482422,89.4510269165039,11689600.0
2019-12-01,90.0,91.83999633789062,86.19999694824219,89.45999908447266,89.0925064086914,11976100.0
2019-12-31,,,,,,
2020-01-01,90.02999877929688,97.66000366210938,87.81999969482422,91.43000030517578,91.43000030517578,22999900.0
2020-02-01,91.94000244140625,102.44999694824219,81.55000305175781,83.62999725341797,83.62999725341797,19739300.0
2020-03-01,84.16999816894531,88.30000305175781,54.209999084472656,60.779998779296875,60.779998779296875,40368700.0
2020-03-26,61.220001220703125,65.58000183105469,60.529998779296875,63.56999969482422,63.56999969482422,589469.0
