Date,Open,High,Low,Close,Adj Close,Volume
1998-06-01,28.25,28.875,27.75,27.8125,12.424854278564453,7845100.0
1998-07-01,27.75,28.0,25.0,25.1875,11.252171516418457,10508400.0
1998-08-01,25.0,25.875,23.75,25.4375,11.363859176635742,10653600.0
1998-09-01,25.1875,26.875,24.5625,26.0625,11.643065452575684,10148800.0
1998-09-17,,,,,,
1998-10-01,26.125,29.3125,25.0,26.0,11.789050102233887,11288600.0
1998-11-01,26.0,27.5625,24.875,24.875,11.278953552246094,6285000.0
1998-12-01,25.1875,26.0625,24.5625,25.375,11.505659103393555,8843300.0
1998-12-17,,,,,,
1999-01-01,25.3125,26.0,22.75,23.0,10.593210220336914,8401200.0
1999-02-01,22.875,22.9375,20.5625,21.0,9.6720552444458,8499400.0
1999-03-01,21.0,21.625,19.125,19.1875,8.837268829345703,19436200.0
1999-03-17,,,,,,
1999-04-01,19.0625,21.59375,18.5,20.75,9.73399829864502,12921800.0
1999-05-01,20.875,22.375,20.5,21.5,10.085834503173828,15148900.0
1999-06-01,21.625,24.875,21.25,22.625,10.613582611083984,22595700.0
1999-06-17,,,,,,
1999-07-01,22.625,23.1875,22.0,22.1875,10.589882850646973,7921500.0
1999-08-01,22.25,23.1875,21.625,22.3125,10.64954948425293,7122200.0
1999-09-01,22.25,22.6875,20.0,20.8125,9.933612823486328,9008800.0
1999-09-16,,,,,,
1999-10-01,20.875,21.75,20.0,20.4375,9.928163528442383,8636200.0
1999-11-01,20.375,20.875,17.1875,18.5,8.986961364746094,8748900.0
1999-12-01,18.75,18.8125,17.125,17.375,8.440454483032227,26336300.0
1999-12-17,,,,,,
2000-01-01,17.25,19.125,16.25,18.5625,9.20952320098877,20588800.0
2000-02-01,18.4375,19.25,17.75,18.0,8.930438041687012,24877600.0
2000-03-01,18.0,18.5,16.6875,16.75,8.310274124145508,18882100.0
2000-03-16,,,,,,
2000-04-01,16.9375,19.1875,16.1875,18.5625,9.340620040893555,11397300.0
2000-05-01,18.0,19.1875,17.0,18.9375,9.529317855834961,8313900.0
2000-06-01,19.0,19.25,16.9375,17.0,8.554369926452637,12475700.0
2000-06-19,,,,,,
2000-07-01,17.0,19.0,17.0,18.75,9.5609769821167,10995400.0
2000-08-01,18.625,19.75,18.1875,19.515625,9.951379776000977,10067400.0
2000-09-01,19.4375,21.0,18.75,20.828125,10.62065315246582,13464800.0
2000-09-18,,,,,,
2000-10-01,20.8125,21.0,19.375,20.6875,10.681528091430664,8653200.0
2000-11-01,20.8125,24.875,20.625,24.4375,12.617759704589844,11425300.0
2000-12-01,24.25,24.6875,20.0,23.25,12.004619598388672,16587100.0
2000-12-19,,,,,,
2001-01-01,23.0,23.0625,17.3125,20.3700008392334,10.632861137390137,22962900.0
2001-02-01,20.3700008392334,22.719999313354492,19.5,22.350000381469727,11.66639232635498,13263700.0
2001-03-01,21.799999237060547,23.940000534057617,20.799999237060547,23.280000686645508,12.151838302612305,16138100.0
2001-03-16,,,,,,
2001-04-01,23.100000381469727,28.450000762939453,21.979999542236328,27.670000076293945,14.601309776306152,21914500.0
2001-05-01,27.649999618530273,28.610000610351562,26.0,27.299999237060547,14.4060640335083,17115300.0
2001-06-01,27.299999237060547,28.0,24.899999618530273,27.34000015258789,14.427168846130371,18451600.0
2001-06-19,,,,,,
2001-07-01,27.350000381469727,28.0,24.0,25.3799991607666,13.521374702453613,11770000.0
2001-08-01,25.1299991607666,27.799999237060547,25.059999465942383,27.09000015258789,14.43238639831543,10213200.0
2001-09-01,27.34000015258789,27.700000762939453,23.25,24.75,13.185735702514648,13188800.0
2001-09-18,,,,,,
2001-10-01,24.700000762939453,26.68000030517578,22.0,23.399999618530273,12.586105346679688,11618500.0
2001-11-01,23.25,24.229999542236328,22.209999084472656,23.15999984741211,12.457026481628418,6174300.0
2001-12-01,23.15999984741211,25.200000762939453,22.549999237060547,24.549999237060547,13.20465087890625,11382100.0
2001-12-19,,,,,,
2002-01-01,24.5,25.920000076293945,23.420000076293945,23.950000762939453,13.016911506652832,11531400.0
2002-02-01,23.700000762939453,24.09000015258789,22.270000457763672,22.31999969482422,12.130992889404297,9804900.0
2002-03-01,22.299999237060547,25.25,22.149999618530273,25.149999618530273,13.669108390808105,13703300.0
2002-03-18,,,,,,
2002-04-01,25.049999237060547,26.100000381469727,24.510000228881836,25.56999969482422,14.042750358581543,27669300.0
2002-05-01,25.75,26.25,23.68000030517578,25.010000228881836,13.73521614074707,20773900.0
2002-06-01,25.0,25.010000228881836,21.520000457763672,22.1299991607666,12.153544425964355,20522000.0
2002-06-19,,,,,,
2002-07-01,22.25,22.530000686645508,15.5,21.200000762939453,11.763532638549805,34267800.0
2002-08-01,21.200000762939453,24.110000610351562,20.520000457763672,24.010000228881836,13.32275104522705,20615500.0
2002-09-01,24.010000228881836,24.010000228881836,18.200000762939453,19.649999618530273,10.903457641601562,20981000.0
2002-09-18,,,,,,
2002-10-01,19.649999618530273,22.25,16.700000762939453,22.139999389648438,12.4356689453125,34887100.0
2002-11-01,22.059999465942383,23.40999984741211,20.81999969482422,23.170000076293945,13.014204025268555,16856800.0
2002-12-01,23.850000381469727,24.6200008392334,22.290000915527344,23.649999618530273,13.28381061553955,17891600.0
2002-12-19,,,,,,
2003-01-01,23.670000076293945,26.0,23.200000762939453,24.100000381469727,13.678755760192871,18126100.0
2003-02-01,24.549999237060547,25.219999313354492,22.309999465942383,23.200000762939453,13.167928695678711,21283900.0
2003-03-01,23.549999237060547,25.15999984741211,22.25,24.959999084472656,14.166881561279297,26616700.0
2003-03-18,,,,,,
2003-04-01,25.030000686645508,27.25,24.670000076293945,26.84000015258789,15.396690368652344,23081800.0
2003-05-01,26.25,27.850000381469727,24.049999237060547,27.270000457763672,15.643354415893555,28382500.0
2003-06-01,27.3700008392334,29.399999618530273,27.270000457763672,28.530000686645508,16.366159439086914,19395200.0
2003-06-19,,,,,,
2003-07-01,28.540000915527344,29.09000015258789,27.309999465942383,27.829999923706055,16.10313606262207,15045500.0
2003-08-01,27.549999237060547,29.760000228881836,27.360000610351562,29.75,17.21409797668457,12724400.0
2003-09-01,29.899999618530273,30.329999923706055,29.030000686645508,29.360000610351562,16.988433837890625,18368500.0
2003-09-19,,,,,,
2003-10-01,29.510000228881836,30.899999618530273,27.6299991607666,27.799999237060547,16.22233009338379,30933600.0
2003-11-01,27.950000762939453,28.3799991607666,26.360000610351562,28.31999969482422,16.52577018737793,17932900.0
2003-12-01,28.450000762939453,30.219999313354492,27.899999618530273,30.059999465942383,17.54112434387207,18225800.0
2003-12-19,,,,,,
2004-01-01,30.049999237060547,32.08000183105469,29.510000228881836,31.139999389648438,18.328750610351562,16129000.0
2004-02-01,31.049999237060547,31.860000610351562,30.670000076293945,31.700000762939453,18.658361434936523,14040000.0
2004-03-01,32.20000076293945,32.9900016784668,30.799999237060547,31.799999237060547,18.717220306396484,16397700.0
2004-03-18,,,,,,
2004-04-01,31.75,32.400001525878906,30.8700008392334,31.75,18.830974578857422,17748100.0
2004-05-01,31.700000762939453,33.40999984741211,30.799999237060547,33.369998931884766,19.791797637939453,17505600.0
2004-06-01,33.369998931884766,34.900001525878906,33.130001068115234,34.43000030517578,20.420488357543945,20981000.0
2004-06-21,,,,,,
2004-07-01,34.349998474121094,36.400001525878906,33.970001220703125,35.75,21.35770606994629,18047100.0
2004-08-01,35.75,36.7400016784668,35.25,36.150001525878906,21.596670150756836,19700400.0
2004-09-01,36.20000076293945,37.189998626708984,35.529998779296875,36.189998626708984,21.620561599731445,14350100.0
2004-09-27,,,,,,
2004-10-01,36.290000915527344,37.27000045776367,31.0,33.540000915527344,20.17792510986328,42656100.0
2004-11-01,33.79999923706055,37.93000030517578,33.599998474121094,36.97999954223633,22.247455596923828,25372800.0
2004-12-01,36.97999954223633,37.369998931884766,34.869998931884766,36.68000030517578,22.066967010498047,17464700.0
2004-12-20,,,,,,
2005-01-01,36.599998474121094,37.25,35.529998779296875,37.220001220703125,22.544160842895508,17290100.0
2005-02-01,37.150001525878906,40.7400016784668,36.959999084472656,40.0,24.228002548217773,26453900.0
2005-03-01,40.0,42.540000915527344,38.540000915527344,39.84000015258789,24.131101608276367,29849400.0
2005-03-22,,,,,,
2005-04-01,40.0,40.900001525878906,38.25,40.380001068115234,24.633132934570312,16860700.0
2005-05-01,40.47999954223633,40.75,37.06999969482422,39.66999816894531,24.200008392333984,27035200.0
2005-06-01,39.599998474121094,41.709999084472656,39.459999084472656,41.310001373291016,25.200462341308594,25232800.0
2005-06-21,,,,,,
2005-07-01,41.349998474121094,42.93000030517578,40.97999954223633,42.5,26.11521339416504,16092600.0
2005-08-01,42.599998474121094,44.88999938964844,41.02000045776367,44.81999969482422,27.540809631347656,28279300.0
2005-09-01,44.79999923706055,47.43000030517578,44.54999923706055,47.060001373291016,28.91722869873047,20579500.0
2005-09-27,,,,,,
2005-10-01,46.900001525878906,47.86000061035156,41.099998474121094,44.29999923706055,27.3952693939209,22515700.0
2005-11-01,44.099998474121094,44.93000030517578,41.849998474121094,43.95000076293945,27.178829193115234,26295200.0
2005-12-01,44.20000076293945,46.709999084472656,43.880001068115234,44.84000015258789,27.729202270507812,19942600.0
2005-12-20,,,,,,
2006-01-01,45.040000915527344,48.75,44.65999984741211,48.04999923706055,29.90350341796875,21586800.0
2006-02-01,47.869998931884766,49.540000915527344,46.18000030517578,47.84000015258789,29.772808074951172,16146500.0
2006-03-01,47.84000015258789,48.08000183105469,45.34000015258789,46.459999084472656,28.913991928100586,25846200.0
2006-03-21,,,,,,
2006-04-01,46.709999084472656,47.290000915527344,44.310001373291016,46.02000045776367,28.824920654296875,19985700.0
2006-05-01,45.83000183105469,47.189998626708984,43.27000045776367,44.970001220703125,28.167247772216797,24292700.0
2006-06-01,45.13999938964844,46.16999816894531,42.900001525878906,45.47999954223633,28.4866943359375,21277000.0
2006-06-20,,,,,,
2006-07-01,45.849998474121094,48.63999938964844,44.41999816894531,48.2599983215332,30.435577392578125,18842400.0
2006-08-01,48.11000061035156,49.72999954223633,46.560001373291016,49.720001220703125,31.356340408325195,20940100.0
2006-09-01,49.91999816894531,50.90999984741211,48.5,50.25,31.690582275390625,21176000.0
2006-09-06,,,,,,
2006-09-26,,,,,,
2006-10-01,50.25,53.849998474121094,50.189998626708984,53.040000915527344,35.436988830566406,22963700.0
2006-11-01,53.150001525878906,55.29999923706055,51.970001220703125,54.5,36.41243362426758,24067000.0
2006-12-01,54.61000061035156,57.349998474121094,54.56999969482422,56.040000915527344,37.441349029541016,19807100.0
2006-12-19,,,,,,
2007-01-01,55.95000076293945,58.0099983215332,54.72999954223633,57.380001068115234,38.54159164428711,20929300.0
2007-02-01,57.380001068115234,62.529998779296875,57.25,60.04999923706055,40.334999084472656,21275300.0
2007-03-01,59.75,63.029998779296875,57.849998474121094,61.0099983215332,40.979835510253906,28908000.0
2007-03-20,,,,,,
2007-04-01,60.150001525878906,66.37999725341797,60.130001068115234,63.47999954223633,42.8572883605957,28873400.0
2007-05-01,63.630001068115234,65.44000244140625,61.0,61.31999969482422,41.398990631103516,32924300.0
2007-06-01,61.31999969482422,62.400001525878906,57.040000915527344,59.22999954223633,39.98796463012695,35495800.0
2007-06-19,,,,,,
2007-07-01,59.81999969482422,62.25,52.27000045776367,52.720001220703125,35.781044006347656,48805300.0
2007-08-01,53.75,57.66999816894531,50.95000076293945,55.029998779296875,37.34883117675781,54778000.0
2007-09-01,54.9900016784668,60.33000183105469,53.59000015258789,58.119998931884766,39.446014404296875,32337900.0
2007-09-25,,,,,,
2007-10-01,58.400001525878906,61.79999923706055,57.619998931884766,61.5099983215332,41.96636962890625,30447000.0
2007-11-01,60.97999954223633,62.880001068115234,58.599998474121094,62.619998931884766,42.723690032958984,31245700.0
2007-12-01,61.810001373291016,64.20999908447266,60.790000915527344,61.880001068115234,42.21881866455078,19613100.0
2007-12-18,,,,,,
2008-01-01,61.959999084472656,63.0,52.68000030517578,55.900001525878906,38.333595275878906,36110300.0
2008-02-01,55.79999923706055,58.630001068115234,52.58000183105469,53.130001068115234,36.43405532836914,37450800.0
2008-03-01,53.380001068115234,54.4900016784668,48.58000183105469,53.279998779296875,36.536903381347656,53817700.0
2008-03-18,,,,,,
2008-04-01,53.880001068115234,57.88999938964844,53.02000045776367,56.66999816894531,39.10699462890625,36032700.0
2008-05-01,56.5099983215332,59.959999084472656,56.0099983215332,57.810001373291016,39.89368438720703,32797500.0
2008-06-01,57.81999969482422,58.119998931884766,54.95000076293945,56.45000076293945,38.95517349243164,34288200.0
2008-06-17,,,,,,
2008-07-01,55.959999084472656,58.029998779296875,53.38999938964844,56.15999984741211,38.99513626098633,47869900.0
2008-08-01,56.41999816894531,58.650001525878906,54.27000045776367,57.91999816894531,40.21720504760742,44797500.0
2008-09-01,58.220001220703125,58.9900016784668,43.349998474121094,50.470001220703125,35.04423522949219,67497700.0
2008-09-23,,,,,,
2008-10-01,50.08000183105469,51.209999084472656,34.290000915527344,42.61000061035156,29.78443145751953,83425900.0
2008-11-01,42.54999923706055,46.939998626708984,38.36000061035156,46.66999816894531,32.62236404418945,38455900.0
2008-12-01,45.279998779296875,46.52000045776367,39.459999084472656,42.630001068115234,29.79840087890625,38066000.0
2008-12-19,,,,,,
2009-01-01,42.72999954223633,45.81999969482422,41.5099983215332,43.84000015258789,30.91046714782715,34275400.0
2009-02-01,43.22999954223633,46.720001220703125,37.65999984741211,41.56999969482422,29.309947967529297,42807700.0
2009-03-01,41.0,46.959999084472656,36.43000030517578,46.2400016784668,32.6026611328125,53433100.0
2009-03-17,,,,,,
2009-04-01,46.060001373291016,47.689998626708984,44.34000015258789,46.02000045776367,32.75619125366211,32265500.0
2009-05-01,46.0,49.88999938964844,43.939998626708984,45.68000030517578,32.51417922973633,32286300.0
2009-06-01,46.13999938964844,50.900001525878906,45.58000183105469,49.630001068115234,35.32571792602539,34155800.0
2009-06-17,,,,,,
2009-07-01,49.790000915527344,52.970001220703125,46.84000015258789,52.43000030517578,37.61996841430664,26825200.0
2009-08-01,52.599998474121094,53.0,49.810001373291016,50.16999816894531,35.99835968017578,26639300.0
2009-09-01,49.93000030517578,51.77000045776367,48.099998474121094,49.810001373291016,35.74005126953125,31270000.0
2009-09-22,,,,,,
2009-10-01,49.72999954223633,53.75,49.380001068115234,51.45000076293945,37.2017822265625,29283800.0
2009-11-01,51.709999084472656,54.0,48.900001525878906,53.13999938964844,38.42375946044922,28771200.0
2009-12-01,53.459999084472656,57.18000030517578,53.290000915527344,55.97999954223633,40.47726821899414,35958100.0
2009-12-28,,,,,,
2010-01-01,56.400001525878906,56.61000061035156,50.20000076293945,50.75,36.95054626464844,42905400.0
2010-02-01,50.93000030517578,51.560001373291016,47.54999923706055,49.16999816894531,35.800167083740234,46241600.0
2010-03-01,49.20000076293945,51.7400016784668,48.380001068115234,49.900001525878906,36.33168411254883,49727900.0
2010-03-16,,,,,,
2010-04-01,50.02000045776367,51.43000030517578,47.15999984741211,49.18000030517578,36.08753204345703,36941600.0
2010-05-01,49.290000915527344,50.779998779296875,43.90999984741211,46.0,33.75410461425781,54235300.0
2010-06-01,45.77000045776367,50.97999954223633,44.400001525878906,46.790000915527344,34.333797454833984,50603200.0
2010-06-16,,,,,,
2010-07-01,46.959999084472656,51.2400016784668,46.25,49.75,36.79778289794922,33789700.0
2010-08-01,50.13999938964844,52.70000076293945,49.90999984741211,50.91999816894531,37.66317367553711,35133300.0
2010-09-01,51.27000045776367,54.31999969482422,50.84000015258789,53.79999923706055,39.793373107910156,28309200.0
2010-09-27,,,,,,
2010-10-01,53.86000061035156,54.45000076293945,52.59000015258789,53.47999954223633,39.8451042175293,24830200.0
2010-11-01,53.720001220703125,54.279998779296875,49.4900016784668,50.09000015258789,37.31938934326172,36391300.0
2010-12-01,50.56999969482422,52.75,50.08000183105469,52.47999954223633,39.10005187988281,35934100.0
2010-12-21,,,,,,
2011-01-01,52.689998626708984,52.91999816894531,51.18000030517578,52.06999969482422,39.08543395996094,27962700.0
2011-02-01,52.20000076293945,53.599998474121094,51.709999084472656,53.22999954223633,39.9561653137207,30564100.0
2011-03-01,53.33000183105469,54.439998626708984,50.31999969482422,53.5,40.158836364746094,41067500.0
2011-03-16,,,,,,
2011-04-01,53.630001068115234,55.220001220703125,52.119998931884766,55.099998474121094,41.74565505981445,17633200.0
2011-05-01,55.2599983215332,55.970001220703125,53.91999816894531,55.16999816894531,41.798675537109375,22803400.0
2011-06-01,55.0,55.119998931884766,51.529998779296875,52.880001068115234,40.063690185546875,28190100.0
2011-06-22,,,,,,
2011-07-01,52.83000183105469,53.68000030517578,50.47999954223633,50.689998626708984,38.754661560058594,20478700.0
2011-08-01,50.939998626708984,52.65999984741211,44.779998779296875,52.52000045776367,40.15377426147461,43969600.0
2011-09-01,52.56999969482422,53.7599983215332,49.15999984741211,51.5,39.37394714355469,30272100.0
2011-09-27,,,,,,
2011-10-01,51.43000030517578,55.58000183105469,48.380001068115234,53.72999954223633,41.471736907958984,26155400.0
2011-11-01,52.5099983215332,54.369998931884766,50.529998779296875,53.189998626708984,41.05493927001953,24261700.0
2011-12-01,53.2400016784668,55.61000061035156,51.529998779296875,55.0,42.45199203491211,23654000.0
2011-12-20,,,,,,
2012-01-01,55.689998626708984,58.41999816894531,54.70000076293945,56.900001525878906,44.32722473144531,25471200.0
2012-02-01,57.310001373291016,59.7400016784668,57.099998474121094,59.2400016784668,46.15017318725586,26401500.0
2012-03-01,59.20000076293945,60.36000061035156,57.7599983215332,59.959999084472656,46.7110710144043,38991200.0
2012-03-22,,,,,,
2012-04-01,60.209999084472656,64.91999816894531,60.040000915527344,64.73999786376953,50.95437240600586,39152900.0
2012-05-01,64.63999938964844,65.5,63.02000045776367,65.01000213623047,51.16688919067383,30299600.0
2012-06-01,64.0999984741211,69.45999908447266,63.29999923706055,68.87999725341797,54.21281051635742,25308300.0
2012-06-25,,,,,,
2012-07-01,69.0999984741211,71.33000183105469,67.70999908447266,70.41000366210938,55.916255950927734,18805900.0
2012-08-01,70.6500015258789,72.31999969482422,66.0199966430664,66.19999694824219,52.57288360595703,17628800.0
2012-09-01,66.0999984741211,67.22000122070312,63.869998931884766,64.48999786376953,51.21488952636719,28364700.0
2012-09-26,,,,,,
2012-10-01,64.66999816894531,70.0,64.47000122070312,69.75,55.90803146362305,20096400.0
2012-11-01,69.16999816894531,69.86000061035156,64.95999908447266,68.41999816894531,54.841983795166016,20911900.0
2012-12-01,68.41000366210938,72.87000274658203,68.04000091552734,70.94000244140625,56.86188888549805,23750800.0
2012-12-26,,,,,,
2013-01-01,71.9800033569336,75.4000015258789,70.61000061035156,75.05000305175781,60.663822174072266,18044300.0
2013-02-01,75.22000122070312,78.18000030517578,75.19999694824219,77.76000213623047,62.8543586730957,17648000.0
2013-03-01,77.55999755859375,80.20999908447266,77.02999877929688,79.94000244140625,64.6164779663086,18308900.0
2013-03-26,,,,,,
2013-04-01,79.91000366210938,82.87000274658203,79.44000244140625,82.8499984741211,67.5055160522461,23136200.0
2013-05-01,82.83999633789062,84.8499984741211,78.11000061035156,81.30000305175781,66.24258422851562,35405200.0
2013-06-01,81.11000061035156,83.45999908447266,77.48999786376953,81.76000213623047,66.61739349365234,25446600.0
2013-06-26,,,,,,
2013-07-01,81.62000274658203,88.11000061035156,78.66999816894531,87.62999725341797,71.95995330810547,20966500.0
2013-08-01,88.04000091552734,88.77999877929688,81.7699966430664,84.41999816894531,69.3239974975586,16805600.0
2013-09-01,85.19000244140625,89.45999908447266,82.12999725341797,85.5999984741211,70.29296875,20913800.0
2013-09-25,,,,,,
2013-10-01,85.56999969482422,92.73999786376953,84.55000305175781,91.13999938964844,75.38378143310547,22887400.0
2013-11-01,91.30999755859375,93.0,87.61000061035156,88.44000244140625,73.15055084228516,23258500.0
2013-12-01,88.30999755859375,90.41999816894531,86.0,89.76000213623047,74.24235534667969,23561700.0
2013-12-27,,,,,,
2014-01-01,89.55000305175781,93.52999877929688,86.7300033569336,92.70999908447266,77.22626495361328,26625200.0
2014-02-01,92.87000274658203,95.83999633789062,89.87000274658203,94.47000122070312,78.69232177734375,27416800.0
2014-03-01,94.12999725341797,97.4800033569336,92.80999755859375,96.76000213623047,80.599853515625,26583700.0
2014-03-25,,,,,,
2014-04-01,96.76000213623047,99.80999755859375,95.1500015258789,98.61000061035156,82.70868682861328,25412000.0
2014-05-01,98.63999938964844,100.69000244140625,96.58000183105469,100.3499984741211,84.16810607910156,19888000.0
2014-06-01,100.0999984741211,105.25,98.31999969482422,104.70999908447266,87.82502746582031,20286700.0
2014-06-27,,,,,,
2014-07-01,104.52999877929688,104.5999984741211,99.5999984741211,99.70999908447266,84.16275787353516,19582100.0
2014-08-01,99.54000091552734,106.08999633789062,96.12999725341797,105.97000122070312,89.44666290283203,21409200.0
2014-09-01,106.27999877929688,107.80999755859375,102.33999633789062,105.37999725341797,88.94867706298828,18249300.0
2014-09-23,,,,,,
2014-10-01,105.52999877929688,111.36000061035156,98.33999633789062,110.0,93.43379974365234,31504500.0
2014-11-01,110.25,114.5,108.22000122070312,111.7300033569336,94.90326690673828,18504600.0
2014-12-01,111.37000274658203,116.30000305175781,104.75,111.36000061035156,94.58899688720703,25332400.0
2014-12-18,,,,,,
2015-01-01,111.77999877929688,116.20999908447266,108.91999816894531,111.91999816894531,95.65544891357422,16129500.0
2015-02-01,112.37999725341797,114.0199966430664,104.63999938964844,108.19999694824219,92.47602844238281,20713000.0
2015-03-01,108.19999694824219,112.9000015258789,105.62000274658203,109.0199966430664,93.17687225341797,28073500.0
2015-03-25,,,,,,
2015-04-01,108.81999969482422,111.08999633789062,105.08999633789062,106.16999816894531,91.31702423095703,18002200.0
2015-05-01,106.16999816894531,108.83000183105469,102.44999694824219,107.47000122070312,92.4351577758789,22469700.0
2015-06-01,107.47000122070312,108.36000061035156,98.66999816894531,98.94000244140625,85.0984878540039,24180100.0
2015-06-25,,,,,,
2015-07-01,98.9000015258789,103.95999908447266,98.48999786376953,101.77999877929688,88.15217590332031,23287100.0
2015-08-01,101.95999908447266,106.69999694824219,94.05000305175781,97.83999633789062,84.73974609375,34777400.0
2015-09-01,93.58000183105469,96.80999755859375,89.44000244140625,96.72000122070312,83.76970672607422,35973000.0
2015-09-23,,,,,,
2015-10-01,96.70999908447266,102.95999908447266,95.48999786376953,102.41000366210938,89.37052154541016,25661100.0
2015-11-01,102.29000091552734,105.77999877929688,98.66999816894531,99.2300033569336,86.59542083740234,21659300.0
2015-12-01,99.63999938964844,100.13999938964844,90.5199966430664,94.01000213623047,82.04005432128906,27929500.0
2015-12-23,,,,,,
2016-01-01,93.16000366210938,95.27999877929688,86.72000122070312,94.75,83.30673217773438,36850400.0
2016-02-01,94.75,99.4800033569336,93.02999877929688,96.51000213623047,84.85417938232422,33107900.0
2016-03-01,97.22000122070312,104.69999694824219,94.38999938964844,104.05000305175781,91.4835433959961,28010400.0
2016-03-22,,,,,,
2016-04-01,103.91999816894531,106.05000305175781,100.4000015258789,103.3499984741211,91.53974151611328,22513600.0
2016-05-01,103.47000122070312,107.27999877929688,101.16999816894531,107.12000274658203,94.87892150878906,27981100.0
2016-06-01,106.88999938964844,114.02999877929688,106.16000366210938,114.0199966430664,100.99043273925781,27210500.0
2016-06-28,,,,,,
2016-07-01,114.29000091552734,114.66000366210938,110.0,111.87999725341797,99.77122497558594,21668500.0
2016-08-01,111.66999816894531,111.95999908447266,103.62000274658203,104.62999725341797,93.30590057373047,21546500.0
2016-09-01,104.69999694824219,111.4000015258789,102.1500015258789,107.19000244140625,95.58882904052734,32097900.0
2016-09-27,,,,,,
2016-10-01,107.0,109.41999816894531,101.69999694824219,107.0999984741211,96.16407012939453,22113000.0
2016-11-01,107.0999984741211,107.0999984741211,92.94999694824219,99.80000305175781,89.6094741821289,38641600.0
2016-12-01,99.18000030517578,104.69999694824219,98.12000274658203,100.63999938964844,90.36369323730469,20467200.0
2016-12-12,,,,,,
2016-12-27,,,,,,
2017-01-01,100.93000030517578,104.25,99.70999908447266,102.38999938964844,92.64122009277344,20579300.0
2017-02-01,101.58999633789062,110.94999694824219,100.79000091552734,110.29000091552734,99.78903198242188,14781900.0
2017-03-01,109.86000061035156,113.1500015258789,107.88999938964844,110.5,99.97905731201172,21379800.0
2017-03-21,,,,,,
2017-04-01,110.4800033569336,113.95999908447266,107.86000061035156,113.0199966430664,103.0267562866211,24425000.0
2017-05-01,113.19000244140625,116.95999908447266,110.02999877929688,116.48999786376953,106.18994140625,27067500.0
2017-06-01,116.47000122070312,117.97000122070312,112.11000061035156,112.75,102.7806167602539,33368500.0
2017-07-01,113.12999725341797,114.94999694824219,110.3499984741211,113.01000213623047,103.01763153076172,17510900.0
2017-07-05,,,,,,
2017-08-01,113.01000213623047,119.66000366210938,112.8499984741211,117.93000030517578,108.296630859375,21803900.0
2017-09-01,118.30999755859375,120.16999816894531,113.55000305175781,114.12999725341797,104.80704498291016,20341000.0
2017-09-21,,,,,,
2017-10-01,114.55999755859375,117.97000122070312,110.0,117.5,108.66844940185547,29967300.0
2017-11-01,116.97000122070312,122.9800033569336,115.91000366210938,120.98999786376953,111.8961181640625,26128000.0
2017-12-01,121.33999633789062,121.7300033569336,105.02999877929688,106.91999816894531,98.88365173339844,33779900.0
2017-12-28,,,,,,
2018-01-01,107.23999786376953,109.73999786376953,102.98999786376953,107.0199966430664,99.73690032958984,70258300.0
2018-02-01,107.0999984741211,111.30999755859375,100.62999725341797,108.9800033569336,101.56352233886719,46708500.0
2018-03-01,109.08000183105469,113.54000091552734,105.83999633789062,111.22000122070312,103.65109252929688,38352700.0
2018-03-22,,,,,,
2018-04-01,111.4000015258789,113.37000274658203,108.7300033569336,111.80000305175781,105.04312133789062,40884100.0
2018-05-01,111.88999938964844,112.3499984741211,100.9000015258789,106.52999877929688,100.09160614013672,46506700.0
2018-06-01,105.77999877929688,119.77999877929688,100.48999786376953,116.11000061035156,109.0926284790039,69686300.0
2018-06-29,,,,,,
2018-07-01,115.26000213623047,118.36000061035156,112.56999969482422,115.58999633789062,109.455078125,40811600.0
2018-08-01,114.68000030517578,118.05999755859375,113.38999938964844,116.08000183105469,109.91908264160156,34678000.0
2018-09-01,116.37000274658203,127.22000122070312,110.98999786376953,113.75,107.71273803710938,39551400.0
2018-09-20,,,,,,
2018-10-01,113.48999786376953,117.88999938964844,109.80999755859375,110.12000274658203,105.09230041503906,36882100.0
2018-11-01,110.30999755859375,118.80000305175781,108.63999938964844,115.22000122070312,109.95945739746094,43879800.0
2018-12-01,114.70999908447266,119.11000061035156,104.87999725341797,108.19000244140625,103.25042724609375,40432900.0
2018-12-28,,,,,,
2019-01-01,107.9800033569336,117.16000366210938,106.08999633789062,116.9800033569336,112.57539367675781,36096900.0
2019-02-01,116.66000366210938,121.61000061035156,113.2300033569336,120.44000244140625,115.90512084960938,32239600.0
2019-03-01,120.37000274658203,126.86000061035156,119.94000244140625,125.86000061035156,121.12104797363281,31049700.0
2019-03-21,,,,,,
2019-04-01,125.97000122070312,130.0,124.91000366210938,127.94999694824219,124.09243774414062,38748600.0
2019-05-01,127.75,136.3699951171875,124.66999816894531,131.4499969482422,127.48690032958984,33384300.0
2019-06-01,132.0500030517578,141.86000061035156,130.52000427246094,137.44000244140625,133.29632568359375,26779200.0
2019-07-01,137.49000549316406,141.2899932861328,134.55999755859375,135.42999267578125,131.346923828125,27093200.0
2019-07-03,,,,,,
2019-08-01,134.44000244140625,142.91000366210938,131.32000732421875,141.6300048828125,138.32839965820312,33294200.0
2019-09-01,141.42999267578125,148.13999938964844,139.02999877929688,147.61000061035156,144.16900634765625,29859500.0
2019-09-19,,,,,,
2019-10-01,147.42999267578125,148.89999389648438,140.33999633789062,144.50999450683594,142.12252807617188,37585400.0
2019-11-01,146.02000427246094,148.66000366210938,141.0800018310547,147.27000427246094,144.83694458007812,28399200.0
2019-12-01,146.3699951171875,154.47000122070312,144.6699981689453,151.47999572753906,148.97738647460938,32238800.0
2019-12-27,,,,,,
2020-01-01,151.3300018310547,161.3800048828125,147.61000061035156,160.63999938964844,159.0006561279297,25257700.0
2020-02-01,161.2899932861328,161.8699951171875,134.64999389648438,139.77999877929688,138.35353088378906,28157600.0
2020-03-01,140.4600067138672,148.0,88.0,114.0199966430664,112.85641479492188,62023300.0
2020-03-19,,,,,,
2020-03-26,111.3499984741211,125.27999877929688,110.02999877929688,123.19999694824219,123.19999694824219,1067318.0
