Date,Open,High,Low,Close,Adj Close,Volume
1973-05-01,0.1597222238779068,0.1796875,0.1493055522441864,0.1493055522441864,0.028480520471930504,1465600.0
1973-06-01,0.1493055522441864,0.1493055522441864,0.109375,0.1293402761220932,0.024672074243426323,2483200.0
1973-07-01,0.1293402761220932,0.1597222238779068,0.1293402761220932,0.1597222238779068,0.030467534437775612,1472000.0
1973-08-01,0.1597222238779068,0.1597222238779068,0.1597222238779068,0.1597222238779068,0.030467534437775612,1932800.0
1973-09-01,0.1597222238779068,0.1597222238779068,0.1597222238779068,0.1597222238779068,0.030467534437775612,3001600.0
1973-10-01,0.1597222238779068,0.1996527761220932,0.1597222238779068,0.1996527761220932,0.038084398955106735,9516800.0
1973-11-01,0.1996527761220932,0.1996527761220932,0.1692708283662796,0.1692708283662796,0.03228895366191864,2016000.0
1973-12-01,0.1692708283662796,0.1692708283662796,0.1397569477558136,0.1397569477558136,0.02665908820927143,4096000.0
1974-01-01,0.1397569477558136,0.1397569477558136,0.1397569477558136,0.1397569477558136,0.02665908820927143,2502400.0
1974-02-01,0.1397569477558136,0.1397569477558136,0.1293402761220932,0.1293402761220932,0.024672074243426323,9190400.0
1974-03-01,0.1293402761220932,0.1493055522441864,0.1293402761220932,0.1493055522441864,0.028480520471930504,4064000.0
1974-04-01,0.1493055522441864,0.1493055522441864,0.1493055522441864,0.1493055522441864,0.028480520471930504,2336000.0
1974-05-01,0.1493055522441864,0.1493055522441864,0.1293402761220932,0.1293402761220932,0.024672074243426323,1408000.0
1974-06-01,0.1293402761220932,0.1293402761220932,0.1197916641831398,0.1197916641831398,0.0228506401181221,1267200.0
1974-07-01,0.1197916641831398,0.1197916641831398,0.0998263880610466,0.0998263880610466,0.019042199477553368,6272000.0
1974-08-01,0.0998263880610466,0.109375,0.0998263880610466,0.109375,0.02086362987756729,460800.0
1974-09-01,0.109375,0.109375,0.0694444477558136,0.0894097238779068,0.017055196687579155,5472000.0
1974-10-01,0.0894097238779068,0.0894097238779068,0.0694444477558136,0.0798611119389534,0.015233767218887806,2412800.0
1974-11-01,0.0798611119389534,0.0798611119389534,0.0694444477558136,0.0694444477558136,0.013246751390397549,6489600.0
1974-12-01,0.0694444477558136,0.0694444477558136,0.0598958320915699,0.0694444477558136,0.013246751390397549,697600.0
1975-01-01,0.0694444477558136,0.109375,0.0694444477558136,0.0998263880610466,0.019042199477553368,7718400.0
1975-02-01,0.109375,0.109375,0.0998263880610466,0.0998263880610466,0.019042199477553368,6700800.0
1975-03-01,0.0998263880610466,0.1493055522441864,0.0998263880610466,0.1397569477558136,0.02665908820927143,10419200.0
1975-04-01,0.1397569477558136,0.1397569477558136,0.1397569477558136,0.1397569477558136,0.02665908820927143,5369600.0
1975-05-01,0.1397569477558136,0.1397569477558136,0.1293402761220932,0.1293402761220932,0.024672074243426323,1382400.0
1975-06-01,0.1293402761220932,0.1397569477558136,0.1197916641831398,0.1397569477558136,0.02665908820927143,8806400.0
1975-07-01,0.1397569477558136,0.1692708283662796,0.1397569477558136,0.1493055522441864,0.028480520471930504,17964800.0
1975-08-01,0.1493055522441864,0.1493055522441864,0.1293402761220932,0.1397569477558136,0.02665908820927143,1267200.0
1975-09-01,0.1397569477558136,0.1397569477558136,0.1197916641831398,0.1197916641831398,0.0228506401181221,742400.0
1975-10-01,0.1197916641831398,0.1493055522441864,0.1197916641831398,0.1493055522441864,0.028480520471930504,1990400.0
1975-11-01,0.1493055522441864,0.1493055522441864,0.1493055522441864,0.1493055522441864,0.028480520471930504,3936000.0
1975-12-01,0.1493055522441864,0.1493055522441864,0.1197916641831398,0.1197916641831398,0.0228506401181221,4211200.0
1976-01-01,0.1197916641831398,0.1397569477558136,0.1197916641831398,0.1397569477558136,0.02665908820927143,2028800.0
1976-02-01,0.1397569477558136,0.1397569477558136,0.1197916641831398,0.1197916641831398,0.0228506401181221,5088000.0
1976-03-01,0.1197916641831398,0.1197916641831398,0.1197916641831398,0.1197916641831398,0.0228506401181221,3148800.0
1976-04-01,0.1197916641831398,0.1197916641831398,0.109375,0.1197916641831398,0.0228506401181221,3232000.0
1976-05-01,0.1197916641831398,0.1197916641831398,0.109375,0.109375,0.02086362987756729,1145600.0
1976-06-01,0.109375,0.109375,0.109375,0.109375,0.02086362987756729,806400.0
1976-07-01,0.109375,0.109375,0.0894097238779068,0.0998263880610466,0.019042199477553368,1689600.0
1976-08-01,0.0998263880610466,0.109375,0.0894097238779068,0.109375,0.02086362987756729,4140800.0
1976-09-01,0.109375,0.109375,0.109375,0.109375,0.02086362987756729,3340800.0
1976-10-01,0.109375,0.109375,0.0894097238779068,0.0894097238779068,0.017055196687579155,3072000.0
1976-11-01,0.0894097238779068,0.109375,0.0894097238779068,0.109375,0.02086362987756729,2188800.0
1976-12-01,0.109375,0.109375,0.109375,0.109375,0.02086362987756729,5894400.0
1977-01-01,0.109375,0.1197916641831398,0.0998263880610466,0.0998263880610466,0.019042199477553368,3296000.0
1977-02-01,0.0998263880610466,0.109375,0.0998263880610466,0.0998263880610466,0.019042199477553368,3776000.0
1977-03-01,0.0998263880610466,0.109375,0.0998263880610466,0.0998263880610466,0.019042199477553368,7072000.0
1977-04-01,0.0998263880610466,0.1197916641831398,0.0998263880610466,0.109375,0.02086362987756729,2233600.0
1977-05-01,0.109375,0.1293402761220932,0.109375,0.1197916641831398,0.0228506401181221,6188800.0
1977-06-01,0.1197916641831398,0.1197916641831398,0.1197916641831398,0.1197916641831398,0.0228506401181221,1984000.0
1977-07-01,0.1197916641831398,0.1293402761220932,0.1197916641831398,0.1197916641831398,0.0228506401181221,8096000.0
1977-08-01,0.1197916641831398,0.1197916641831398,0.1197916641831398,0.1197916641831398,0.0228506401181221,5683200.0
1977-09-01,0.1197916641831398,0.1397569477558136,0.1197916641831398,0.1293402761220932,0.024672074243426323,6368000.0
1977-10-01,0.1293402761220932,0.1293402761220932,0.1197916641831398,0.1197916641831398,0.0228506401181221,2547200.0
1977-11-01,0.1197916641831398,0.1293402761220932,0.1197916641831398,0.1293402761220932,0.024672074243426323,3296000.0
1977-12-01,0.1293402761220932,0.1397569477558136,0.1293402761220932,0.1397569477558136,0.02665908820927143,10400000.0
1978-01-01,0.1397569477558136,0.1397569477558136,0.1293402761220932,0.1397569477558136,0.02665908820927143,9382400.0
1978-02-01,0.1397569477558136,0.1397569477558136,0.1397569477558136,0.1397569477558136,0.02665908820927143,2649600.0
1978-03-01,0.1397569477558136,0.1597222238779068,0.1397569477558136,0.1597222238779068,0.030467534437775612,5068800.0
1978-04-01,0.1597222238779068,0.1796875,0.1597222238779068,0.1796875,0.03427598252892494,19404800.0
1978-05-01,0.1796875,0.1996527761220932,0.1796875,0.1892361044883728,0.03609738126397133,18912000.0
1978-06-01,0.1892361044883728,0.1996527761220932,0.1796875,0.1892361044883728,0.03609738126397133,9708800.0
1978-07-01,0.1892361044883728,0.2092013955116272,0.1796875,0.1996527761220932,0.038084398955106735,8089600.0
1978-08-01,0.1996527761220932,0.2300347238779068,0.1996527761220932,0.2092013955116272,0.0399058498442173,8076800.0
1978-09-01,0.2092013955116272,0.2300347238779068,0.1996527761220932,0.2092013955116272,0.0399058498442173,24115200.0
1978-10-01,0.2092013955116272,0.2196180522441864,0.1493055522441864,0.1597222238779068,0.030467534437775612,17952000.0
1978-11-01,0.1597222238779068,0.1892361044883728,0.1597222238779068,0.1796875,0.03427598252892494,15238400.0
1978-12-01,0.1796875,0.1996527761220932,0.1796875,0.1892361044883728,0.03609738126397133,7916800.0
1979-01-01,0.1892361044883728,0.2300347238779068,0.1796875,0.2092013955116272,0.0399058498442173,14969600.0
1979-02-01,0.2092013955116272,0.2196180522441864,0.2092013955116272,0.2092013955116272,0.0399058498442173,7443200.0
1979-03-01,0.2092013955116272,0.2300347238779068,0.1996527761220932,0.2092013955116272,0.0399058498442173,12691200.0
1979-04-01,0.2092013955116272,0.25,0.2092013955116272,0.2395833283662796,0.0457012802362442,10118400.0
1979-05-01,0.2395833283662796,0.2395833283662796,0.2196180522441864,0.2395833283662796,0.0457012802362442,10931200.0
1979-06-01,0.2395833283662796,0.2395833283662796,0.2096354216337204,0.2200520783662796,0.04197565093636513,14176000.0
1979-06-22,,,,,,
1979-07-01,0.2096354216337204,0.2200520783662796,0.19921875,0.2096354216337204,0.03998864069581032,8467200.0
1979-08-01,0.2096354216337204,0.25,0.2096354216337204,0.2291666716337204,0.04371427372097969,6291200.0
1979-09-01,0.2291666716337204,0.25,0.2200520783662796,0.2291666716337204,0.04371427372097969,5376000.0
1979-10-01,0.2291666716337204,0.2291666716337204,0.1888020783662796,0.2096354216337204,0.03998864069581032,18348800.0
1979-11-01,0.2096354216337204,0.2096354216337204,0.19921875,0.2096354216337204,0.03998864069581032,12057600.0
1979-12-01,0.2096354216337204,0.25,0.2096354216337204,0.2395833283662796,0.0457012802362442,10752000.0
1980-01-01,0.2291666716337204,0.2591145932674408,0.2096354216337204,0.25,0.04768830165266991,29171200.0
1980-02-01,0.25,0.26953125,0.2395833283662796,0.2395833283662796,0.0457012802362442,6796800.0
1980-03-01,0.2395833283662796,0.2395833283662796,0.2096354216337204,0.2200520783662796,0.04197565093636513,4646400.0
1980-04-01,0.2200520783662796,0.2291666716337204,0.2096354216337204,0.2291666716337204,0.04371427372097969,7827200.0
1980-05-01,0.2291666716337204,0.26953125,0.2291666716337204,0.25,0.04768830165266991,9542400.0
1980-06-01,0.25,0.26953125,0.25,0.26953125,0.051413942128419876,9017600.0
1980-07-01,0.26953125,0.3098958432674408,0.26953125,0.2994791567325592,0.05712660774588585,3980800.0
1980-08-01,0.2994791567325592,0.3489583432674408,0.2994791567325592,0.33984375,0.06482631713151932,11910400.0
1980-09-01,0.3489583432674408,0.3893229067325592,0.3489583432674408,0.3697916567325592,0.0705389454960823,10131200.0
1980-10-01,0.3697916567325592,0.3893229067325592,0.359375,0.3697916567325592,0.0705389454960823,3974400.0
1980-11-01,0.3697916567325592,0.4296875,0.3697916567325592,0.4192708432674408,0.07997728139162064,8012800.0
1980-12-01,0.4192708432674408,0.419921875,0.3697916567325592,0.408203125,0.07786605507135391,4499200.0
1980-12-23,,,,,,
1981-01-01,0.419921875,0.5,0.419921875,0.48828125,0.09314122051000595,10579200.0
1981-02-01,0.48828125,0.5390625,0.458984375,0.478515625,0.09127836674451828,32262400.0
1981-03-01,0.478515625,0.529296875,0.478515625,0.509765625,0.0972394123673439,12620800.0
1981-04-01,0.509765625,0.599609375,0.509765625,0.55859375,0.10655350238084793,18112000.0
1981-05-01,0.55859375,0.599609375,0.529296875,0.568359375,0.10841640830039978,14502400.0
1981-06-01,0.568359375,0.62890625,0.568359375,0.58984375,0.11251458525657654,18240000.0
1981-07-01,0.580078125,0.580078125,0.509765625,0.568359375,0.10841640830039978,9843200.0
1981-08-01,0.568359375,0.58984375,0.5390625,0.5390625,0.10282788425683975,11846400.0
1981-09-01,0.5390625,0.568359375,0.5,0.5390625,0.10282788425683975,11833600.0
1981-10-01,0.5390625,0.609375,0.529296875,0.599609375,0.11437740176916122,23878400.0
1981-11-01,0.609375,0.658203125,0.609375,0.619140625,0.11810308694839478,28780800.0
1981-12-01,0.619140625,0.638671875,0.599609375,0.619140625,0.11810308694839478,24044800.0
1982-01-01,0.609375,0.62890625,0.580078125,0.609375,0.1162402331829071,20313600.0
1982-02-01,0.609375,0.638671875,0.58984375,0.58984375,0.11251458525657654,20985600.0
1982-03-01,0.58984375,0.638671875,0.580078125,0.62890625,0.11996587365865707,15942400.0
1982-04-01,0.62890625,0.6796875,0.619140625,0.6796875,0.12965263426303864,21299200.0
1982-05-01,0.6796875,0.71875,0.6796875,0.708984375,0.13524101674556732,12358400.0
1982-06-01,0.708984375,0.71875,0.6484375,0.6484375,0.12369152158498764,20464000.0
1982-06-28,,,,,,
1982-07-01,0.6484375,0.80859375,0.6484375,0.75,0.14306484162807465,17417600.0
1982-08-01,0.75,0.88671875,0.69921875,0.859375,0.1639285534620285,22304000.0
1982-09-01,0.859375,0.9375,0.859375,0.91796875,0.175105482339859,16684800.0
1982-10-01,0.9296875,1.109375,0.9296875,1.02734375,0.19596907496452332,20441600.0
1982-11-01,1.02734375,1.19921875,1.01953125,1.19921875,0.22875480353832245,12412800.0
1982-12-01,1.20703125,1.30859375,1.1484375,1.2265625,0.23397067189216614,13030400.0
1983-01-01,1.2265625,1.38671875,1.16015625,1.296875,0.24738304316997528,18400000.0
1983-02-01,1.296875,1.30859375,1.1796875,1.2265625,0.23397067189216614,14598400.0
1983-03-01,1.2265625,1.2890625,1.046875,1.12890625,0.21534249186515808,41840000.0
1983-04-01,1.12890625,1.12890625,0.98828125,1.078125,0.2056557685136795,68422400.0
1983-05-01,1.078125,1.16796875,1.046875,1.078125,0.2056557685136795,26531200.0
1983-06-01,1.078125,1.1875,1.06640625,1.13671875,0.21683281660079956,34704000.0
1983-07-01,1.1484375,1.16015625,1.01953125,1.046875,0.19969478249549866,42969600.0
1983-08-01,1.046875,1.09765625,0.9765625,1.02734375,0.19596907496452332,26092800.0
1983-09-01,1.02734375,1.1796875,1.01953125,1.1171875,0.21310700476169586,20467200.0
1983-10-01,1.1171875,1.19921875,1.078125,1.13671875,0.21683281660079956,23990400.0
1983-11-01,1.13671875,1.1796875,1.109375,1.16015625,0.22130358219146729,20022400.0
1983-12-01,1.1484375,1.1796875,1.109375,1.13671875,0.21683281660079956,12019200.0
1984-01-01,1.13671875,1.13671875,1.05859375,1.05859375,0.2019299864768982,20419200.0
1984-02-01,1.05859375,1.1484375,1.01953125,1.1484375,0.21906810998916626,24681600.0
1984-03-01,1.1484375,1.19921875,1.109375,1.109375,0.2116168886423111,23020800.0
1984-04-01,1.109375,1.13671875,0.98828125,1.02734375,0.19596907496452332,24947200.0
1984-05-01,1.02734375,1.0390625,0.796875,0.859375,0.1639285534620285,25292800.0
1984-06-01,0.859375,0.95703125,0.859375,0.94921875,0.18106649816036224,10758400.0
1984-07-01,0.94921875,1.0,0.91796875,1.0,0.19075320661067963,12707200.0
1984-08-01,1.0,1.109375,0.9765625,1.06640625,0.20342044532299042,18051200.0
1984-09-01,1.06640625,1.09765625,1.0,1.0390625,0.19820448756217957,10915200.0
1984-10-01,1.02734375,1.19921875,1.01953125,1.1484375,0.21906810998916626,27260800.0
1984-11-01,1.1484375,1.1796875,0.95703125,0.9765625,0.1862824410200119,21804800.0
1984-12-01,0.9765625,1.1171875,0.96875,1.046875,0.19969478249549866,12585600.0
1985-01-01,1.046875,1.12890625,0.98828125,1.08984375,0.20789115130901337,40284800.0
1985-02-01,1.08984375,1.16015625,1.078125,1.09765625,0.20938147604465485,28726400.0
1985-03-01,1.109375,1.13671875,1.0078125,1.078125,0.2056557685136795,19299200.0
1985-04-01,1.078125,1.109375,1.01953125,1.0390625,0.19820448756217957,34819200.0
1985-05-01,1.046875,1.1484375,1.046875,1.13671875,0.21683281660079956,35648000.0
1985-06-01,1.13671875,1.16015625,1.06640625,1.13671875,0.21683281660079956,21750400.0
1985-07-01,1.13671875,1.26953125,1.13671875,1.20703125,0.2302451729774475,22544000.0
1985-08-01,1.20703125,1.21875,1.16796875,1.1796875,0.22502917051315308,18041600.0
1985-09-01,1.1796875,1.1875,1.08984375,1.1171875,0.21310700476169586,14649600.0
1985-10-01,1.1171875,1.26953125,1.1171875,1.26953125,0.24216708540916443,23868800.0
1985-11-01,1.26953125,1.38671875,1.23828125,1.37890625,0.2630308270454407,19043200.0
1985-12-01,1.37890625,1.44921875,1.328125,1.3984375,0.2667565643787384,24556800.0
1986-01-01,1.3984375,1.5,1.3984375,1.4765625,0.28165900707244873,21062400.0
1986-01-27,,,,,,
1986-02-01,1.4765625,1.6875,1.44921875,1.6796875,0.34788402915000916,14806400.0
1986-03-01,1.6796875,1.8984375,1.671875,1.671875,0.34626564383506775,37099200.0
1986-03-31,,,,,,
1986-04-01,1.671875,1.8125,1.53125,1.609375,0.33332106471061707,26288000.0
1986-04-21,,,,,,
1986-05-01,1.609375,1.8515625,1.546875,1.8359375,0.3943893313407898,20499200.0
1986-06-01,1.8359375,1.859375,1.6796875,1.78125,0.38264167308807373,18793600.0
1986-07-01,1.796875,2.1171875,1.609375,1.921875,0.412850022315979,28992000.0
1986-07-21,,,,,,
1986-08-01,1.9140625,1.9765625,1.84375,1.875,0.4165760576725006,16102400.0
1986-09-01,1.875,1.9375,1.703125,1.765625,0.39227595925331116,21300800.0
1986-10-01,1.765625,1.9375,1.75,1.90625,0.4235190153121948,18254400.0
1986-10-27,,,,,,
1986-11-01,1.90625,1.9140625,1.7265625,1.765625,0.4055365324020386,17824000.0
1986-12-01,1.7578125,1.9375,1.640625,1.875,0.4306584298610687,52673600.0
1987-01-01,1.875,2.375,1.8515625,2.3515625,0.5401169061660767,29262400.0
1987-01-26,,,,,,
1987-02-01,2.3515625,2.4375,2.171875,2.2109375,0.5253515839576721,17833600.0
1987-03-01,2.21875,2.3515625,2.1015625,2.2109375,0.5253515839576721,19398400.0
1987-04-01,2.2109375,2.359375,2.03125,2.2109375,0.5253515839576721,17780800.0
1987-04-20,,,,,,
1987-05-01,2.203125,2.21875,1.875,2.109375,0.5184581875801086,20392000.0
1987-06-01,2.109375,2.328125,2.109375,2.1953125,0.5395804643630981,23889600.0
1987-07-01,2.1953125,2.3828125,2.1953125,2.375,0.5837456583976746,12499200.0
1987-07-27,,,,,,
1987-08-01,2.375,2.59375,2.3125,2.3984375,0.6084109544754028,21620800.0
1987-09-01,2.40625,2.5,2.2265625,2.3671875,0.600484311580658,18348800.0
1987-10-01,2.3515625,2.390625,1.40625,1.796875,0.4558129608631134,26924800.0
1987-10-26,,,,,,
1987-11-01,1.78125,1.8046875,1.4765625,1.5,0.39630672335624695,22009600.0
1987-12-01,1.5625,1.8359375,1.453125,1.6953125,0.447908878326416,34177600.0
1988-01-01,1.65625,1.875,1.625,1.8671875,0.4933188557624817,23822400.0
1988-01-25,,,,,,
1988-02-01,1.8671875,2.0390625,1.8046875,1.9375,0.5368857383728027,15160000.0
1988-03-01,1.9453125,2.078125,1.859375,1.9296875,0.534720778465271,20625600.0
1988-04-01,1.9296875,2.125,1.8359375,1.84375,0.5109072923660278,25120000.0
1988-04-25,,,,,,
1988-05-01,1.84375,1.90625,1.765625,1.875,0.5423268675804138,21572800.0
1988-06-01,1.859375,1.9375,1.7578125,1.875,0.5423268675804138,44406400.0
1988-07-01,1.890625,2.078125,1.84375,2.078125,0.6010786890983582,30094400.0
1988-07-25,,,,,,
1988-08-01,2.078125,2.09375,1.921875,2.046875,0.6170132160186768,30296000.0
1988-09-01,2.0546875,2.2421875,2.0,2.203125,0.6641132831573486,31697600.0
1988-10-01,2.234375,2.2734375,2.15625,2.25,0.6782433390617371,24726400.0
1988-10-24,,,,,,
1988-11-01,2.234375,2.2734375,2.0703125,2.265625,0.708406388759613,23328000.0
1988-12-01,2.25,2.4296875,2.2421875,2.40625,0.7523760199546814,26569600.0
1989-01-01,2.40625,2.4375,2.2890625,2.40625,0.7523760199546814,36379200.0
1989-01-23,,,,,,
1989-02-01,2.421875,2.546875,2.3984375,2.5234375,0.8208532929420471,34427200.0
1989-03-01,2.5234375,2.7109375,2.4765625,2.7109375,0.8818456530570984,32016000.0
1989-04-01,2.7109375,2.890625,2.6640625,2.84375,0.9250476956367493,28243200.0
1989-04-24,,,,,,
1989-05-01,2.8125,3.0703125,2.7890625,2.953125,0.9922755360603333,29225600.0
1989-06-01,2.953125,3.0625,2.90625,2.9609375,0.994900643825531,30848000.0
1989-07-01,2.9609375,3.28125,2.9140625,3.2578125,1.094652771949768,27092800.0
1989-07-24,,,,,,
1989-08-01,3.2421875,3.5078125,3.1953125,3.4375,1.1898406744003296,26080000.0
1989-09-01,3.4375,3.4921875,3.28125,3.4375,1.1898406744003296,22022400.0
1989-10-01,3.4296875,3.59375,3.15625,3.578125,1.2385165691375732,31024800.0
1989-10-18,,,,,,
1989-10-23,,,,,,
1989-11-01,3.578125,3.984375,3.5,3.890625,1.3674908876419067,25431200.0
1989-12-01,3.859375,4.0,3.53125,3.953125,1.3894586563110352,31719200.0
1990-01-01,3.921875,4.140625,3.5,3.59375,1.2631436586380005,26368800.0
1990-01-22,,,,,,
1990-02-01,3.609375,3.625,3.203125,3.375,1.202981948852539,24132800.0
1990-03-01,3.375,3.734375,3.3125,3.703125,1.3199384212493896,34256000.0
1990-04-01,3.65625,4.0625,3.640625,3.796875,1.3533543348312378,24013600.0
1990-04-23,,,,,,
1990-05-01,3.8125,4.4375,3.6875,4.296875,1.5522643327713013,32015200.0
1990-06-01,4.328125,4.421875,4.0,4.28125,1.54662024974823,22412000.0
1990-07-01,4.296875,4.796875,4.25,4.265625,1.540975570678711,25300800.0
1990-07-23,,,,,,
1990-08-01,4.25,4.28125,3.484375,4.0,1.4614418745040894,33544800.0
1990-09-01,3.96875,4.0625,3.625,3.921875,1.4328986406326294,29488800.0
1990-10-01,3.9375,4.390625,3.828125,4.015625,1.4671499729156494,32181600.0
1990-10-22,,,,,,
1990-11-01,3.875,3.953125,3.6875,3.9375,1.4556186199188232,43571200.0
1990-12-01,3.96875,4.25,3.953125,4.203125,1.5538156032562256,23914400.0
1991-01-01,4.125,4.5,3.75,4.390625,1.6231310367584229,30836000.0
1991-01-18,,,,,,
1991-02-01,4.375,4.78125,4.234375,4.625,1.7401645183563232,26112800.0
1991-03-01,4.625,5.015625,4.25,4.484375,1.6872541904449463,46120000.0
1991-04-01,4.515625,4.96875,4.421875,4.921875,1.851864218711853,40469600.0
1991-04-22,,,,,,
1991-05-01,4.921875,5.4375,4.8125,5.375,2.05257511138916,33021600.0
1991-06-01,5.34375,5.359375,5.046875,5.125,1.9571071863174438,21803200.0
1991-07-01,5.1875,5.78125,5.140625,5.734375,2.1898114681243896,19540800.0
1991-07-22,,,,,,
1991-08-01,5.734375,5.921875,5.21875,5.78125,2.236502170562744,25909600.0
1991-09-01,5.78125,5.78125,5.015625,5.03125,1.9463611841201782,29042400.0
1991-10-01,4.96875,5.375,4.734375,5.21875,2.0188968181610107,45691200.0
1991-10-21,,,,,,
1991-11-01,5.21875,5.375,4.984375,5.046875,1.9795153141021729,21200800.0
1991-12-01,5.015625,5.828125,4.984375,5.828125,2.2859420776367188,25334400.0
1992-01-01,5.796875,6.015625,5.25,5.25,2.059187173843384,49623200.0
1992-01-27,,,,,,
1992-02-01,5.21875,5.671875,5.140625,5.625,2.2479727268218994,32017600.0
1992-03-01,5.6875,5.90625,5.4375,5.828125,2.3291499614715576,27040000.0
1992-04-01,5.796875,6.5,5.6875,6.109375,2.44154953956604,36228000.0
1992-04-20,,,,,,
1992-05-01,6.125,6.40625,5.90625,6.28125,2.5494582653045654,27154400.0
1992-06-01,6.25,6.34375,5.9375,6.1875,2.5114080905914307,29086000.0
1992-06-22,,,,,,
1992-07-01,6.1875,6.8125,5.90625,6.4375,2.612877368927002,29055200.0
1992-07-27,,,,,,
1992-08-01,6.46875,6.46875,6.0,6.25,2.562131404876709,16342000.0
1992-09-01,6.25,6.5,6.03125,6.1875,2.536510467529297,24740400.0
1992-10-01,6.15625,6.65625,5.875,6.375,2.613375186920166,18738000.0
1992-10-26,,,,,,
1992-11-01,6.4375,6.84375,6.375,6.59375,2.728356122970581,24580000.0
1992-12-01,6.5625,6.9375,6.28125,6.59375,2.728356122970581,24182400.0
1993-01-01,6.59375,6.6875,5.8125,6.40625,2.6507725715637207,38156000.0
1993-01-25,,,,,,
1993-02-01,6.46875,6.53125,6.0625,6.1875,2.590165853500366,33146000.0
1993-03-01,6.25,6.78125,6.21875,6.59375,2.7602267265319824,28633600.0
1993-04-01,6.5625,6.65625,5.5625,6.21875,2.6032471656799316,42969600.0
1993-04-26,,,,,,
1993-05-01,6.28125,6.71875,6.21875,6.65625,2.81877064704895,17867200.0
1993-06-01,6.65625,6.75,6.28125,6.28125,2.6599647998809814,23060000.0
1993-07-01,6.3125,6.75,5.9375,6.75,2.858469247817993,20154800.0
1993-07-26,,,,,,
1993-08-01,6.75,7.59375,6.53125,7.28125,3.1173415184020996,34884800.0
1993-09-01,7.28125,7.28125,6.8125,6.875,2.943413496017456,21819600.0
1993-10-01,6.875,7.71875,6.875,7.15625,3.063824415206909,22542000.0
1993-10-25,,,,,,
1993-11-01,7.15625,7.3125,6.75,6.90625,2.985743522644043,20427200.0
1993-12-01,6.96875,7.75,6.84375,7.3125,3.1613752841949463,25328000.0
1994-01-01,7.25,7.3125,6.71875,6.8125,2.9452126026153564,26908000.0
1994-01-24,,,,,,
1994-02-01,6.8125,7.15625,6.625,6.78125,2.971320390701294,28618800.0
1994-03-01,6.78125,7.03125,6.28125,6.40625,2.8070075511932373,32887600.0
1994-04-01,6.28125,6.59375,6.0,6.5,2.848085641860962,28144400.0
1994-04-25,,,,,,
1994-05-01,6.4375,6.5625,6.09375,6.46875,2.87419056892395,29010800.0
1994-06-01,6.46875,6.5,5.65625,5.65625,2.513180732727051,43636000.0
1994-07-01,5.71875,5.96875,5.28125,5.90625,2.624260663986206,25939200.0
1994-07-25,,,,,,
1994-08-01,5.96875,6.5,5.78125,6.34375,2.8672237396240234,40958000.0
1994-09-01,6.375,6.625,6.21875,6.34375,2.8672237396240234,23982000.0
1994-10-01,6.34375,6.4375,5.90625,6.21875,2.81072735786438,28072400.0
1994-10-24,,,,,,
1994-11-01,6.21875,6.9375,6.03125,6.4375,2.954618215560913,31926400.0
1994-12-01,6.40625,6.875,6.28125,6.4375,2.954618215560913,28226000.0
1995-01-01,6.40625,6.78125,6.21875,6.78125,3.1123921871185303,24458400.0
1995-01-23,,,,,,
1995-02-01,6.78125,7.1875,6.6875,7.09375,3.312140464782715,30269200.0
1995-03-01,7.0625,7.15625,6.5625,6.625,3.093275785446167,48374800.0
1995-04-01,6.59375,7.09375,6.5625,7.0,3.2683684825897217,24086400.0
1995-04-24,,,,,,
1995-05-01,7.0,7.15625,6.625,6.78125,3.2172434329986572,48838000.0
1995-06-01,6.71875,7.46875,6.71875,7.375,3.4989378452301025,33113600.0
1995-07-01,7.3125,7.78125,7.25,7.78125,3.691676139831543,32770800.0
1995-07-26,,,,,,
1995-08-01,7.78125,7.84375,6.90625,7.1875,3.4609551429748535,53575600.0
1995-09-01,7.21875,7.25,6.71875,6.8125,3.2803847789764404,44634000.0
1995-10-01,6.84375,7.625,6.6875,7.59375,3.6565749645233154,48733200.0
1995-10-25,,,,,,
1995-11-01,7.5625,7.96875,7.34375,7.6875,3.7565858364105225,25398400.0
1995-12-01,7.59375,8.15625,7.53125,8.125,3.970374822616577,31076000.0
1996-01-01,8.0625,8.0625,7.375,8.0,3.9092910289764404,30576800.0
1996-01-24,,,,,,
1996-02-01,8.0,8.40625,7.8125,8.21875,4.084423542022705,34760000.0
1996-03-01,8.3125,8.71875,8.125,8.21875,4.084423542022705,25268000.0
1996-04-01,8.28125,8.46875,7.875,8.03125,3.9912428855895996,22596400.0
1996-04-02,,,,,,
1996-05-01,8.0,8.8125,7.6875,8.53125,4.306321620941162,39639600.0
1996-06-01,8.5,8.625,8.125,8.5625,4.322094917297363,26712000.0
1996-07-01,8.5625,8.625,6.90625,7.25,3.6595847606658936,40490000.0
1996-07-02,,,,,,
1996-08-01,7.25,8.1875,7.21875,8.03125,4.1164326667785645,32096000.0
1996-09-01,8.03125,8.5625,7.90625,8.40625,4.308640480041504,28391200.0
1996-10-01,8.375,8.6875,8.09375,8.5,4.356693744659424,23530400.0
1996-10-02,,,,,,
1996-11-01,8.53125,8.875,8.4375,8.53125,4.440372467041016,25947600.0
1996-12-01,8.46875,8.6875,7.90625,8.15625,4.245192050933838,26879600.0
1996-12-31,,,,,,
1997-01-01,8.21875,8.375,7.3125,8.21875,4.3545660972595215,50114800.0
1997-02-01,8.21875,8.75,8.15625,8.75,4.636040210723877,25059600.0
1997-03-01,8.59375,8.90625,8.375,8.53125,4.520140171051025,28309600.0
1997-04-01,8.53125,8.90625,8.25,8.875,4.702270984649658,18709200.0
1997-04-02,,,,,,
1997-05-01,8.875,8.9375,8.25,8.71875,4.702780246734619,40159600.0
1997-06-01,8.78125,9.5625,8.59375,9.125,4.921908378601074,29018800.0
1997-07-01,9.140625,9.859375,9.0625,9.359375,5.048322677612305,26778800.0
1997-07-01,,,,,,
1997-08-01,9.3125,9.484375,8.5625,8.875,4.867067337036133,34979200.0
1997-09-01,8.9375,9.28125,8.546875,9.234375,5.064148426055908,42278000.0
1997-10-01,9.1875,10.015625,9.1875,10.0,5.484017372131348,35873600.0
1997-10-01,,,,,,
1997-11-01,10.015625,11.5,9.875,11.140625,6.210421562194824,37006800.0
1997-12-01,11.078125,11.8125,10.765625,11.390625,6.349782466888428,33706800.0
1997-12-30,,,,,,
1998-01-01,11.390625,11.78125,10.8125,11.1875,6.33333158493042,28591200.0
1998-02-01,11.5,12.296875,11.4375,11.765625,6.660610675811768,24627200.0
1998-03-01,11.796875,13.375,11.796875,12.8125,7.2532525062561035,23352000.0
1998-03-23,,,,,,
1998-04-01,13.0,13.25,10.9375,11.90625,6.740217685699463,32572600.0
1998-04-01,,,,,,
1998-05-01,12.03125,12.5625,11.40625,11.65625,6.6453728675842285,20455800.0
1998-06-01,11.78125,12.90625,11.71875,12.8125,7.304564952850342,22084400.0
1998-06-30,,,,,,
1998-07-01,12.9375,12.96875,11.875,11.875,6.81820821762085,21815600.0
1998-08-01,11.78125,12.0,9.96875,10.09375,5.795479774475098,27945800.0
1998-09-01,10.09375,12.4375,10.0,11.78125,6.764382839202881,30005600.0
1998-09-30,,,,,,
1998-10-01,11.78125,13.5625,11.5625,13.5,7.808896541595459,26163800.0
1998-11-01,13.53125,14.34375,13.0625,13.46875,7.7908172607421875,21054400.0
1998-12-01,13.5,14.28125,13.0,13.71875,7.935427188873291,17542000.0
1998-12-29,,,,,,
1999-01-01,13.6875,14.25,12.46875,13.625,7.93841552734375,30541800.0
1999-02-01,13.5625,14.9375,12.90625,14.125,8.229732513427734,27202000.0
1999-03-01,14.0625,14.4375,12.9375,13.15625,7.665304660797119,23514000.0
1999-03-30,,,,,,
1999-04-01,13.1875,15.25,12.5,14.84375,8.71072006225586,31923200.0
1999-05-01,14.9375,15.9375,14.59375,14.84375,8.71072006225586,22017800.0
1999-06-01,14.78125,15.75,14.625,14.90625,8.747398376464844,17502600.0
1999-06-30,,,,,,
1999-07-01,14.90625,16.71875,14.90625,16.34375,9.654529571533203,22095600.0
1999-08-01,16.28125,16.9375,15.125,16.3125,9.636069297790527,24098600.0
1999-09-01,16.3125,18.125,16.09375,17.53125,10.356005668640137,22248200.0
1999-09-29,,,,,,
1999-10-01,17.65625,19.34375,15.8125,19.21875,11.419036865234375,31293400.0
1999-11-01,19.21875,20.5625,18.71875,19.03125,11.307631492614746,33835400.0
1999-12-01,18.8125,19.8125,17.84375,19.78125,11.753254890441895,25618400.0
2000-01-01,19.5,20.375,16.6875,17.78125,10.56493091583252,29775600.0
2000-01-05,,,,,,
2000-02-01,17.65625,18.4375,15.375,16.40625,9.811710357666016,32889200.0
2000-03-01,16.40625,18.5,13.0625,18.0625,10.802225112915039,48435800.0
2000-04-01,17.90625,19.625,17.1875,18.8125,11.250762939453125,31879200.0
2000-04-05,,,,,,
2000-05-01,18.75,21.6875,18.71875,21.0625,12.675642967224121,38112800.0
2000-06-01,21.03125,21.59375,19.375,21.0625,12.675642967224121,29755400.0
2000-07-01,21.0,21.25,19.375,19.6875,11.84814739227295,25749600.0
2000-07-05,,,,,,
2000-08-01,19.5625,22.6875,19.4375,21.15625,12.805342674255371,31547200.0
2000-09-01,21.3125,23.625,20.53125,23.15625,14.015898704528809,28905600.0
2000-10-01,22.625,26.3125,21.75,26.09375,15.793889999389648,34659400.0
2000-10-04,,,,,,
2000-11-01,26.03125,28.84375,25.25,27.625,16.808887481689453,45882600.0
2000-12-01,27.6875,30.4375,26.0,30.0,18.25401496887207,47022900.0
2000-12-18,,,,,,
2001-01-01,30.0,30.0,23.5,26.920000076293945,16.379928588867188,49191400.0
2001-01-03,,,,,,
2001-02-01,26.920000076293945,28.010000228881836,26.299999237060547,27.260000228881836,16.62693977355957,27227500.0
2001-03-01,27.260000228881836,27.34000015258789,24.350000381469727,26.510000228881836,16.16948699951172,33163100.0
2001-04-01,26.450000762939453,28.950000762939453,25.700000762939453,28.1200008392334,17.15148162841797,29102200.0
2001-04-04,,,,,,
2001-05-01,27.700000762939453,29.979999542236328,27.0,29.729999542236328,18.182031631469727,30788300.0
2001-06-01,29.600000381469727,30.1200008392334,27.149999618530273,27.149999618530273,16.604175567626953,27444000.0
2001-07-01,27.899999618530273,29.860000610351562,26.100000381469727,26.84000015258789,16.414588928222656,34710700.0
2001-07-03,,,,,,
2001-08-01,26.799999237060547,28.940000534057617,25.700000762939453,28.020000457763672,17.178302764892578,33448000.0
2001-09-01,28.270000457763672,28.8700008392334,21.75,25.540000915527344,15.657876968383789,44122200.0
2001-10-01,25.3799991607666,27.219999313354492,23.850000381469727,24.110000610351562,14.781179428100586,48936200.0
2001-10-03,,,,,,
2001-11-01,24.049999237060547,26.049999237060547,23.8700008392334,24.59000015258789,15.116567611694336,41731400.0
2001-12-01,24.59000015258789,26.989999771118164,24.170000076293945,26.219999313354492,16.118602752685547,40926400.0
2002-01-01,26.020000457763672,29.700000762939453,25.280000686645508,29.6200008392334,18.208740234375,44054300.0
2002-01-02,,,,,,
2002-02-01,29.25,30.350000381469727,27.25,29.56999969482422,18.240615844726562,37821700.0
2002-03-01,29.670000076293945,30.030000686645508,28.56999969482422,29.81999969482422,18.394826889038086,34127700.0
2002-04-01,29.350000381469727,29.940000534057617,28.100000381469727,29.010000228881836,17.895166397094727,37874600.0
2002-04-03,,,,,,
2002-05-01,29.0,29.450000762939453,27.139999389648438,27.850000381469727,17.232398986816406,37546100.0
2002-06-01,28.0,28.200000762939453,25.760000228881836,27.219999313354492,16.84257698059082,35214100.0
2002-07-01,27.040000915527344,27.389999389648438,21.25,26.049999237060547,16.118635177612305,52171500.0
2002-07-02,,,,,,
2002-08-01,26.0,29.559999465942383,25.899999618530273,28.360000610351562,17.607248306274414,47260200.0
2002-09-01,28.239999771118164,31.3700008392334,27.649999618530273,28.389999389648438,17.625864028930664,60957500.0
2002-10-01,28.549999237060547,32.380001068115234,28.219999313354492,31.68000030517578,19.66845703125,62904600.0
2002-10-02,,,,,,
2002-11-01,31.75,32.58000183105469,29.049999237060547,29.420000076293945,18.321260452270508,42029900.0
2002-12-01,29.850000381469727,30.43000030517578,28.65999984741211,29.790000915527344,18.551671981811523,38110100.0
2002-12-31,,,,,,
2003-01-01,29.850000381469727,30.889999389648438,27.68000030517578,29.3700008392334,18.358001708984375,38720700.0
2003-02-01,29.469999313354492,29.700000762939453,26.829999923706055,27.1200008392334,16.951616287231445,45880400.0
2003-03-01,27.5,27.559999465942383,22.899999618530273,25.440000534057617,15.901517868041992,109322200.0
2003-04-01,25.440000534057617,29.219999313354492,25.239999771118164,28.729999542236328,17.957962036132812,55786400.0
2003-04-02,,,,,,
2003-05-01,28.729999542236328,30.989999771118164,27.829999923706055,30.940000534057617,19.421512603759766,45090200.0
2003-06-01,30.969999313354492,31.5,29.389999389648438,30.040000915527344,18.8565673828125,35372700.0
2003-07-01,29.90999984741211,30.90999984741211,28.540000915527344,30.1299991607666,18.913061141967773,38305800.0
2003-07-01,,,,,,
2003-08-01,30.149999618530273,31.520000457763672,29.010000228881836,31.459999084472656,19.82050323486328,33703500.0
2003-09-01,31.459999084472656,34.2400016784668,31.229999542236328,32.709999084472656,20.608030319213867,36418300.0
2003-10-01,32.599998474121094,34.36000061035156,31.450000762939453,33.65999984741211,21.206554412841797,40798400.0
2003-10-01,,,,,,
2003-11-01,33.5,36.470001220703125,33.279998779296875,36.31999969482422,22.959625244140625,27066000.0
2003-12-01,36.25,37.56999969482422,35.220001220703125,37.22999954223633,23.53487777709961,30647400.0
2003-12-30,,,,,,
2004-01-01,37.08000183105469,38.25,35.33000183105469,37.93000030517578,24.06159210205078,39621700.0
2004-02-01,37.97999954223633,39.75,37.189998626708984,39.650001525878906,25.15269660949707,31954000.0
2004-03-01,39.650001525878906,41.27000045776367,38.310001373291016,39.04999923706055,24.77208137512207,48804800.0
2004-03-31,,,,,,
2004-04-01,39.16999816894531,39.72999954223633,37.040000915527344,38.25,24.34493637084961,35415900.0
2004-05-01,38.22999954223633,39.11000061035156,36.29999923706055,37.5,23.867586135864258,37903300.0
2004-06-01,37.5,38.060001373291016,35.5099983215332,35.869998931884766,22.83014488220215,35104700.0
2004-06-30,,,,,,
2004-07-01,35.869998931884766,36.0,33.75,34.45000076293945,22.00627899169922,41623000.0
2004-08-01,34.45000076293945,34.65999984741211,29.920000076293945,32.13999938964844,20.530668258666992,65869500.0
2004-09-01,32.0,33.33000183105469,29.479999542236328,29.920000076293945,19.112552642822266,57152600.0
2004-09-29,,,,,,
2004-10-01,30.1299991607666,32.34000015258789,29.709999084472656,32.27000045776367,20.703458786010742,54242400.0
2004-11-01,33.099998474121094,35.93000030517578,32.68000030517578,34.75,22.294553756713867,49979900.0
2004-12-01,34.7599983215332,38.43000030517578,34.599998474121094,38.16999816894531,24.48871612548828,42351000.0
2005-01-01,37.54999923706055,37.83000183105469,34.7599983215332,34.970001220703125,22.435699462890625,36967500.0
2005-01-05,,,,,,
2005-02-01,34.83000183105469,35.38999938964844,34.099998474121094,34.41999816894531,22.173593521118164,42551100.0
2005-03-01,34.439998626708984,36.4900016784668,32.56999969482422,35.79999923706055,23.062589645385742,52101000.0
2005-03-30,,,,,,
2005-04-01,35.79999923706055,36.52000045776367,34.22999954223633,34.599998474121094,22.382333755493164,37045900.0
2005-05-01,35.099998474121094,37.86000061035156,34.689998626708984,37.15999984741211,24.038379669189453,30322200.0
2005-06-01,37.11000061035156,38.040000915527344,35.470001220703125,36.189998626708984,23.410888671875,34263100.0
2005-06-29,,,,,,
2005-07-01,36.349998474121094,37.29999923706055,35.310001373291016,36.060001373291016,23.42369270324707,30980500.0
2005-08-01,35.9900016784668,36.310001373291016,32.5,33.380001068115234,21.682823181152344,50655300.0
2005-09-01,33.380001068115234,33.650001525878906,30.959999084472656,31.3700008392334,20.377187728881836,60620300.0
2005-10-01,31.299999237060547,33.59000015258789,31.049999237060547,31.90999984741211,20.727954864501953,48390800.0
2005-10-05,,,,,,
2005-11-01,31.700000762939453,33.209999084472656,29.979999542236328,32.31999969482422,21.093746185302734,58428100.0
2005-12-01,32.349998474121094,32.959999084472656,30.940000534057617,31.049999237060547,20.264877319335938,38589600.0
2006-01-01,31.209999084472656,32.720001220703125,30.030000686645508,30.68000030517578,20.023401260375977,60168300.0
2006-01-04,,,,,,
2006-02-01,30.600000381469727,31.25,29.6200008392334,30.09000015258789,19.746307373046875,56270100.0
2006-03-01,30.020000457763672,32.560001373291016,29.1200008392334,32.04999923706055,21.032541275024414,73306000.0
2006-04-01,31.989999771118164,32.150001525878906,29.829999923706055,29.889999389648438,19.615053176879883,45751200.0
2006-04-05,,,,,,
2006-05-01,29.989999771118164,31.239999771118164,29.110000610351562,30.579999923706055,20.17592430114746,60144600.0
2006-06-01,30.5,30.989999771118164,29.700000762939453,30.559999465942383,20.162731170654297,48050300.0
2006-07-01,30.520000457763672,31.170000076293945,26.5,27.600000381469727,18.209796905517578,42706300.0
2006-07-05,,,,,,
2006-08-01,27.31999969482422,31.670000076293945,26.790000915527344,31.389999389648438,20.825660705566406,61530500.0
2006-09-01,31.549999237060547,34.150001525878906,31.40999984741211,33.45000076293945,22.192371368408203,45748100.0
2006-10-01,33.400001525878906,35.0,32.349998474121094,34.97999954223633,23.20744514465332,50470100.0
2006-10-04,,,,,,
2006-11-01,34.97999954223633,36.459999084472656,34.709999084472656,35.849998474121094,23.907840728759766,44633400.0
2006-12-01,35.95000076293945,37.040000915527344,35.209999084472656,36.7599983215332,24.51470375061035,31707400.0
2007-01-01,35.20000076293945,36.7400016784668,33.79999923706055,34.54999923706055,23.040889739990234,53682300.0
2007-01-03,,,,,,
2007-02-01,34.54999923706055,35.22999954223633,32.290000915527344,32.959999084472656,22.094743728637695,47870900.0
2007-03-01,32.599998474121094,34.130001068115234,31.34000015258789,33.83000183105469,22.67795181274414,68700600.0
2007-04-01,33.810001373291016,34.95000076293945,32.540000915527344,32.7400016784668,21.947277069091797,50873000.0
2007-04-03,,,,,,
2007-05-01,32.75,34.18000030517578,32.0,33.119998931884766,22.3278865814209,73059900.0
2007-06-01,33.25,34.099998474121094,31.639999389648438,32.9900016784668,22.240251541137695,77228400.0
2007-07-01,33.099998474121094,33.33000183105469,30.049999237060547,31.8799991607666,21.491933822631836,67479100.0
2007-07-03,,,,,,
2007-08-01,31.899999618530273,34.099998474121094,29.899999618530273,33.380001068115234,22.63218116760254,68746100.0
2007-09-01,33.209999084472656,35.66999816894531,32.70000076293945,35.59000015258789,24.130599975585938,46612200.0
2007-10-01,35.599998474121094,35.900001525878906,32.630001068115234,34.290000915527344,23.24917984008789,54796900.0
2007-10-03,,,,,,
2007-11-01,34.0099983215332,35.22999954223633,31.040000915527344,32.5099983215332,22.162656784057617,90706600.0
2007-12-01,32.40999984741211,33.2599983215332,30.920000076293945,31.209999084472656,21.276418685913086,50311000.0
2008-01-01,31.209999084472656,31.25,26.450000762939453,29.0,19.769821166992188,110441000.0
2008-01-02,,,,,,
2008-02-01,29.110000610351562,30.290000915527344,27.959999084472656,28.059999465942383,19.26480484008789,69756100.0
2008-03-01,28.0,29.860000610351562,27.3700008392334,29.020000457763672,19.923908233642578,56927300.0
2008-04-01,29.350000381469727,31.100000381469727,27.649999618530273,30.56999969482422,20.988061904907227,67173000.0
2008-04-02,,,,,,
2008-05-01,30.469999313354492,31.850000381469727,30.25,30.860000610351562,21.34400177001953,52982900.0
2008-06-01,30.84000015258789,31.75,27.0,27.510000228881836,19.02701759338379,66300000.0
2008-07-01,27.149999618530273,30.079999923706055,26.809999465942383,28.360000610351562,19.614906311035156,79500900.0
2008-07-01,,,,,,
2008-08-01,28.489999771118164,32.77000045776367,28.18000030517578,31.829999923706055,22.192371368408203,81869500.0
2008-09-01,32.2400016784668,35.0,30.420000076293945,30.829999923706055,21.495161056518555,103828300.0
2008-10-01,30.510000228881836,31.5,22.5,26.200000762939453,18.267044067382812,137526200.0
2008-10-01,,,,,,
2008-11-01,25.989999771118164,26.15999984741211,20.739999771118164,23.450000762939453,16.46721839904785,96080800.0
2008-12-01,22.90999984741211,24.8700008392334,20.899999618530273,22.940000534057617,16.109079360961914,101400100.0
2008-12-30,,,,,,
2009-01-01,23.010000228881836,24.809999465942383,22.079999923706055,22.290000915527344,15.82124137878418,78387300.0
2009-02-01,22.5,24.75,21.389999389648438,21.5,15.260503768920898,74167300.0
2009-03-01,21.190000534057617,23.959999084472656,19.389999389648438,22.799999237060547,16.1832332611084,104548900.0
2009-04-01,22.5,23.639999389648438,21.260000228881836,23.329999923706055,16.559425354003906,84136400.0
2009-04-01,,,,,,
2009-05-01,23.3700008392334,24.690000534057617,22.649999618530273,23.959999084472656,17.187511444091797,84261100.0
2009-06-01,24.209999084472656,24.84000015258789,22.280000686645508,22.479999542236328,16.125843048095703,82552200.0
2009-06-30,,,,,,
2009-07-01,22.540000915527344,23.90999984741211,21.3799991607666,23.760000228881836,17.226089477539062,89161900.0
2009-08-01,23.959999084472656,25.75,23.639999389648438,25.489999771118164,18.4803466796875,84064000.0
2009-09-01,25.3700008392334,26.100000381469727,24.5,24.850000381469727,18.016342163085938,79171300.0
2009-10-01,24.829999923706055,27.850000381469727,24.239999771118164,26.450000762939453,19.17635154724121,103852600.0
2009-10-06,,,,,,
2009-11-01,26.6200008392334,27.75,25.93000030517578,27.040000915527344,19.797883987426758,76049800.0
2009-12-01,27.239999771118164,29.479999542236328,26.979999542236328,27.940000534057617,20.456836700439453,82764600.0
2009-12-29,,,,,,
2010-01-01,28.200000762939453,28.790000915527344,27.309999465942383,27.989999771118164,20.674030303955078,60988500.0
2010-02-01,29.1299991607666,29.579999923706055,26.989999771118164,28.899999618530273,21.346174240112305,68951200.0
2010-03-01,28.920000076293945,29.8700008392334,28.299999237060547,29.5,21.78935432434082,87282700.0
2010-03-30,,,,,,
2010-04-01,29.559999465942383,31.940000534057617,29.43000030517578,31.540000915527344,23.49403953552246,78774700.0
2010-05-01,31.610000610351562,31.989999771118164,28.43000030517578,29.809999465942383,22.20536994934082,110850100.0
2010-06-01,29.6299991607666,31.5,28.540000915527344,28.56999969482422,21.281688690185547,100035700.0
2010-06-30,,,,,,
2010-07-01,28.489999771118164,31.270000457763672,28.1299991607666,30.969999313354492,23.268529891967773,66403200.0
2010-08-01,31.290000915527344,31.549999237060547,27.1299991607666,27.489999771118164,20.653913497924805,86160600.0
2010-09-01,27.75,30.100000381469727,27.540000915527344,28.520000457763672,21.427783966064453,72648400.0
2010-09-29,,,,,,
2010-10-01,28.75,29.850000381469727,28.020000457763672,29.459999084472656,22.3228816986084,61090800.0
2010-11-01,29.59000015258789,30.18000030517578,28.5,29.020000457763672,21.989479064941406,75119900.0
2010-12-01,29.270000457763672,29.56999969482422,28.75,29.399999618530273,22.277420043945312,60625400.0
2011-01-01,29.530000686645508,30.540000915527344,28.8700008392334,29.139999389648438,22.080402374267578,93890900.0
2011-01-05,,,,,,
2011-02-01,29.260000228881836,29.920000076293945,27.600000381469727,27.790000915527344,21.243690490722656,104839900.0
2011-03-01,27.829999923706055,28.149999618530273,27.309999465942383,27.700000762939453,21.17488670349121,100827800.0
2011-03-30,,,,,,
2011-04-01,27.670000076293945,29.690000534057617,27.6299991607666,28.90999984741211,22.307283401489258,71456500.0
2011-05-01,29.020000457763672,32.7599983215332,28.389999389648438,32.209999084472656,24.853605270385742,131367200.0
2011-06-01,32.11000061035156,32.15999984741211,30.34000015258789,31.18000030517578,24.058847427368164,61363400.0
2011-06-29,,,,,,
2011-07-01,31.049999237060547,31.729999542236328,30.350000381469727,30.59000015258789,23.803430557250977,47846700.0
2011-08-01,30.719999313354492,30.770000457763672,26.43000030517578,27.93000030517578,21.733570098876953,129531600.0
2011-09-01,27.829999923706055,28.190000534057617,25.479999542236328,25.899999618530273,20.153934478759766,99145400.0
2011-10-01,25.90999984741211,28.010000228881836,25.09000015258789,27.719999313354492,21.570158004760742,82195400.0
2011-10-05,,,,,,
2011-11-01,27.219999313354492,28.610000610351562,26.8700008392334,28.540000915527344,22.43691635131836,76982300.0
2011-12-01,28.399999618530273,29.6200008392334,28.399999618530273,29.329999923706055,23.057985305786133,74890100.0
2012-01-01,29.75,30.639999389648438,28.700000762939453,30.110000610351562,23.671188354492188,58913300.0
2012-01-04,,,,,,
2012-02-01,30.399999618530273,31.18000030517578,28.959999084472656,29.420000076293945,23.342748641967773,70820100.0
2012-03-01,29.399999618530273,30.290000915527344,29.190000534057617,29.860000610351562,23.691850662231445,71748500.0
2012-04-01,29.799999237060547,30.200000762939453,28.420000076293945,28.899999618530273,22.930164337158203,77332200.0
2012-04-03,,,,,,
2012-05-01,28.90999984741211,29.149999618530273,27.049999237060547,27.90999984741211,22.345508575439453,105336200.0
2012-06-01,27.790000915527344,29.860000610351562,27.459999084472656,29.809999465942383,23.86669158935547,102829400.0
2012-07-01,29.139999389648438,29.8799991607666,28.229999542236328,29.389999389648438,23.530433654785156,65673300.0
2012-07-03,,,,,,
2012-08-01,29.399999618530273,30.780000686645508,28.440000534057617,30.299999237060547,24.48020362854004,84328100.0
2012-09-01,30.34000015258789,31.40999984741211,29.969999313354492,31.270000457763672,25.26390266418457,57570700.0
2012-10-01,31.139999389648438,31.899999618530273,30.260000228881836,31.06999969482422,25.102313995361328,55730400.0
2012-10-03,,,,,,
2012-11-01,31.09000015258789,31.780000686645508,29.75,31.649999618530273,25.79022979736328,68514100.0
2012-12-01,31.670000076293945,32.400001525878906,31.15999984741211,31.65999984741211,25.79837417602539,54846100.0
2013-01-01,31.979999542236328,32.0,30.549999237060547,31.770000457763672,25.88801383972168,62456800.0
2013-01-02,,,,,,
2013-02-01,31.8700008392334,32.86000061035156,30.6299991607666,32.15999984741211,26.439640045166016,77982500.0
2013-03-01,32.150001525878906,35.619998931884766,31.950000762939453,35.16999816894531,28.914241790771484,82234000.0
2013-04-01,34.95000076293945,35.400001525878906,33.54999923706055,34.86000061035156,28.659385681152344,72876900.0
2013-04-03,,,,,,
2013-05-01,34.88999938964844,35.380001068115234,33.7599983215332,33.79999923706055,28.01164436340332,72689300.0
2013-06-01,33.790000915527344,34.84000015258789,33.06999969482422,34.15999984741211,28.309986114501953,63925700.0
2013-07-01,34.22999954223633,36.04999923706055,33.59000015258789,34.5099983215332,28.60004425048828,58054800.0
2013-07-02,,,,,,
2013-08-01,34.70000076293945,35.5,31.3700008392334,32.02000045776367,26.754749298095703,85276700.0
2013-09-01,32.2599983215332,33.439998626708984,31.770000457763672,31.829999923706055,26.59598731994629,94323700.0
2013-10-01,31.780000686645508,33.529998779296875,31.1299991607666,32.34000015258789,27.02212905883789,80099000.0
2013-10-02,,,,,,
2013-11-01,32.34000015258789,34.7400016784668,32.11000061035156,33.630001068115234,28.348913192749023,62353200.0
2013-12-01,33.56999969482422,43.400001525878906,33.29999923706055,36.099998474121094,30.43103790283203,167117500.0
2013-12-31,,,,,,
2014-01-01,36.900001525878906,37.08000183105469,34.75,35.08000183105469,29.806997299194336,87158600.0
2014-02-01,35.0,36.369998931884766,34.06999969482422,36.02000045776367,30.60570526123047,72530500.0
2014-03-01,35.849998474121094,36.560001373291016,35.36000061035156,36.130001068115234,30.699167251586914,58048600.0
2014-04-01,36.06999969482422,36.75,35.310001373291016,36.43000030517578,30.954078674316406,60804200.0
2014-04-02,,,,,,
2014-05-01,36.470001220703125,37.599998474121094,35.619998931884766,37.529998779296875,32.14690399169922,48542200.0
2014-06-01,37.5,37.9900016784668,36.560001373291016,37.45000076293945,32.078372955322266,60775400.0
2014-07-01,36.970001220703125,37.40999984741211,35.689998626708984,35.689998626708984,30.570819854736328,47039800.0
2014-07-01,,,,,,
2014-08-01,35.58000183105469,37.9900016784668,35.5,37.83000183105469,32.656768798828125,54539800.0
2014-09-01,37.810001373291016,38.849998474121094,36.7400016784668,37.95000076293945,32.760353088378906,74249300.0
2014-10-01,37.29999923706055,39.02000045776367,35.81999969482422,38.540000915527344,33.26968002319336,74414200.0
2014-10-01,,,,,,
2014-11-01,38.22999954223633,40.599998474121094,37.209999084472656,40.2599983215332,35.02207565307617,49969100.0
2014-12-01,40.0,41.15999984741211,39.15999984741211,39.689998626708984,34.526241302490234,67689900.0
2014-12-30,,,,,,
2015-01-01,39.869998931884766,41.45000076293945,39.06999969482422,39.16999816894531,34.32704162597656,84028200.0
2015-02-01,39.34000015258789,40.47999954223633,38.02000045776367,38.9900016784668,34.1693000793457,109708000.0
2015-03-01,38.9900016784668,39.279998779296875,37.709999084472656,37.72999954223633,33.06507873535156,78664200.0
2015-03-31,,,,,,
2015-04-01,37.5099983215332,38.310001373291016,36.849998474121094,37.029998779296875,32.70810317993164,61841100.0
2015-05-01,37.119998931884766,38.47999954223633,35.84000015258789,37.15999984741211,32.82293701171875,72222200.0
2015-06-01,37.209999084472656,38.9900016784668,35.970001220703125,36.099998474121094,31.886640548706055,128914900.0
2015-06-30,,,,,,
2015-07-01,35.900001525878906,36.5,35.45000076293945,36.310001373291016,32.330509185791016,89814500.0
2015-08-01,36.02000045776367,41.869998931884766,35.72999954223633,39.869998931884766,35.50033187866211,199809700.0
2015-09-01,39.38999938964844,40.310001373291016,38.709999084472656,38.970001220703125,34.69896697998047,132445600.0
2015-09-30,,,,,,
2015-10-01,38.720001220703125,42.029998779296875,38.34000015258789,41.25,37.01432418823242,93177700.0
2015-11-01,40.97999954223633,42.0,39.689998626708984,41.099998474121094,36.879722595214844,81322300.0
2015-12-01,41.34000015258789,41.81999969482422,40.38999938964844,41.0,36.78998947143555,86155500.0
2016-01-01,40.529998779296875,40.869998931884766,38.84000015258789,39.810001373291016,35.72219467163086,97106200.0
2016-01-06,,,,,,
2016-02-01,41.75,45.11000061035156,41.400001525878906,44.130001068115234,39.90298080444336,143974300.0
2016-03-01,44.59000015258789,46.900001525878906,44.2599983215332,46.72999954223633,42.25393295288086,84301600.0
2016-03-30,,,,,,
2016-04-01,46.56999969482422,47.2400016784668,45.189998626708984,46.06999969482422,41.936981201171875,64429800.0
2016-05-01,46.86000061035156,50.68000030517578,46.790000915527344,48.11000061035156,43.79396438598633,84086600.0
2016-06-01,48.189998626708984,50.75,48.119998931884766,50.7400016784668,46.18801498413086,90585500.0
2016-06-29,,,,,,
2016-07-01,50.84000015258789,52.310001373291016,50.63999938964844,51.790000915527344,47.44086456298828,63858200.0
2016-08-01,51.900001525878906,53.970001220703125,51.13999938964844,51.86000061035156,47.50498580932617,72230800.0
2016-09-01,51.9900016784668,53.540000915527344,48.70000076293945,49.0099983215332,44.894317626953125,83774400.0
2016-10-01,49.0,49.27000045776367,47.150001525878906,48.119998931884766,44.079063415527344,68745700.0
2016-10-05,,,,,,
2016-11-01,48.099998474121094,54.65999984741211,47.59000015258789,53.25,49.094600677490234,97363700.0
2016-12-01,53.02000045776367,57.06999969482422,52.709999084472656,55.369998931884766,51.04916763305664,63364400.0
2017-01-01,55.31999969482422,55.95000076293945,52.40999984741211,52.459999084472656,48.36624526977539,70342500.0
2017-01-04,,,,,,
2017-02-01,52.18000030517578,53.38999938964844,49.900001525878906,52.720001220703125,48.89936447143555,76835800.0
2017-03-01,53.11000061035156,53.310001373291016,51.41999816894531,51.91999816894531,48.15733337402344,70278200.0
2017-04-01,52.060001373291016,53.709999084472656,51.400001525878906,52.869998931884766,49.038482666015625,42180600.0
2017-04-05,,,,,,
2017-05-01,52.93000030517578,56.099998474121094,52.5,54.560001373291016,50.931678771972656,64900000.0
2017-06-01,54.72999954223633,55.84000015258789,49.220001220703125,50.33000183105469,46.98297882080078,79384300.0
2017-07-01,50.4900016784668,52.709999084472656,48.849998474121094,52.619998931884766,49.12068557739258,51070400.0
2017-07-05,,,,,,
2017-08-01,52.83000183105469,53.029998779296875,50.04999923706055,52.66999816894531,49.49050521850586,67286300.0
2017-09-01,52.95000076293945,54.470001220703125,52.18000030517578,53.95000076293945,50.693241119384766,50558500.0
2017-10-01,53.959999084472656,55.75,53.560001373291016,55.619998931884766,52.262428283691406,39969800.0
2017-10-04,,,,,,
2017-10-05,,,,,,
2017-11-01,55.52000045776367,58.66999816894531,52.29999923706055,57.72999954223633,54.914310455322266,55032800.0
2017-12-01,57.63999938964844,62.790000915527344,57.02000045776367,60.72999954223633,57.76800537109375,51555400.0
2018-01-01,60.689998626708984,64.2699966430664,59.93000030517578,62.869998931884766,59.80362319946289,48978300.0
2018-01-04,,,,,,
2018-02-01,62.56999969482422,62.619998931884766,56.0099983215332,59.650001525878906,57.079593658447266,54200400.0
2018-03-01,59.59000015258789,61.439998626708984,58.970001220703125,59.959999084472656,57.3762321472168,70080500.0
2018-04-01,59.880001068115234,63.68000030517578,58.119998931884766,62.540000915527344,59.84505844116211,53287700.0
2018-04-05,,,,,,
2018-05-01,62.529998779296875,66.51000213623047,61.349998474121094,65.02999877929688,62.595909118652344,66629400.0
2018-06-01,65.2699966430664,68.87000274658203,65.1500015258789,68.29000091552734,65.73388671875,42812000.0
2018-07-01,68.11000061035156,71.97000122070312,65.77999877929688,67.20999908447266,64.6943130493164,47421300.0
2018-07-05,,,,,,
2018-08-01,67.20999908447266,75.9800033569336,66.6500015258789,74.81999969482422,72.39974212646484,69522600.0
2018-09-01,74.4000015258789,75.72000122070312,72.41000366210938,73.25,70.88052368164062,57326900.0
2018-10-01,73.5,73.91000366210938,68.12000274658203,71.33000183105469,69.02263641357422,51865900.0
2018-10-04,,,,,,
2018-11-01,71.22000122070312,72.20999908447266,63.189998626708984,67.4000015258789,65.54473114013672,78392000.0
2018-12-01,67.3499984741211,67.41000366210938,59.439998626708984,62.65999984741211,60.935203552246094,64926400.0
2019-01-01,62.15999984741211,63.880001068115234,60.97999954223633,63.849998474121094,62.09244918823242,63076000.0
2019-01-03,,,,,,
2019-02-01,63.70000076293945,67.88999938964844,63.27000045776367,67.55000305175781,66.10610961914062,80155200.0
2019-03-01,67.7699966430664,67.86000061035156,65.23999786376953,66.76000213623047,65.3329849243164,53503600.0
2019-04-01,67.1500015258789,72.0,65.97000122070312,70.37000274658203,68.8658218383789,45664100.0
2019-04-04,,,,,,
2019-05-01,70.6500015258789,75.75,68.23999786376953,68.81999969482422,67.74644470214844,56733300.0
2019-06-01,68.6500015258789,73.79000091552734,67.97000122070312,70.72000122070312,69.61680603027344,44697000.0
2019-07-01,70.95999908447266,73.13999938964844,67.88999938964844,68.56999969482422,67.5003433227539,46543300.0
2019-07-03,,,,,,
2019-08-01,68.5,75.1500015258789,66.77999877929688,74.33000183105469,73.5722427368164,77053700.0
2019-09-01,74.0,79.52999877929688,73.80999755859375,79.4000015258789,78.5905532836914,59277300.0
2019-10-01,79.55999755859375,79.9000015258789,77.3499984741211,79.87000274658203,79.0557632446289,52913400.0
2019-10-03,,,,,,
2019-11-01,80.0,81.9000015258789,78.47000122070312,80.55000305175781,80.12625122070312,44776600.0
2019-12-01,80.48999786376953,85.9800033569336,79.86000061035156,85.54000091552734,85.08999633789062,38268200.0
2020-01-01,85.05999755859375,85.12999725341797,81.44000244140625,82.13999938964844,81.7078857421875,48728400.0
2020-01-02,,,,,,
2020-02-01,81.20999908447266,81.20999908447266,65.5199966430664,66.6500015258789,66.6500015258789,58181500.0
2020-03-01,67.11000061035156,73.26000213623047,26.0,45.650001525878906,45.650001525878906,173454400.0
2020-03-26,39.540000915527344,51.84000015258789,47.0,51.20000076293945,51.20000076293945,6082458.0
