Date,Open,High,Low,Close,Adj Close,Volume
2015-07-01,84.26000213623047,100.0199966430664,83.30999755859375,99.33000183105469,99.33000183105469,58887300.0
2015-08-01,99.66000366210938,101.81999969482422,80.12000274658203,95.69000244140625,95.69000244140625,69940000.0
2015-09-01,93.36000061035156,105.88999938964844,92.5199966430664,96.77999877929688,96.77999877929688,61722400.0
2015-10-01,97.05999755859375,104.73999786376953,88.01000213623047,95.08000183105469,95.08000183105469,74610400.0
2015-11-01,95.23999786376953,97.54000091552734,84.19000244140625,86.22000122070312,86.22000122070312,66439300.0
2015-12-01,86.79000091552734,88.55999755859375,77.77999877929688,80.61000061035156,80.61000061035156,59280600.0
2016-01-01,79.66999816894531,86.29000091552734,63.22999954223633,85.43000030517578,85.43000030517578,113682200.0
2016-02-01,84.80000305175781,85.94999694824219,70.83999633789062,83.69000244140625,83.69000244140625,69218700.0
2016-03-01,84.13999938964844,85.79000091552734,40.582271575927734,41.42628860473633,41.42628860473633,37649400.0
2016-04-01,40.800724029541016,46.202423095703125,39.94677734375,40.51276397705078,40.51276397705078,42011300.0
2016-05-01,40.28438186645508,40.532623291015625,33.46274948120117,34.72380828857422,34.72380828857422,36833000.0
2016-06-01,34.72380828857422,36.41999816894531,31.309999465942383,36.400001525878906,36.400001525878906,30286300.0
2016-06-13,,,,,,
2016-06-20,,,,,,
2016-07-01,36.26499938964844,39.41999816894531,35.119998931884766,35.70000076293945,35.70000076293945,19552500.0
2016-08-01,35.65999984741211,42.944000244140625,33.65999984741211,35.650001525878906,35.650001525878906,16608400.0
2016-09-01,35.540000915527344,35.810001373291016,33.15999984741211,33.86000061035156,33.86000061035156,15331700.0
2016-10-01,33.630001068115234,34.290000915527344,25.530000686645508,25.860000610351562,25.860000610351562,31617800.0
2016-11-01,26.010000228881836,26.940000534057617,23.510000228881836,25.780000686645508,25.780000686645508,35273800.0
2016-12-01,25.979999542236328,29.530000686645508,24.579999923706055,25.170000076293945,25.170000076293945,61624800.0
2017-01-01,25.489999771118164,27.635000228881836,18.520000457763672,19.219999313354492,19.219999313354492,105022700.0
2017-02-01,19.5,20.229999542236328,17.770000457763672,18.559999465942383,18.559999465942383,119116400.0
2017-03-01,18.75,19.049999237060547,17.049999237060547,18.299999237060547,18.299999237060547,79712700.0
2017-04-01,18.610000610351562,20.0,17.459999084472656,19.40999984741211,19.40999984741211,81634900.0
2017-05-01,19.389999389648438,19.959999084472656,17.21299934387207,17.829999923706055,17.829999923706055,72716400.0
2017-06-01,17.899999618530273,21.80500030517578,17.790000915527344,20.15999984741211,20.15999984741211,77029300.0
2017-07-01,20.239999771118164,20.600000381469727,17.170000076293945,18.110000610351562,18.110000610351562,70252600.0
2017-08-01,17.010000228881836,17.420000076293945,15.050000190734863,15.100000381469727,15.100000381469727,104195500.0
2017-09-01,15.229999542236328,16.889999389648438,14.800000190734863,15.020000457763672,15.020000457763672,66462000.0
2017-10-01,15.069999694824219,16.020000457763672,11.399999618530273,11.529999732971191,11.529999732971191,118845200.0
2017-11-01,11.460000038146973,12.420000076293945,10.359999656677246,11.930000305175781,11.930000305175781,153376400.0
2017-12-01,11.899999618530273,14.560999870300293,11.368000030517578,13.319999694824219,13.319999694824219,104593800.0
2018-01-01,13.449999809265137,15.6899995803833,12.15999984741211,12.850000381469727,12.850000381469727,119695600.0
2018-02-01,12.670000076293945,16.829999923706055,11.40999984741211,15.050000190734863,15.050000190734863,103905500.0
2018-03-01,15.0600004196167,15.850000381469727,13.619999885559082,14.350000381469727,14.350000381469727,72390700.0
2018-04-01,13.989999771118164,15.859999656677246,13.84000015258789,15.350000381469727,15.350000381469727,60713200.0
2018-05-01,14.770000457763672,19.53499984741211,14.390000343322754,18.920000076293945,18.920000076293945,77305500.0
2018-06-01,19.1200008392334,22.68000030517578,18.950000762939453,21.079999923706055,21.079999923706055,83832800.0
2018-07-01,20.950000762939453,21.485000610351562,18.440000534057617,18.739999771118164,18.739999771118164,55466900.0
2018-08-01,18.3799991607666,20.239999771118164,17.6299991607666,18.969999313354492,18.969999313354492,52331600.0
2018-09-01,18.920000076293945,19.719999313354492,17.04400062561035,19.459999084472656,19.459999084472656,51126900.0
2018-10-01,19.639999389648438,21.459999084472656,15.949999809265137,19.829999923706055,19.829999923706055,67658400.0
2018-11-01,19.829999923706055,22.760000228881836,18.719999313354492,22.329999923706055,22.329999923706055,68643200.0
2018-12-01,22.799999237060547,23.280000686645508,15.050000190734863,16.170000076293945,16.170000076293945,74070400.0
2019-01-01,15.970000267028809,19.559999465942383,15.720000267028809,18.940000534057617,18.940000534057617,42643100.0
2019-02-01,18.889999389648438,20.68000030517578,18.25,20.079999923706055,20.079999923706055,60847700.0
2019-03-01,20.3799991607666,20.850000381469727,18.15999984741211,18.8700008392334,18.8700008392334,39000500.0
2019-04-01,18.969999313354492,20.854999542236328,18.540000915527344,20.719999313354492,20.719999313354492,37541400.0
2019-05-01,20.760000228881836,21.649999618530273,18.399999618530273,20.229999542236328,20.229999542236328,62109200.0
2019-06-01,20.149999618530273,24.170000076293945,20.100000381469727,22.200000762939453,22.200000762939453,41050400.0
2019-07-01,22.579999923706055,24.549999237060547,19.600000381469727,20.34000015258789,20.34000015258789,45435500.0
2019-08-01,20.3700008392334,20.440000534057617,15.970000267028809,16.920000076293945,16.920000076293945,54509600.0
2019-09-01,16.8700008392334,19.475000381469727,16.610000610351562,18.1299991607666,18.1299991607666,32558900.0
2019-10-01,18.18000030517578,19.479999542236328,16.959999084472656,18.5,18.5,34509500.0
2019-11-01,18.6200008392334,18.979999542236328,15.055000305175781,17.299999237060547,17.299999237060547,78336700.0
2019-12-01,17.270000457763672,19.649999618530273,16.399999618530273,19.18000030517578,19.18000030517578,41096600.0
2020-01-01,19.350000381469727,19.43000030517578,17.559999465942383,17.959999084472656,17.959999084472656,40162200.0
2020-02-01,18.06999969482422,18.799999237060547,12.180000305175781,12.479999542236328,12.479999542236328,83162000.0
2020-03-01,12.550000190734863,12.75,6.789999961853027,8.239999771118164,8.239999771118164,106115400.0
2020-03-26,8.319999694824219,8.960000038146973,8.085000038146973,8.670000076293945,8.670000076293945,4115002.0
