Date,Open,High,Low,Close,Adj Close,Volume
1986-11-01,7.0625,7.15625,6.5,6.71875,1.9727184772491455,44932400.0
1986-12-01,6.6875,7.0625,6.4375,6.71875,1.9727184772491455,17283200.0
1987-01-01,6.6875,7.78125,6.625,7.375,2.1654016971588135,11666400.0
1987-01-20,,,,,,
1987-02-01,7.5,7.84375,6.8125,6.90625,2.0828545093536377,17337600.0
1987-03-01,6.875,6.96875,5.96875,6.1875,1.8660871982574463,35370000.0
1987-04-01,6.09375,6.4375,5.3125,5.34375,1.6116193532943726,15080000.0
1987-04-21,,,,,,
1987-05-01,5.34375,6.0,5.09375,5.875,1.8342833518981934,10240400.0
1987-06-01,5.875,6.21875,5.5625,5.96875,1.8635543584823608,9578400.0
1987-07-01,6.0,6.09375,5.6875,5.90625,1.8440409898757935,11288400.0
1987-07-21,,,,,,
1987-08-01,5.96875,6.84375,5.90625,6.59375,2.1308465003967285,9428400.0
1987-09-01,6.5625,6.59375,5.75,5.84375,1.8884745836257935,9500000.0
1987-10-01,5.875,6.25,4.03125,4.75,1.5350170135498047,14680800.0
1987-10-20,,,,,,
1987-11-01,4.8125,5.03125,4.0,4.4375,1.4922634363174438,9538800.0
1987-12-01,4.40625,4.8125,3.84375,4.625,1.5553174018859863,12120800.0
1988-01-01,4.5625,5.3125,4.46875,5.25,1.7654951810836792,8177200.0
1988-01-19,,,,,,
1988-02-01,5.25,5.6875,4.96875,5.65625,1.9845868349075317,5058800.0
1988-03-01,5.625,5.65625,5.125,5.25,1.8420478105545044,9804000.0
1988-04-01,5.1875,5.46875,5.0625,5.375,1.8859057426452637,5184000.0
1988-04-19,,,,,,
1988-05-01,5.34375,5.375,5.0625,5.09375,1.8717854022979736,4418400.0
1988-06-01,5.125,6.09375,5.125,6.0,2.2048020362854004,11194400.0
1988-07-01,5.96875,6.15625,5.6875,5.75,2.112936019897461,5626800.0
1988-07-19,,,,,,
1988-08-01,5.75,6.25,5.75,5.90625,2.262789726257324,6446400.0
1988-09-01,5.875,6.375,5.84375,6.25,2.3944878578186035,6382800.0
1988-10-01,6.25,6.4375,6.15625,6.25,2.3944878578186035,5304800.0
1988-10-25,,,,,,
1988-11-01,6.25,6.9375,6.25,6.8125,2.7147605419158936,7522800.0
1988-12-01,6.8125,7.03125,6.59375,6.75,2.6898553371429443,8049600.0
1989-01-01,6.6875,6.9375,6.65625,6.90625,2.7521212100982666,5273200.0
1989-01-24,,,,,,
1989-02-01,6.875,7.4375,6.84375,7.0625,2.918642520904541,4933200.0
1989-03-01,7.0625,7.84375,7.0625,7.84375,3.2415013313293457,5177600.0
1989-04-01,7.84375,8.21875,7.75,7.9375,3.280242681503296,6639600.0
1989-04-18,,,,,,
1989-05-01,7.9375,8.4375,7.875,8.09375,3.4751343727111816,7445600.0
1989-06-01,8.0625,8.71875,8.03125,8.375,3.595890998840332,6624000.0
1989-07-01,8.375,9.125,8.34375,9.0,3.8642401695251465,4679600.0
1989-07-25,,,,,,
1989-08-01,9.03125,9.78125,9.0,9.34375,4.151173114776611,7657600.0
1989-09-01,9.3125,10.375,9.1875,10.3125,4.58156156539917,10279200.0
1989-10-01,10.34375,10.96875,9.84375,10.96875,4.873117446899414,12108000.0
1989-10-24,,,,,,
1989-11-01,11.0,11.9375,10.625,11.6875,5.269315719604492,6210400.0
1989-12-01,11.75,12.25,11.0,12.0,5.410205841064453,10186800.0
1990-01-01,12.0625,12.84375,10.09375,10.71875,4.832554340362549,15044000.0
1990-01-23,,,,,,
1990-02-01,10.6875,11.625,10.625,11.5,5.24888801574707,6369200.0
1990-03-01,11.5,11.5625,10.90625,11.28125,5.149045467376709,4446400.0
1990-04-01,11.21875,11.4375,10.625,10.84375,4.949357032775879,4423200.0
1990-04-24,,,,,,
1990-05-01,10.875,12.5625,10.875,12.1875,5.667516708374023,5172400.0
1990-06-01,12.25,13.34375,12.0,13.34375,6.205199718475342,5159200.0
1990-07-01,13.4375,14.28125,12.5,13.78125,6.408651351928711,9626000.0
1990-07-24,,,,,,
1990-08-01,13.71875,13.71875,11.75,12.6875,5.992217540740967,8751200.0
1990-09-01,12.59375,13.0,9.25,10.03125,4.737688064575195,12498000.0
1990-10-01,10.125,10.59375,8.03125,9.125,4.309673309326172,17801200.0
1990-10-23,,,,,,
1990-11-01,9.1875,11.8125,9.09375,11.8125,5.69579553604126,10382800.0
1990-12-01,11.84375,12.59375,11.46875,11.65625,5.620456218719482,5363600.0
1991-01-01,11.5625,13.0,10.375,12.90625,6.223182201385498,6647600.0
1991-01-22,,,,,,
1991-02-01,12.96875,15.75,12.84375,14.25,6.995482444763184,11708800.0
1991-03-01,14.3125,15.9375,14.1875,15.75,7.731850624084473,7189200.0
1991-04-01,15.8125,17.25,15.3125,15.8125,7.7625298500061035,6791200.0
1991-04-23,,,,,,
1991-05-01,15.75,16.625,14.8125,15.59375,7.7846808433532715,4462800.0
1991-06-01,15.5,16.4375,15.1875,15.96875,7.971886157989502,3993600.0
1991-07-01,15.90625,17.5625,15.5,16.3125,8.143494606018066,6841600.0
1991-07-23,,,,,,
1991-08-01,16.375,16.625,15.375,15.78125,8.000195503234863,4203600.0
1991-09-01,15.71875,16.09375,14.9375,15.15625,7.683352947235107,5779600.0
1991-10-01,15.125,17.375,14.40625,17.1875,8.713083267211914,9202000.0
1991-10-22,,,,,,
1991-11-01,17.25,19.5,16.875,18.96875,9.767404556274414,8602000.0
1991-12-01,18.8125,20.25,18.125,20.25,10.427146911621094,7560000.0
1992-01-01,20.0,20.3125,18.375,18.875,9.719134330749512,7418000.0
1992-01-21,,,,,,
1992-02-01,18.8125,19.4375,17.90625,18.25,9.525127410888672,9790000.0
1992-03-01,18.25,19.25,17.875,17.875,9.3294038772583,5098400.0
1992-03-10,,,,,,
1992-03-17,,,,,,
1992-04-01,17.625,18.375,16.0,18.25,9.566939353942871,6705200.0
1992-04-21,,,,,,
1992-05-01,18.375,19.5,17.875,19.0,10.059576034545898,4436400.0
1992-06-01,19.125,20.875,18.875,20.625,10.91992473602295,6007400.0
1992-07-01,21.25,22.4375,20.3125,22.1875,11.747198104858398,6540400.0
1992-07-21,,,,,,
1992-08-01,22.0625,22.5,20.6875,21.125,11.274298667907715,3099200.0
1992-09-01,21.125,21.4375,19.25,21.375,11.407731056213379,5833800.0
1992-10-01,21.375,23.375,20.625,22.75,12.141554832458496,5247200.0
1992-10-20,,,,,,
1992-11-01,23.0,25.625,23.0,25.3125,13.610944747924805,4998800.0
1992-12-01,25.25,27.1875,25.25,26.5,14.249484062194824,6315800.0
1993-01-01,26.75,27.375,25.5,26.9375,14.484734535217285,4202200.0
1993-01-19,,,,,,
1993-02-01,27.125,29.0,24.5625,26.875,14.542098045349121,9828800.0
1993-03-01,26.8125,29.1875,26.6875,28.25,15.286112785339355,6629600.0
1993-04-01,28.875,28.9375,25.625,27.4375,14.846474647521973,7569800.0
1993-04-20,,,,,,
1993-05-01,27.4375,27.6875,25.5,26.8125,14.61783504486084,5814200.0
1993-06-01,26.875,28.25,25.5,27.0,14.720059394836426,5017200.0
1993-07-01,27.5,28.625,26.6875,28.625,15.605981826782227,4150000.0
1993-07-20,,,,,,
1993-08-01,28.4375,30.0625,27.9375,29.375,16.130340576171875,3835600.0
1993-09-01,29.25,29.375,26.625,27.1875,14.929146766662598,7631800.0
1993-10-01,27.375,27.375,25.0625,25.75,14.139791488647461,11129000.0
1993-10-19,,,,,,
1993-11-01,25.625,25.8125,23.875,24.625,13.623891830444336,9427000.0
1993-12-01,25.0,26.75,24.5,26.25,14.522931098937988,8359600.0
1994-01-01,26.125,26.875,24.0,25.375,14.038838386535645,7524000.0
1994-01-25,,,,,,
1994-02-01,25.75,26.875,24.25,26.875,14.990472793579102,6994600.0
1994-03-01,26.9375,29.0,25.5,26.375,14.711575508117676,21124400.0
1994-04-01,26.4375,28.375,23.5,24.6875,13.770307540893555,11901800.0
1994-04-19,,,,,,
1994-05-01,24.625,24.625,22.25,23.4375,13.186614036560059,13107600.0
1994-06-01,23.4375,24.5,22.375,22.375,12.588825225830078,11690200.0
1994-07-01,22.4375,23.5,21.5,23.1875,13.045957565307617,9967000.0
1994-07-19,,,,,,
1994-08-01,23.125,24.5625,23.0625,24.5,13.936882972717285,5389800.0
1994-09-01,24.625,25.0,22.75,23.0,13.083601951599121,11540000.0
1994-10-01,23.125,23.3125,22.25,22.9375,13.048052787780762,7059800.0
1994-10-25,,,,,,
1994-11-01,23.0,23.4375,17.5625,18.25,10.4928617477417,23013800.0
1994-12-01,18.5,20.0,18.125,18.875,10.852205276489258,10491000.0
1995-01-01,18.9375,22.0625,18.8125,21.9375,12.613003730773926,9146200.0
1995-01-24,,,,,,
1995-02-01,22.0,22.5625,20.875,21.25,12.359387397766113,10059800.0
1995-03-01,21.0625,23.0,20.8125,22.625,13.159114837646484,9585200.0
1995-04-01,22.5625,22.75,21.0,21.4375,12.468440055847168,11295000.0
1995-04-18,,,,,,
1995-05-01,21.4375,21.6875,19.9375,21.375,12.583663940429688,14433400.0
1995-06-01,21.5,24.0,21.375,23.4375,13.797877311706543,8918600.0
1995-07-01,23.375,24.6875,21.875,24.1875,14.239412307739258,6223200.0
1995-07-27,,,,,,
1995-08-01,24.125,24.4375,22.6875,24.0,14.29104232788086,6204800.0
1995-09-01,23.9375,27.0,23.9375,26.375,15.70526123046875,6724400.0
1995-10-01,26.375,27.375,25.25,26.3125,15.668044090270996,7986800.0
1995-10-26,,,,,,
1995-11-01,26.3125,27.5,25.9375,27.0625,16.2797794342041,6736000.0
1995-12-01,27.1875,28.25,26.5,27.5,16.54296112060547,7336600.0
1996-01-01,27.4375,30.75,27.375,30.75,18.498031616210938,8732200.0
1996-01-25,,,,,,
1996-02-01,30.625,30.6875,28.75,29.4375,17.871089935302734,5759000.0
1996-03-01,29.4375,30.9375,27.6875,29.75,18.060800552368164,7788800.0
1996-04-01,30.0,31.5,29.25,29.75,18.060800552368164,8831600.0
1996-04-25,,,,,,
1996-05-01,29.6875,29.875,27.75,29.5,18.071983337402344,8334000.0
1996-06-01,29.4375,31.125,29.0,31.125,19.067466735839844,5578200.0
1996-07-01,31.125,31.625,28.375,30.5,18.684589385986328,5391800.0
1996-07-25,,,,,,
1996-08-01,30.375,32.5,30.1875,31.75,19.634952545166016,5187400.0
1996-09-01,31.5625,33.0,31.1875,32.0625,19.82820701599121,5006000.0
1996-10-01,32.1875,33.5,30.5,31.4375,19.441696166992188,10439800.0
1996-10-24,,,,,,
1996-11-01,31.375,35.875,31.25,35.5625,22.17680549621582,9195200.0
1996-12-01,35.5,36.75,34.5,36.125,22.527572631835938,8861400.0
1997-01-01,36.125,38.0,35.3125,37.8125,23.579898834228516,7863400.0
1997-01-23,,,,,,
1997-02-01,37.75,39.8125,37.0625,38.4375,24.1467227935791,6788000.0
1997-02-25,,,,,,
1997-03-01,38.3125,39.375,36.5,36.5,22.983671188354492,7668800.0
1997-03-25,,,,,,
1997-04-01,36.375,38.8125,33.625,38.5,24.30109214782715,9560200.0
1997-04-24,,,,,,
1997-05-01,38.3125,40.125,37.6875,39.5625,25.173837661743164,5357600.0
1997-06-01,39.6875,46.5,38.75,42.25,26.883907318115234,5432200.0
1997-06-03,,,,,,
1997-07-01,43.0,48.4375,42.75,44.375,28.23605728149414,6563600.0
1997-07-24,,,,,,
1997-08-01,44.75,45.25,40.6875,41.875,26.724214553833008,4833500.0
1997-09-01,41.375,46.3125,40.875,45.625,29.11742401123047,5463900.0
1997-10-01,45.4375,51.3125,45.125,48.75,31.111770629882812,7181600.0
1997-10-23,,,,,,
1997-11-01,49.375,50.25,47.0,47.4375,30.362911224365234,4273500.0
1997-12-01,47.75,54.4375,47.5,54.375,34.80333709716797,6273000.0
1997-12-26,,,,,,
1998-01-01,54.375,54.625,48.0,48.625,31.208925247192383,6127800.0
1998-01-22,,,,,,
1998-02-01,48.75,51.9375,48.3125,51.4375,33.106571197509766,10803700.0
1998-03-01,51.5,55.5625,51.0,55.1875,35.52016067504883,8323900.0
1998-04-01,55.375,57.6875,51.5,53.75,34.594966888427734,7662400.0
1998-04-23,,,,,,
1998-05-01,53.8125,59.625,53.6875,55.5625,35.85971450805664,7171400.0
1998-06-01,55.5625,57.625,53.625,55.5,35.81938171386719,5979700.0
1998-07-01,55.5,59.375,51.0,52.6875,34.004207611083984,11928100.0
1998-07-23,,,,,,
1998-08-01,52.5625,53.0,44.0,44.0,28.472339630126953,10951900.0
1998-09-01,44.25,52.5625,44.25,49.6875,32.1527099609375,7261300.0
1998-10-01,49.0625,53.75,41.75,44.4375,28.75544548034668,14377600.0
1998-10-22,,,,,,
1998-11-01,44.9375,56.6875,43.8125,53.875,34.96293640136719,12918700.0
1998-12-01,53.5,60.0625,52.4375,58.375,37.88325881958008,18873400.0
1999-01-01,58.0,62.5,56.6875,60.4375,39.221763610839844,12161000.0
1999-01-21,,,,,,
1999-02-01,60.1875,60.25,43.8125,44.75,29.112274169921875,32380600.0
1999-03-01,45.0,50.0625,43.875,47.5625,30.94195556640625,17706500.0
1999-04-01,47.0625,55.375,42.4375,54.625,35.53647994995117,18629700.0
1999-04-22,,,,,,
1999-05-01,54.6875,59.5,53.0625,53.8125,35.116783142089844,11535900.0
1999-06-01,53.875,59.4375,53.5,54.75,35.728599548339844,13728600.0
1999-07-01,54.9375,56.875,51.6875,51.75,33.7708625793457,9738500.0
1999-08-01,52.0,52.5,33.5,36.0625,23.533565521240234,41032700.0
1999-08-04,,,,,,
1999-09-01,36.0,37.75,28.375,29.4375,19.288454055786133,16177700.0
1999-10-01,30.0,33.75,26.0,32.9375,21.58177375793457,30569100.0
1999-11-01,32.6875,36.1875,30.625,32.5625,21.336061477661133,17186800.0
1999-11-03,,,,,,
1999-12-01,32.1875,32.9375,26.25,32.0625,21.099966049194336,20701500.0
2000-01-01,31.8125,31.9375,25.625,26.75,17.603879928588867,15010700.0
2000-01-27,,,,,,
2000-02-01,26.5,26.9375,13.0,13.375,8.849407196044922,76253600.0
2000-03-01,13.3125,18.0,11.9375,16.9375,11.206493377685547,49463400.0
2000-04-01,17.5,17.5625,14.8125,17.0,11.247845649719238,23663300.0
2000-04-19,,,,,,
2000-05-01,16.875,22.6875,15.25,22.6875,15.152815818786621,30246700.0
2000-06-01,22.6875,24.625,18.375,20.0625,13.399593353271484,20586900.0
2000-07-01,19.8125,25.5625,19.3125,23.0,15.361531257629395,20041000.0
2000-07-27,,,,,,
2000-08-01,22.75,24.6875,19.25,21.703125,14.600733757019043,25846200.0
2000-09-01,21.875,27.6875,20.3125,27.25,18.332387924194336,16890800.0
2000-10-01,27.0625,29.3125,25.75,28.25,19.005128860473633,24204500.0
2000-10-26,,,,,,
2000-11-01,27.75,29.75,25.75,27.0,18.262149810791016,14152100.0
2000-12-01,27.0,28.875,25.4375,26.875,18.177595138549805,14860200.0
2001-01-01,27.0,30.0,23.8125,29.219999313354492,19.76369857788086,20817400.0
2001-01-25,,,,,,
2001-02-01,29.020000457763672,30.440000534057617,24.260000228881836,26.170000076293945,17.789146423339844,27873900.0
2001-03-01,27.100000381469727,29.649999618530273,26.059999465942383,29.219999313354492,19.862382888793945,22903800.0
2001-04-01,28.799999237060547,30.200000762939453,27.030000686645508,29.90999984741211,20.331411361694336,20096700.0
2001-04-26,,,,,,
2001-05-01,29.90999984741211,33.75,29.200000762939453,32.40999984741211,22.141202926635742,29759700.0
2001-06-01,31.799999237060547,33.08000183105469,30.440000534057617,32.119998931884766,21.943082809448242,18072500.0
2001-07-01,32.0,33.0099983215332,26.950000762939453,28.530000686645508,19.490543365478516,20750700.0
2001-07-26,,,,,,
2001-08-01,28.450000762939453,28.799999237060547,26.850000381469727,28.020000457763672,19.23418426513672,13042300.0
2001-09-01,27.950000762939453,28.5,22.25,25.25,17.332731246948242,15097100.0
2001-10-01,25.450000762939453,25.700000762939453,22.420000076293945,22.43000030517578,15.396953582763672,22171500.0
2001-10-25,,,,,,
2001-11-01,22.43000030517578,25.979999542236328,22.40999984741211,25.799999237060547,17.819475173950195,12322000.0
2001-12-01,25.700000762939453,27.350000381469727,24.719999313354492,26.510000228881836,18.30985450744629,15005500.0
2002-01-01,26.450000762939453,28.389999389648438,25.979999542236328,28.299999237060547,19.546167373657227,17823000.0
2002-01-24,,,,,,
2002-02-01,27.899999618530273,29.270000457763672,26.75,28.31999969482422,19.663822174072266,13971000.0
2002-03-01,28.450000762939453,29.700000762939453,26.950000762939453,27.93000030517578,19.39303207397461,17840500.0
2002-04-01,27.950000762939453,29.489999771118164,27.350000381469727,28.239999771118164,19.608274459838867,14972100.0
2002-04-25,,,,,,
2002-05-01,28.170000076293945,28.229999542236328,24.530000686645508,25.299999237060547,17.6595401763916,27408000.0
2002-06-01,25.25,25.829999923706055,24.0,25.450000762939453,17.764232635498047,16308700.0
2002-07-01,25.200000762939453,25.399999618530273,17.639999389648438,20.459999084472656,14.281193733215332,23786500.0
2002-07-25,,,,,,
2002-08-01,20.459999084472656,23.649999618530273,18.6299991607666,23.15999984741211,16.295734405517578,21522200.0
2002-09-01,23.0,23.479999542236328,19.360000610351562,20.350000381469727,14.318578720092773,15681500.0
2002-10-01,20.350000381469727,21.270000457763672,17.0,20.520000457763672,14.438190460205078,25097600.0
2002-10-24,,,,,,
2002-11-01,20.399999618530273,21.489999771118164,16.510000228881836,17.049999237060547,12.083542823791504,25226800.0
2002-12-01,17.1299991607666,17.8700008392334,16.299999237060547,17.540000915527344,12.430815696716309,22779500.0
2003-01-01,17.56999969482422,19.540000915527344,16.850000381469727,17.469999313354492,12.381200790405273,18553400.0
2003-01-23,,,,,,
2003-02-01,17.459999084472656,17.600000381469727,12.510000228881836,13.0,9.287301063537598,31010200.0
2003-03-01,13.0,13.069999694824219,5.909999847412109,9.800000190734863,7.00120210647583,71960600.0
2003-04-01,9.800000190734863,12.600000381469727,8.699999809265137,11.5,8.215694427490234,73001400.0
2003-05-01,11.399999618530273,12.979999542236328,10.899999618530273,12.899999618530273,9.215862274169922,133740800.0
2003-05-01,,,,,,
2003-06-01,12.850000381469727,14.279999732971191,12.699999809265137,13.40999984741211,9.643096923828125,55618900.0
2003-07-01,13.40999984741211,13.930000305175781,12.0,13.579999923706055,9.765347480773926,52669000.0
2003-07-24,,,,,,
2003-08-01,13.59000015258789,14.579999923706055,12.619999885559082,14.100000381469727,10.198573112487793,47086800.0
2003-09-01,14.199999809265137,15.75,13.9399995803833,14.770000457763672,10.683188438415527,52144900.0
2003-10-01,14.819999694824219,16.520000457763672,14.819999694824219,16.3700008392334,11.840473175048828,35557500.0
2003-10-23,,,,,,
2003-11-01,16.600000381469727,16.809999465942383,14.0,14.930000305175781,10.852288246154785,41637100.0
2003-12-01,14.920000076293945,15.9399995803833,14.109999656677246,15.770000457763672,11.46286392211914,29378900.0
2004-01-01,15.760000228881836,16.399999618530273,14.979999542236328,15.630000114440918,11.361102104187012,45699700.0
2004-01-22,,,,,,
2004-02-01,15.699999809265137,16.100000381469727,13.350000381469727,14.819999694824219,10.82406997680664,55260400.0
2004-03-01,14.899999618530273,15.319999694824219,13.90999984741211,14.630000114440918,10.685301780700684,50017700.0
2004-04-01,14.699999809265137,16.100000381469727,14.5600004196167,15.550000190734863,11.3572416305542,35921000.0
2004-04-22,,,,,,
2004-05-01,15.550000190734863,15.970000267028809,13.5,14.5600004196167,10.686906814575195,63546100.0
2004-06-01,14.460000038146973,15.960000038146973,14.399999618530273,15.899999618530273,11.670454025268555,27203400.0
2004-07-01,15.899999618530273,15.979999542236328,14.930000305175781,15.949999809265137,11.7071533203125,22156500.0
2004-07-22,,,,,,
2004-08-01,15.949999809265137,16.690000534057617,15.300000190734863,16.18000030517578,11.933158874511719,47826600.0
2004-09-01,16.229999542236328,16.850000381469727,15.029999732971191,15.6899995803833,11.571771621704102,29496700.0
2004-10-01,15.739999771118164,15.970000267028809,11.40999984741211,13.65999984741211,10.074594497680664,103334700.0
2004-10-21,,,,,,
2004-11-01,13.59000015258789,15.989999771118164,13.0,15.569999694824219,11.5474214553833,84944300.0
2004-12-01,15.579999923706055,18.25,15.199999809265137,17.940000534057617,13.305120468139648,65755700.0
2005-01-01,17.950000762939453,17.959999084472656,16.489999771118164,17.170000076293945,12.734055519104004,49821300.0
2005-01-27,,,,,,
2005-02-01,17.239999771118164,17.600000381469727,16.799999237060547,16.920000076293945,12.604049682617188,35028900.0
2005-03-01,16.969999313354492,18.079999923706055,16.950000762939453,17.020000457763672,12.678544998168945,41943900.0
2005-04-01,17.059999465942383,17.40999984741211,15.5,16.719999313354492,12.455066680908203,47244500.0
2005-04-21,,,,,,
2005-05-01,16.780000686645508,18.530000686645508,16.280000686645508,18.360000610351562,13.740671157836914,55992800.0
2005-06-01,18.3700008392334,18.84000015258789,17.049999237060547,18.31999969482422,13.71073055267334,40052400.0
2005-07-01,18.440000534057617,19.639999389648438,18.299999237060547,19.149999618530273,14.331903457641602,36904100.0
2005-07-21,,,,,,
2005-08-01,19.049999237060547,20.270000457763672,18.290000915527344,19.31999969482422,14.51473331451416,44324300.0
2005-09-01,19.31999969482422,20.90999984741211,19.100000381469727,20.5,15.401244163513184,30424800.0
2005-10-01,20.559999465942383,20.829999923706055,19.010000228881836,20.290000915527344,15.243473052978516,35131700.0
2005-10-27,,,,,,
2005-11-01,20.31999969482422,22.690000534057617,19.940000534057617,22.0,16.5922794342041,42575000.0
2005-12-01,22.290000915527344,22.899999618530273,21.440000534057617,22.75,17.157922744750977,26518400.0
2006-01-01,22.850000381469727,24.440000534057617,19.93000030517578,20.329999923706055,15.33277416229248,63856500.0
2006-01-26,,,,,,
2006-02-01,20.350000381469727,21.299999237060547,20.200000762939453,20.690000534057617,15.656004905700684,51152500.0
2006-03-01,20.68000030517578,21.299999237060547,20.290000915527344,20.479999542236328,15.497109413146973,34374000.0
2006-04-01,20.549999237060547,20.8799991607666,18.84000015258789,20.309999465942383,15.3684663772583,49790300.0
2006-04-20,,,,,,
2006-05-01,19.989999771118164,20.299999237060547,17.079999923706055,17.959999084472656,13.642921447753906,80145800.0
2006-06-01,17.940000534057617,18.559999465942383,17.520000457763672,18.1299991607666,13.77206039428711,35965000.0
2006-07-01,18.18000030517578,18.219999313354492,16.149999618530273,16.229999542236328,12.328765869140625,33550800.0
2006-07-27,,,,,,
2006-08-01,16.260000228881836,18.950000762939453,16.209999084472656,18.950000762939453,14.459695816040039,46283100.0
2006-09-01,18.989999771118164,19.780000686645508,18.639999389648438,19.389999389648438,14.795438766479492,24060300.0
2006-10-01,19.399999618530273,22.579999923706055,19.200000762939453,19.780000686645508,15.093031883239746,43418800.0
2006-10-26,,,,,,
2006-11-01,19.940000534057617,21.15999984741211,19.809999465942383,20.479999542236328,15.685103416442871,28796000.0
2006-12-01,20.5,20.93000030517578,19.899999618530273,20.780000686645508,15.914872169494629,22492600.0
2007-01-01,21.260000228881836,22.25,19.790000915527344,22.0,16.849233627319336,40969500.0
2007-01-25,,,,,,
2007-02-01,22.0,22.8799991607666,20.889999389648438,21.40999984741211,16.45784568786621,30970500.0
2007-03-01,21.15999984741211,23.399999618530273,20.81999969482422,23.030000686645508,17.703140258789062,33662700.0
2007-04-01,23.010000228881836,25.75,22.829999923706055,24.8799991607666,19.1252384185791,36898400.0
2007-04-26,,,,,,
2007-05-01,24.889999389648438,28.200000762939453,24.489999771118164,26.540000915527344,20.461597442626953,59452400.0
2007-06-01,26.540000915527344,26.690000534057617,25.260000228881836,26.110000610351562,20.13007354736328,32533500.0
2007-07-01,26.200000762939453,26.75,23.219999313354492,24.299999237060547,18.734617233276367,40820000.0
2007-07-26,,,,,,
2007-08-01,23.760000228881836,26.209999084472656,22.020000457763672,24.469999313354492,18.922048568725586,68628900.0
2007-09-01,24.56999969482422,25.540000915527344,23.459999084472656,24.469999313354492,18.922048568725586,38769100.0
2007-10-01,24.59000015258789,26.670000076293945,22.360000610351562,23.34000015258789,18.048240661621094,43952900.0
2007-10-25,,,,,,
2007-11-01,25.93000030517578,26.09000015258789,22.84000015258789,24.84000015258789,19.27058982849121,77757100.0
2007-12-01,24.739999771118164,26.079999923706055,22.809999465942383,23.790000915527344,18.456016540527344,41225100.0
2008-01-01,23.719999313354492,23.8799991607666,19.219999313354492,22.6200008392334,17.54833221435547,68917100.0
2008-01-24,,,,,,
2008-02-01,22.780000686645508,24.5,21.950000762939453,22.90999984741211,17.839588165283203,70340600.0
2008-03-01,22.899999618530273,22.969999313354492,20.479999542236328,22.010000228881836,17.138771057128906,77380000.0
2008-04-01,22.299999237060547,24.040000915527344,21.959999084472656,23.209999084472656,18.073192596435547,57595900.0
2008-04-24,,,,,,
2008-05-01,23.899999618530273,24.989999771118164,23.1200008392334,24.079999923706055,18.812179565429688,47510400.0
2008-06-01,23.93000030517578,24.020000457763672,20.399999618530273,20.450000762939453,15.97628402709961,53331700.0
2008-07-01,20.229999542236328,24.8799991607666,19.43000030517578,24.15999984741211,18.874675750732422,84277300.0
2008-07-24,,,,,,
2008-08-01,24.5,25.729999542236328,22.90999984741211,25.40999984741211,19.916139602661133,66579100.0
2008-09-01,25.84000015258789,27.5,22.579999923706055,25.100000381469727,19.673158645629883,95197800.0
2008-10-01,24.8799991607666,26.200000762939453,12.430000305175781,15.75,12.344710350036621,136145600.0
2008-10-23,,,,,,
2008-11-01,15.670000076293945,19.079999923706055,9.329999923706055,14.899999618530273,11.731269836425781,99365900.0
2008-12-01,14.289999961853027,18.75,13.380000114440918,18.600000381469727,14.644400596618652,88639100.0
2009-01-01,18.450000762939453,20.510000228881836,13.789999961853027,14.15999984741211,11.148643493652344,86366400.0
2009-01-22,,,,,,
2009-02-01,13.819999694824219,15.380000114440918,9.649999618530273,10.180000305175781,8.052175521850586,120593900.0
2009-03-01,9.40999984741211,13.649999618530273,7.610000133514404,12.5,9.887245178222656,157912400.0
2009-04-01,12.170000076293945,16.610000610351562,11.800000190734863,16.34000015258789,12.924609184265137,119657500.0
2009-04-23,,,,,,
2009-05-01,16.329999923706055,18.940000534057617,15.84000015258789,17.110000610351562,13.604222297668457,127330400.0
2009-06-01,17.309999465942383,17.8799991607666,15.0,15.859999656677246,12.610342979431152,77760300.0
2009-07-01,16.1200008392334,19.100000381469727,14.369999885559082,18.770000457763672,14.924098014831543,72757100.0
2009-07-29,,,,,,
2009-08-01,19.18000030517578,23.0,18.729999542236328,22.530000686645508,17.99472427368164,80065000.0
2009-09-01,22.399999618530273,23.25,20.540000915527344,21.440000534057617,17.124135971069336,79109400.0
2009-10-01,21.719999313354492,22.780000686645508,19.829999923706055,19.950000762939453,15.93407154083252,72306900.0
2009-10-22,,,,,,
2009-11-01,20.149999618530273,20.739999771118164,18.670000076293945,19.040000915527344,15.266351699829102,77231500.0
2009-12-01,19.25,20.260000228881836,18.479999542236328,19.520000457763672,15.651230812072754,56590400.0
2010-01-01,19.729999542236328,21.920000076293945,19.450000762939453,19.56999969482422,15.691315650939941,67652800.0
2010-01-21,,,,,,
2010-02-01,19.709999084472656,21.100000381469727,18.559999465942383,20.809999465942383,16.74973487854004,61675600.0
2010-03-01,20.889999389648438,25.0,20.860000610351562,24.770000457763672,19.937097549438477,76902100.0
2010-04-01,24.969999313354492,26.420000076293945,24.139999389648438,24.469999313354492,19.69562339782715,60732100.0
2010-04-22,,,,,,
2010-05-01,24.709999084472656,24.81999969482422,20.979999542236328,23.100000381469727,18.652925491333008,128078200.0
2010-06-01,22.610000610351562,24.34000015258789,21.59000015258789,21.700000762939453,17.522441864013672,81080200.0
2010-07-01,21.770000457763672,23.100000381469727,20.920000076293945,22.81999969482422,18.426828384399414,79882200.0
2010-07-28,,,,,,
2010-08-01,23.170000076293945,23.56999969482422,19.299999237060547,20.049999237060547,16.25581169128418,75844800.0
2010-09-01,20.40999984741211,22.799999237060547,20.31999969482422,22.149999618530273,17.958425521850586,57240600.0
2010-10-01,22.260000228881836,23.079999923706055,21.65999984741211,22.420000076293945,18.17732810974121,58042300.0
2010-10-21,,,,,,
2010-11-01,22.540000915527344,23.270000457763672,21.34000015258789,21.489999771118164,17.495981216430664,52098300.0
2010-12-01,21.90999984741211,24.59000015258789,21.530000686645508,24.219999313354492,19.718599319458008,45681500.0
2011-01-01,24.440000534057617,25.760000228881836,24.360000610351562,24.940000534057617,20.30478286743164,39109900.0
2011-01-27,,,,,,
2011-02-01,25.149999618530273,27.040000915527344,24.6299991607666,26.530000686645508,21.677515029907227,39997300.0
2011-03-01,26.649999618530273,26.809999465942383,24.75,26.25,21.448728561401367,59784500.0
2011-04-01,26.510000228881836,27.15999984741211,25.170000076293945,26.479999542236328,21.636655807495117,34185800.0
2011-04-20,,,,,,
2011-05-01,26.649999618530273,26.959999084472656,25.600000381469727,26.309999465942383,21.57595443725586,41687800.0
2011-06-01,26.18000030517578,26.219999313354492,24.290000915527344,25.479999542236328,20.895299911499023,58692500.0
2011-07-01,25.549999237060547,26.40999984741211,24.15999984741211,24.389999389648438,20.001428604125977,46510200.0
2011-07-27,,,,,,
2011-08-01,24.68000030517578,24.760000228881836,20.389999389648438,23.540000915527344,19.385435104370117,111490900.0
2011-09-01,23.56999969482422,23.739999771118164,20.239999771118164,20.959999084472656,17.260780334472656,68078800.0
2011-10-01,20.709999084472656,25.0,19.719999313354492,23.84000015258789,19.632482528686523,81360700.0
2011-10-27,,,,,,
2011-11-01,22.68000030517578,23.709999084472656,20.639999389648438,22.510000228881836,18.61837387084961,70959800.0
2011-12-01,22.010000228881836,22.610000610351562,19.8799991607666,21.06999969482422,17.427316665649414,60610800.0
2012-01-01,21.600000381469727,23.3700008392334,20.84000015258789,22.829999923706055,18.88304328918457,53263800.0
2012-01-26,,,,,,
2012-02-01,23.079999923706055,23.829999923706055,22.030000686645508,23.049999237060547,19.151573181152344,55033400.0
2012-03-01,23.09000015258789,24.809999465942383,22.979999542236328,24.479999542236328,20.3397216796875,48676900.0
2012-04-01,24.399999618530273,24.770000457763672,22.920000076293945,23.739999771118164,19.724878311157227,41108600.0
2012-04-26,,,,,,
2012-05-01,23.799999237060547,24.0,19.709999084472656,19.950000762939453,16.649145126342773,68458100.0
2012-06-01,19.5,20.280000686645508,18.3700008392334,19.1299991607666,15.964815139770508,69604100.0
2012-07-01,19.239999771118164,19.639999389648438,18.280000686645508,18.889999389648438,15.764522552490234,49662400.0
2012-07-26,,,,,,
2012-08-01,18.989999771118164,19.790000915527344,18.389999389648438,19.510000228881836,16.397045135498047,63957600.0
2012-09-01,19.510000228881836,20.920000076293945,18.969999313354492,19.219999313354492,16.153308868408203,48343200.0
2012-10-01,19.360000610351562,20.8700008392334,19.290000915527344,20.280000686645508,17.044185638427734,47895700.0
2012-10-25,,,,,,
2012-11-01,20.3700008392334,21.110000610351562,19.040000915527344,20.389999389648438,17.246370315551758,41043400.0
2012-12-01,20.510000228881836,21.350000381469727,20.350000381469727,20.81999969482422,17.610078811645508,38431900.0
2013-01-01,21.219999313354492,23.420000076293945,21.18000030517578,23.309999465942383,19.716182708740234,35781900.0
2013-01-24,,,,,,
2013-02-01,23.5,24.860000610351562,22.940000534057617,24.469999313354492,20.81421661376953,45285700.0
2013-03-01,24.31999969482422,28.34000015258789,24.0,28.25,24.029497146606445,61201800.0
2013-04-01,28.260000228881836,28.350000381469727,25.549999237060547,27.889999389648438,23.723283767700195,47595100.0
2013-04-25,,,,,,
2013-05-01,27.6299991607666,29.219999313354492,26.709999084472656,28.479999542236328,24.340999603271484,48703900.0
2013-06-01,28.489999771118164,29.920000076293945,27.309999465942383,29.3700008392334,25.101661682128906,46933400.0
2013-07-01,29.610000610351562,32.0099983215332,29.520000457763672,31.639999389648438,27.041759490966797,30007700.0
2013-07-25,,,,,,
2013-08-01,32.040000915527344,32.939998626708984,29.139999389648438,29.530000686645508,25.354825973510742,42499100.0
2013-09-01,29.969999313354492,31.739999771118164,29.5,30.440000534057617,26.13616180419922,29997600.0
2013-10-01,30.40999984741211,32.43000030517578,29.450000762939453,31.739999771118164,27.252357482910156,30888800.0
2013-10-24,,,,,,
2013-11-01,31.790000915527344,34.040000915527344,31.43000030517578,33.56999969482422,28.958370208740234,29252700.0
2013-12-01,33.560001373291016,35.400001525878906,33.13999938964844,35.08000183105469,30.260942459106445,34109800.0
2014-01-01,34.93000030517578,35.119998931884766,31.729999542236328,32.20000076293945,27.776573181152344,25908200.0
2014-01-29,,,,,,
2014-02-01,32.08000183105469,34.93000030517578,30.65999984741211,34.779998779296875,30.13740348815918,32520500.0
2014-03-01,34.25,36.29999923706055,34.18000030517578,35.310001373291016,30.596651077270508,33414900.0
2014-04-01,35.61000061035156,35.66999816894531,32.06999969482422,33.220001220703125,28.785640716552734,32153400.0
2014-04-24,,,,,,
2014-05-01,33.20000076293945,34.290000915527344,32.279998779296875,33.90999984741211,29.509319305419922,30216400.0
2014-06-01,34.04999923706055,35.779998779296875,33.79999923706055,34.7599983215332,30.248992919921875,27199700.0
2014-07-01,34.83000183105469,35.65999984741211,34.18000030517578,34.33000183105469,29.874794006347656,24613700.0
2014-07-24,,,,,,
2014-08-01,34.20000076293945,36.38999938964844,33.599998474121094,36.27000045776367,31.712533950805664,28130500.0
2014-09-01,36.380001068115234,37.150001525878906,34.279998779296875,34.380001068115234,30.060028076171875,30534400.0
2014-10-01,34.290000915527344,34.7400016784668,31.25,33.459999084472656,29.255632400512695,38749600.0
2014-10-29,,,,,,
2014-11-01,33.459999084472656,34.9900016784668,32.63999938964844,33.220001220703125,29.184925079345703,34110900.0
2014-12-01,33.02000045776367,35.77000045776367,31.56999969482422,34.880001068115234,30.643285751342773,52459200.0
2015-01-01,35.130001068115234,35.209999084472656,30.719999313354492,31.059999465942383,27.28728485107422,33910800.0
2015-01-28,,,,,,
2015-02-01,31.1299991607666,34.88999938964844,31.020000457763672,33.560001373291016,29.63720703125,34436000.0
2015-03-01,33.560001373291016,34.65999984741211,32.709999084472656,33.72999954223633,29.787338256835938,35321000.0
2015-04-01,33.68000030517578,34.900001525878906,33.04999923706055,34.15999984741211,30.167072296142578,26532100.0
2015-04-23,,,,,,
2015-05-01,34.40999984741211,36.0,34.22999954223633,34.959999084472656,31.025558471679688,30210900.0
2015-06-01,35.06999969482422,37.16999816894531,34.83000183105469,35.75,31.72665023803711,32387800.0
2015-07-01,36.34000015258789,38.150001525878906,34.81999969482422,35.84000015258789,31.8065185546875,31599300.0
2015-07-29,,,,,,
2015-08-01,35.849998474121094,36.54999923706055,29.809999465942383,33.540000915527344,29.915546417236328,40432800.0
2015-09-01,32.310001373291016,33.72999954223633,30.90999984741211,32.08000183105469,28.613325119018555,30411600.0
2015-10-01,32.06999969482422,35.15999984741211,31.219999313354492,34.650001525878906,30.90560531616211,27298500.0
2015-10-28,,,,,,
2015-11-01,34.70000076293945,37.2599983215332,34.34000015258789,36.68000030517578,32.90089797973633,28127000.0
2015-12-01,36.900001525878906,37.2599983215332,31.90999984741211,33.290000915527344,29.860166549682617,31503700.0
2016-01-01,32.36000061035156,32.83000183105469,26.420000076293945,28.639999389648438,25.68925666809082,40231800.0
2016-01-27,,,,,,
2016-02-01,28.399999618530273,29.280000686645508,23.989999771118164,28.530000686645508,25.761962890625,52660900.0
2016-03-01,28.770000457763672,32.65999984741211,28.719999313354492,30.920000076293945,27.920076370239258,44276700.0
2016-04-01,30.780000686645508,35.099998474121094,29.860000610351562,34.209999084472656,30.8908748626709,33869200.0
2016-04-27,,,,,,
2016-05-01,34.33000183105469,37.18000030517578,32.939998626708984,36.91999816894531,33.520225524902344,35923500.0
2016-06-01,36.470001220703125,36.869998931884766,29.920000076293945,31.790000915527344,28.862619400024414,47291000.0
2016-07-01,31.56999969482422,33.75,29.790000915527344,33.40999984741211,30.33344841003418,38530200.0
2016-07-27,,,,,,
2016-08-01,33.5099983215332,35.86000061035156,32.52000045776367,35.61000061035156,32.529945373535156,32734300.0
2016-09-01,35.70000076293945,35.939998626708984,33.97999954223633,35.310001373291016,32.25589370727539,31108000.0
2016-10-01,35.060001373291016,36.9900016784668,34.83000183105469,35.400001525878906,32.33810806274414,34514700.0
2016-10-27,,,,,,
2016-11-01,35.65999984741211,43.470001220703125,34.90999984741211,42.27000045776367,38.83378982543945,48335800.0
2016-12-01,42.599998474121094,45.0099983215332,42.470001220703125,43.93000030517578,40.35884094238281,33926200.0
2017-01-01,44.709999084472656,46.279998779296875,43.58000183105469,45.43000030517578,41.736900329589844,23762700.0
2017-01-26,,,,,,
2017-02-01,45.91999816894531,49.36000061035156,44.81999969482422,48.83000183105469,45.056365966796875,26733800.0
2017-03-01,49.90999984741211,50.27000045776367,44.5099983215332,46.88999938964844,43.26628875732422,30014000.0
2017-04-01,47.040000915527344,47.560001373291016,44.61000061035156,46.33000183105469,42.749568939208984,22632900.0
2017-04-26,,,,,,
2017-05-01,46.56999969482422,47.2599983215332,44.41999816894531,44.97999954223633,41.68073654174805,26512600.0
2017-06-01,45.27000045776367,47.959999084472656,43.54999923706055,46.630001068115234,43.2097053527832,28568700.0
2017-07-01,47.04999923706055,50.66999816894531,46.790000915527344,50.130001068115234,46.4529914855957,18399500.0
2017-07-27,,,,,,
2017-08-01,50.41999816894531,51.43000030517578,47.189998626708984,48.18000030517578,44.85995101928711,26209900.0
2017-09-01,48.34000015258789,51.5,46.08000183105469,51.130001068115234,47.60667037963867,19751000.0
2017-10-01,51.27000045776367,53.150001525878906,50.939998626708984,52.040000915527344,48.45395278930664,19867300.0
2017-10-27,,,,,,
2017-11-01,52.290000915527344,57.369998931884766,51.790000915527344,56.619998931884766,52.94843292236328,29667600.0
2017-12-01,56.720001220703125,57.54999923706055,53.84000015258789,54.88999938964844,51.33061218261719,28400900.0
2018-01-01,55.439998626708984,58.72999954223633,53.040000915527344,53.189998626708984,49.7408561706543,35066200.0
2018-01-26,,,,,,
2018-02-01,52.38999938964844,54.72999954223633,47.529998779296875,50.959999084472656,47.855472564697266,41257700.0
2018-03-01,50.900001525878906,51.33000183105469,46.70000076293945,47.61000061035156,44.709556579589844,30985500.0
2018-04-01,47.66999816894531,49.33000183105469,45.90999984741211,48.380001068115234,45.43265151977539,29237600.0
2018-04-27,,,,,,
2018-05-01,48.209999084472656,48.380001068115234,36.90999984741211,38.810001373291016,36.61967849731445,63873500.0
2018-06-01,39.25,39.79999923706055,36.150001525878906,36.9900016784668,34.90239334106445,38838700.0
2018-07-01,36.779998779296875,41.279998779296875,36.7599983215332,39.72999954223633,37.48775863647461,32612600.0
2018-07-27,,,,,,
2018-08-01,39.56999969482422,40.060001373291016,34.56999969482422,36.880001068115234,35.03360366821289,42055800.0
2018-09-01,36.70000076293945,40.7599983215332,35.0,39.06999969482422,37.11396026611328,47659300.0
2018-10-01,39.31999969482422,40.630001068115234,33.27000045776367,36.2599983215332,34.444644927978516,62693400.0
2018-10-26,,,,,,
2018-11-01,36.56999969482422,38.84000015258789,34.31999969482422,35.90999984741211,34.36835479736328,46019300.0
2018-12-01,36.599998474121094,36.84000015258789,26.770000457763672,29.3799991607666,28.118696212768555,54749100.0
2019-01-01,28.729999542236328,34.81999969482422,28.729999542236328,34.7599983215332,33.26772689819336,38380300.0
2019-01-25,,,,,,
2019-02-01,34.86000061035156,38.0,33.970001220703125,37.36000061035156,36.03009796142578,36569400.0
2019-03-01,37.779998779296875,38.290000915527344,33.060001373291016,33.83000183105469,32.62575912475586,40784000.0
2019-04-01,34.02000045776367,38.0,34.02000045776367,36.91999816894531,35.60575866699219,46381400.0
2019-04-26,,,,,,
2019-05-01,36.810001373291016,37.810001373291016,31.3799991607666,31.489999771118164,30.587173461914062,41155600.0
2019-06-01,31.459999084472656,34.06999969482422,31.43000030517578,33.54999923706055,32.588111877441406,37715100.0
2019-07-01,34.040000915527344,35.09000015258789,31.579999923706055,31.950000762939453,31.033985137939453,42978800.0
2019-07-26,,,,,,
2019-08-01,31.969999313354492,31.969999313354492,24.889999389648438,25.40999984741211,24.89776039123535,48203400.0
2019-09-01,25.1200008392334,30.209999084472656,24.709999084472656,29.719999313354492,29.120872497558594,43466500.0
2019-10-01,30.0,30.030000686645508,26.1299991607666,27.540000915527344,26.984821319580078,34331300.0
2019-10-25,,,,,,
2019-11-01,27.8799991607666,31.110000610351562,27.850000381469727,30.739999771118164,30.421884536743164,33235100.0
2019-12-01,30.8700008392334,31.31999969482422,28.700000762939453,29.15999984741211,28.85823631286621,47065500.0
2020-01-01,29.3700008392334,29.670000076293945,26.420000076293945,26.690000534057617,26.41379737854004,38302500.0
2020-01-30,,,,,,
2020-02-01,26.84000015258789,30.56999969482422,22.610000610351562,23.309999465942383,23.309999465942383,43247300.0
2020-03-01,23.510000228881836,25.600000381469727,9.579999923706055,14.630000114440918,14.630000114440918,75945500.0
2020-03-26,14.9399995803833,16.479999542236328,14.59000015258789,16.06999969482422,16.06999969482422,1830753.0
