Date,Open,High,Low,Close,Adj Close,Volume
1980-03-01,0.0,0.307129830121994,0.2740260064601898,0.28138241171836853,0.0013967598788440228,6273000.0
1980-04-01,0.0,0.30345162749290466,0.2758651077747345,0.2924170196056366,0.0014515349175781012,5014900.0
1980-05-01,0.0,0.3862111568450928,0.28873881697654724,0.3420727252960205,0.0016980223590508103,27471500.0
1980-06-01,0.0,0.3494291305541992,0.3255208432674408,0.3328772485256195,0.0016523771919310093,7876400.0
1980-07-01,0.0,0.4027630686759949,0.3328772485256195,0.4009239673614502,0.0019901543855667114,21796400.0
1980-08-01,0.0,0.4266713857650757,0.3917284607887268,0.4174758791923523,0.0020723179914057255,10119600.0
1980-09-01,0.0,0.47080978751182556,0.4082803726196289,0.4671315848827362,0.002318804385140538,34112100.0
1980-10-01,0.0,0.4689706861972809,0.3862111568450928,0.39540666341781616,0.0019627674482762814,70644900.0
1980-11-01,0.0,0.4358668923377991,0.3825329542160034,0.424832284450531,0.002108833519741893,22068400.0
1980-12-01,0.0,0.42851048707962036,0.3825329542160034,0.3990848660469055,0.0019810267258435488,9296900.0
1981-01-01,0.0,0.419314980506897,0.3917284607887268,0.419314980506897,0.0020814465824514627,7047300.0
1981-02-01,0.0,0.43954506516456604,0.4082803726196289,0.4358668923377991,0.0021636090241372585,7747500.0
1981-03-01,0.0,0.5223045945167542,0.44690147042274475,0.5131090879440308,0.002547032665461302,30033800.0
1981-04-01,0.0,0.557247519493103,0.5094308853149414,0.5443738102912903,0.0027022294234484434,29095900.0
1981-05-01,0.0,0.5425347089767456,0.4763270914554596,0.5241436958312988,0.002601808635517955,17222300.0
1981-06-01,0.0,0.5315001010894775,0.5020744800567627,0.5112699866294861,0.002537904307246208,11907000.0
1981-07-01,0.0,0.5664430260658264,0.5112699866294861,0.5664430260658264,0.0028117788024246693,7808400.0
1981-08-01,0.0,0.6105814576148987,0.5406956076622009,0.5590866208076477,0.0027752621099352837,14354000.0
1981-09-01,0.0,0.5646039247512817,0.5259827971458435,0.5498911142349243,0.002729616593569517,11016700.0
1981-10-01,0.0,0.6105814576148987,0.5480520129203796,0.6105814576148987,0.0030308780260384083,17602700.0
1981-11-01,0.0,0.6400070786476135,0.5885122418403625,0.6179378628730774,0.003067394020035863,14197300.0
1981-12-01,0.0,0.665754497051239,0.5885122418403625,0.5995468497276306,0.0029761039186269045,11587500.0
1982-01-01,0.0,0.5977077484130859,0.49655720591545105,0.5480520129203796,0.0027204875368624926,12328500.0
1982-02-01,0.0,0.5498911142349243,0.45609697699546814,0.45609697699546814,0.002264029812067747,35226900.0
1982-03-01,0.0,0.5370174050331116,0.4450623691082001,0.5223045945167542,0.002592678414657712,18499700.0
1982-04-01,0.0,0.5885122418403625,0.5204654932022095,0.5848340392112732,0.0029030698351562023,14856700.0
1982-05-01,0.0,0.6363288760185242,0.5885122418403625,0.6216160655021667,0.003085654228925705,11098300.0
1982-06-01,0.0,0.6988582611083984,0.6160987615585327,0.6878236532211304,0.003414303530007601,25276200.0
1982-07-01,0.0,0.7687441110610962,0.6620762944221497,0.7209274768829346,0.0035786274820566177,29551300.0
1982-08-01,0.0,0.8588600754737854,0.6915018558502197,0.7963306307792664,0.003952920902520418,28246400.0
1982-09-01,0.0,0.8772510886192322,0.8000088334083557,0.8735728859901428,0.004336345940828323,15590700.0
1982-10-01,0.0,1.1751853227615356,0.8680555820465088,1.1292078495025635,0.005605301819741726,34907400.0
1982-11-01,0.0,1.2616231441497803,1.1218514442443848,1.2156455516815186,0.006034367717802525,25215000.0
1982-12-01,0.0,1.219323754310608,0.9931144118309021,1.165989875793457,0.005787881091237068,46733700.0
1982-12-21,,,,,,
1983-01-01,0.0,1.2321975231170654,1.0740348100662231,1.2211629152297974,0.0060617560520768166,31315400.0
1983-02-01,0.0,1.596339464187622,1.165989875793457,1.5558792352676392,0.007723264861851931,30265200.0
1983-03-01,0.0,1.699329137802124,1.5007061958312988,1.6184086799621582,0.00803365744650364,33483300.0
1983-04-01,0.0,2.1407132148742676,1.6184086799621582,2.023010730743408,0.010042069479823112,35227000.0
1983-05-01,0.0,2.1995644569396973,1.8722045421600342,2.085540294647217,0.010352459736168385,24419900.0
1983-06-01,0.0,2.434969425201416,2.0450799465179443,2.203242778778076,0.010936729609966278,33796000.0
1983-07-01,0.0,2.2400248050689697,1.798640489578247,1.9089865684509277,0.009476065635681152,26465700.0
1983-08-01,0.0,1.9899070262908936,1.710363745689392,1.7361111640930176,0.008617917075753212,40674400.0
1983-09-01,0.0,1.8207097053527832,1.7213983535766602,1.750823974609375,0.008690951392054558,23899900.0
1983-10-01,0.0,1.9825506210327148,1.750823974609375,1.8832391500473022,0.009348253719508648,45700600.0
1983-11-01,0.0,2.052436351776123,1.8685263395309448,1.993585228919983,0.009896001778542995,22985700.0
1983-12-01,0.0,2.000941514968872,1.7728930711746216,1.7728930711746216,0.008800501935184002,18370800.0
1983-12-20,,,,,,
1984-01-01,0.0,1.912664771080017,1.3830037117004395,1.4418549537658691,0.0071572549641132355,39068500.0
1984-02-01,0.0,1.6625471115112305,1.3535782098770142,1.5007061958312988,0.007449387572705746,38212200.0
1984-03-01,0.0,1.6919727325439453,1.5080626010894775,1.5595574378967285,0.007741520646959543,22180300.0
1984-04-01,0.0,1.6551907062530518,1.4565677642822266,1.522775411605835,0.007558934390544891,15531300.0
1984-05-01,0.0,1.544844627380371,1.309439778327942,1.4124293327331543,0.007011191453784704,42407300.0
1984-06-01,0.0,1.4492113590240479,1.3903601169586182,1.4271421432495117,0.007084222044795752,16737900.0
1984-07-01,0.0,1.471280574798584,1.280014157295227,1.3167961835861206,0.006536472123116255,32519900.0
1984-08-01,0.0,1.6184086799621582,1.309439778327942,1.4565677642822266,0.007230290211737156,21014700.0
1984-09-01,0.0,1.471280574798584,1.3756473064422607,1.4418549537658691,0.0071572549641132355,17495800.0
1984-10-01,0.0,1.5007061958312988,1.331508994102478,1.4271421432495117,0.007084222044795752,21616200.0
1984-11-01,0.0,1.5669138431549072,1.4271421432495117,1.5522010326385498,0.007705008145421743,21507400.0
1984-12-01,0.0,1.6331214904785156,1.5080626010894775,1.5669138431549072,0.007778040133416653,15438100.0
1985-01-01,0.0,1.83910071849823,1.522775411605835,1.8317443132400513,0.009092635475099087,23891300.0
1985-02-01,0.0,1.912664771080017,1.7287547588348389,1.9053083658218384,0.009457798674702644,21629700.0
1985-03-01,0.0,1.9568032026290894,1.8023186922073364,1.890595555305481,0.009384766221046448,17984900.0
1985-03-04,,,,,,
1985-04-01,0.0,1.942090392112732,1.7949622869491577,1.8832391500473022,0.010951464995741844,24917600.0
1985-05-01,0.0,2.2951977252960205,1.8538135290145874,2.2510592937469482,0.013090413063764572,38538500.0
1985-06-01,0.0,2.280484914779663,2.0156543254852295,2.236346483230591,0.013004861772060394,17148900.0
1985-06-04,,,,,,
1985-07-01,2.2142772674560547,2.41290020942688,2.1480696201324463,2.206920862197876,0.014698617160320282,36013300.0
1985-08-01,2.206920862197876,2.383474588394165,2.1627824306488037,2.3687617778778076,0.015776507556438446,18153000.0
1985-09-01,2.3687617778778076,2.4496822357177734,2.2657721042633057,2.287841320037842,0.015237572602927685,20375800.0
1985-09-04,,,,,,
1985-10-01,2.287841320037842,2.9278483390808105,2.258415699005127,2.8542842864990234,0.021549589931964874,24627100.0
1985-11-01,2.8542842864990234,3.097045660018921,2.7954330444335938,3.097045660018921,0.02338242158293724,13076100.0
1985-12-01,3.0823328495025635,3.1779661178588867,2.942561149597168,3.0529072284698486,0.023049181327223778,22676700.0
1985-12-04,,,,,,
1986-01-01,3.0529072284698486,3.200035333633423,2.8248586654663086,3.200035333633423,0.02699655294418335,22715500.0
1986-02-01,3.200035333633423,3.759121894836426,3.1558969020843506,3.7149834632873535,0.03134080395102501,23210400.0
1986-03-01,3.7149834632873535,4.031308650970459,3.597280979156494,3.700270652770996,0.031216692179441452,19935600.0
1986-03-04,,,,,,
1986-04-01,3.6708450317382812,3.700270652770996,3.119114875793457,3.244173765182495,0.02992645464837551,57486100.0
1986-05-01,3.244173765182495,3.50164794921875,3.0602636337280273,3.369232654571533,0.031080082058906555,23383200.0
1986-05-06,,,,,,
1986-06-01,3.369232654571533,3.854755163192749,3.325094223022461,3.751765489578247,0.03460882976651192,27619500.0
1986-06-04,,,,,,
1986-07-01,3.7959039211273193,4.237287998199463,3.2368173599243164,3.707627058029175,0.035846490412950516,32008300.0
1986-08-01,3.7664783000946045,4.163723945617676,3.67820143699646,4.090159893035889,0.0395449623465538,16681000.0
1986-09-01,4.016595840454102,4.1195855140686035,3.4133710861206055,3.5604989528656006,0.034424036741256714,24555000.0
1986-09-02,,,,,,
1986-10-01,3.5899245738983154,3.928319215774536,3.4133710861206055,3.884180784225464,0.03908231481909752,17690100.0
1986-11-01,3.9136064052581787,4.104872703552246,3.67820143699646,4.031308650970459,0.04056267440319061,13506900.0
1986-12-01,4.031308650970459,4.163723945617676,3.575211763381958,3.6340630054473877,0.0365656279027462,26890700.0
1986-12-02,,,,,,
1987-01-01,3.67820143699646,4.104872703552246,3.6634886264801025,3.957744836807251,0.04171255975961685,22658600.0
1987-02-01,3.928319215774536,4.619821071624756,3.8988935947418213,4.619821071624756,0.04869052395224571,33647400.0
1987-03-01,4.619821071624756,4.899364471435547,4.325564861297607,4.546257019042969,0.04791520535945892,23193100.0
1987-03-04,,,,,,
1987-04-01,4.487405776977539,4.722810745239258,3.9724576473236084,4.325564861297607,0.0474943108856678,23548200.0
1987-05-01,4.296139240264893,4.472692966461182,4.060734272003174,4.340277671813965,0.0476558543741703,24274700.0
1987-06-01,4.325564861297607,5.22304630279541,4.207862377166748,4.796374797821045,0.052663758397102356,20035900.0
1987-06-02,,,,,,
1987-07-01,4.82580041885376,5.208333492279053,4.7080979347229,5.208333492279053,0.05964391678571701,19867600.0
1987-08-01,5.208333492279053,5.679142951965332,5.1641950607299805,5.267184734344482,0.060317859053611755,18182200.0
1987-09-01,5.017066955566406,5.414312839508057,4.296139240264893,4.546257019042969,0.052062079310417175,24001800.0
1987-09-01,,,,,,
1987-10-01,4.546257019042969,4.619821071624756,2.7218692302703857,3.192678928375244,0.03785504400730133,43893600.0
1987-11-01,3.1632533073425293,3.751765489578247,2.7218692302703857,2.7954330444335938,0.03314496576786041,22115100.0
1987-12-01,2.8837099075317383,2.9866995811462402,2.589453935623169,2.8837099075317383,0.03419164568185806,47651100.0
1987-12-02,,,,,,
1988-01-01,2.9278483390808105,3.472222328186035,2.913135528564453,3.3398070335388184,0.04281594604253769,40425400.0
1988-02-01,3.398658275604248,3.8694679737091064,3.192678928375244,3.854755163192749,0.04941750317811966,18176300.0
1988-03-01,3.854755163192749,3.987170457839966,3.5310733318328857,3.5899245738983154,0.04602242633700371,24462100.0
1988-03-02,,,,,,
1988-04-01,3.575211763381958,3.7664783000946045,3.3398070335388184,3.398658275604248,0.04610125347971916,20011300.0
1988-05-01,3.369232654571533,3.4133710861206055,3.1338276863098145,3.3839454650878906,0.04590170457959175,20114000.0
1988-06-01,3.4133710861206055,3.5899245738983154,3.3103814125061035,3.472222328186035,0.047099124640226364,24873400.0
1988-06-06,,,,,,
1988-07-01,3.5163605213165283,3.5163605213165283,3.3398070335388184,3.369232654571533,0.04871198534965515,18485300.0
1988-08-01,3.4133710861206055,3.9430320262908936,3.369232654571533,3.5310733318328857,0.05105185881257057,40179000.0
1988-09-01,3.5163605213165283,3.6193501949310303,3.2662429809570312,3.369232654571533,0.04871198534965515,37252300.0
1988-09-02,,,,,,
1988-10-01,3.369232654571533,3.987170457839966,3.369232654571533,3.6340630054473877,0.05584852024912834,44008100.0
1988-11-01,3.648775815963745,3.648775815963745,3.222104549407959,3.3398070335388184,0.05132634937763214,20559400.0
1988-12-01,3.325094223022461,3.545786142349243,3.2662429809570312,3.3839454650878906,0.05200466886162758,22376500.0
1988-12-05,,,,,,
1989-01-01,3.398658275604248,3.575211763381958,3.2662429809570312,3.575211763381958,0.058855485171079636,23440300.0
1989-02-01,3.5604989528656006,3.884180784225464,3.4133710861206055,3.6634886264801025,0.06030872091650963,32565100.0
1989-03-01,3.6634886264801025,4.104872703552246,3.6340630054473877,3.928319215774536,0.06466835737228394,30233600.0
1989-03-06,,,,,,
1989-04-01,3.928319215774536,3.957744836807251,3.648775815963745,3.751765489578247,0.06562530994415283,18133600.0
1989-05-01,3.7223398685455322,3.928319215774536,3.6193501949310303,3.781191110610962,0.06613998860120773,14984000.0
1989-06-01,3.781191110610962,4.149011135101318,3.707627058029175,3.751765489578247,0.06562530994415283,25542200.0
1989-06-05,,,,,,
1989-07-01,3.7223398685455322,4.3991289138793945,3.7223398685455322,4.340277671813965,0.08053326606750488,46057500.0
1989-08-01,4.340277671813965,4.516831398010254,4.090159893035889,4.134298324584961,0.07671137154102325,54198300.0
1989-09-01,4.134298324584961,4.25200080871582,4.1195855140686035,4.178436756134033,0.07753033190965652,14000500.0
1989-09-01,,,,,,
1989-10-01,4.193149566650391,4.31085205078125,3.7664783000946045,3.884180784225464,0.07612109184265137,15078700.0
1989-11-01,3.8988935947418213,3.9430320262908936,3.648775815963745,3.884180784225464,0.07612109184265137,11827800.0
1989-12-01,3.8988935947418213,3.9724576473236084,3.5604989528656006,3.751765489578247,0.07352609187364578,15719800.0
1989-12-04,,,,,,
1990-01-01,3.781191110610962,4.031308650970459,3.4427967071533203,3.751765489578247,0.07858403772115707,13970700.0
1990-02-01,3.751765489578247,3.7664783000946045,3.4133710861206055,3.604637384414673,0.07550229877233505,36529200.0
1990-03-01,3.6340630054473877,3.751765489578247,3.50164794921875,3.6634886264801025,0.07673497498035431,12856100.0
1990-03-05,,,,,,
1990-04-01,3.6340630054473877,3.6929142475128174,3.472222328186035,3.5604989528656006,0.08016009628772736,14437900.0
1990-05-01,3.5604989528656006,3.604637384414673,3.4575095176696777,3.545786142349243,0.07982882857322693,14665700.0
1990-06-01,3.545786142349243,3.575211763381958,2.8837099075317383,3.0749764442443848,0.0692291334271431,32562200.0
1990-06-04,,,,,,
1990-07-01,3.0308380126953125,3.1338276863098145,2.868997097015381,2.8984227180480957,0.0702713280916214,17827600.0
1990-08-01,2.8837099075317383,2.913135528564453,2.1922080516815186,2.3246233463287354,0.05635971575975418,15334200.0
1990-09-01,2.309910535812378,2.41290020942688,1.7213983535766602,1.8243879079818726,0.04423166438937187,14613800.0
1990-09-04,,,,,,
1990-10-01,1.7949622869491577,1.912664771080017,1.368290901184082,1.750823974609375,0.04756329208612442,42879200.0
1990-11-01,1.750823974609375,1.942090392112732,1.5889830589294434,1.8538135290145874,0.05036113038659096,30367100.0
1990-12-01,1.83910071849823,2.2657721042633057,1.83910071849823,2.1627824306488037,0.05875467509031296,26790400.0
1990-12-04,,,,,,
1991-01-01,2.1627824306488037,2.692443609237671,2.074505567550659,2.6483051776885986,0.08276210725307465,19906700.0
1991-02-01,2.618879556655884,3.0602636337280273,2.5747411251068115,3.04555082321167,0.09517647325992584,23029200.0
1991-03-01,3.016125202178955,3.1779661178588867,2.7807202339172363,3.148540496826172,0.0983949676156044,19567800.0
1991-03-04,,,,,,
1991-04-01,3.089689254760742,3.50164794921875,2.942561149597168,3.2809557914733887,0.11175092309713364,26678900.0
1991-05-01,3.251530170440674,3.67820143699646,3.1338276863098145,3.648775815963745,0.12427901476621628,15272400.0
1991-06-01,3.6340630054473877,3.751765489578247,3.3839454650878906,3.3839454650878906,0.11525879055261612,22374900.0
1991-06-04,,,,,,
1991-07-01,3.398658275604248,3.6340630054473877,3.369232654571533,3.398658275604248,0.12427476793527603,28192000.0
1991-08-01,3.369232654571533,4.060734272003174,3.295668601989746,3.8106167316436768,0.13933828473091125,24772500.0
1991-09-01,3.8400423526763916,4.25200080871582,3.6193501949310303,4.25200080871582,0.15547801554203033,15933300.0
1991-09-04,,,,,,
1991-10-01,4.266713619232178,4.560969829559326,3.9430320262908936,4.36970329284668,0.17104704678058624,19433400.0
1991-11-01,4.36970329284668,4.649246692657471,3.987170457839966,4.134298324584961,0.16183237731456757,20088700.0
1991-12-01,4.104872703552246,4.8846516609191895,4.104872703552246,4.663959503173828,0.18256546556949615,20106400.0
1991-12-04,,,,,,
1992-01-01,4.634533882141113,5.031779766082764,4.560969829559326,4.663959503173828,0.19503647089004517,24648600.0
1992-02-01,4.6786723136901855,5.237759113311768,4.531544208526611,4.972928524017334,0.20795674622058868,24059800.0
1992-03-01,4.943502902984619,5.5173020362854,4.840513229370117,5.237759113311768,0.2190314680337906,21506500.0
1992-03-04,,,,,,
1992-04-01,5.178907871246338,5.63500452041626,5.002354145050049,5.355461597442627,0.23657403886318207,24901900.0
1992-05-01,5.370174407958984,5.532014846801758,5.237759113311768,5.4437384605407715,0.24047347903251648,25680500.0
1992-06-01,5.399600028991699,5.458451271057129,4.76694917678833,5.178907871246338,0.2287748008966446,20162500.0
1992-06-03,,,,,,
1992-07-01,5.134769439697266,5.532014846801758,5.0612053871154785,5.5173020362854,0.2565149962902069,33713000.0
1992-08-01,5.502589225769043,5.796845436096191,5.311323165893555,5.57615327835083,0.259251207113266,35655800.0
1992-09-01,5.532014846801758,5.914547920227051,5.502589225769043,5.605578899383545,0.26061922311782837,19706300.0
1992-09-01,,,,,,
1992-10-01,5.620291709899902,6.046963214874268,5.311323165893555,5.914547920227051,0.2889765202999115,18406500.0
1992-11-01,5.958686351776123,6.767890930175781,5.914547920227051,6.738465309143066,0.32923200726509094,19862700.0
1992-12-01,6.723752498626709,6.753178119659424,6.09110164642334,6.267655372619629,0.306228905916214,30342400.0
1992-12-02,,,,,,
1993-01-01,6.238229751586914,6.517773151397705,6.09110164642334,6.355932235717773,0.32504475116729736,39855400.0
1993-02-01,6.370645046234131,6.650188446044922,5.267184734344482,5.899835109710693,0.3017198443412781,44725400.0
1993-03-01,5.914547920227051,6.444209098815918,5.826271057128906,6.1499528884887695,0.31451088190078735,50090400.0
1993-03-03,,,,,,
1993-04-01,6.164665699005127,6.179378509521484,5.502589225769043,5.649717330932617,0.30412793159484863,50700600.0
1993-05-01,5.664430141448975,5.929260730743408,5.473163604736328,5.885122299194336,0.3167998790740967,25650800.0
1993-06-01,5.8704094886779785,5.899835109710693,5.384887218475342,5.429025650024414,0.29224780201911926,43241900.0
1993-06-02,,,,,,
1993-07-01,5.458451271057129,5.561440467834473,4.752236366271973,5.178907871246338,0.29375848174095154,68037400.0
1993-08-01,5.1641950607299805,5.5173020362854,5.017066955566406,5.414312839508057,0.3071111738681793,38178900.0
1993-09-01,5.414312839508057,5.473163604736328,4.855226039886475,5.193620681762695,0.29459309577941895,64348400.0
1993-09-03,,,,,,
1993-10-01,5.193620681762695,5.4437384605407715,4.649246692657471,4.663959503173828,0.28153353929519653,46092300.0
1993-11-01,4.722810745239258,5.237759113311768,4.649246692657471,5.134769439697266,0.3099534213542938,36241200.0
1993-12-01,5.134769439697266,5.429025650024414,5.120056629180908,5.429025650024414,0.32771557569503784,42063300.0
1993-12-06,,,,,,
1994-01-01,5.370174407958984,5.5908660888671875,5.296610355377197,5.458451271057129,0.3510611653327942,34021000.0
1994-02-01,5.4437384605407715,6.105814456939697,5.237759113311768,6.002824783325195,0.38607272505760193,41531100.0
1994-03-01,6.002824783325195,6.061676025390625,5.5908660888671875,5.885122299194336,0.37850266695022583,30443400.0
1994-03-02,,,,,,
1994-04-01,5.767419815063477,6.326506614685059,5.708568572998047,5.899835109710693,0.40115270018577576,28712900.0
1994-05-01,5.885122299194336,5.958686351776123,5.605578899383545,5.782132625579834,0.3931495249271393,19777800.0
1994-06-01,5.767419815063477,5.914547920227051,5.414312839508057,5.5908660888671875,0.38014474511146545,15437200.0
1994-06-06,,,,,,
1994-07-01,5.620291709899902,6.046963214874268,5.473163604736328,6.03225040435791,0.43367844820022583,13617100.0
1994-08-01,6.017537593841553,6.223516941070557,5.885122299194336,6.223516941070557,0.44742918014526367,17196300.0
1994-09-01,6.179378509521484,6.208804130554199,5.782132625579834,5.811558246612549,0.4178121089935303,20123200.0
1994-09-02,,,,,,
1994-10-01,5.855696678161621,6.046963214874268,5.546727657318115,5.958686351776123,0.451668381690979,22537800.0
1994-11-01,5.9733991622924805,6.09110164642334,5.649717330932617,5.708568572998047,0.4327095150947571,16668900.0
1994-12-01,5.679142951965332,5.782132625579834,5.208333492279053,5.723281383514404,0.4338248670101166,29582900.0
1994-12-05,,,,,,
1995-01-01,5.723281383514404,5.855696678161621,5.546727657318115,5.649717330932617,0.455671101808548,23707900.0
1995-02-01,5.679142951965332,6.164665699005127,5.605578899383545,6.061676025390625,0.48889678716659546,16680000.0
1995-03-01,6.061676025390625,6.2529425621032715,5.811558246612549,6.2529425621032715,0.5043231844902039,32379600.0
1995-03-06,,,,,,
1995-04-01,6.223516941070557,6.267655372619629,5.943973541259766,5.943973541259766,0.508262574672699,12270400.0
1995-05-01,5.988111972808838,6.297080993652344,5.9733991622924805,6.267655372619629,0.5359401702880859,13902400.0
1995-06-01,6.267655372619629,6.326506614685059,6.09110164642334,6.326506614685059,0.5409725308418274,21250700.0
1995-06-06,,,,,,
1995-07-01,6.326506614685059,6.650188446044922,6.311793804168701,6.503060340881348,0.5889434218406677,20550000.0
1995-08-01,6.517773151397705,6.723752498626709,6.311793804168701,6.444209098815918,0.5836140513420105,18622100.0
1995-09-01,6.444209098815918,6.709039688110352,5.649717330932617,6.002824783325195,0.5436403751373291,48524200.0
1995-09-06,,,,,,
1995-10-01,6.002824783325195,6.061676025390625,5.502589225769043,5.63500452041626,0.5384155511856079,34431200.0
1995-11-01,5.63500452041626,6.1499528884887695,5.532014846801758,6.120527267456055,0.5848064422607422,19319700.0
1995-12-01,6.120527267456055,6.311793804168701,6.002824783325195,6.208804130554199,0.5932409763336182,28447100.0
1995-12-06,,,,,,
1996-01-01,6.164665699005127,6.223516941070557,5.605578899383545,5.943973541259766,0.6034297943115234,29338000.0
1996-02-01,5.914547920227051,6.414783477783203,5.782132625579834,6.326506614685059,0.6422643065452576,18440400.0
1996-03-01,6.311793804168701,6.679614067077637,6.267655372619629,6.503060340881348,0.6601877808570862,21263500.0
1996-03-06,,,,,,
1996-04-01,6.54719877243042,6.767890930175781,6.326506614685059,6.709039688110352,0.7205412983894348,16715000.0
1996-05-01,6.709039688110352,7.209274768829346,6.679614067077637,7.165136337280273,0.7695252895355225,18992600.0
1996-06-01,7.194561958312988,7.459392547607422,6.885593414306641,7.018008708953857,0.7537237405776978,21865400.0
1996-06-06,,,,,,
1996-07-01,7.047433853149414,7.0621466636657715,6.179378509521484,6.591337203979492,0.7442483305931091,18320800.0
1996-08-01,6.620762825012207,7.194561958312988,6.598693370819092,6.9150190353393555,0.7807963490486145,15142900.0
1996-09-01,6.885593414306641,7.3416900634765625,6.767890930175781,7.076859474182129,0.7990701794624329,23809000.0
1996-09-05,,,,,,
1996-10-01,7.047433853149414,7.7242231369018555,6.94444465637207,7.694797515869141,0.9158218502998352,24401800.0
1996-11-01,7.709510326385498,8.121468544006348,7.709510326385498,7.989053726196289,0.9508441686630249,21962700.0
1996-12-01,7.989053726196289,8.224458694458008,7.503530979156494,7.944915294647217,0.9455903768539429,24120900.0
1996-12-06,,,,,,
1997-01-01,7.9007768630981445,8.092042922973633,7.650659084320068,7.827212810516357,0.9773967862129211,21652600.0
1997-02-01,7.797787189483643,8.401012420654297,7.783074378967285,8.180319786071777,1.0214898586273193,22780200.0
1997-03-01,8.150894165039062,8.239171028137207,7.841925621032715,7.87135124206543,0.9829084277153015,26764200.0
1997-03-06,,,,,,
1997-04-01,7.87135124206543,8.56285285949707,7.591807842254639,8.489289283752441,1.1117138862609863,31462100.0
1997-05-01,8.50400161743164,9.224929809570312,8.489289283752441,9.195504188537598,1.204195499420166,30299100.0
1997-06-01,9.180790901184082,10.1150541305542,9.033662796020508,9.975282669067383,1.3063114881515503,27331300.0
1997-06-06,,,,,,
1997-07-01,9.945857048034668,10.600576400756836,9.931143760681152,10.56379508972168,1.4432123899459839,20009400.0
1997-08-01,10.534369468688965,10.659427642822266,10.181262016296387,10.40195369720459,1.4211018085479736,18572200.0
1997-09-01,10.365171432495117,11.358285903930664,10.357815742492676,10.902189254760742,1.489443063735962,25326300.0
1997-09-05,,,,,,
1997-10-01,10.9095458984375,11.19644546508789,9.813441276550293,10.51965618133545,1.4904621839523315,26788400.0
1997-11-01,10.615289688110352,11.15230655670166,10.541725158691406,10.902189254760742,1.5446616411209106,19215000.0
1997-11-25,,,,,,
1997-12-01,10.872763633728027,11.049317359924316,10.181262016296387,10.946327209472656,1.5509148836135864,22468600.0
1997-12-05,,,,,,
1998-01-01,10.828625679016113,10.975752830505371,10.063559532165527,10.122410774230957,1.4609075784683228,14353400.0
1998-02-01,10.210687637329102,11.299434661865234,9.59274959564209,11.299434661865234,1.6307809352874756,24711000.0
1998-03-01,11.225871086120605,12.535310745239258,11.108168601989746,12.373470306396484,1.7857896089553833,22795800.0
1998-03-06,,,,,,
1998-04-01,12.373470306396484,12.550023078918457,11.652542114257812,12.24105453491211,1.7987678050994873,16518900.0
1998-05-01,12.299905776977539,12.87370491027832,11.799670219421387,12.564736366271973,1.84633207321167,11907200.0
1998-06-01,12.520597457885742,12.770715713500977,11.784957885742188,12.18220329284668,1.7901201248168945,18928200.0
1998-06-05,,,,,,
1998-07-01,12.10863971710205,12.299905776977539,10.931614875793457,11.122880935668945,1.661539077758789,16107200.0
1998-08-01,11.137594223022461,11.343573570251465,8.915960311889648,8.974811553955078,1.3406603336334229,18354300.0
1998-09-01,8.915960311889648,9.622175216674805,8.6217041015625,8.827683448791504,1.3186817169189453,22235600.0
1998-09-03,,,,,,
1998-10-01,8.73940658569336,9.989995002746582,7.87135124206543,9.887005805969238,1.5096535682678223,22059100.0
1998-11-01,10.004708290100098,11.932085990905762,9.960569381713867,11.593690872192383,1.770248293876648,16979600.0
1998-12-01,11.549552917480469,11.873234748840332,10.240113258361816,11.0346040725708,1.684881329536438,24881200.0
1998-12-04,,,,,,
1999-01-01,11.09345531463623,11.417137145996094,9.681026458740234,10.034133911132812,1.5614835023880005,30562200.0
1999-02-01,10.034133911132812,11.961511611938477,9.622175216674805,11.446562767028809,1.7812806367874146,26165000.0
1999-03-01,11.32886028289795,11.946798324584961,10.784486770629883,11.181732177734375,1.7400697469711304,25566000.0
1999-03-05,,,,,,
1999-04-01,11.078742980957031,12.579448699951172,10.902189254760742,12.12335205078125,1.9232014417648315,21879600.0
1999-05-01,12.152777671813965,12.947269439697266,10.416666984558105,10.828625679016113,1.7178112268447876,23697000.0
1999-06-01,10.769774436950684,11.108168601989746,8.827683448791504,10.063559532165527,1.5964443683624268,54771600.0
1999-06-04,,,,,,
1999-07-01,9.975282669067383,10.210687637329102,8.548140525817871,9.298493385314941,1.5044935941696167,39353200.0
1999-08-01,9.298493385314941,9.725164413452148,8.430438041687012,8.474575996398926,1.3711847066879272,27239700.0
1999-09-01,8.518714904785156,8.886534690856934,7.0621466636657715,7.29755163192749,1.1807420253753662,38762000.0
1999-09-08,,,,,,
1999-10-01,7.591807842254639,7.6212334632873535,6.5324859619140625,7.076859474182129,1.1749821901321411,26434300.0
1999-11-01,7.120997905731201,7.680084705352783,6.686970233917236,7.032721042633057,1.1676527261734009,25796700.0
1999-12-01,7.091572284698486,7.503530979156494,6.458921909332275,7.0621466636657715,1.1725393533706665,29232000.0
1999-12-08,,,,,,
2000-01-01,7.0032958984375,7.150423526763916,6.03225040435791,6.105814456939697,1.0464242696762085,23789000.0
2000-02-01,6.164665699005127,6.4294962882995605,5.237759113311768,5.811558246612549,0.9959942698478699,33564400.0
2000-03-01,5.796845436096191,6.503060340881348,4.928790092468262,5.664430141448975,0.9707788228988647,34883800.0
2000-03-08,,,,,,
2000-04-01,5.767419815063477,6.973870277404785,5.561440467834473,6.650188446044922,1.190132975578308,23245400.0
2000-05-01,6.620762825012207,7.179849147796631,6.591337203979492,6.753178119659424,1.2085644006729126,23964200.0
2000-06-01,6.738465309143066,7.35640287399292,5.384887218475342,5.605578899383545,1.0031871795654297,32146500.0
2000-06-07,,,,,,
2000-07-01,5.5908660888671875,6.54719877243042,5.134769439697266,5.178907871246338,0.9589065909385681,23886500.0
2000-08-01,5.237759113311768,5.679142951965332,5.1641950607299805,5.384887218475342,0.9970450401306152,16303900.0
2000-09-01,5.399600028991699,6.09110164642334,5.384887218475342,5.811558246612549,1.0760457515716553,22764000.0
2000-09-06,,,,,,
2000-10-01,5.767419815063477,6.48834753036499,5.296610355377197,6.4294962882995605,1.2389582395553589,18714000.0
2000-11-01,6.370645046234131,6.826742172241211,6.120527267456055,6.341219425201416,1.2219477891921997,14357900.0
2000-12-01,6.400070667266846,8.686440467834473,6.400070667266846,8.531073570251465,1.6439300775527954,23901500.0
2000-12-06,,,,,,
2001-01-01,8.472222328186035,8.693502426147461,7.718926429748535,8.206214904785156,1.6346937417984009,22283800.0
2001-02-01,8.2532958984375,8.627589225769043,8.003766059875488,8.495762825012207,1.6923714876174927,15798600.0
2001-03-01,8.396892547607422,8.615818977355957,7.841337203979492,8.239171028137207,1.6412588357925415,17909800.0
2001-03-07,,,,,,
2001-04-01,8.20386028289795,9.691619873046875,8.053201675415039,9.555085182189941,1.9571665525436401,23239500.0
2001-05-01,9.555085182189941,10.051789283752441,9.369114875793457,9.736346244812012,1.9942940473556519,20114400.0
2001-06-01,9.769303321838379,9.858757019042969,8.335687637329102,8.564029693603516,1.7541674375534058,26990400.0
2001-06-06,,,,,,
2001-07-01,8.592278480529785,9.404425621032715,8.168549537658691,8.618173599243164,1.808223009109497,20594300.0
2001-08-01,8.568737983703613,8.792372703552246,7.671845436096191,8.137947082519531,1.7074646949768066,27882400.0
2001-09-01,8.097928047180176,8.321562767028809,6.661958694458008,6.89030122756958,1.4456894397735596,26929200.0
2001-09-06,,,,,,
2001-10-01,6.880885124206543,8.229755401611328,6.62664794921875,7.820150852203369,1.6894201040267944,33501500.0
2001-11-01,7.820150852203369,9.406779289245605,7.678907871246338,8.940677642822266,1.9314912557601929,20242900.0
2001-12-01,8.940677642822266,9.65160083770752,8.790019035339355,9.183144569396973,1.9838725328445435,20434500.0
2001-12-06,,,,,,
2002-01-01,9.239642143249512,9.736346244812012,9.180790901184082,9.56214714050293,2.1214215755462646,21784800.0
2002-02-01,9.569209098815918,10.02824878692627,9.239642143249512,9.898776054382324,2.1961052417755127,20580700.0
2002-03-01,9.863465309143066,10.588512420654297,9.85169506072998,10.181262016296387,2.2587766647338867,19621400.0
2002-03-06,,,,,,
2002-04-01,10.098870277404785,10.510828971862793,9.898776054382324,10.303672790527344,2.3407962322235107,29065800.0
2002-05-01,10.303672790527344,10.743879318237305,9.91054630279541,10.004708290100098,2.2728772163391113,43257100.0
2002-06-01,10.016478538513184,10.091808319091797,8.992466926574707,9.230225563049316,2.0969295501708984,28966500.0
2002-06-06,,,,,,
2002-07-01,9.180790901184082,9.310263633728027,7.975517749786377,9.081920623779297,2.1142184734344482,36532000.0
2002-08-01,9.065442085266113,10.13888931274414,8.587570190429688,9.559792518615723,2.2254648208618164,39080600.0
2002-09-01,9.557438850402832,9.6727876663208,8.321562767028809,8.469867706298828,1.9717355966567993,30597000.0
2002-09-06,,,,,,
2002-10-01,8.469867706298828,9.180790901184082,7.41525411605835,8.667608261108398,2.0699803829193115,59969200.0
2002-11-01,8.686440467834473,9.263182640075684,8.396892547607422,8.912429809570312,2.1284472942352295,26550200.0
2002-12-01,8.938323974609375,9.09839916229248,8.208568572998047,8.486346244812012,2.0266919136047363,31942500.0
2002-12-06,,,,,,
2003-01-01,8.495762825012207,8.945385932922363,8.121468544006348,8.293314933776855,2.0392844676971436,31433400.0
2003-02-01,8.321562767028809,8.434557914733887,7.678907871246338,7.968455791473389,1.9594030380249023,38761200.0
2003-03-01,8.003766059875488,9.263182640075684,7.737759113311768,8.858285903930664,2.1782076358795166,38064300.0
2003-03-06,,,,,,
2003-04-01,8.83945369720459,9.456214904785156,8.625235557556152,9.260828971862793,2.3515384197235107,34927600.0
2003-05-01,9.234933853149414,9.234933853149414,8.451035499572754,8.961864471435547,2.2756247520446777,46457500.0
2003-06-01,8.971281051635742,9.239642143249512,7.888418197631836,7.9967041015625,2.0305471420288086,60353100.0
2003-06-06,,,,,,
2003-07-01,7.973163604736328,9.121939659118652,7.8695855140686035,8.975988388061523,2.3430464267730713,58251600.0
2003-08-01,8.964218139648438,9.486817359924316,8.667608261108398,9.439736366271973,2.464099884033203,29747200.0
2003-09-01,9.496233940124512,9.790489196777344,8.990113258361816,9.1596040725708,2.3909764289855957,31684200.0
2003-09-05,,,,,,
2003-10-01,9.136063575744629,10.37664794921875,9.136063575744629,9.992938041687012,2.6777825355529785,40502200.0
2003-11-01,10.00235366821289,10.247175216674805,9.45386028289795,9.715160369873047,2.6033475399017334,28574800.0
2003-12-01,9.715160369873047,10.200094223022461,9.47504711151123,10.17890739440918,2.72761607170105,27863300.0
2003-12-05,,,,,,
2004-01-01,10.17890739440918,10.313088417053223,9.91054630279541,10.004708290100098,2.7551748752593994,30509400.0
2004-02-01,9.981167793273926,10.706214904785156,9.901129722595215,10.576742172241211,2.9127063751220703,39999000.0
2004-03-01,10.63559341430664,11.073446273803711,10.016478538513184,10.993408203125,3.0274505615234375,41143600.0
2004-03-05,,,,,,
2004-04-01,11.016948699951172,11.414783477783203,10.6661958694458,10.866290092468262,3.0666887760162354,34437500.0
2004-05-01,10.913371086120605,11.092278480529785,10.240113258361816,11.059322357177734,3.121168375015259,31056300.0
2004-06-01,11.059322357177734,11.876176834106445,10.887476921081543,11.464218139648438,3.2354376316070557,30928600.0
2004-06-09,,,,,,
2004-07-01,11.464218139648438,11.79613971710205,10.798022270202637,11.772599220275879,3.400205373764038,30463500.0
2004-08-01,11.80555534362793,11.880885124206543,11.061676025390625,11.614877700805664,3.3546526432037354,26171800.0
2004-09-01,11.614877700805664,12.010357856750488,11.259416580200195,11.640771865844727,3.362131357192993,25708000.0
2004-09-08,,,,,,
2004-10-01,11.664312362670898,12.791902542114258,11.099340438842773,12.671845436096191,3.742048501968384,35773100.0
2004-11-01,12.676553726196289,13.015536308288574,12.570621490478516,12.709510803222656,3.7531700134277344,46813100.0
2004-12-01,12.709510803222656,13.090866088867188,12.401129722595215,13.036723136901855,3.8497977256774902,46395800.0
2004-12-08,,,,,,
2005-01-01,12.987288475036621,13.029661178588867,12.288135528564453,12.511770248413086,3.7750332355499268,39431800.0
2005-02-01,12.634181022644043,14.298493385314941,12.554142951965332,14.06779670715332,4.244515419006348,46482500.0
2005-03-01,14.053672790527344,14.27730655670166,13.347457885742188,13.921845436096191,4.200479030609131,46782300.0
2005-03-09,,,,,,
2005-04-01,13.935970306396484,14.107815742492676,13.180319786071777,13.321562767028809,4.098392963409424,39713000.0
2005-05-01,13.40395450592041,13.535781860351562,12.853107452392578,13.28389835357666,4.086805820465088,41932400.0
2005-06-01,13.28389835357666,14.023069381713867,13.25564956665039,13.469867706298828,4.144018173217773,34900100.0
2005-06-08,,,,,,
2005-07-01,13.493408203125,14.5032958984375,13.243879318237305,13.89830493927002,4.362700462341309,34915900.0
2005-08-01,13.874764442443848,14.145480155944824,13.4227876663208,13.961864471435547,4.382650852203369,42204600.0
2005-09-01,13.94774055480957,14.359698295593262,13.069680213928223,13.646421432495117,4.283633708953857,40486700.0
2005-09-07,,,,,,
2005-10-01,13.66054630279541,13.735876083374023,11.873823165893555,12.299905776977539,3.9369540214538574,51746400.0
2005-11-01,12.252824783325195,13.531073570251465,12.208097457885742,13.335687637329102,4.268486499786377,36575800.0
2005-12-01,13.359228134155273,13.999528884887695,12.975518226623535,13.02730655670166,4.169778823852539,37390800.0
2005-12-07,,,,,,
2006-01-01,13.050847053527832,13.735876083374023,12.754237174987793,13.060263633728027,4.270933151245117,38740100.0
2006-02-01,12.96374797821045,13.81120491027832,12.841337203979492,12.900188446044922,4.218585968017578,51647500.0
2006-03-01,12.9096040725708,13.451035499572754,12.542372703552246,13.394538879394531,4.380248069763184,47908100.0
2006-03-08,,,,,,
2006-04-01,13.396892547607422,14.9128999710083,13.180319786071777,14.404425621032715,4.820218086242676,48472700.0
2006-05-01,14.406779289245605,14.889359474182129,14.21845531463623,14.814029693603516,4.95728874206543,50341000.0
2006-06-01,14.79284381866455,16.000471115112305,14.644538879394531,15.988700866699219,5.350373268127441,57334600.0
2006-06-07,,,,,,
2006-07-01,16.03107261657715,16.494821548461914,14.632768630981445,15.965160369873047,5.543419361114502,57878700.0
2006-08-01,15.882768630981445,16.560733795166016,15.590866088867188,16.45244789123535,5.712615966796875,36845700.0
2006-09-01,16.478342056274414,17.730697631835938,16.25470733642578,17.172786712646484,5.962732315063477,53625000.0
2006-09-06,,,,,,
2006-10-01,17.231637954711914,18.49576187133789,17.18455696105957,17.893125534057617,6.426209926605225,68507300.0
2006-11-01,17.93785285949707,18.596986770629883,17.612995147705078,18.45339012145996,6.627424240112305,46886900.0
2006-12-01,18.406309127807617,19.56214714050293,18.107345581054688,19.32203483581543,6.939390182495117,42142800.0
2006-12-06,,,,,,
2007-01-01,19.460922241210938,19.606874465942383,17.32344627380371,17.860170364379883,6.608997344970703,79539000.0
2007-02-01,17.93549919128418,19.060733795166016,17.570621490478516,18.764123916625977,6.94349479675293,72909700.0
2007-03-01,18.109699249267578,19.571563720703125,18.107345581054688,19.44915199279785,7.1969828605651855,69288000.0
2007-03-07,,,,,,
2007-04-01,19.42561149597168,21.346515655517578,19.42561149597168,20.6709041595459,7.879491329193115,50435900.0
2007-05-01,20.3389835357666,22.099811553955078,19.870527267456055,22.076271057128906,8.41519832611084,64523100.0
2007-06-01,22.12335205078125,22.387004852294922,21.353578567504883,21.558380126953125,8.21778392791748,49839500.0
2007-06-06,,,,,,
2007-07-01,21.60546112060547,22.645950317382812,20.070621490478516,20.19538688659668,7.893595218658447,57132100.0
2007-08-01,20.193031311035156,22.06685447692871,18.460451126098633,18.797080993652344,7.347050666809082,74966600.0
2007-09-01,18.797080993652344,20.95339012145996,18.425140380859375,19.00894546508789,7.429861545562744,49034900.0
2007-09-06,,,,,,
2007-10-01,19.00894546508789,20.564971923828125,18.217985153198242,20.510828018188477,8.254364013671875,94398700.0
2007-11-01,20.51318359375,20.51318359375,17.158662796020508,17.605932235717773,7.085322380065918,70860800.0
2007-12-01,17.716571807861328,17.890771865844727,16.042842864990234,16.162900924682617,6.504589080810547,76336500.0
2007-12-06,,,,,,
2008-01-01,16.12994384765625,18.42984962463379,14.990583419799805,18.19679832458496,7.578652858734131,117067100.0
2008-02-01,18.300376892089844,19.606874465942383,17.36111068725586,17.900188446044922,7.455117702484131,92050300.0
2008-03-01,17.81308937072754,18.761770248413086,16.977401733398438,18.246232986450195,7.599242687225342,81701900.0
2008-03-06,,,,,,
2008-04-01,18.31450080871582,18.801788330078125,17.1610164642334,17.509416580200195,7.532810688018799,90026100.0
2008-05-01,17.610639572143555,18.540489196777344,17.12805938720703,17.82015037536621,7.6664958000183105,53908600.0
2008-06-01,17.730697631835938,17.787193298339844,16.346515655517578,16.756120681762695,7.2087321281433105,74240900.0
2008-06-06,,,,,,
2008-07-01,17.375234603881836,18.328624725341797,15.419020652770996,16.850282669067383,7.49564790725708,124074900.0
2008-08-01,16.989171981811523,18.860639572143555,16.643125534057617,18.655838012695312,8.29882526397705,70231200.0
2008-09-01,18.844161987304688,19.915254592895508,17.747175216674805,18.19915199279785,8.095673561096191,103277100.0
2008-09-05,,,,,,
2008-10-01,18.048494338989258,18.288606643676758,10.416666984558105,12.970809936523438,5.946033954620361,162868400.0
2008-11-01,13.13559341430664,13.533427238464355,8.997175216674805,12.309322357177734,5.642796516418457,90865700.0
2008-12-01,12.111581802368164,13.604048728942871,11.07109260559082,12.893126487731934,5.9104228019714355,97236400.0
2008-12-05,,,,,,
2009-01-01,13.064971923828125,14.027777671813965,11.511299133300781,13.187382698059082,6.343902587890625,113617200.0
2009-02-01,13.013182640075684,14.119585990905762,11.83615779876709,12.217514038085938,5.877340316772461,125193500.0
2009-03-01,11.989171028137207,14.030132293701172,10.84274959564209,13.443973541259766,6.467339992523193,124891900.0
2009-03-06,,,,,,
2009-04-01,13.302730560302734,16.412429809570312,13.182674407958984,13.952447891235352,7.081149578094482,126013400.0
2009-05-01,13.983051300048828,14.362052917480469,12.540019035339355,13.375706672668457,6.788442611694336,117196600.0
2009-06-01,13.538135528564453,14.239642143249512,12.806026458740234,13.029661178588867,6.6128153800964355,129170300.0
2009-06-05,,,,,,
2009-07-01,13.102636337280273,15.642655372619629,12.601223945617676,15.22834300994873,8.067731857299805,99252500.0
2009-08-01,15.310734748840332,16.770244598388672,15.025894165039062,16.374765396118164,8.67508602142334,76854500.0
2009-09-01,16.315914154052734,17.375234603881836,15.953390121459961,17.050376892089844,9.033019065856934,73599000.0
2009-09-03,,,,,,
2009-10-01,16.958568572998047,18.782957077026367,16.148775100708008,16.723163604736328,9.19497013092041,104341200.0
2009-11-01,16.810264587402344,18.187381744384766,16.523069381713867,17.11864471435547,9.412420272827148,78221500.0
2009-12-01,17.328153610229492,17.846044540405273,16.64548110961914,17.24105453491211,9.479723930358887,50428900.0
2009-12-04,,,,,,
2010-01-01,17.41996192932129,17.926082611083984,16.895009994506836,16.956214904785156,9.658453941345215,55856000.0
2010-02-01,17.017419815063477,18.29096031188965,16.537193298339844,18.21563148498535,10.375828742980957,66536300.0
2010-03-01,18.227401733398438,19.06544303894043,18.145009994506836,18.86770248413086,10.747255325317383,74749400.0
2010-03-05,,,,,,
2010-04-01,18.971281051635742,21.005178451538086,18.954801559448242,20.343690872192383,11.979606628417969,69301800.0
2010-05-01,20.388418197631836,20.63559341430664,17.63653564453125,18.208568572998047,10.722315788269043,97581900.0
2010-06-01,18.07438850402832,18.87240982055664,16.723163604736328,16.756120681762695,9.867023468017578,94932900.0
2010-06-04,,,,,,
2010-07-01,16.72551727294922,19.3290958404541,16.299434661865234,18.674671173095703,11.367717742919922,90576400.0
2010-08-01,18.94538688659668,19.176082611083984,16.499528884887695,16.612524032592773,10.112442016601562,77728900.0
2010-09-01,16.86440658569336,19.282014846801758,16.86205291748047,19.0725040435791,11.609892845153809,64027900.0
2010-09-08,,,,,,
2010-10-01,19.192562103271484,21.021657943725586,18.919490814208984,19.595104217529297,12.348618507385254,89264500.0
2010-11-01,19.715160369873047,20.131826400756836,18.4110164642334,19.510356903076172,12.295211791992188,79550800.0
2010-12-01,19.80461311340332,21.125234603881836,19.717514038085938,20.287193298339844,12.784768104553223,91307200.0
2010-12-08,,,,,,
2011-01-01,20.393125534057617,20.4307918548584,18.92655372619629,19.472692489624023,12.667330741882324,110936300.0
2011-02-01,19.56450080871582,23.596986770629883,19.48681640625,22.52118682861328,14.650429725646973,118451600.0
2011-03-01,22.63888931274414,23.389829635620117,21.70433235168457,23.19444465637207,15.088398933410645,94195300.0
2011-03-09,,,,,,
2011-04-01,23.041431427001953,25.628530502319336,22.75423812866211,23.67231559753418,15.837621688842773,85983700.0
2011-05-01,24.02777862548828,24.143125534057617,22.20103645324707,23.462806701660156,15.697454452514648,76249400.0
2011-06-01,23.479284286499023,25.830978393554688,21.56308937072754,25.55555534362793,17.097576141357422,104390600.0
2011-06-08,,,,,,
2011-07-01,25.451976776123047,30.908662796020508,25.451976776123047,27.49529266357422,18.935117721557617,103935200.0
2011-08-01,27.768362045288086,28.203861236572266,23.95009422302246,27.55649757385254,18.977262496948242,108281900.0
2011-09-01,27.648305892944336,31.266477584838867,25.3225040435791,28.606403350830078,19.700307846069336,102442200.0
2011-09-07,,,,,,
2011-10-01,28.33333396911621,33.545196533203125,27.285781860351562,32.53766632080078,22.9547176361084,99393500.0
2011-11-01,31.80790901184082,33.27212905883789,29.70574378967285,32.6483039855957,23.03277015686035,77635800.0
2011-12-01,32.47645950317383,33.427494049072266,29.555084228515625,29.894067764282227,21.089710235595703,109719100.0
2011-12-07,,,,,,
2012-01-01,30.845104217529297,31.916194915771484,30.348400115966797,30.95339012145996,22.327594757080078,69457600.0
2012-02-01,30.946327209472656,35.310733795166016,30.4307918548584,34.38088607788086,24.799949645996094,98720500.0
2012-03-01,34.6515998840332,35.89924621582031,33.940677642822266,34.36440658569336,24.788061141967773,94756900.0
2012-03-07,,,,,,
2012-04-01,34.194915771484375,36.68549728393555,33.66996383666992,35.79331588745117,26.375717163085938,64236200.0
2012-05-01,35.94868087768555,36.75847625732422,31.412429809570312,33.201507568359375,24.465835571289062,76381600.0
2012-06-01,32.4835205078125,34.09133529663086,31.174671173095703,31.414783477783203,23.149219512939453,74189400.0
2012-06-06,,,,,,
2012-07-01,31.160545349121094,36.0098876953125,30.49199676513672,35.14595031738281,26.48573112487793,94664500.0
2012-08-01,35.2401123046875,36.28766632080078,34.077213287353516,35.941619873046875,27.08534049987793,52295700.0
2012-09-01,35.87570571899414,38.68879318237305,35.409603118896484,37.51412582397461,28.270370483398438,47290100.0
2012-09-06,,,,,,
2012-10-01,37.443504333496094,39.97645950317383,36.01694869995117,36.836158752441406,28.332212448120117,55022200.0
2012-11-01,37.12335205078125,38.25564956665039,35.79096221923828,37.78483963012695,29.06187629699707,54524200.0
2012-12-01,38.07438659667969,38.20856857299805,34.3950080871582,35.53907775878906,27.334566116333008,63373000.0
2012-12-06,,,,,,
2013-01-01,36.024009704589844,36.6548957824707,33.61346435546875,34.74105453491211,27.3741455078125,89713700.0
2013-02-01,35.1082878112793,38.545196533203125,34.536251068115234,37.961395263671875,29.911611557006836,74129700.0
2013-03-01,37.95903778076172,39.74105453491211,37.51883316040039,39.48917007446289,31.11541175842285,54621300.0
2013-03-06,,,,,,
2013-04-01,39.49152374267578,42.11629104614258,38.72410583496094,41.953861236572266,33.818355560302734,50735300.0
2013-05-01,41.89265441894531,44.23493576049805,40.962806701660156,43.28154373168945,34.88857650756836,45384500.0
2013-06-01,43.26506423950195,45.9180793762207,41.37240982055664,45.447269439697266,36.634342193603516,47438500.0
2013-06-06,,,,,,
2013-07-01,45.65207290649414,47.210453033447266,44.931732177734375,46.37476348876953,38.142520904541016,44172000.0
2013-08-01,46.6384162902832,47.63418197631836,43.695858001708984,44.070152282714844,36.247005462646484,41761500.0
2013-09-01,44.44444274902344,48.24388122558594,44.312618255615234,46.85734558105469,38.539432525634766,43574100.0
2013-09-06,,,,,,
2013-10-01,46.98681640625,51.24529266357422,44.566856384277344,50.61205291748047,42.43902587890625,64438300.0
2013-11-01,50.61205291748047,55.83333206176758,50.569679260253906,55.22127914428711,46.30393600463867,44055200.0
2013-12-01,55.60028076171875,58.85122299194336,53.804141998291016,58.700565338134766,49.221378326416016,66229700.0
2013-12-06,,,,,,
2013-12-23,,,,,,
2014-01-01,59.34086608886719,59.74576187133789,54.12429428100586,55.03766632080078,47.05067825317383,49666100.0
2014-02-01,55.02824783325195,57.26930236816406,51.920902252197266,55.169490814208984,47.16337966918945,62882200.0
2014-03-01,54.519775390625,59.519775390625,54.50094223022461,58.26742172241211,49.811744689941406,47272300.0
2014-03-06,,,,,,
2014-04-01,58.446327209472656,59.293785095214844,54.20903778076172,57.52354049682617,49.4058952331543,47597300.0
2014-05-01,57.532955169677734,60.25423812866211,56.66666793823242,59.34086608886719,50.966758728027344,29853500.0
2014-06-01,59.416194915771484,60.33898162841797,57.702449798583984,59.3220329284668,50.95059585571289,29809200.0
2014-06-06,,,,,,
2014-07-01,59.35028076171875,59.9246711730957,56.61016845703125,57.693031311035156,49.76831817626953,39646500.0
2014-08-01,57.22222137451172,60.960453033447266,56.32768249511719,60.37664794921875,52.08332061767578,27377400.0
2014-09-01,60.39548110961914,63.86064147949219,60.225990295410156,62.175140380859375,53.634765625,32840000.0
2014-09-05,,,,,,
2014-10-01,62.22222137451172,64.3031997680664,58.1450080871582,63.72881317138672,55.210506439208984,46319400.0
2014-11-01,63.917137145996094,71.0263671875,63.29566955566406,70.78154754638672,61.32053756713867,30601800.0
2014-12-01,69.98117065429688,71.55367279052734,67.1092300415039,70.52730560302734,61.100284576416016,30932000.0
2014-12-05,,,,,,
2015-01-01,70.80037689208984,72.40113067626953,65.24481964111328,65.32015228271484,56.849483489990234,54552700.0
2015-02-01,64.33145141601562,73.2862548828125,63.88888931274414,72.18455505371094,62.82370376586914,68462500.0
2015-03-01,72.06214904785156,72.90960693359375,68.02259826660156,70.91336822509766,61.717376708984375,41632200.0
2015-03-06,,,,,,
2015-04-01,70.97928619384766,71.73258209228516,67.98493194580078,68.20150756835938,59.623558044433594,29036500.0
2015-05-01,68.46515655517578,68.71939849853516,64.44444274902344,66.31826782226562,57.9771842956543,45063600.0
2015-06-01,66.52542114257812,67.54237365722656,64.14312744140625,65.66854858398438,57.40917205810547,42620400.0
2015-06-05,,,,,,
2015-07-01,65.98870086669922,72.88135528564453,65.78154754638672,72.5894546508789,63.76687240600586,44114200.0
2015-08-01,71.97740173339844,72.84368896484375,63.25800323486328,68.20150756835938,59.912235260009766,39059000.0
2015-09-01,66.67608642578125,68.78530883789062,62.99435043334961,64.22787475585938,56.42155838012695,33007900.0
2015-09-03,,,,,,
2015-10-01,64.38794708251953,69.50093841552734,57.966102600097656,63.578155517578125,56.117279052734375,67109600.0
2015-11-01,63.700565338134766,66.24293518066406,57.59886932373047,60.922786712646484,53.77351379394531,48329000.0
2015-12-01,60.99811553955078,62.429378509521484,57.806026458740234,58.61581802368164,51.73725891113281,58738100.0
2015-12-04,,,,,,
2016-01-01,57.14689254760742,59.08662796020508,49.161956787109375,58.94538497924805,52.35047149658203,72527600.0
2016-02-01,58.220340728759766,61.99623489379883,51.88323974609375,61.3088493347168,54.44952392578125,75455600.0
2016-03-01,61.657249450683594,63.182674407958984,60.01883316040039,60.979286193847656,54.156822204589844,53393300.0
2016-03-04,,,,,,
2016-04-01,60.8286247253418,61.676082611083984,57.72127914428711,59.36911392211914,53.041015625,36597000.0
2016-05-01,58.8418083190918,62.43879318237305,56.01694869995117,58.681732177734375,52.426902770996094,62275900.0
2016-06-01,58.37099838256836,61.46892547607422,54.40678024291992,57.90018844604492,51.728660583496094,59599800.0
2016-06-08,,,,,,
2016-07-01,58.10734558105469,61.440677642822266,56.87382125854492,58.785308837890625,52.849857330322266,48704100.0
2016-08-01,58.436912536621094,61.39359664916992,55.28248596191406,58.427494049072266,52.528167724609375,48908900.0
2016-09-01,57.75894546508789,57.98493576049805,51.97740173339844,52.77777862548828,47.44889831542969,76898800.0
2016-09-07,,,,,,
2016-10-01,52.683616638183594,53.182674407958984,48.73823165893555,51.045196533203125,46.19489669799805,71728300.0
2016-11-01,51.11111068725586,54.943504333496094,49.5951042175293,51.32768249511719,46.45054244995117,63658000.0
2016-12-01,51.676082611083984,54.453861236572266,50.0,50.23540496826172,45.46204376220703,65507800.0
2016-12-07,,,,,,
2017-01-01,50.49905776977539,51.064029693603516,46.75141143798828,48.47457504272461,44.2166748046875,80332600.0
2017-02-01,47.787193298339844,50.800376892089844,45.24481964111328,49.38794708251953,45.04981231689453,103707300.0
2017-03-01,49.60451889038086,52.98493576049805,49.13370895385742,51.76082992553711,47.214271545410156,97512000.0
2017-03-08,,,,,,
2017-04-01,51.939735412597656,54.62335205078125,50.48964309692383,51.440677642822266,47.32339096069336,71854700.0
2017-05-01,51.421844482421875,52.532955169677734,48.22975540161133,50.65913391113281,46.60439682006836,77009000.0
2017-06-01,50.809791564941406,54.78342819213867,50.16007614135742,54.23728942871094,49.896148681640625,61419500.0
2017-06-07,,,,,,
2017-07-01,54.077213287353516,58.5687370300293,52.26930236816406,58.559322357177734,54.323307037353516,57525500.0
2017-08-01,58.40866470336914,60.49905776977539,56.506591796875,59.199623107910156,54.91728210449219,51133000.0
2017-09-01,59.3220329284668,60.74388122558594,57.966102600097656,59.85875701904297,55.52873611450195,45057500.0
2017-09-06,,,,,,
2017-09-07,,,,,,
2017-10-01,59.830509185791016,67.74952697753906,59.161956787109375,65.58380126953125,61.70127487182617,61024800.0
2017-11-01,65.6026382446289,70.49906158447266,64.35969543457031,68.7005615234375,64.6335220336914,44356600.0
2017-12-01,68.69114685058594,70.85687255859375,66.2335205078125,69.67984771728516,65.5548324584961,46343800.0
2017-12-07,,,,,,
2018-01-01,70.07533264160156,78.10734558105469,69.3973617553711,76.40301513671875,72.37324523925781,51923600.0
2018-02-01,75.67796325683594,79.453857421875,68.2768325805664,70.2165756225586,66.51309967041016,72767800.0
2018-03-01,70.14124298095703,72.08097839355469,67.87194061279297,69.7928466796875,66.1117172241211,60496400.0
2018-03-08,,,,,,
2018-04-01,69.53860473632812,77.14689636230469,68.04142761230469,76.14877319335938,72.61504364013672,44038200.0
2018-05-01,75.67796325683594,78.08850860595703,69.58568572998047,76.42184448242188,72.87545013427734,52402800.0
2018-06-01,76.80790710449219,80.17890930175781,76.00753021240234,76.76082611083984,73.19869995117188,44006400.0
2018-06-07,,,,,,
2018-07-01,76.07344818115234,88.95480346679688,75.76271057128906,86.69491577148438,83.1546401977539,48750500.0
2018-08-01,85.91336822509766,91.33709716796875,85.51789093017578,86.75141143798828,83.2088394165039,54389800.0
2018-09-01,86.506591796875,88.6158218383789,84.07720947265625,87.99434661865234,84.40101623535156,44295100.0
2018-09-07,,,,,,
2018-10-01,88.29566955566406,88.95480346679688,71.01695251464844,78.04142761230469,75.25725555419922,78681700.0
2018-11-01,77.90018463134766,81.76082611083984,73.23917388916016,76.54425811767578,73.8134994506836,46561500.0
2018-12-01,77.58003997802734,78.77589416503906,63.25800323486328,67.17514038085938,64.77863311767578,52753300.0
2018-12-07,,,,,,
2019-01-01,65.8757095336914,80.03766632080078,65.03766632080078,79.25611877441406,76.94991302490234,62969200.0
2019-02-01,79.27495574951172,82.81544494628906,78.23917388916016,82.2598876953125,79.86626434326172,37542800.0
2019-03-01,83.12617492675781,83.6440658569336,77.93785095214844,81.8361587524414,79.45487213134766,35334600.0
2019-03-07,,,,,,
2019-04-01,82.51412200927734,90.58380126953125,81.26177215576172,88.89830780029297,86.8624267578125,41719600.0
2019-05-01,88.87005615234375,89.8493423461914,80.47080993652344,81.87999725341797,80.00482940673828,46817700.0
2019-05-23,,,,,,
2019-06-01,81.8499984741211,89.27999877929688,81.55000305175781,87.3499984741211,85.34957122802734,34721600.0
2019-06-07,,,,,,
2019-07-01,88.37000274658203,91.54000091552734,86.19000244140625,87.38999938964844,85.90739440917969,34647000.0
2019-08-01,87.5,87.62000274658203,76.7699966430664,81.94999694824219,80.55968475341797,34748500.0
2019-09-01,81.30999755859375,91.36000061035156,80.25,88.98999786376953,87.48025512695312,33854700.0
2019-09-09,,,,,,
2019-10-01,89.05999755859375,93.87999725341797,81.08000183105469,82.29000091552734,81.29291534423828,48191200.0
2019-11-01,83.11000061035156,89.27999877929688,82.6500015258789,88.54000091552734,87.4671859741211,40301500.0
2019-12-01,88.83999633789062,100.2300033569336,85.48999786376953,99.66000366210938,98.45245361328125,39895100.0
2019-12-09,,,,,,
2020-01-01,99.66999816894531,100.25,82.23999786376953,82.97000122070312,82.40211486816406,68003200.0
2020-02-01,83.30000305175781,85.33000183105469,70.0,72.0,71.5072021484375,55923300.0
2020-03-01,72.5,76.13999938964844,45.06999969482422,58.04999923706055,57.652679443359375,73734900.0
2020-03-09,,,,,,
2020-03-26,58.09000015258789,61.70109939575195,57.63999938964844,60.040000915527344,60.040000915527344,1567141.0
