Date,Open,High,Low,Close,Adj Close,Volume
1973-02-01,0.0,7.3125,6.71875,6.96875,1.1336654424667358,102400.0
1973-03-01,0.0,7.15625,6.875,6.875,1.1184144020080566,506400.0
1973-03-26,,,,,,
1973-04-01,0.0,7.1875,6.71875,7.0625,1.1678926944732666,355200.0
1973-05-01,0.0,7.25,6.96875,7.1875,1.1885632276535034,380800.0
1973-06-01,0.0,7.53125,7.0,7.0625,1.1678926944732666,734800.0
1973-07-01,0.0,7.125,6.75,6.9375,1.147221565246582,499200.0
1973-08-01,0.0,6.9375,6.125,6.625,1.0955449342727661,432400.0
1973-09-01,0.0,6.90625,6.53125,6.84375,1.1317188739776611,460800.0
1973-10-01,0.0,6.875,6.1875,6.25,1.0335332155227661,1041600.0
1973-11-01,0.0,6.25,5.625,5.78125,0.9560182690620422,929600.0
1973-12-01,0.0,6.40625,5.625,6.3125,1.043869137763977,672000.0
1974-01-01,0.0,6.46875,6.28125,6.28125,1.0387005805969238,374800.0
1974-02-01,0.0,6.59375,6.0625,6.1875,1.023197889328003,231200.0
1974-03-01,0.0,6.5,6.0625,6.09375,1.0076948404312134,387200.0
1974-04-01,0.0,6.09375,5.5,5.5625,0.9198443293571472,457600.0
1974-05-01,0.0,5.59375,5.0,5.0625,0.837162435054779,492800.0
1974-06-01,0.0,5.1875,4.46875,4.5625,0.7544789910316467,583600.0
1974-07-01,0.0,5.3125,4.375,5.03125,0.8319944739341736,534400.0
1974-08-01,0.0,5.0,4.4375,4.46875,0.7389760613441467,311600.0
1974-09-01,0.0,4.5,3.90625,4.09375,0.6769642233848572,590000.0
1974-10-01,0.0,4.59375,3.8125,4.375,0.723473072052002,816000.0
1974-11-01,0.0,4.6875,4.1875,4.3125,0.7131379246711731,655600.0
1974-12-01,0.0,4.40625,3.9375,4.0,0.6614612340927124,1134400.0
1975-01-01,0.0,5.375,3.96875,5.28125,0.8733353018760681,1421200.0
1975-02-01,0.0,5.625,5.09375,5.40625,0.8940063714981079,1364000.0
1975-03-01,0.0,5.71875,5.25,5.375,0.888838529586792,1040800.0
1975-04-01,0.0,5.5625,5.21875,5.5,0.9095094799995422,895200.0
1975-05-01,0.0,5.59375,5.28125,5.5,0.9095094799995422,566800.0
1975-06-01,0.0,6.59375,5.46875,6.46875,1.0697070360183716,1498800.0
1975-07-01,0.0,6.5625,6.0,6.15625,1.0180305242538452,1308000.0
1975-08-01,0.0,6.15625,5.125,5.8125,0.9611856937408447,1042000.0
1975-09-01,0.0,6.21875,5.78125,6.0,0.9921916127204895,1319200.0
1975-10-01,0.0,6.75,6.0,6.6875,1.1058801412582397,1620400.0
1975-11-01,0.0,6.75,6.40625,6.75,1.116215467453003,3145200.0
1975-12-01,0.0,6.8125,6.40625,6.59375,1.090377926826477,1720800.0
1976-01-01,0.0,7.09375,6.53125,6.90625,1.1420537233352661,1485200.0
1976-02-01,0.0,7.0625,6.15625,6.25,1.0335332155227661,2439600.0
1976-03-01,0.0,6.75,6.15625,6.625,1.0955449342727661,1763200.0
1976-04-01,0.0,6.65625,6.1875,6.1875,1.023197889328003,1087600.0
1976-05-01,0.0,6.46875,5.875,6.09375,1.0076948404312134,1218800.0
1976-06-01,0.0,6.21875,5.90625,6.09375,1.0076948404312134,2881200.0
1976-07-01,0.0,6.75,6.09375,6.625,1.0955449342727661,1683200.0
1976-08-01,0.0,7.09375,6.59375,7.0625,1.1678926944732666,2036000.0
1976-09-01,0.0,7.5,6.9375,7.0,1.1575570106506348,3770800.0
1976-10-01,0.0,7.21875,6.71875,7.0,1.1575570106506348,2284000.0
1976-11-01,0.0,7.3125,6.8125,7.1875,1.1885632276535034,1956000.0
1976-12-01,0.0,7.5625,7.0,7.375,1.2195689678192139,2752800.0
1977-01-01,0.0,7.4375,6.84375,7.34375,1.2144020795822144,1898400.0
1977-02-01,0.0,7.5,6.78125,6.9375,1.147221565246582,1520800.0
1977-03-01,0.0,7.21875,6.65625,6.75,1.116215467453003,1273600.0
1977-04-01,0.0,7.0625,6.65625,6.84375,1.1317188739776611,1609200.0
1977-05-01,0.0,7.03125,6.75,6.90625,1.1420537233352661,1288000.0
1977-06-01,0.0,7.34375,6.875,7.1875,1.1885632276535034,1764800.0
1977-07-01,0.0,7.53125,7.125,7.3125,1.2092336416244507,1624400.0
1977-08-01,0.0,7.625,7.25,7.53125,1.245407223701477,2892400.0
1977-09-01,0.0,7.59375,7.375,7.4375,1.2299048900604248,2707600.0
1977-10-01,0.0,7.46875,6.625,6.90625,1.1420537233352661,2164400.0
1977-11-01,0.0,7.1875,6.75,7.15625,1.1833953857421875,1759200.0
1977-12-01,0.0,7.3125,6.96875,7.0625,1.1678926944732666,1472000.0
1978-01-01,0.0,7.0625,6.1875,6.4375,1.0645389556884766,1636400.0
1978-02-01,0.0,6.6875,6.375,6.53125,1.0800418853759766,1479200.0
1978-03-01,0.0,6.6875,6.15625,6.15625,1.0180305242538452,1307200.0
1978-04-01,0.0,6.25,5.96875,6.0625,1.002526879310608,1676000.0
1978-05-01,0.0,6.4375,6.0,6.4375,1.0645389556884766,1548400.0
1978-06-01,0.0,6.71875,6.3125,6.375,1.054203987121582,1414400.0
1978-07-01,0.0,6.5625,6.15625,6.53125,1.0800418853759766,1508800.0
1978-08-01,0.0,6.84375,6.53125,6.59375,1.090377926826477,1778000.0
1978-09-01,0.0,6.78125,6.25,6.25,1.0335332155227661,1350800.0
1978-10-01,0.0,6.40625,5.84375,5.90625,0.9766884446144104,1016000.0
1978-11-01,0.0,6.1875,5.8125,6.03125,0.9973598718643188,1163600.0
1978-12-01,0.0,6.25,5.84375,5.875,0.9715213775634766,944800.0
1979-01-01,0.0,6.21875,5.84375,6.125,1.0128618478775024,1744400.0
1979-02-01,0.0,6.15625,6.0,6.0625,1.002526879310608,1907600.0
1979-03-01,0.0,6.46875,6.0625,6.15625,1.0180305242538452,1877200.0
1979-04-01,0.0,6.1875,5.53125,5.65625,0.9353470802307129,3382000.0
1979-05-01,0.0,5.78125,5.34375,5.78125,0.9560182690620422,4497200.0
1979-06-01,0.0,6.25,5.78125,6.03125,0.9973598718643188,1756800.0
1979-07-01,0.0,6.28125,5.9375,6.125,1.0128618478775024,1417600.0
1979-08-01,0.0,6.375,6.0625,6.28125,1.0387005805969238,1670800.0
1979-09-01,0.0,6.3125,5.9375,5.9375,0.9818565249443054,2324400.0
1979-10-01,0.0,6.0,5.34375,5.5,0.9095094799995422,2179200.0
1979-11-01,0.0,5.9375,5.375,5.875,0.9715213775634766,1191600.0
1979-12-01,0.0,5.9375,5.5625,5.59375,0.9250126481056213,1471200.0
1980-01-01,0.0,5.875,5.09375,5.125,0.8474976420402527,2297600.0
1980-02-01,0.0,5.21875,4.71875,4.84375,0.8009880781173706,2009600.0
1980-03-01,4.78125,5.25,4.5,4.875,0.8061558604240417,2502000.0
1980-04-01,0.0,5.9375,4.90625,5.84375,0.9663532972335815,2643600.0
1980-05-01,0.0,6.0,5.71875,5.9375,0.9818565249443054,2726400.0
1980-06-01,0.0,6.34375,5.8125,6.21875,1.0283647775650024,4096000.0
1980-07-01,0.0,6.28125,6.125,6.1875,1.023197889328003,5677600.0
1980-08-01,0.0,6.1875,5.78125,6.03125,0.9973598718643188,2851200.0
1980-09-01,0.0,6.28125,5.875,5.90625,0.9766884446144104,2340800.0
1980-10-01,0.0,5.9375,5.375,5.4375,0.8991738557815552,2236800.0
1980-11-01,0.0,5.5625,5.21875,5.3125,0.8785032033920288,1330000.0
1980-12-01,0.0,5.75,5.0625,5.375,0.888838529586792,3081200.0
1981-01-01,0.0,5.6875,5.09375,5.25,0.8681675791740417,1626000.0
1981-02-01,0.0,5.3125,5.0,5.09375,0.8423296213150024,1013600.0
1981-03-01,0.0,5.53125,5.09375,5.25,0.8681675791740417,2670800.0
1981-04-01,0.0,5.8125,5.09375,5.75,0.9508504867553711,2624800.0
1981-05-01,0.0,6.0,5.59375,5.9375,0.9818565249443054,3496000.0
1981-06-01,0.0,6.75,6.0,6.3125,1.043869137763977,4389600.0
1981-07-01,0.0,6.34375,5.9375,6.03125,0.9973598718643188,3388400.0
1981-08-01,0.0,6.59375,6.0,6.28125,1.0387005805969238,2706000.0
1981-09-01,0.0,6.25,5.59375,5.6875,0.9405156970024109,1785200.0
1981-10-01,0.0,6.46875,5.75,6.34375,1.0490370988845825,2492800.0
1981-11-01,0.0,6.6875,6.375,6.5625,1.0852097272872925,3197200.0
1981-12-01,0.0,6.625,6.0,6.03125,0.9973598718643188,2532000.0
1982-01-01,0.0,6.4375,5.84375,6.4375,1.0645389556884766,1337600.0
1982-02-01,0.0,6.59375,6.1875,6.5,1.074873924255371,2092800.0
1982-03-01,0.0,7.125,6.46875,6.5625,1.0852097272872925,6358000.0
1982-04-01,0.0,6.78125,6.25,6.6875,1.1058801412582397,3069200.0
1982-05-01,0.0,7.03125,6.6875,6.9375,1.147221565246582,2725200.0
1982-06-01,0.0,7.03125,6.625,6.625,1.0955449342727661,3537200.0
1982-07-01,0.0,6.96875,6.53125,6.65625,1.1007122993469238,3291600.0
1982-08-01,0.0,7.5625,6.6875,7.5,1.2402397394180298,4964400.0
1982-09-01,0.0,7.75,7.34375,7.40625,1.2247368097305298,5402000.0
1982-10-01,0.0,8.125,7.25,7.4375,1.2299048900604248,5750800.0
1982-11-01,0.0,7.75,7.09375,7.28125,1.2040661573410034,4618800.0
1982-12-01,0.0,7.84375,7.1875,7.5,1.2402397394180298,3984000.0
1983-01-01,0.0,7.8125,7.4375,7.53125,1.245407223701477,5328000.0
1983-02-01,0.0,7.96875,7.5,7.9375,1.3125872611999512,2416400.0
1983-03-01,0.0,8.21875,7.4375,7.59375,1.2557430267333984,5635200.0
1983-04-01,0.0,8.09375,7.46875,8.09375,1.3384252786636353,5134000.0
1983-05-01,0.0,8.4375,8.03125,8.34375,1.3797662258148193,3830000.0
1983-06-01,0.0,8.46875,8.15625,8.21875,1.359095573425293,6480400.0
1983-07-01,0.0,8.28125,8.0,8.25,1.3642641305923462,5364000.0
1983-08-01,0.0,8.75,8.21875,8.5,1.4056053161621094,4403600.0
1983-09-01,0.0,9.3125,8.53125,9.09375,1.503790259361267,5767200.0
1983-10-01,0.0,9.90625,9.03125,9.8125,1.6226471662521362,3090400.0
1983-11-01,0.0,10.1875,9.34375,9.53125,1.5761384963989258,5579600.0
1983-12-01,0.0,9.9375,9.34375,9.5,1.5709699392318726,5628000.0
1984-01-01,0.0,9.46875,8.75,9.25,1.529628872871399,3445200.0
1984-02-01,0.0,9.59375,8.75,9.0,1.4882876873016357,3195600.0
1984-03-01,0.0,9.125,8.5,8.71875,1.4417784214019775,5544400.0
1984-04-01,0.0,9.0625,8.40625,8.9375,1.4779521226882935,4403200.0
1984-05-01,0.0,9.6875,8.90625,9.15625,1.514127254486084,4049200.0
1984-06-01,0.0,9.59375,9.15625,9.28125,1.534796953201294,10451200.0
1984-07-01,0.0,9.53125,9.0,9.3125,1.5399644374847412,3950800.0
1984-08-01,0.0,10.125,9.34375,10.09375,1.6691569089889526,3528000.0
1984-09-01,0.0,10.375,9.8125,10.375,1.7156649827957153,9626800.0
1984-10-01,0.0,11.0625,10.125,10.3125,1.7053302526474,3473200.0
1984-11-01,0.0,10.40625,10.1875,10.375,1.7156649827957153,3031600.0
1984-12-01,0.0,10.75,10.3125,10.4375,1.7260009050369263,4818400.0
1985-01-01,0.0,10.9375,10.28125,10.8125,1.7880127429962158,5585200.0
1985-02-01,0.0,10.875,10.5,10.53125,1.7415045499801636,5135600.0
1985-03-01,0.0,11.0625,10.53125,10.9375,1.808683156967163,17844400.0
1985-04-01,0.0,11.65625,10.78125,11.40625,1.886197566986084,4166400.0
1985-05-01,0.0,11.96875,11.15625,11.96875,1.9792159795761108,6849600.0
1985-06-01,0.0,12.6875,11.8125,12.34375,2.041227340698242,12050400.0
1985-07-01,0.0,12.96875,11.53125,11.75,1.9430427551269531,4604800.0
1985-08-01,0.0,12.0625,11.4375,12.0,1.984383225440979,4402800.0
1985-09-01,11.71875,12.21875,11.21875,11.375,1.8810313940048218,32545600.0
1985-09-26,,,,,,
1985-10-01,11.3125,12.0,11.28125,11.96875,2.017083168029785,2738400.0
1985-11-01,11.90625,12.625,11.90625,12.4375,2.0960800647735596,3380400.0
1985-12-01,12.46875,13.6875,12.375,13.25,2.2330117225646973,13170800.0
1985-12-26,,,,,,
1986-01-01,13.25,13.875,12.5,13.5,2.3143086433410645,6142800.0
1986-02-01,13.5,14.8125,13.46875,14.8125,2.5393106937408447,3990400.0
1986-03-01,14.90625,15.75,14.3125,15.125,2.592883348464966,9794800.0
1986-03-26,,,,,,
1986-04-01,15.125,16.375,14.78125,15.5,2.696472644805908,4828800.0
1986-05-01,15.5,16.03125,15.25,15.8125,2.7508370876312256,3735600.0
1986-06-01,15.75,17.6875,15.0,17.5,3.0444023609161377,9876800.0
1986-06-16,,,,,,
1986-06-26,,,,,,
1986-07-01,17.625,19.0,16.5625,18.9375,3.3409836292266846,4888800.0
1986-08-01,18.9375,19.875,17.875,19.875,3.506378650665283,6847000.0
1986-09-01,20.0,20.0625,15.5,17.25,3.0432732105255127,6841000.0
1986-09-30,,,,,,
1986-10-01,17.4375,17.875,15.8125,17.75,3.1745667457580566,5710400.0
1986-11-01,17.5,18.4375,16.875,18.0625,3.2304575443267822,3317600.0
1986-12-01,17.9375,18.625,17.0625,17.25,3.0851430892944336,10354200.0
1986-12-26,,,,,,
1987-01-01,17.375,19.875,17.3125,18.875,3.420910358428955,4580800.0
1987-02-01,19.0,19.1875,16.3125,16.8125,3.0471010208129883,8629200.0
1987-03-01,16.8125,17.75,16.375,16.375,2.9678099155426025,8317200.0
1987-03-31,,,,,,
1987-04-01,16.4375,16.875,14.75,16.0625,2.952571153640747,8907000.0
1987-05-01,16.1875,17.0,15.0,15.875,2.9181060791015625,3687400.0
1987-06-01,15.9375,16.6875,15.5625,15.75,2.8951289653778076,14537800.0
1987-06-25,,,,,,
1987-07-01,15.75,16.375,15.4375,15.6875,2.9284563064575195,4521800.0
1987-08-01,15.5625,17.0,15.375,16.25,3.0334596633911133,5306600.0
1987-09-01,16.125,16.25,15.0625,15.5,2.8934531211853027,7867000.0
1987-09-29,,,,,,
1987-10-01,15.5625,16.75,13.125,15.125,2.8694546222686768,6090200.0
1987-11-01,15.375,16.25,14.5625,14.875,2.8220250606536865,4713400.0
1987-12-01,15.25,15.75,14.25,14.8125,2.810166597366333,22220200.0
1987-12-28,,,,,,
1988-01-01,14.75,16.1875,14.75,16.0625,3.1001579761505127,4476800.0
1988-02-01,16.1875,16.6875,15.5625,15.6875,3.0277812480926514,5470200.0
1988-03-01,15.625,16.3125,14.9375,15.0625,2.9071521759033203,12068000.0
1988-03-28,,,,,,
1988-04-01,15.0,15.75,14.75,15.0,2.9430317878723145,2708600.0
1988-05-01,14.875,15.625,14.625,15.625,3.0656590461730957,2563400.0
1988-06-01,15.4375,16.5,15.125,15.5625,3.0533952713012695,34484000.0
1988-06-28,,,,,,
1988-07-01,15.625,15.6875,15.0,15.6875,3.1295533180236816,3304000.0
1988-08-01,15.6875,15.875,15.0625,15.625,3.1170847415924072,3438200.0
1988-09-01,15.625,16.4375,15.5,16.25,3.2417683601379395,8077800.0
1988-09-27,,,,,,
1988-10-01,16.25,17.0625,16.0625,16.875,3.422921895980835,4320800.0
1988-11-01,16.875,17.125,15.9375,16.375,3.3215038776397705,4974400.0
1988-12-01,16.3125,16.8125,16.125,16.375,3.3215038776397705,9398400.0
1988-12-28,,,,,,
1989-01-01,16.3125,16.625,16.125,16.5,3.401069164276123,3714200.0
1989-02-01,16.5,16.5625,15.5625,15.75,3.2464752197265625,2203600.0
1989-03-01,15.8125,15.8125,15.125,15.4375,3.182060718536377,10010200.0
1989-03-28,,,,,,
1989-04-01,15.5,16.75,15.375,16.75,3.5124118328094482,3214400.0
1989-05-01,16.625,17.9375,16.1875,17.6875,3.7090024948120117,4196800.0
1989-06-01,17.6875,18.8125,17.6875,18.25,3.826953887939453,3764400.0
1989-07-01,17.9375,18.75,17.6875,18.75,3.9318034648895264,6987400.0
1989-07-03,,,,,,
1989-08-01,18.75,19.1875,18.0,18.5,3.939276933670044,2236400.0
1989-09-01,18.4375,18.75,18.0,18.4375,3.9259707927703857,5497600.0
1989-09-26,,,,,,
1989-10-01,18.4375,18.75,16.9375,18.375,3.9722437858581543,3184200.0
1989-11-01,18.375,19.4375,18.375,19.0,4.10735559463501,6283600.0
1989-12-01,19.0,20.0,18.875,19.875,4.296506881713867,4501400.0
1989-12-26,,,,,,
1990-01-01,19.8125,20.25,17.625,18.625,4.083119869232178,3098200.0
1990-02-01,18.5625,18.6875,17.625,18.25,4.000907897949219,1547600.0
1990-03-01,18.125,18.625,18.0,18.1875,3.987208843231201,2212200.0
1990-04-01,18.125,18.125,16.5,16.75,3.672067880630493,3455600.0
1990-04-03,,,,,,
1990-05-01,16.875,18.375,16.75,17.9375,3.9935433864593506,2276000.0
1990-06-01,18.0625,18.625,17.5,18.0625,4.021373271942139,2378400.0
1990-07-01,18.0625,18.125,16.875,17.875,3.9796299934387207,4373200.0
1990-07-03,,,,,,
1990-08-01,17.75,18.0,14.1875,14.9375,3.379899263381958,5307800.0
1990-09-01,14.8125,15.3125,14.6875,15.0625,3.4081811904907227,6994000.0
1990-09-25,,,,,,
1990-10-01,15.1875,17.125,15.125,16.3125,3.7628695964813232,3302400.0
1990-11-01,16.4375,16.875,15.3125,16.5625,3.820537567138672,3704000.0
1990-12-01,16.4375,17.75,16.3125,17.0,3.921457529067993,4691200.0
1990-12-26,,,,,,
1991-01-01,17.0,17.0,15.875,16.6875,3.9137701988220215,4889200.0
1991-02-01,16.6875,17.4375,16.375,17.0625,4.0017194747924805,2791400.0
1991-03-01,17.0625,18.0,16.5625,17.75,4.162961006164551,4083200.0
1991-04-01,17.75,17.75,16.5,16.75,3.9284298419952393,5618800.0
1991-04-02,,,,,,
1991-05-01,16.8125,17.1875,16.5,17.0,4.054244518280029,2445800.0
1991-06-01,16.9375,17.4375,16.5625,17.3125,4.128771781921387,2833200.0
1991-07-01,17.3125,18.0,16.875,17.9375,4.27782678604126,5290400.0
1991-07-05,,,,,,
1991-08-01,17.9375,18.875,17.8125,18.875,4.581162929534912,2911200.0
1991-09-01,18.875,19.6875,18.5625,19.6875,4.778365135192871,4062600.0
1991-09-25,,,,,,
1991-10-01,19.6875,20.0625,19.3125,19.875,4.900635242462158,3722200.0
1991-11-01,19.9375,20.8125,19.875,20.5,5.054742336273193,2070800.0
1991-12-01,20.4375,22.0,20.375,21.5,5.301314353942871,4780600.0
1991-12-26,,,,,,
1992-01-01,21.4375,21.5,19.6875,20.375,5.0941667556762695,4126800.0
1992-02-01,20.375,20.5625,20.0,20.3125,5.078536510467529,1776000.0
1992-03-01,20.5,20.5,19.625,19.625,4.906651496887207,2504800.0
1992-04-01,19.625,20.3125,19.25,20.3125,5.078536510467529,4371600.0
1992-04-02,,,,,,
1992-05-01,20.3125,20.6875,20.0625,20.4375,5.189786911010742,2723600.0
1992-06-01,20.375,21.0,20.125,20.75,5.269138336181641,5478400.0
1992-07-01,20.8125,22.0,20.5,21.875,5.554818630218506,4923000.0
1992-07-02,,,,,,
1992-08-01,21.75,22.0,21.5,21.75,5.608212947845459,2197800.0
1992-09-01,21.75,22.1875,21.0625,21.5,5.543750762939453,4074800.0
1992-09-25,,,,,,
1992-10-01,21.5,21.5,20.875,21.25,5.560280799865723,3665000.0
1992-11-01,21.3125,21.6875,20.5625,21.6875,5.674758434295654,2260000.0
1992-12-01,21.6875,22.6875,21.375,21.625,5.658404350280762,4239000.0
1992-12-28,,,,,,
1993-01-01,21.6875,22.0,21.125,22.0,5.839192867279053,2164800.0
1993-02-01,22.0,23.4375,21.875,23.375,6.204144477844238,2728800.0
1993-03-01,23.375,23.5,22.9375,23.3125,6.187554836273193,2808200.0
1993-04-01,23.3125,23.4375,22.4375,22.6875,6.021667003631592,4410400.0
1993-04-02,,,,,,
1993-05-01,22.75,23.125,21.4375,22.0625,5.936208248138428,5175600.0
1993-06-01,22.0625,23.0625,22.0625,22.9375,6.171638488769531,3984800.0
1993-07-01,22.5625,22.9375,22.375,22.9375,6.171638488769531,3010000.0
1993-07-01,,,,,,
1993-07-02,,,,,,
1993-08-01,22.9375,23.625,22.5625,23.625,6.634862899780273,2812400.0
1993-09-01,23.625,23.9375,23.0625,23.1875,6.511995315551758,3138400.0
1993-09-27,,,,,,
1993-10-01,23.1875,23.1875,21.9375,22.1875,6.317625522613525,3055000.0
1993-11-01,22.1875,22.3125,20.0625,21.125,6.015089511871338,3786200.0
1993-12-01,21.1875,22.3125,20.75,21.5625,6.139662742614746,3541400.0
1993-12-29,,,,,,
1994-01-01,21.625,21.9375,20.875,21.8125,6.301934719085693,3979800.0
1994-02-01,21.75,21.8125,20.125,20.625,5.958851337432861,4117400.0
1994-03-01,20.6875,21.8125,20.0625,20.4375,5.904677391052246,5070600.0
1994-04-01,20.0,21.8125,19.75,21.0,6.067190647125244,4726600.0
1994-04-04,,,,,,
1994-05-01,20.9375,20.9375,19.375,20.4375,5.999345779418945,3314800.0
1994-06-01,20.4375,21.1875,20.1875,20.5,6.017692565917969,3475200.0
1994-07-01,20.3125,21.4375,20.1875,21.375,6.274545669555664,2723800.0
1994-07-01,,,,,,
1994-08-01,21.375,21.9375,21.0,21.625,6.451786041259766,2993400.0
1994-09-01,21.625,21.625,20.5,21.125,6.302618026733398,5809800.0
1994-09-27,,,,,,
1994-10-01,21.125,22.4375,20.9375,22.1875,6.724031448364258,4598600.0
1994-11-01,22.125,22.875,21.75,22.5625,6.837677478790283,4029400.0
1994-12-01,22.5,23.5,21.9375,22.0,6.667205333709717,4611800.0
1994-12-30,,,,,,
1995-01-01,21.875,23.375,21.8125,23.125,7.112462043762207,3901800.0
1995-02-01,23.1875,23.3125,22.4375,22.625,6.958681106567383,2081600.0
1995-03-01,22.625,22.625,21.25,22.0,6.76645040512085,2933800.0
1995-04-01,21.4375,22.3125,21.4375,22.125,6.80489444732666,2666800.0
1995-04-03,,,,,,
1995-05-01,22.375,23.6875,22.125,23.6875,7.396417140960693,4156600.0
1995-06-01,23.625,23.6875,22.3125,23.0625,7.20125675201416,3237400.0
1995-07-01,23.0,23.4375,21.875,22.125,6.90852689743042,3922200.0
1995-07-11,,,,,,
1995-08-01,22.125,22.5,21.25,21.3125,6.754477024078369,3061000.0
1995-09-01,21.25,22.9375,21.25,22.6875,7.19025182723999,8867600.0
1995-09-28,,,,,,
1995-10-01,22.5625,23.9375,22.5625,23.625,7.599491119384766,7093200.0
1995-11-01,23.625,23.8125,23.0,23.5,7.559281826019287,2543200.0
1995-12-01,23.5625,24.75,23.4375,24.5625,7.901058197021484,5589000.0
1995-12-28,,,,,,
1996-01-01,24.4375,25.8125,24.3125,25.6875,8.378351211547852,3995800.0
1996-02-01,25.75,26.6875,24.5,24.625,8.031806945800781,5199400.0
1996-03-01,24.6875,25.5625,23.8125,24.375,7.950262069702148,4681000.0
1996-04-01,24.4375,24.8125,22.9375,23.3125,7.603709697723389,5095800.0
1996-04-08,,,,,,
1996-05-01,23.25,24.3125,22.75,23.5,7.771382808685303,4710600.0
1996-06-01,23.5,24.75,22.9375,24.6875,8.164079666137695,4137000.0
1996-07-01,24.8125,24.875,22.25,22.375,7.399349689483643,6747200.0
1996-07-09,,,,,,
1996-08-01,22.5,23.1875,22.375,22.8125,7.654051780700684,3677600.0
1996-09-01,22.5625,23.75,22.25,23.3125,7.821811199188232,6688800.0
1996-09-27,,,,,,
1996-10-01,23.1875,23.625,22.9375,23.5,8.002521514892578,3117800.0
1996-11-01,23.5625,24.5625,23.4375,23.5625,8.023802757263184,4048600.0
1996-12-01,23.5,23.75,22.75,22.9375,7.810972690582275,8561200.0
1996-12-31,,,,,,
1997-01-01,22.9375,24.0625,22.75,23.0625,7.970236778259277,6787400.0
1997-02-01,23.0625,23.9375,22.875,23.8125,8.229430198669434,4190000.0
1997-03-01,23.75,24.5625,23.3125,23.6875,8.186233520507812,5056600.0
1997-04-01,23.5625,23.75,22.25,22.75,7.86223840713501,10296800.0
1997-04-07,,,,,,
1997-05-01,22.6875,24.5,22.5625,24.5,8.592169761657715,6346200.0
1997-06-01,24.375,26.0,24.0,25.875,9.074385643005371,7874200.0
1997-07-01,25.75,26.46875,24.90625,25.6875,9.008624076843262,5122800.0
1997-07-07,,,,,,
1997-08-01,25.625,25.75,24.0,24.0625,8.552775382995605,3550600.0
1997-09-01,24.03125,25.3125,24.0,24.875,8.841567039489746,11423400.0
1997-09-29,,,,,,
1997-10-01,24.875,25.65625,24.21875,25.1875,9.079875946044922,7809600.0
1997-11-01,25.3125,27.5625,25.125,27.4375,9.890984535217285,6957400.0
1997-12-01,27.46875,29.4375,26.78125,29.125,10.499307632446289,6216200.0
1997-12-30,,,,,,
1998-01-01,29.1875,29.1875,26.5625,26.8125,9.78307056427002,6681800.0
1998-02-01,27.0,27.46875,26.5,27.46875,10.022514343261719,5421400.0
1998-03-01,27.46875,29.78125,27.375,29.5,10.763653755187988,7799400.0
1998-04-01,29.46875,30.21875,27.34375,28.1875,10.284768104553223,10554800.0
1998-04-06,,,,,,
1998-05-01,28.15625,28.46875,27.46875,28.4375,10.500401496887207,5188000.0
1998-06-01,28.46875,29.9375,27.9375,28.625,10.569634437561035,6429200.0
1998-06-02,,,,,,
1998-07-01,28.6875,29.1875,26.125,26.3125,9.71575927734375,8118100.0
1998-07-07,,,,,,
1998-08-01,26.3125,27.75,25.6875,26.5,9.906761169433594,5051400.0
1998-09-01,26.75,28.6875,25.75,28.0625,10.490885734558105,10118900.0
1998-09-29,,,,,,
1998-10-01,28.0625,30.8125,26.1875,27.0,10.22559928894043,7926900.0
1998-11-01,28.0,28.9375,27.0625,27.1875,10.296608924865723,4607500.0
1998-12-01,27.3125,29.1875,27.125,27.75,10.509644508361816,5483300.0
1998-12-30,,,,,,
1999-01-01,27.6875,27.9375,25.9375,26.9375,10.33376407623291,6240100.0
1999-02-01,27.1875,27.4375,25.4375,25.8125,9.902190208435059,6587500.0
1999-03-01,25.9375,27.625,23.0625,23.1875,8.895187377929688,8232500.0
1999-04-01,23.3125,24.375,22.5625,24.125,9.254831314086914,10454200.0
1999-04-05,,,,,,
1999-05-01,24.125,26.75,23.75,26.0625,10.151931762695312,6619700.0
1999-06-01,26.25,26.25,24.0625,24.1875,9.421573638916016,5839100.0
1999-07-01,24.1875,24.6875,22.5,22.5,8.76425552368164,11854000.0
1999-07-06,,,,,,
1999-08-01,22.5,24.375,21.5,23.5625,9.316158294677734,10801100.0
1999-09-01,23.5625,24.25,20.9375,21.5625,8.525397300720215,9698600.0
1999-09-29,,,,,,
1999-10-01,21.4375,22.6875,20.6875,21.5,8.645812034606934,7676100.0
1999-11-01,21.5625,22.125,19.875,20.4375,8.218548774719238,7887000.0
1999-12-01,20.1875,20.875,19.3125,19.5,7.841548442840576,8247100.0
1999-12-31,,,,,,
2000-01-01,19.625,20.5625,18.9375,19.25,7.884573459625244,13384700.0
2000-02-01,19.375,19.6875,17.375,17.5625,7.193392753601074,8575000.0
2000-03-01,17.625,20.1875,16.125,19.875,8.14056396484375,19938600.0
2000-04-01,19.875,22.3125,19.5,21.8125,8.934142112731934,13320700.0
2000-04-11,,,,,,
2000-05-01,21.4375,23.8125,21.4375,22.125,9.222997665405273,11555100.0
2000-06-01,22.0625,22.1875,19.96875,20.1875,8.415331840515137,7210200.0
2000-07-01,20.3125,22.5,20.125,22.0625,9.196946144104004,12780900.0
2000-07-11,,,,,,
2000-08-01,22.25,26.6875,22.125,25.078125,10.638264656066895,23273300.0
2000-08-21,,,,,,
2000-09-01,24.9375,27.5625,24.8125,27.515625,11.743392944335938,26346400.0
2000-10-01,27.5,28.125,24.625,25.5625,10.909818649291992,19488300.0
2000-10-04,,,,,,
2000-11-01,25.6875,27.75,25.5,27.25,11.722746849060059,12708000.0
2000-12-01,27.0,30.0,26.8125,29.0625,12.502471923828125,11577300.0
2000-12-28,,,,,,
2001-01-01,28.5625,29.125,24.1875,25.469999313354492,11.096884727478027,14095500.0
2001-02-01,25.479999542236328,28.43000030517578,25.200000762939453,28.200000762939453,12.28630542755127,11177300.0
2001-03-01,27.950000762939453,30.350000381469727,26.850000381469727,30.110000610351562,13.118454933166504,20807400.0
2001-03-29,,,,,,
2001-04-01,29.700000762939453,31.850000381469727,28.68000030517578,31.200000762939453,13.771063804626465,18258200.0
2001-05-01,31.200000762939453,31.450000762939453,29.600000381469727,30.299999237060547,13.37381649017334,14945500.0
2001-06-01,30.299999237060547,30.299999237060547,27.389999389648438,28.450000762939453,12.557262420654297,17888600.0
2001-07-01,28.25,29.510000228881836,25.0,26.940000534057617,11.890785217285156,23531900.0
2001-07-05,,,,,,
2001-08-01,27.299999237060547,28.18000030517578,26.350000381469727,27.399999618530273,12.252360343933105,13838100.0
2001-09-01,27.399999618530273,28.959999084472656,26.5,28.149999618530273,12.587738037109375,18056700.0
2001-09-28,,,,,,
2001-10-01,27.799999237060547,29.649999618530273,27.56999969482422,28.280000686645508,12.824853897094727,15645800.0
2001-11-01,28.469999313354492,29.770000457763672,27.299999237060547,27.309999465942383,12.384963035583496,12821600.0
2001-12-01,27.399999618530273,28.229999542236328,25.299999237060547,27.739999771118164,12.579962730407715,16041600.0
2001-12-28,,,,,,
2002-01-01,27.799999237060547,28.489999771118164,25.65999984741211,26.700000762939453,12.271573066711426,16190100.0
2002-02-01,26.5,26.549999237060547,22.260000228881836,23.649999618530273,10.869762420654297,54095400.0
2002-03-01,23.399999618530273,26.700000762939453,23.09000015258789,25.350000381469727,11.651101112365723,40483900.0
2002-04-01,25.149999618530273,26.489999771118164,24.239999771118164,25.43000030517578,11.687868118286133,32152100.0
2002-04-04,,,,,,
2002-05-01,25.450000762939453,26.389999389648438,19.799999237060547,21.489999771118164,10.023140907287598,56210300.0
2002-06-01,21.600000381469727,21.600000381469727,13.90999984741211,16.770000457763672,7.821691036224365,67082300.0
2002-07-01,17.010000228881836,17.200000762939453,5.119999885559082,6.960000038146973,3.2462122440338135,113917600.0
2002-07-03,,,,,,
2002-08-01,7.050000190734863,10.829999923706055,6.400000095367432,9.65999984741211,4.613858699798584,61622800.0
2002-09-01,9.420000076293945,9.789999961853027,8.100000381469727,9.3100004196167,4.446689128875732,37213800.0
2002-10-01,9.40999984741211,11.600000381469727,7.400000095367432,10.399999618530273,4.967301845550537,49041700.0
2002-10-03,,,,,,
2002-11-01,10.350000381469727,11.479999542236328,8.710000038146973,10.739999771118164,5.23270320892334,58708400.0
2002-12-01,10.550000190734863,11.199999809265137,9.899999618530273,11.0,5.359378814697266,32798600.0
2002-12-31,,,,,,
2003-01-01,11.010000228881836,12.600000381469727,10.850000381469727,11.020000457763672,5.462830543518066,36685700.0
2003-02-01,11.09000015258789,11.350000381469727,10.399999618530273,11.09000015258789,5.497529983520508,19772800.0
2003-03-01,11.09000015258789,13.399999618530273,10.90999984741211,12.8100004196167,6.350168228149414,41344900.0
2003-04-01,12.8100004196167,13.779999732971191,12.6899995803833,13.520000457763672,6.702127933502197,28527800.0
2003-05-01,13.520000457763672,15.829999923706055,13.449999809265137,15.390000343322754,7.62912654876709,50384600.0
2003-06-01,15.399999618530273,15.789999961853027,14.920000076293945,15.039999961853027,7.455625057220459,30408600.0
2003-06-05,,,,,,
2003-07-01,15.039999961853027,15.119999885559082,13.850000381469727,14.479999542236328,7.264570236206055,33287800.0
2003-07-02,,,,,,
2003-08-01,13.600000381469727,14.680000305175781,13.25,14.649999618530273,7.443081855773926,19798300.0
2003-09-01,14.630000114440918,15.6899995803833,14.59000015258789,15.470000267028809,7.859691619873047,24224900.0
2003-10-01,15.380000114440918,16.450000762939453,15.279999732971191,16.399999618530273,8.33218765258789,27965200.0
2003-11-01,16.399999618530273,16.799999237060547,15.899999618530273,16.700000762939453,8.484603881835938,23149600.0
2003-12-01,16.75,17.399999618530273,16.639999389648438,16.979999542236328,8.626863479614258,42310800.0
2003-12-11,,,,,,
2003-12-30,,,,,,
2004-01-01,17.079999923706055,17.829999923706055,16.8799991607666,17.31999969482422,8.994476318359375,38861900.0
2004-02-01,17.31999969482422,17.649999618530273,16.959999084472656,17.469999313354492,9.072376251220703,25704500.0
2004-03-01,17.59000015258789,18.329999923706055,17.5,17.809999465942383,9.248941421508789,32361400.0
2004-03-31,,,,,,
2004-04-01,17.8799991607666,18.040000915527344,16.459999084472656,16.729999542236328,8.779732704162598,28931900.0
2004-05-01,16.68000030517578,16.989999771118164,15.479999542236328,16.989999771118164,8.916177749633789,25060300.0
2004-06-01,16.989999771118164,17.229999542236328,16.489999771118164,16.709999084472656,8.769235610961914,18710000.0
2004-06-30,,,,,,
2004-07-01,16.739999771118164,17.420000076293945,16.31999969482422,17.100000381469727,9.085665702819824,20516900.0
2004-08-01,17.110000610351562,17.649999618530273,17.010000228881836,17.649999618530273,9.377893447875977,17886900.0
2004-09-01,17.68000030517578,17.700000762939453,17.020000457763672,17.31999969482422,9.202555656433105,23897100.0
2004-09-29,,,,,,
2004-10-01,17.309999465942383,17.649999618530273,16.969999313354492,17.100000381469727,9.195208549499512,20816800.0
2004-11-01,17.139999389648438,18.40999984741211,16.959999084472656,18.059999465942383,9.711432456970215,24077800.0
2004-12-01,18.110000610351562,18.780000686645508,17.700000762939453,18.200000762939453,9.786712646484375,22302000.0
2004-12-30,,,,,,
2005-01-01,18.219999313354492,18.280000686645508,17.40999984741211,18.190000534057617,9.893107414245605,22862700.0
2005-02-01,18.139999389648438,18.40999984741211,17.329999923706055,17.719999313354492,9.637486457824707,19446600.0
2005-03-01,17.809999465942383,17.989999771118164,16.5,17.18000030517578,9.343792915344238,31360000.0
2005-03-29,,,,,,
2005-04-01,17.479999542236328,17.739999771118164,16.829999923706055,17.18000030517578,9.460083961486816,31227600.0
2005-05-01,17.190000534057617,18.540000915527344,16.940000534057617,18.43000030517578,10.148393630981445,26749400.0
2005-06-01,18.5,19.649999618530273,18.420000076293945,19.520000457763672,10.74859619140625,29454500.0
2005-06-28,,,,,,
2005-07-01,19.600000381469727,19.700000762939453,18.860000610351562,19.40999984741211,10.807119369506836,21168900.0
2005-08-01,19.3799991607666,19.75,18.440000534057617,19.239999771118164,10.712470054626465,24812200.0
2005-09-01,19.239999771118164,20.190000534057617,19.100000381469727,19.610000610351562,10.918473243713379,26352700.0
2005-09-27,,,,,,
2005-10-01,19.610000610351562,19.829999923706055,17.860000610351562,18.329999923706055,10.318873405456543,32478300.0
2005-11-01,18.329999923706055,19.1200008392334,17.809999465942383,18.510000228881836,10.420202255249023,24553100.0
2005-12-01,18.59000015258789,18.969999313354492,18.309999465942383,18.459999084472656,10.392056465148926,19974300.0
2005-12-29,,,,,,
2006-01-01,18.520000457763672,19.5,18.280000686645508,19.420000076293945,11.058415412902832,26137900.0
2006-02-01,19.399999618530273,19.610000610351562,18.270000457763672,18.559999465942383,10.568705558776855,27138000.0
2006-03-01,18.56999969482422,18.84000015258789,17.90999984741211,18.149999618530273,10.335237503051758,29978900.0
2006-03-28,,,,,,
2006-04-01,18.209999084472656,18.940000534057617,17.799999237060547,18.84000015258789,10.855055809020996,26480900.0
2006-05-01,18.860000610351562,19.18000030517578,18.100000381469727,18.770000457763672,10.81472396850586,24058000.0
2006-06-01,18.739999771118164,19.760000228881836,18.579999923706055,19.18000030517578,11.05095100402832,30349500.0
2006-06-27,,,,,,
2006-07-01,19.18000030517578,20.3700008392334,18.959999084472656,20.040000915527344,11.682358741760254,24612400.0
2006-08-01,20.0,20.93000030517578,19.950000762939453,20.799999237060547,12.12540340423584,32060300.0
2006-09-01,20.799999237060547,21.049999237060547,19.899999618530273,20.649999618530273,12.03795337677002,29179000.0
2006-09-26,,,,,,
2006-10-01,20.700000762939453,22.149999618530273,20.559999465942383,22.06999969482422,13.005182266235352,30614600.0
2006-11-01,22.170000076293945,22.989999771118164,21.809999465942383,22.959999084472656,13.529630661010742,23132100.0
2006-12-01,22.959999084472656,23.6299991607666,22.709999084472656,23.059999465942383,13.588556289672852,25775300.0
2006-12-26,,,,,,
2007-01-01,23.18000030517578,23.6200008392334,22.780000686645508,23.329999923706055,13.880969047546387,35772500.0
2007-02-01,23.389999389648438,24.729999542236328,23.290000915527344,23.6299991607666,14.059466361999512,29440200.0
2007-03-01,23.5,24.940000534057617,22.75,24.690000534057617,14.690152168273926,35696500.0
2007-03-27,,,,,,
2007-04-01,24.729999542236328,25.030000686645508,24.09000015258789,24.09000015258789,14.463366508483887,35615200.0
2007-05-01,23.690000534057617,24.459999084472656,22.3799991607666,22.950000762939453,13.778924942016602,44759700.0
2007-06-01,22.940000534057617,23.190000534057617,19.969999313354492,20.469999313354492,12.289963722229004,66944700.0
2007-06-26,,,,,,
2007-07-01,20.59000015258789,21.350000381469727,19.959999084472656,20.299999237060547,12.324769020080566,70665000.0
2007-08-01,20.34000015258789,21.399999618530273,19.59000015258789,20.610000610351562,12.512978553771973,74563500.0
2007-09-01,20.5,22.40999984741211,20.299999237060547,21.540000915527344,13.077614784240723,48457500.0
2007-09-25,,,,,,
2007-10-01,21.670000076293945,22.6200008392334,20.700000762939453,22.549999237060547,13.83646297454834,61736700.0
2007-11-01,22.510000228881836,23.1299991607666,21.350000381469727,23.110000610351562,14.180071830749512,78870800.0
2007-12-01,23.219999313354492,23.5,22.489999771118164,22.56999969482422,13.848734855651855,53233300.0
2007-12-24,,,,,,
2008-01-01,22.510000228881836,22.899999618530273,20.139999389648438,20.75,12.859485626220703,58161400.0
2008-02-01,20.75,21.549999237060547,19.700000762939453,19.81999969482422,12.283129692077637,51667200.0
2008-03-01,19.760000228881836,20.68000030517578,19.389999389648438,19.950000762939453,12.36369800567627,68156200.0
2008-03-25,,,,,,
2008-04-01,20.1200008392334,21.25,20.020000457763672,20.799999237060547,13.039530754089355,42463600.0
2008-05-01,20.989999771118164,21.729999542236328,20.809999465942383,21.309999465942383,13.359251976013184,39944000.0
2008-06-01,21.200000762939453,21.34000015258789,19.670000076293945,20.06999969482422,12.581897735595703,58422800.0
2008-06-24,,,,,,
2008-07-01,19.899999618530273,20.6200008392334,19.399999618530273,20.059999465942383,12.723341941833496,68137800.0
2008-08-01,20.059999465942383,21.040000915527344,19.65999984741211,20.510000228881836,13.00876235961914,49824700.0
2008-09-01,20.610000610351562,22.389999389648438,19.639999389648438,19.989999771118164,12.678947448730469,80732800.0
2008-09-23,,,,,,
2008-10-01,19.799999237060547,20.209999084472656,15.319999694824219,17.420000076293945,11.176959037780762,111737300.0
2008-11-01,17.56999969482422,19.209999084472656,16.5,18.809999465942383,12.068804740905762,70701100.0
2008-12-01,18.360000610351562,18.899999618530273,16.959999084472656,18.549999237060547,11.901981353759766,63931600.0
2008-12-24,,,,,,
2009-01-01,18.59000015258789,19.06999969482422,17.709999084472656,18.459999084472656,12.002592086791992,60161300.0
2009-02-01,18.270000457763672,19.1299991607666,17.149999618530273,17.739999771118164,11.534444808959961,66732300.0
2009-03-01,17.459999084472656,18.8700008392334,16.010000228881836,18.6299991607666,12.113121032714844,95618800.0
2009-03-24,,,,,,
2009-04-01,18.350000381469727,18.979999542236328,17.649999618530273,18.440000534057617,12.143566131591797,65444600.0
2009-05-01,18.549999237060547,18.639999389648438,16.829999923706055,17.149999618530273,11.294039726257324,67904900.0
2009-06-01,17.25,18.770000457763672,17.25,18.40999984741211,12.123804092407227,66815400.0
2009-06-23,,,,,,
2009-07-01,18.469999313354492,20.190000534057617,17.440000534057617,19.940000534057617,13.310359954833984,52948700.0
2009-08-01,20.059999465942383,20.059999465942383,19.15999984741211,19.75,13.183533668518066,52065600.0
2009-09-01,19.719999313354492,20.290000915527344,19.1200008392334,19.239999771118164,12.843096733093262,54468300.0
2009-09-22,,,,,,
2009-10-01,19.209999084472656,20.030000686645508,18.790000915527344,18.860000610351562,12.745258331298828,74943700.0
2009-11-01,18.920000076293945,20.610000610351562,18.530000686645508,20.31999969482422,13.731901168823242,68453000.0
2009-12-01,20.329999923706055,21.940000534057617,20.299999237060547,21.219999313354492,14.340105056762695,55875100.0
2009-12-22,,,,,,
2010-01-01,21.3799991607666,21.760000228881836,20.40999984741211,20.780000686645508,14.202593803405762,56224800.0
2010-02-01,20.829999923706055,21.200000762939453,19.81999969482422,20.809999465942383,14.223100662231445,53982200.0
2010-03-01,20.889999389648438,21.690000534057617,20.860000610351562,21.200000762939453,14.489657402038574,45478000.0
2010-03-23,,,,,,
2010-04-01,21.280000686645508,22.049999237060547,21.1200008392334,21.75,15.03691577911377,51042000.0
2010-05-01,21.8700008392334,22.139999389648438,19.809999465942383,20.489999771118164,14.165810585021973,69438400.0
2010-06-01,20.309999465942383,21.75,20.030000686645508,20.610000610351562,14.248774528503418,54850900.0
2010-06-22,,,,,,
2010-07-01,20.729999542236328,23.020000457763672,20.469999313354492,21.989999771118164,15.38395881652832,47613000.0
2010-08-01,22.219999313354492,22.639999389648438,21.40999984741211,22.309999465942383,15.607826232910156,98015800.0
2010-09-01,22.549999237060547,23.280000686645508,22.3700008392334,22.969999313354492,16.06955337524414,57177700.0
2010-09-21,,,,,,
2010-10-01,23.1200008392334,24.079999923706055,23.020000457763672,23.860000610351562,16.876707077026367,50436600.0
2010-11-01,23.969999313354492,24.360000610351562,23.170000076293945,23.5,16.622072219848633,45942500.0
2010-12-01,23.739999771118164,23.889999389648438,23.200000762939453,23.549999237060547,16.657434463500977,48213400.0
2010-12-21,,,,,,
2011-01-01,23.670000076293945,24.139999389648438,23.260000228881836,23.56999969482422,16.85101318359375,44040200.0
2011-02-01,23.68000030517578,24.0,23.399999618530273,23.940000534057617,17.115543365478516,31636300.0
2011-03-01,24.09000015258789,24.670000076293945,23.170000076293945,23.889999389648438,17.079792022705078,69896300.0
2011-03-22,,,,,,
2011-04-01,24.0,24.3700008392334,23.3799991607666,24.329999923706055,17.582134246826172,39214800.0
2011-05-01,24.399999618530273,25.389999389648438,24.100000381469727,24.739999771118164,17.878421783447266,50294800.0
2011-06-01,24.739999771118164,24.780000686645508,23.739999771118164,24.299999237060547,17.560455322265625,46543900.0
2011-06-21,,,,,,
2011-07-01,24.31999969482422,24.75,23.65999984741211,24.0,17.52892303466797,40255500.0
2011-08-01,24.170000076293945,24.719999313354492,21.200000762939453,24.670000076293945,18.01827621459961,96830400.0
2011-09-01,24.709999084472656,25.600000381469727,23.549999237060547,24.690000534057617,18.032882690429688,81242200.0
2011-09-20,,,,,,
2011-10-01,24.639999389648438,26.329999923706055,23.479999542236328,25.850000381469727,19.0770206451416,59852000.0
2011-11-01,25.3700008392334,26.360000610351562,24.81999969482422,26.290000915527344,19.401731491088867,47029900.0
2011-12-01,26.34000015258789,27.780000686645508,25.59000015258789,27.639999389648438,20.39801025390625,54258700.0
2011-12-22,,,,,,
2012-01-01,27.889999389648438,27.93000030517578,26.15999984741211,26.600000381469727,19.818286895751953,60010200.0
2012-02-01,26.719999313354492,26.809999465942383,26.1299991607666,26.489999771118164,19.736343383789062,48416700.0
2012-03-01,26.479999542236328,27.25,25.920000076293945,26.469999313354492,19.721435546875,65824300.0
2012-03-20,,,,,,
2012-04-01,26.360000610351562,27.1299991607666,25.889999389648438,27.059999465942383,20.36285972595215,51327700.0
2012-05-01,27.079999923706055,28.1200008392334,26.75,28.020000457763672,21.085264205932617,55823000.0
2012-06-01,27.760000228881836,29.1200008392334,27.6200008392334,28.40999984741211,21.37874412536621,86310000.0
2012-06-19,,,,,,
2012-07-01,28.360000610351562,29.700000762939453,28.34000015258789,29.299999237060547,22.255537033081055,48524400.0
2012-08-01,29.299999237060547,29.920000076293945,27.6299991607666,27.889999389648438,21.184545516967773,38444700.0
2012-09-01,27.860000610351562,28.389999389648438,27.25,27.709999084472656,21.047813415527344,48860000.0
2012-09-18,,,,,,
2012-10-01,27.56999969482422,28.329999923706055,27.399999618530273,28.25,21.668048858642578,31513000.0
2012-11-01,28.34000015258789,28.34000015258789,25.84000015258789,27.049999237060547,20.74764060974121,47257900.0
2012-12-01,27.09000015258789,27.65999984741211,26.09000015258789,26.709999084472656,20.48685646057129,47005200.0
2012-12-24,,,,,,
2013-01-01,27.030000686645508,27.799999237060547,26.770000457763672,27.780000686645508,21.521106719970703,55001100.0
2013-02-01,27.899999618530273,28.81999969482422,27.59000015258789,28.700000762939453,22.233835220336914,48515700.0
2013-03-01,28.6200008392334,29.739999771118164,28.40999984741211,29.700000762939453,23.008525848388672,81735700.0
2013-03-19,,,,,,
2013-04-01,29.719999313354492,31.790000915527344,29.469999313354492,31.790000915527344,24.85990333557129,48149900.0
2013-05-01,31.700000762939453,31.770000457763672,28.329999923706055,28.719999313354492,22.45914649963379,63360200.0
2013-06-01,28.719999313354492,29.739999771118164,27.3799991607666,28.34000015258789,22.1619873046875,105260600.0
2013-06-18,,,,,,
2013-07-01,28.3799991607666,30.309999465942383,27.760000228881836,29.950000762939453,23.645599365234375,54007900.0
2013-08-01,30.079999923706055,30.40999984741211,27.280000686645508,27.920000076293945,22.042909622192383,61896700.0
2013-09-01,28.059999465942383,28.350000381469727,26.899999618530273,27.610000610351562,21.798160552978516,100306600.0
2013-09-17,,,,,,
2013-10-01,27.68000030517578,29.399999618530273,27.139999389648438,28.860000610351562,23.020282745361328,61552900.0
2013-11-01,28.950000762939453,29.1200008392334,27.90999984741211,28.020000457763672,22.350257873535156,65436600.0
2013-12-01,28.09000015258789,28.559999465942383,27.510000228881836,27.940000534057617,22.286449432373047,87079500.0
2013-12-23,,,,,,
2013-12-24,,,,,,
2014-01-01,27.90999984741211,29.020000457763672,27.270000457763672,28.90999984741211,23.525426864624023,61821800.0
2014-02-01,28.940000534057617,30.329999923706055,28.209999084472656,30.290000915527344,24.648401260375977,44013600.0
2014-03-01,30.200000762939453,30.770000457763672,29.399999618530273,30.360000610351562,24.705364227294922,62361000.0
2014-03-18,,,,,,
2014-04-01,30.389999389648438,32.18000030517578,30.100000381469727,31.8700008392334,26.189800262451172,57786100.0
2014-05-01,31.809999465942383,32.369998931884766,29.829999923706055,30.760000228881836,25.277637481689453,57639500.0
2014-06-01,30.690000534057617,32.290000915527344,30.049999237060547,32.22999954223633,26.485637664794922,49846800.0
2014-06-17,,,,,,
2014-07-01,32.16999816894531,32.2599983215332,30.729999542236328,30.799999237060547,25.558563232421875,46563500.0
2014-08-01,30.729999542236328,32.060001373291016,29.600000381469727,32.04999923706055,26.595840454101562,44780700.0
2014-09-01,32.02000045776367,32.47999954223633,30.1200008392334,30.399999618530273,25.226634979248047,48235500.0
2014-09-16,,,,,,
2014-10-01,30.739999771118164,33.7599983215332,30.18000030517578,33.470001220703125,28.042720794677734,92842500.0
2014-11-01,33.619998931884766,34.099998474121094,32.95000076293945,33.939998626708984,28.43650245666504,57369600.0
2014-12-01,33.560001373291016,37.58000183105469,33.4900016784668,35.91999816894531,30.09543800354004,67374400.0
2014-12-23,,,,,,
2015-01-01,36.02000045776367,38.349998474121094,35.599998474121094,37.529998779296875,31.71122169494629,52473000.0
2015-02-01,37.560001373291016,37.84000015258789,34.599998474121094,35.279998779296875,29.81007194519043,76438900.0
2015-03-01,35.25,35.38999938964844,33.40999984741211,34.810001373291016,29.412940979003906,85252200.0
2015-03-13,,,,,,
2015-04-01,34.619998931884766,35.349998474121094,33.5099983215332,33.90999984741211,28.921125411987305,48406100.0
2015-05-01,33.88999938964844,34.849998474121094,32.709999084472656,34.04999923706055,29.0405330657959,64432800.0
2015-06-01,34.13999938964844,34.29999923706055,31.760000228881836,32.18000030517578,27.445646286010742,72133500.0
2015-06-16,,,,,,
2015-07-01,32.22999954223633,35.150001525878906,32.119998931884766,34.66999816894531,29.863353729248047,61180000.0
2015-08-01,34.689998626708984,36.47999954223633,32.83000183105469,33.72999954223633,29.05367660522461,71775900.0
2015-09-01,33.33000183105469,35.45000076293945,32.43000030517578,35.40999984741211,30.500762939453125,78638500.0
2015-09-15,,,,,,
2015-10-01,35.41999816894531,37.25,34.63999938964844,35.630001068115234,30.989315032958984,70257500.0
2015-11-01,35.66999816894531,36.31999969482422,34.33000183105469,35.65999984741211,31.015405654907227,65962200.0
2015-12-01,35.79999923706055,36.720001220703125,34.33000183105469,35.90999984741211,31.232847213745117,85409700.0
2015-12-22,,,,,,
2016-01-01,35.61000061035156,38.2599983215332,35.189998626708984,38.220001220703125,33.54512023925781,76141700.0
2016-02-01,38.09000015258789,40.41999816894531,36.25,39.540000915527344,34.703670501708984,91927000.0
2016-03-01,39.66999816894531,41.849998474121094,38.2599983215332,41.81999969482422,36.70479202270508,71831700.0
2016-03-11,,,,,,
2016-04-01,41.689998626708984,42.040000915527344,38.43000030517578,40.029998779296875,35.429412841796875,72429000.0
2016-05-01,40.2400016784668,41.97999954223633,39.689998626708984,41.369998931884766,36.61540603637695,63614100.0
2016-06-01,41.31999969482422,44.779998779296875,40.9900016784668,44.779998779296875,39.633506774902344,69417900.0
2016-06-14,,,,,,
2016-07-01,45.0,45.41999816894531,43.099998474121094,43.97999954223633,39.23780822753906,63120200.0
2016-08-01,43.849998474121094,44.130001068115234,41.06999969482422,41.36000061035156,36.90031814575195,63772400.0
2016-09-01,41.33000183105469,43.4900016784668,40.34000015258789,41.13999938964844,36.70403289794922,70517600.0
2016-09-13,,,,,,
2016-10-01,41.04999923706055,41.79999923706055,39.08000183105469,41.54999923706055,37.37663269042969,64348500.0
2016-11-01,41.56999969482422,41.75,38.0,39.0099983215332,35.091758728027344,67724200.0
2016-12-01,38.790000915527344,41.20000076293945,38.220001220703125,40.70000076293945,36.61201477050781,48345900.0
2016-12-22,,,,,,
2017-01-01,40.7400016784668,41.43000030517578,40.040000915527344,41.31999969482422,37.481231689453125,46238600.0
2017-02-01,40.97999954223633,43.81999969482422,40.43000030517578,43.709999084472656,39.649200439453125,47923000.0
2017-03-01,43.04999923706055,45.060001373291016,42.93000030517578,44.45000076293945,40.32045364379883,62791900.0
2017-03-13,,,,,,
2017-04-01,44.400001525878906,45.439998626708984,44.0,45.04999923706055,41.20572280883789,43580300.0
2017-05-01,45.060001373291016,48.0099983215332,44.470001220703125,47.90999984741211,43.82167434692383,51196300.0
2017-06-01,47.880001068115234,48.5,45.790000915527344,45.880001068115234,41.96489715576172,60340900.0
2017-06-13,,,,,,
2017-07-01,46.029998779296875,47.70000076293945,45.18000030517578,47.310001373291016,43.6055908203125,57827300.0
2017-08-01,47.310001373291016,49.70000076293945,47.18000030517578,49.5,45.62412643432617,46747000.0
2017-09-01,49.54999923706055,50.560001373291016,46.689998626708984,47.31999969482422,43.614810943603516,56723400.0
2017-09-14,,,,,,
2017-10-01,47.470001220703125,49.83000183105469,46.86000061035156,49.52000045776367,45.97925567626953,60736400.0
2017-11-01,49.65999984741211,52.220001220703125,48.93000030517578,51.61000061035156,47.9198112487793,65152500.0
2017-12-01,51.70000076293945,51.84000015258789,47.529998779296875,48.11000061035156,44.67007827758789,61941600.0
2017-12-27,,,,,,
2018-01-01,48.220001220703125,48.36000061035156,44.7400016784668,45.63999938964844,42.69804763793945,70726900.0
2018-02-01,45.66999816894531,45.779998779296875,41.5099983215332,43.279998779296875,40.490177154541016,77998200.0
2018-03-01,43.290000915527344,45.869998931884766,42.56999969482422,45.47999954223633,42.548370361328125,85811000.0
2018-03-14,,,,,,
2018-04-01,45.599998474121094,47.380001068115234,43.93000030517578,46.84000015258789,44.206790924072266,67266400.0
2018-05-01,46.849998474121094,46.93000030517578,43.279998779296875,45.52000045776367,42.96099853515625,58851900.0
2018-06-01,45.61000061035156,46.2400016784668,41.9900016784668,45.68000030517578,43.112003326416016,70886700.0
2018-06-14,,,,,,
2018-07-01,45.84000015258789,47.150001525878906,44.540000915527344,46.86000061035156,44.624656677246094,63540000.0
2018-08-01,46.540000915527344,48.720001220703125,45.869998931884766,48.04999923706055,45.75789260864258,71219600.0
2018-09-01,48.34000015258789,49.4900016784668,46.0099983215332,47.209999084472656,44.95796585083008,67007600.0
2018-09-13,,,,,,
2018-10-01,46.970001220703125,50.529998779296875,46.52000045776367,49.0099983215332,47.03997802734375,79449000.0
2018-11-01,49.06999969482422,52.4900016784668,47.439998626708984,52.45000076293945,50.341705322265625,114050100.0
2018-12-01,52.220001220703125,54.11000061035156,48.15999984741211,49.27000045776367,47.289527893066406,99331000.0
2018-12-27,,,,,,
2019-01-01,49.15999984741211,52.58000183105469,47.70000076293945,52.36000061035156,50.64362716674805,82356900.0
2019-02-01,52.27000045776367,55.36000061035156,51.529998779296875,54.86000061035156,53.061683654785156,62691600.0
2019-03-01,54.869998931884766,57.5099983215332,54.290000915527344,56.209999084472656,54.36742401123047,72269500.0
2019-03-14,,,,,,
2019-04-01,56.25,56.709999084472656,54.459999084472656,56.5,55.041419982910156,60972100.0
2019-05-01,56.189998626708984,59.619998931884766,55.2599983215332,57.34000015258789,55.859737396240234,61529400.0
2019-06-01,57.650001525878906,61.970001220703125,56.369998931884766,59.4900016784668,57.95423126220703,64082000.0
2019-06-13,,,,,,
2019-07-01,59.70000076293945,62.029998779296875,58.79999923706055,59.61000061035156,58.4689826965332,63514400.0
2019-08-01,58.900001525878906,64.91000366210938,58.7400016784668,64.22000122070312,62.99074172973633,72794600.0
2019-09-01,64.33999633789062,66.05000305175781,62.189998626708984,64.88999938964844,63.64791488647461,73721200.0
2019-09-12,,,,,,
2019-10-01,64.75,65.13999938964844,62.18000030517578,63.5099983215332,62.695777893066406,71763200.0
2019-11-01,63.459999084472656,63.86000061035156,59.459999084472656,61.4900016784668,60.70167541503906,64405400.0
2019-12-01,61.279998779296875,64.66999816894531,60.849998474121094,63.4900016784668,62.67603302001953,56837100.0
2019-12-24,,,,,,
2020-01-01,63.54999923706055,69.62000274658203,61.970001220703125,69.19000244140625,68.7447509765625,61710500.0
2020-02-01,69.6500015258789,72.13999938964844,61.25,62.31999969482422,61.9189567565918,62140900.0
2020-03-01,62.220001220703125,70.68000030517578,46.58000183105469,55.54999923706055,55.19252395629883,121219200.0
2020-03-12,,,,,,
2020-03-26,53.34000015258789,58.060001373291016,54.939998626708984,57.880001068115234,57.880001068115234,2923718.0
